%!PS-Adobe-2.0 EPSF-2.0
%%Title: repeating_conn_298847877_3099768885.eps
%%Creator: gnuplot 4.6 patchlevel 2
%%CreationDate: Sun Apr  6 23:14:01 2014
%%DocumentFonts: (atend)
%%BoundingBox: 50 50 770 554
%%EndComments
%%BeginProlog
/gnudict 256 dict def
gnudict begin
%
% The following true/false flags may be edited by hand if desired.
% The unit line width and grayscale image gamma correction may also be changed.
%
/Color true def
/Blacktext false def
/Solid false def
/Dashlength 1 def
/Landscape false def
/Level1 false def
/Rounded false def
/ClipToBoundingBox false def
/SuppressPDFMark false def
/TransparentPatterns false def
/gnulinewidth 5.000 def
/userlinewidth gnulinewidth def
/Gamma 1.0 def
/BackgroundColor {-1.000 -1.000 -1.000} def
%
/vshift -66 def
/dl1 {
  10.0 Dashlength mul mul
  Rounded { currentlinewidth 0.75 mul sub dup 0 le { pop 0.01 } if } if
} def
/dl2 {
  10.0 Dashlength mul mul
  Rounded { currentlinewidth 0.75 mul add } if
} def
/hpt_ 31.5 def
/vpt_ 31.5 def
/hpt hpt_ def
/vpt vpt_ def
/doclip {
  ClipToBoundingBox {
    newpath 50 50 moveto 770 50 lineto 770 554 lineto 50 554 lineto closepath
    clip
  } if
} def
%
% Gnuplot Prolog Version 4.6 (September 2012)
%
%/SuppressPDFMark true def
%
/M {moveto} bind def
/L {lineto} bind def
/R {rmoveto} bind def
/V {rlineto} bind def
/N {newpath moveto} bind def
/Z {closepath} bind def
/C {setrgbcolor} bind def
/f {rlineto fill} bind def
/g {setgray} bind def
/Gshow {show} def   % May be redefined later in the file to support UTF-8
/vpt2 vpt 2 mul def
/hpt2 hpt 2 mul def
/Lshow {currentpoint stroke M 0 vshift R 
	Blacktext {gsave 0 setgray show grestore} {show} ifelse} def
/Rshow {currentpoint stroke M dup stringwidth pop neg vshift R
	Blacktext {gsave 0 setgray show grestore} {show} ifelse} def
/Cshow {currentpoint stroke M dup stringwidth pop -2 div vshift R 
	Blacktext {gsave 0 setgray show grestore} {show} ifelse} def
/UP {dup vpt_ mul /vpt exch def hpt_ mul /hpt exch def
  /hpt2 hpt 2 mul def /vpt2 vpt 2 mul def} def
/DL {Color {setrgbcolor Solid {pop []} if 0 setdash}
 {pop pop pop 0 setgray Solid {pop []} if 0 setdash} ifelse} def
/BL {stroke userlinewidth 2 mul setlinewidth
	Rounded {1 setlinejoin 1 setlinecap} if} def
/AL {stroke userlinewidth 2 div setlinewidth
	Rounded {1 setlinejoin 1 setlinecap} if} def
/UL {dup gnulinewidth mul /userlinewidth exch def
	dup 1 lt {pop 1} if 10 mul /udl exch def} def
/PL {stroke userlinewidth setlinewidth
	Rounded {1 setlinejoin 1 setlinecap} if} def
3.8 setmiterlimit
% Default Line colors
/LCw {1 1 1} def
/LCb {0 0 0} def
/LCa {0 0 0} def
/LC0 {1 0 0} def
/LC1 {0 1 0} def
/LC2 {0 0 1} def
/LC3 {1 0 1} def
/LC4 {0 1 1} def
/LC5 {1 1 0} def
/LC6 {0 0 0} def
/LC7 {1 0.3 0} def
/LC8 {0.5 0.5 0.5} def
% Default Line Types
/LTw {PL [] 1 setgray} def
/LTb {BL [] LCb DL} def
/LTa {AL [1 udl mul 2 udl mul] 0 setdash LCa setrgbcolor} def
/LT0 {PL [] LC0 DL} def
/LT1 {PL [4 dl1 2 dl2] LC1 DL} def
/LT2 {PL [2 dl1 3 dl2] LC2 DL} def
/LT3 {PL [1 dl1 1.5 dl2] LC3 DL} def
/LT4 {PL [6 dl1 2 dl2 1 dl1 2 dl2] LC4 DL} def
/LT5 {PL [3 dl1 3 dl2 1 dl1 3 dl2] LC5 DL} def
/LT6 {PL [2 dl1 2 dl2 2 dl1 6 dl2] LC6 DL} def
/LT7 {PL [1 dl1 2 dl2 6 dl1 2 dl2 1 dl1 2 dl2] LC7 DL} def
/LT8 {PL [2 dl1 2 dl2 2 dl1 2 dl2 2 dl1 2 dl2 2 dl1 4 dl2] LC8 DL} def
/Pnt {stroke [] 0 setdash gsave 1 setlinecap M 0 0 V stroke grestore} def
/Dia {stroke [] 0 setdash 2 copy vpt add M
  hpt neg vpt neg V hpt vpt neg V
  hpt vpt V hpt neg vpt V closepath stroke
  Pnt} def
/Pls {stroke [] 0 setdash vpt sub M 0 vpt2 V
  currentpoint stroke M
  hpt neg vpt neg R hpt2 0 V stroke
 } def
/Box {stroke [] 0 setdash 2 copy exch hpt sub exch vpt add M
  0 vpt2 neg V hpt2 0 V 0 vpt2 V
  hpt2 neg 0 V closepath stroke
  Pnt} def
/Crs {stroke [] 0 setdash exch hpt sub exch vpt add M
  hpt2 vpt2 neg V currentpoint stroke M
  hpt2 neg 0 R hpt2 vpt2 V stroke} def
/TriU {stroke [] 0 setdash 2 copy vpt 1.12 mul add M
  hpt neg vpt -1.62 mul V
  hpt 2 mul 0 V
  hpt neg vpt 1.62 mul V closepath stroke
  Pnt} def
/Star {2 copy Pls Crs} def
/BoxF {stroke [] 0 setdash exch hpt sub exch vpt add M
  0 vpt2 neg V hpt2 0 V 0 vpt2 V
  hpt2 neg 0 V closepath fill} def
/TriUF {stroke [] 0 setdash vpt 1.12 mul add M
  hpt neg vpt -1.62 mul V
  hpt 2 mul 0 V
  hpt neg vpt 1.62 mul V closepath fill} def
/TriD {stroke [] 0 setdash 2 copy vpt 1.12 mul sub M
  hpt neg vpt 1.62 mul V
  hpt 2 mul 0 V
  hpt neg vpt -1.62 mul V closepath stroke
  Pnt} def
/TriDF {stroke [] 0 setdash vpt 1.12 mul sub M
  hpt neg vpt 1.62 mul V
  hpt 2 mul 0 V
  hpt neg vpt -1.62 mul V closepath fill} def
/DiaF {stroke [] 0 setdash vpt add M
  hpt neg vpt neg V hpt vpt neg V
  hpt vpt V hpt neg vpt V closepath fill} def
/Pent {stroke [] 0 setdash 2 copy gsave
  translate 0 hpt M 4 {72 rotate 0 hpt L} repeat
  closepath stroke grestore Pnt} def
/PentF {stroke [] 0 setdash gsave
  translate 0 hpt M 4 {72 rotate 0 hpt L} repeat
  closepath fill grestore} def
/Circle {stroke [] 0 setdash 2 copy
  hpt 0 360 arc stroke Pnt} def
/CircleF {stroke [] 0 setdash hpt 0 360 arc fill} def
/C0 {BL [] 0 setdash 2 copy moveto vpt 90 450 arc} bind def
/C1 {BL [] 0 setdash 2 copy moveto
	2 copy vpt 0 90 arc closepath fill
	vpt 0 360 arc closepath} bind def
/C2 {BL [] 0 setdash 2 copy moveto
	2 copy vpt 90 180 arc closepath fill
	vpt 0 360 arc closepath} bind def
/C3 {BL [] 0 setdash 2 copy moveto
	2 copy vpt 0 180 arc closepath fill
	vpt 0 360 arc closepath} bind def
/C4 {BL [] 0 setdash 2 copy moveto
	2 copy vpt 180 270 arc closepath fill
	vpt 0 360 arc closepath} bind def
/C5 {BL [] 0 setdash 2 copy moveto
	2 copy vpt 0 90 arc
	2 copy moveto
	2 copy vpt 180 270 arc closepath fill
	vpt 0 360 arc} bind def
/C6 {BL [] 0 setdash 2 copy moveto
	2 copy vpt 90 270 arc closepath fill
	vpt 0 360 arc closepath} bind def
/C7 {BL [] 0 setdash 2 copy moveto
	2 copy vpt 0 270 arc closepath fill
	vpt 0 360 arc closepath} bind def
/C8 {BL [] 0 setdash 2 copy moveto
	2 copy vpt 270 360 arc closepath fill
	vpt 0 360 arc closepath} bind def
/C9 {BL [] 0 setdash 2 copy moveto
	2 copy vpt 270 450 arc closepath fill
	vpt 0 360 arc closepath} bind def
/C10 {BL [] 0 setdash 2 copy 2 copy moveto vpt 270 360 arc closepath fill
	2 copy moveto
	2 copy vpt 90 180 arc closepath fill
	vpt 0 360 arc closepath} bind def
/C11 {BL [] 0 setdash 2 copy moveto
	2 copy vpt 0 180 arc closepath fill
	2 copy moveto
	2 copy vpt 270 360 arc closepath fill
	vpt 0 360 arc closepath} bind def
/C12 {BL [] 0 setdash 2 copy moveto
	2 copy vpt 180 360 arc closepath fill
	vpt 0 360 arc closepath} bind def
/C13 {BL [] 0 setdash 2 copy moveto
	2 copy vpt 0 90 arc closepath fill
	2 copy moveto
	2 copy vpt 180 360 arc closepath fill
	vpt 0 360 arc closepath} bind def
/C14 {BL [] 0 setdash 2 copy moveto
	2 copy vpt 90 360 arc closepath fill
	vpt 0 360 arc} bind def
/C15 {BL [] 0 setdash 2 copy vpt 0 360 arc closepath fill
	vpt 0 360 arc closepath} bind def
/Rec {newpath 4 2 roll moveto 1 index 0 rlineto 0 exch rlineto
	neg 0 rlineto closepath} bind def
/Square {dup Rec} bind def
/Bsquare {vpt sub exch vpt sub exch vpt2 Square} bind def
/S0 {BL [] 0 setdash 2 copy moveto 0 vpt rlineto BL Bsquare} bind def
/S1 {BL [] 0 setdash 2 copy vpt Square fill Bsquare} bind def
/S2 {BL [] 0 setdash 2 copy exch vpt sub exch vpt Square fill Bsquare} bind def
/S3 {BL [] 0 setdash 2 copy exch vpt sub exch vpt2 vpt Rec fill Bsquare} bind def
/S4 {BL [] 0 setdash 2 copy exch vpt sub exch vpt sub vpt Square fill Bsquare} bind def
/S5 {BL [] 0 setdash 2 copy 2 copy vpt Square fill
	exch vpt sub exch vpt sub vpt Square fill Bsquare} bind def
/S6 {BL [] 0 setdash 2 copy exch vpt sub exch vpt sub vpt vpt2 Rec fill Bsquare} bind def
/S7 {BL [] 0 setdash 2 copy exch vpt sub exch vpt sub vpt vpt2 Rec fill
	2 copy vpt Square fill Bsquare} bind def
/S8 {BL [] 0 setdash 2 copy vpt sub vpt Square fill Bsquare} bind def
/S9 {BL [] 0 setdash 2 copy vpt sub vpt vpt2 Rec fill Bsquare} bind def
/S10 {BL [] 0 setdash 2 copy vpt sub vpt Square fill 2 copy exch vpt sub exch vpt Square fill
	Bsquare} bind def
/S11 {BL [] 0 setdash 2 copy vpt sub vpt Square fill 2 copy exch vpt sub exch vpt2 vpt Rec fill
	Bsquare} bind def
/S12 {BL [] 0 setdash 2 copy exch vpt sub exch vpt sub vpt2 vpt Rec fill Bsquare} bind def
/S13 {BL [] 0 setdash 2 copy exch vpt sub exch vpt sub vpt2 vpt Rec fill
	2 copy vpt Square fill Bsquare} bind def
/S14 {BL [] 0 setdash 2 copy exch vpt sub exch vpt sub vpt2 vpt Rec fill
	2 copy exch vpt sub exch vpt Square fill Bsquare} bind def
/S15 {BL [] 0 setdash 2 copy Bsquare fill Bsquare} bind def
/D0 {gsave translate 45 rotate 0 0 S0 stroke grestore} bind def
/D1 {gsave translate 45 rotate 0 0 S1 stroke grestore} bind def
/D2 {gsave translate 45 rotate 0 0 S2 stroke grestore} bind def
/D3 {gsave translate 45 rotate 0 0 S3 stroke grestore} bind def
/D4 {gsave translate 45 rotate 0 0 S4 stroke grestore} bind def
/D5 {gsave translate 45 rotate 0 0 S5 stroke grestore} bind def
/D6 {gsave translate 45 rotate 0 0 S6 stroke grestore} bind def
/D7 {gsave translate 45 rotate 0 0 S7 stroke grestore} bind def
/D8 {gsave translate 45 rotate 0 0 S8 stroke grestore} bind def
/D9 {gsave translate 45 rotate 0 0 S9 stroke grestore} bind def
/D10 {gsave translate 45 rotate 0 0 S10 stroke grestore} bind def
/D11 {gsave translate 45 rotate 0 0 S11 stroke grestore} bind def
/D12 {gsave translate 45 rotate 0 0 S12 stroke grestore} bind def
/D13 {gsave translate 45 rotate 0 0 S13 stroke grestore} bind def
/D14 {gsave translate 45 rotate 0 0 S14 stroke grestore} bind def
/D15 {gsave translate 45 rotate 0 0 S15 stroke grestore} bind def
/DiaE {stroke [] 0 setdash vpt add M
  hpt neg vpt neg V hpt vpt neg V
  hpt vpt V hpt neg vpt V closepath stroke} def
/BoxE {stroke [] 0 setdash exch hpt sub exch vpt add M
  0 vpt2 neg V hpt2 0 V 0 vpt2 V
  hpt2 neg 0 V closepath stroke} def
/TriUE {stroke [] 0 setdash vpt 1.12 mul add M
  hpt neg vpt -1.62 mul V
  hpt 2 mul 0 V
  hpt neg vpt 1.62 mul V closepath stroke} def
/TriDE {stroke [] 0 setdash vpt 1.12 mul sub M
  hpt neg vpt 1.62 mul V
  hpt 2 mul 0 V
  hpt neg vpt -1.62 mul V closepath stroke} def
/PentE {stroke [] 0 setdash gsave
  translate 0 hpt M 4 {72 rotate 0 hpt L} repeat
  closepath stroke grestore} def
/CircE {stroke [] 0 setdash 
  hpt 0 360 arc stroke} def
/Opaque {gsave closepath 1 setgray fill grestore 0 setgray closepath} def
/DiaW {stroke [] 0 setdash vpt add M
  hpt neg vpt neg V hpt vpt neg V
  hpt vpt V hpt neg vpt V Opaque stroke} def
/BoxW {stroke [] 0 setdash exch hpt sub exch vpt add M
  0 vpt2 neg V hpt2 0 V 0 vpt2 V
  hpt2 neg 0 V Opaque stroke} def
/TriUW {stroke [] 0 setdash vpt 1.12 mul add M
  hpt neg vpt -1.62 mul V
  hpt 2 mul 0 V
  hpt neg vpt 1.62 mul V Opaque stroke} def
/TriDW {stroke [] 0 setdash vpt 1.12 mul sub M
  hpt neg vpt 1.62 mul V
  hpt 2 mul 0 V
  hpt neg vpt -1.62 mul V Opaque stroke} def
/PentW {stroke [] 0 setdash gsave
  translate 0 hpt M 4 {72 rotate 0 hpt L} repeat
  Opaque stroke grestore} def
/CircW {stroke [] 0 setdash 
  hpt 0 360 arc Opaque stroke} def
/BoxFill {gsave Rec 1 setgray fill grestore} def
/Density {
  /Fillden exch def
  currentrgbcolor
  /ColB exch def /ColG exch def /ColR exch def
  /ColR ColR Fillden mul Fillden sub 1 add def
  /ColG ColG Fillden mul Fillden sub 1 add def
  /ColB ColB Fillden mul Fillden sub 1 add def
  ColR ColG ColB setrgbcolor} def
/BoxColFill {gsave Rec PolyFill} def
/PolyFill {gsave Density fill grestore grestore} def
/h {rlineto rlineto rlineto gsave closepath fill grestore} bind def
%
% PostScript Level 1 Pattern Fill routine for rectangles
% Usage: x y w h s a XX PatternFill
%	x,y = lower left corner of box to be filled
%	w,h = width and height of box
%	  a = angle in degrees between lines and x-axis
%	 XX = 0/1 for no/yes cross-hatch
%
/PatternFill {gsave /PFa [ 9 2 roll ] def
  PFa 0 get PFa 2 get 2 div add PFa 1 get PFa 3 get 2 div add translate
  PFa 2 get -2 div PFa 3 get -2 div PFa 2 get PFa 3 get Rec
  TransparentPatterns {} {gsave 1 setgray fill grestore} ifelse
  clip
  currentlinewidth 0.5 mul setlinewidth
  /PFs PFa 2 get dup mul PFa 3 get dup mul add sqrt def
  0 0 M PFa 5 get rotate PFs -2 div dup translate
  0 1 PFs PFa 4 get div 1 add floor cvi
	{PFa 4 get mul 0 M 0 PFs V} for
  0 PFa 6 get ne {
	0 1 PFs PFa 4 get div 1 add floor cvi
	{PFa 4 get mul 0 2 1 roll M PFs 0 V} for
 } if
  stroke grestore} def
%
/languagelevel where
 {pop languagelevel} {1} ifelse
 2 lt
	{/InterpretLevel1 true def}
	{/InterpretLevel1 Level1 def}
 ifelse
%
% PostScript level 2 pattern fill definitions
%
/Level2PatternFill {
/Tile8x8 {/PaintType 2 /PatternType 1 /TilingType 1 /BBox [0 0 8 8] /XStep 8 /YStep 8}
	bind def
/KeepColor {currentrgbcolor [/Pattern /DeviceRGB] setcolorspace} bind def
<< Tile8x8
 /PaintProc {0.5 setlinewidth pop 0 0 M 8 8 L 0 8 M 8 0 L stroke} 
>> matrix makepattern
/Pat1 exch def
<< Tile8x8
 /PaintProc {0.5 setlinewidth pop 0 0 M 8 8 L 0 8 M 8 0 L stroke
	0 4 M 4 8 L 8 4 L 4 0 L 0 4 L stroke}
>> matrix makepattern
/Pat2 exch def
<< Tile8x8
 /PaintProc {0.5 setlinewidth pop 0 0 M 0 8 L
	8 8 L 8 0 L 0 0 L fill}
>> matrix makepattern
/Pat3 exch def
<< Tile8x8
 /PaintProc {0.5 setlinewidth pop -4 8 M 8 -4 L
	0 12 M 12 0 L stroke}
>> matrix makepattern
/Pat4 exch def
<< Tile8x8
 /PaintProc {0.5 setlinewidth pop -4 0 M 8 12 L
	0 -4 M 12 8 L stroke}
>> matrix makepattern
/Pat5 exch def
<< Tile8x8
 /PaintProc {0.5 setlinewidth pop -2 8 M 4 -4 L
	0 12 M 8 -4 L 4 12 M 10 0 L stroke}
>> matrix makepattern
/Pat6 exch def
<< Tile8x8
 /PaintProc {0.5 setlinewidth pop -2 0 M 4 12 L
	0 -4 M 8 12 L 4 -4 M 10 8 L stroke}
>> matrix makepattern
/Pat7 exch def
<< Tile8x8
 /PaintProc {0.5 setlinewidth pop 8 -2 M -4 4 L
	12 0 M -4 8 L 12 4 M 0 10 L stroke}
>> matrix makepattern
/Pat8 exch def
<< Tile8x8
 /PaintProc {0.5 setlinewidth pop 0 -2 M 12 4 L
	-4 0 M 12 8 L -4 4 M 8 10 L stroke}
>> matrix makepattern
/Pat9 exch def
/Pattern1 {PatternBgnd KeepColor Pat1 setpattern} bind def
/Pattern2 {PatternBgnd KeepColor Pat2 setpattern} bind def
/Pattern3 {PatternBgnd KeepColor Pat3 setpattern} bind def
/Pattern4 {PatternBgnd KeepColor Landscape {Pat5} {Pat4} ifelse setpattern} bind def
/Pattern5 {PatternBgnd KeepColor Landscape {Pat4} {Pat5} ifelse setpattern} bind def
/Pattern6 {PatternBgnd KeepColor Landscape {Pat9} {Pat6} ifelse setpattern} bind def
/Pattern7 {PatternBgnd KeepColor Landscape {Pat8} {Pat7} ifelse setpattern} bind def
} def
%
%
%End of PostScript Level 2 code
%
/PatternBgnd {
  TransparentPatterns {} {gsave 1 setgray fill grestore} ifelse
} def
%
% Substitute for Level 2 pattern fill codes with
% grayscale if Level 2 support is not selected.
%
/Level1PatternFill {
/Pattern1 {0.250 Density} bind def
/Pattern2 {0.500 Density} bind def
/Pattern3 {0.750 Density} bind def
/Pattern4 {0.125 Density} bind def
/Pattern5 {0.375 Density} bind def
/Pattern6 {0.625 Density} bind def
/Pattern7 {0.875 Density} bind def
} def
%
% Now test for support of Level 2 code
%
Level1 {Level1PatternFill} {Level2PatternFill} ifelse
%
/Symbol-Oblique /Symbol findfont [1 0 .167 1 0 0] makefont
dup length dict begin {1 index /FID eq {pop pop} {def} ifelse} forall
currentdict end definefont pop
/MFshow {
   { dup 5 get 3 ge
     { 5 get 3 eq {gsave} {grestore} ifelse }
     {dup dup 0 get findfont exch 1 get scalefont setfont
     [ currentpoint ] exch dup 2 get 0 exch R dup 5 get 2 ne {dup dup 6
     get exch 4 get {Gshow} {stringwidth pop 0 R} ifelse }if dup 5 get 0 eq
     {dup 3 get {2 get neg 0 exch R pop} {pop aload pop M} ifelse} {dup 5
     get 1 eq {dup 2 get exch dup 3 get exch 6 get stringwidth pop -2 div
     dup 0 R} {dup 6 get stringwidth pop -2 div 0 R 6 get
     show 2 index {aload pop M neg 3 -1 roll neg R pop pop} {pop pop pop
     pop aload pop M} ifelse }ifelse }ifelse }
     ifelse }
   forall} def
/Gswidth {dup type /stringtype eq {stringwidth} {pop (n) stringwidth} ifelse} def
/MFwidth {0 exch { dup 5 get 3 ge { 5 get 3 eq { 0 } { pop } ifelse }
 {dup 3 get{dup dup 0 get findfont exch 1 get scalefont setfont
     6 get Gswidth pop add} {pop} ifelse} ifelse} forall} def
/MLshow { currentpoint stroke M
  0 exch R
  Blacktext {gsave 0 setgray MFshow grestore} {MFshow} ifelse } bind def
/MRshow { currentpoint stroke M
  exch dup MFwidth neg 3 -1 roll R
  Blacktext {gsave 0 setgray MFshow grestore} {MFshow} ifelse } bind def
/MCshow { currentpoint stroke M
  exch dup MFwidth -2 div 3 -1 roll R
  Blacktext {gsave 0 setgray MFshow grestore} {MFshow} ifelse } bind def
/XYsave    { [( ) 1 2 true false 3 ()] } bind def
/XYrestore { [( ) 1 2 true false 4 ()] } bind def
Level1 SuppressPDFMark or 
{} {
/SDict 10 dict def
systemdict /pdfmark known not {
  userdict /pdfmark systemdict /cleartomark get put
} if
SDict begin [
  /Title (repeating_conn_298847877_3099768885.eps)
  /Subject (gnuplot plot)
  /Creator (gnuplot 4.6 patchlevel 2)
  /Author (olgabo)
%  /Producer (gnuplot)
%  /Keywords ()
  /CreationDate (Sun Apr  6 23:14:01 2014)
  /DOCINFO pdfmark
end
} ifelse
end
%%EndProlog
%%Page: 1 1
gnudict begin
gsave
doclip
50 50 translate
0.050 0.050 scale
0 setgray
newpath
(Times) findfont 200 scalefont setfont
BackgroundColor 0 lt 3 1 roll 0 lt exch 0 lt or or not {BackgroundColor C 1.000 0 0 14400.00 10080.00 BoxColFill} if
1.000 UL
LTb
LCb setrgbcolor
1.000 UL
LTa
LCa setrgbcolor
1200 3493 M
12598 0 V
stroke
LTb
LCb setrgbcolor
1200 3493 M
63 0 V
12535 0 R
-63 0 V
stroke
1080 3493 M
[ [(Times) 200.0 0.0 true true 0 ( 0)]
] -66.7 MRshow
1.000 UL
LTb
LCb setrgbcolor
1.000 UL
LTa
LCa setrgbcolor
1200 4086 M
12598 0 V
stroke
LTb
LCb setrgbcolor
1200 4086 M
63 0 V
12535 0 R
-63 0 V
stroke
1080 4086 M
[ [(Times) 200.0 0.0 true true 0 ( 2)]
] -66.7 MRshow
1.000 UL
LTb
LCb setrgbcolor
1.000 UL
LTa
LCa setrgbcolor
1200 4678 M
12598 0 V
stroke
LTb
LCb setrgbcolor
1200 4678 M
63 0 V
12535 0 R
-63 0 V
stroke
1080 4678 M
[ [(Times) 200.0 0.0 true true 0 ( 4)]
] -66.7 MRshow
1.000 UL
LTb
LCb setrgbcolor
1.000 UL
LTa
LCa setrgbcolor
1200 5271 M
12598 0 V
stroke
LTb
LCb setrgbcolor
1200 5271 M
63 0 V
12535 0 R
-63 0 V
stroke
1080 5271 M
[ [(Times) 200.0 0.0 true true 0 ( 6)]
] -66.7 MRshow
1.000 UL
LTb
LCb setrgbcolor
1.000 UL
LTa
LCa setrgbcolor
1200 5864 M
12598 0 V
stroke
LTb
LCb setrgbcolor
1200 5864 M
63 0 V
12535 0 R
-63 0 V
stroke
1080 5864 M
[ [(Times) 200.0 0.0 true true 0 ( 8)]
] -66.7 MRshow
1.000 UL
LTb
LCb setrgbcolor
1.000 UL
LTa
LCa setrgbcolor
1200 6456 M
12598 0 V
stroke
LTb
LCb setrgbcolor
1200 6456 M
63 0 V
12535 0 R
-63 0 V
stroke
1080 6456 M
[ [(Times) 200.0 0.0 true true 0 ( 10)]
] -66.7 MRshow
1.000 UL
LTb
LCb setrgbcolor
1.000 UL
LTa
LCa setrgbcolor
1200 7049 M
12598 0 V
stroke
LTb
LCb setrgbcolor
1200 7049 M
63 0 V
12535 0 R
-63 0 V
stroke
1080 7049 M
[ [(Times) 200.0 0.0 true true 0 ( 12)]
] -66.7 MRshow
1.000 UL
LTb
LCb setrgbcolor
1.000 UL
LTa
LCa setrgbcolor
1200 3493 M
0 3556 V
stroke
LTb
LCb setrgbcolor
1200 3493 M
0 63 V
0 3493 R
0 -63 V
stroke
1200 3373 M
currentpoint gsave translate -45 rotate 0 0 moveto
[ [(Times) 200.0 0.0 true true 0 ( 0)]
] -66.7 MLshow
grestore
1.000 UL
LTb
LCb setrgbcolor
1.000 UL
LTa
LCa setrgbcolor
2775 3493 M
0 3556 V
stroke
LTb
LCb setrgbcolor
2775 3493 M
0 63 V
0 3493 R
0 -63 V
stroke
2775 3373 M
currentpoint gsave translate -45 rotate 0 0 moveto
[ [(Times) 200.0 0.0 true true 0 ( 500)]
] -66.7 MLshow
grestore
1.000 UL
LTb
LCb setrgbcolor
1.000 UL
LTa
LCa setrgbcolor
4350 3493 M
0 3556 V
stroke
LTb
LCb setrgbcolor
4350 3493 M
0 63 V
0 3493 R
0 -63 V
stroke
4350 3373 M
currentpoint gsave translate -45 rotate 0 0 moveto
[ [(Times) 200.0 0.0 true true 0 ( 1000)]
] -66.7 MLshow
grestore
1.000 UL
LTb
LCb setrgbcolor
1.000 UL
LTa
LCa setrgbcolor
5924 3493 M
0 3556 V
stroke
LTb
LCb setrgbcolor
5924 3493 M
0 63 V
0 3493 R
0 -63 V
stroke
5924 3373 M
currentpoint gsave translate -45 rotate 0 0 moveto
[ [(Times) 200.0 0.0 true true 0 ( 1500)]
] -66.7 MLshow
grestore
1.000 UL
LTb
LCb setrgbcolor
1.000 UL
LTa
LCa setrgbcolor
7499 3493 M
0 3556 V
stroke
LTb
LCb setrgbcolor
7499 3493 M
0 63 V
0 3493 R
0 -63 V
stroke
7499 3373 M
currentpoint gsave translate -45 rotate 0 0 moveto
[ [(Times) 200.0 0.0 true true 0 ( 2000)]
] -66.7 MLshow
grestore
1.000 UL
LTb
LCb setrgbcolor
1.000 UL
LTa
LCa setrgbcolor
9074 3493 M
0 3556 V
stroke
LTb
LCb setrgbcolor
9074 3493 M
0 63 V
0 3493 R
0 -63 V
stroke
9074 3373 M
currentpoint gsave translate -45 rotate 0 0 moveto
[ [(Times) 200.0 0.0 true true 0 ( 2500)]
] -66.7 MLshow
grestore
1.000 UL
LTb
LCb setrgbcolor
1.000 UL
LTa
LCa setrgbcolor
10649 3493 M
0 3556 V
stroke
LTb
LCb setrgbcolor
10649 3493 M
0 63 V
0 3493 R
0 -63 V
stroke
10649 3373 M
currentpoint gsave translate -45 rotate 0 0 moveto
[ [(Times) 200.0 0.0 true true 0 ( 3000)]
] -66.7 MLshow
grestore
1.000 UL
LTb
LCb setrgbcolor
1.000 UL
LTa
LCa setrgbcolor
12223 3493 M
0 3556 V
stroke
LTb
LCb setrgbcolor
12223 3493 M
0 63 V
0 3493 R
0 -63 V
stroke
12223 3373 M
currentpoint gsave translate -45 rotate 0 0 moveto
[ [(Times) 200.0 0.0 true true 0 ( 3500)]
] -66.7 MLshow
grestore
1.000 UL
LTb
LCb setrgbcolor
1.000 UL
LTa
LCa setrgbcolor
13798 3493 M
0 3556 V
stroke
LTb
LCb setrgbcolor
13798 3493 M
0 63 V
0 3493 R
0 -63 V
stroke
13798 3373 M
currentpoint gsave translate -45 rotate 0 0 moveto
[ [(Times) 200.0 0.0 true true 0 ( 4000)]
] -66.7 MLshow
grestore
1.000 UL
LTb
LCb setrgbcolor
1.000 UL
LTb
LCb setrgbcolor
1200 7049 N
0 -3556 V
12598 0 V
0 3556 V
-12598 0 V
Z stroke
LCb setrgbcolor
500 5271 M
currentpoint gsave translate -270 rotate 0 0 moveto
[ [(Times) 200.0 0.0 true true 0 (Duration [sec])]
] -66.7 MCshow
grestore
LTb
LCb setrgbcolor
7499 2769 M
[ [(Times) 200.0 0.0 true true 0 (Time [sec])]
] -66.7 MCshow
LTb
7499 7349 M
[ [(Times) 200.0 0.0 true true 0 (src port 80, repeating connections sorted by start time)]
] -66.7 MCshow
1.000 UP
1.000 UL
LTb
LCb setrgbcolor
1.000 UL
LT8
LC8 setrgbcolor
7108 63 N
782 0 V
-782 0 V
Z stroke
% Begin plot #1
1.000 UP
1.000 UL
LT8
0.00 0.00 1.00 C 1200 3580 M
0 164 V
3 -158 V
32 -5 V
12 -1 V
7 139 V
0 -139 V
3 0 V
0 90 V
0 -82 V
3 168 V
0 -176 V
3 1 V
0 -1 V
0 61 V
0 260 V
6 -321 V
3 100 V
4 -99 V
0 22 V
3 -23 V
0 258 V
3 -258 V
0 150 V
3 -149 V
0 69 V
0 -70 V
3 0 V
0 74 V
0 226 V
3 -299 V
0 190 V
10 -187 V
0 -3 V
3 -1 V
0 1 V
0 267 V
3 -135 V
6 -133 V
0 146 V
0 -21 V
0 109 V
4 -190 V
0 -43 V
3 7 V
0 -8 V
3 2 V
3 -2 V
0 350 V
3 -349 V
0 313 V
3 -310 V
0 64 V
0 -10 V
0 263 V
0 -75 V
3 -243 V
0 -3 V
4 170 V
6 -169 V
0 108 V
0 78 V
0 96 V
3 -282 V
3 1 V
0 -2 V
0 271 V
3 -254 V
0 49 V
3 -65 V
0 -1 V
0 220 V
4 -162 V
0 -58 V
3 162 V
3 -162 V
0 1 V
3 2 V
0 89 V
3 100 V
0 59 V
7 -251 V
6 0 V
3 0 V
6 0 V
3 0 V
4 43 V
3 -43 V
0 41 V
0 67 V
3 -108 V
3 168 V
3 -168 V
3 8 V
7 -7 V
0 282 V
3 -282 V
0 239 V
12 -238 V
0 -1 V
4 74 V
3 -75 V
6 7 V
3 321 V
16 2658 V
stroke 1471 6566 M
35 -2983 V
72 7 V
50 27 V
0 152 V
3 -189 V
4 0 V
3 0 V
6 0 V
0 100 V
13 182 V
0 -61 V
3 -221 V
3 253 V
3 -253 V
0 2 V
0 237 V
0 -236 V
0 96 V
3 -99 V
0 6 V
3 0 V
0 140 V
4 -146 V
0 212 V
3 -212 V
3 0 V
3 0 V
3 0 V
0 1 V
3 0 V
3 1 V
4 2 V
0 -4 V
3 2 V
6 -2 V
3 0 V
0 1 V
3 -1 V
0 252 V
0 -155 V
7 49 V
3 -141 V
0 -5 V
0 163 V
6 -163 V
0 28 V
0 -28 V
0 3 V
0 321 V
3 -29 V
3 -295 V
0 203 V
0 74 V
4 -276 V
3 220 V
3 -221 V
0 60 V
3 -60 V
0 1 V
0 10 V
3 -11 V
0 2 V
0 72 V
3 114 V
3 -188 V
0 218 V
7 77 V
3 -295 V
3 8 V
0 251 V
3 -258 V
3 -1 V
0 1 V
0 172 V
4 -173 V
0 1 V
3 82 V
9 -83 V
0 1248 V
3 -1248 V
0 7 V
3 -7 V
0 4 V
0 -4 V
0 1 V
0 322 V
4 -323 V
3 37 V
0 11 V
3 156 V
3 -96 V
3 -108 V
6 0 V
4 0 V
0 1 V
18 -1 V
32 0 V
50 2 V
19 2 V
22 32 V
35 125 V
13 -14 V
3 -60 V
47 -41 V
stroke 2063 3626 M
3 110 V
35 88 V
56 -243 V
16 -1 V
6 3 V
32 -3 V
13 36 V
31 186 V
38 -221 V
6 2 V
19 34 V
6 312 V
0 -41 V
16 -240 V
3 -32 V
0 62 V
41 -62 V
7 0 V
3 237 V
3 -72 V
6 -201 V
0 41 V
3 -41 V
0 6 V
10 45 V
0 87 V
3 -91 V
3 -47 V
3 2 V
10 2 V
0 42 V
3 -1 V
0 -45 V
3 2 V
3 118 V
0 53 V
3 -172 V
7 252 V
3 -248 V
0 -3 V
3 -2 V
3 0 V
0 67 V
0 109 V
3 -141 V
3 -35 V
0 1 V
7 1 V
0 179 V
0 -163 V
0 311 V
3 -329 V
0 1 V
0 -1 V
0 1 V
0 220 V
0 -11 V
3 -209 V
0 -1 V
3 137 V
3 -18 V
3 130 V
7 -249 V
3 1 V
3 -1 V
3 100 V
3 -100 V
3 318 V
3 -318 V
0 2 V
0 227 V
4 -226 V
0 -3 V
3 1 V
0 166 V
6 -167 V
3 4 V
10 105 V
3 -13 V
9 -91 V
7 -3 V
0 221 V
3 -223 V
3 0 V
0 1 V
0 277 V
3 -243 V
3 231 V
10 -240 V
0 63 V
0 -89 V
3 0 V
3 117 V
0 196 V
13 -312 V
6 63 V
16 -14 V
12 -47 V
0 197 V
6 -185 V
0 -14 V
7 -1 V
0 114 V
3 79 V
stroke 2652 3773 M
9 -76 V
0 115 V
4 -227 V
18 -5 V
7 113 V
3 -113 V
6 167 V
6 -29 V
10 -48 V
3 -90 V
6 3 V
4 164 V
12 -14 V
19 -56 V
13 -87 V
6 -10 V
6 165 V
0 -74 V
6 -46 V
4 -44 V
6 0 V
13 325 V
25 -326 V
19 1048 V
6 -724 V
13 -220 V
0 -100 V
0 254 V
12 -258 V
13 5 V
0 246 V
0 -184 V
15 -21 V
16 2381 V
22 -2349 V
48 181 V
9 551 V
13 -810 V
122 108 V
54 -105 V
53 8 V
7 140 V
41 -151 V
25 10 V
6 227 V
44 -3 V
48 -230 V
22 8 V
15 97 V
13 -99 V
3 -10 V
95 43 V
15 -34 V
7 1 V
15 -10 V
16 1 V
44 12 V
10 79 V
66 -91 V
9 1 V
22 -2 V
48 1 V
6 0 V
38 -1 V
28 151 V
9 -151 V
4 1 V
31 2464 V
3 -2465 V
13 4 V
28 -2 V
22 282 V
3 -283 V
7 882 V
72 -880 V
41 -3 V
3 261 V
22 -261 V
10 0 V
25 1 V
38 168 V
6 -27 V
3 -141 V
0 -1 V
16 0 V
9 54 V
0 45 V
13 -99 V
6 0 V
10 194 V
6 -194 V
16 2 V
22 -2 V
19 235 V
3 -122 V
19 179 V
3 -55 V
3 -236 V
9 302 V
32 -260 V
3 90 V
3 130 V
3 -227 V
22 -32 V
stroke 4453 3584 M
0 209 V
4 -206 V
0 170 V
3 71 V
12 -161 V
22 -86 V
10 0 V
3 46 V
9 -45 V
0 -1 V
4 52 V
6 -53 V
38 282 V
9 -5 V
22 -275 V
0 -2 V
32 1 V
12 3 V
0 251 V
47 -139 V
4 -111 V
9 8 V
13 -12 V
75 0 V
3 -1 V
60 0 V
41 114 V
3 -113 V
29 7 V
0 1 V
6 133 V
25 -140 V
7 -2 V
9 86 V
9 -74 V
4 -11 V
66 9 V
0 232 V
6 -242 V
6 0 V
3 0 V
7 4 V
31 28 V
0 338 V
3 -192 V
0 127 V
10 -249 V
0 -56 V
16 248 V
3 -248 V
22 10 V
12 -10 V
7 11 V
9 -11 V
6 3 V
4 239 V
3 -235 V
3 -7 V
3 252 V
6 15 V
13 -142 V
6 55 V
13 -179 V
0 307 V
3 -64 V
16 -244 V
12 12 V
35 -12 V
3 237 V
6 -237 V
7 1 V
15 101 V
4 -101 V
34 0 V
3 304 V
4 -245 V
9 -60 V
19 4 V
9 -4 V
7 1 V
0 267 V
28 -268 V
19 4 V
3 -1 V
19 246 V
9 -232 V
10 -17 V
41 1 V
19 2 V
12 -3 V
0 111 V
3 -17 V
4 -47 V
0 -46 V
3 2 V
3 135 V
31 -87 V
26 210 V
6 -254 V
3 -3 V
0 -1 V
0 161 V
0 172 V
6 -155 V
stroke 5672 3761 M
3 0 V
4 -180 V
0 131 V
0 -2 V
6 -130 V
3 1 V
9 1 V
4 -2 V
3 0 V
3 262 V
0 65 V
3 -327 V
10 3 V
3 -3 V
3 256 V
3 22 V
3 -278 V
0 1 V
0 166 V
6 -165 V
4 -2 V
0 1 V
6 276 V
6 -275 V
0 1 V
3 -1 V
10 -2 V
0 4 V
0 34 V
0 214 V
3 -252 V
0 271 V
6 -271 V
0 14 V
0 245 V
3 -258 V
0 171 V
0 51 V
4 -218 V
0 185 V
3 -134 V
0 -55 V
0 219 V
3 -219 V
0 95 V
0 -95 V
6 -1 V
0 71 V
3 128 V
7 -199 V
0 1 V
0 70 V
3 -70 V
3 1 V
0 -2 V
0 181 V
3 -178 V
0 161 V
0 -19 V
0 144 V
3 -286 V
0 1 V
3 -4 V
0 87 V
0 -72 V
3 66 V
0 167 V
4 -248 V
6 17 V
9 -16 V
4 0 V
0 1 V
0 -2 V
3 118 V
3 -114 V
0 -1 V
3 0 V
3 -3 V
3 1 V
0 -1 V
10 0 V
0 3 V
3 0 V
0 99 V
3 -102 V
3 3 V
6 96 V
32 -98 V
13 275 V
3 -275 V
0 227 V
15 -179 V
4 156 V
12 -205 V
3 0 V
7 3 V
15 -2 V
0 1 V
7 195 V
12 -196 V
0 56 V
3 -56 V
7 0 V
6 316 V
stroke 6025 3897 M
0 -34 V
3 -262 V
13 -20 V
0 311 V
3 -309 V
6 -3 V
3 24 V
13 -24 V
9 6 V
0 229 V
4 -235 V
18 5 V
10 -5 V
3 53 V
3 -40 V
13 -12 V
3 -1 V
6 0 V
10 83 V
3 -78 V
12 62 V
0 -63 V
19 194 V
16 -197 V
3 -1 V
22 1 V
29 -1 V
3 217 V
22 -180 V
142 -37 V
3 0 V
6 13 V
32 230 V
12 -241 V
3 -2 V
10 0 V
3 0 V
3 0 V
6 2 V
0 173 V
3 -174 V
19 -1 V
10 1 V
3 42 V
9 -43 V
4 164 V
22 -164 V
9 205 V
13 -26 V
9 -179 V
16 86 V
6 32 V
54 109 V
37 -225 V
0 -2 V
19 82 V
19 -37 V
7 167 V
3 -212 V
3 0 V
0 4 V
9 -3 V
13 146 V
3 -147 V
19 127 V
3 -125 V
10 -2 V
18 2 V
48 1 V
3 -3 V
3 0 V
9 56 V
29 -56 V
22 0 V
19 5 V
3 276 V
22 -277 V
9 -3 V
4 0 V
3 -1 V
0 5 V
0 268 V
3 15 V
3 -288 V
0 257 V
3 -256 V
3 21 V
0 -16 V
7 -4 V
3 0 V
3 -1 V
0 4 V
0 -5 V
6 1 V
0 219 V
6 -219 V
0 236 V
4 689 V
3 -924 V
0 6 V
0 -8 V
3 269 V
3 -269 V
3 15 V
stroke 7061 3595 M
0 -15 V
0 3 V
3 113 V
4 -113 V
0 3 V
3 -4 V
0 -1 V
0 169 V
0 674 V
3 -842 V
3 -1 V
0 193 V
3 -194 V
3 282 V
3 -46 V
0 70 V
4 -306 V
0 1 V
3 4 V
3 -1 V
3 -3 V
3 0 V
0 -1 V
0 1 V
3 0 V
0 158 V
0 136 V
3 -293 V
4 -2 V
0 91 V
0 51 V
0 190 V
0 -89 V
3 -106 V
0 -136 V
3 133 V
0 -131 V
0 1 V
3 8 V
0 -11 V
0 -1 V
3 3 V
0 -1 V
0 -2 V
3 0 V
4 1 V
0 -1 V
0 212 V
3 -212 V
3 1 V
0 200 V
3 -159 V
0 131 V
0 97 V
3 -269 V
3 65 V
0 -20 V
0 -46 V
0 235 V
3 -192 V
0 26 V
0 197 V
4 -266 V
0 195 V
0 98 V
0 -109 V
0 23 V
3 -207 V
0 200 V
3 -199 V
0 50 V
0 105 V
0 163 V
3 413 V
3 -732 V
3 3 V
0 -3 V
0 20 V
0 -19 V
3 -1 V
0 2 V
0 76 V
0 187 V
4 -73 V
3 -192 V
0 245 V
3 -245 V
0 184 V
0 -183 V
0 2885 V
3 -2886 V
3 0 V
6 0 V
0 12 V
4 -12 V
0 240 V
6 -236 V
0 -3 V
6 -1 V
22 5 V
22 1 V
0 -3 V
19 181 V
3 -26 V
stroke 7275 3738 M
10 -158 V
0 125 V
3 -121 V
13 0 V
3 48 V
0 117 V
3 -169 V
12 1 V
29 2 V
3 0 V
3 62 V
3 -59 V
0 -5 V
7 5 V
12 196 V
13 -178 V
3 -24 V
0 3 V
0 107 V
3 -107 V
6 22 V
0 125 V
0 -131 V
4 79 V
0 71 V
3 -133 V
6 -34 V
3 5 V
0 -4 V
3 126 V
3 -125 V
0 -4 V
0 139 V
7 188 V
3 -327 V
6 85 V
3 -85 V
0 99 V
3 -96 V
4 1 V
0 -4 V
6 123 V
0 41 V
0 50 V
6 -213 V
0 289 V
3 -290 V
0 94 V
0 -90 V
0 284 V
7 -178 V
0 146 V
3 -233 V
0 -19 V
0 -2 V
0 2 V
3 -3 V
0 -1 V
0 3 V
3 91 V
3 209 V
3 -163 V
0 33 V
4 -172 V
0 -1 V
0 3 V
3 -3 V
0 56 V
3 -56 V
0 45 V
3 -44 V
3 -1 V
6 1 V
0 -1 V
4 3 V
3 -1 V
0 218 V
3 -218 V
3 143 V
0 -144 V
0 287 V
3 -288 V
0 98 V
3 122 V
0 -5 V
3 -109 V
4 -102 V
3 -3 V
0 269 V
6 -270 V
6 123 V
0 146 V
4 -250 V
0 -19 V
0 285 V
3 66 V
3 -300 V
0 -32 V
0 -19 V
3 0 V
0 208 V
3 -205 V
0 -3 V
3 0 V
stroke 7568 3580 M
0 162 V
3 16 V
0 -176 V
4 1 V
3 -3 V
0 138 V
6 -138 V
3 212 V
3 -211 V
0 95 V
35 220 V
31 -316 V
19 1 V
38 -1 V
132 0 V
38 95 V
54 -95 V
0 31 V
3 -28 V
3 -2 V
35 14 V
9 -2 V
54 20 V
3 220 V
50 -245 V
16 0 V
6 -8 V
3 184 V
35 -28 V
82 39 V
72 85 V
13 -280 V
13 0 V
12 1 V
7 44 V
6 -45 V
6 -1 V
3 1 V
10 3 V
0 -3 V
0 5 V
0 -4 V
6 0 V
0 -1 V
0 1 V
9 -1 V
4 5 V
6 -5 V
0 161 V
3 -160 V
3 278 V
10 -49 V
0 -185 V
3 203 V
3 -247 V
6 0 V
3 -1 V
4 0 V
6 46 V
3 144 V
3 -80 V
3 -109 V
3 0 V
4 -1 V
6 0 V
6 1 V
3 -1 V
3 159 V
0 -153 V
0 124 V
4 -89 V
3 -41 V
0 170 V
3 -77 V
6 34 V
3 -126 V
0 4 V
4 -4 V
12 0 V
0 -1 V
3 0 V
0 151 V
0 67 V
0 -10 V
3 -207 V
7 -1 V
3 210 V
3 -210 V
0 1 V
0 62 V
0 121 V
6 -181 V
3 2960 V
7 -2705 V
9 -258 V
3 0 V
0 2 V
4 218 V
37 -214 V
284 -6 V
6 3 V
3 -3 V
10 0 V
3 58 V
stroke 8907 3638 M
9 -58 V
7 64 V
3 -64 V
0 45 V
12 115 V
3 -160 V
13 0 V
3 0 V
3 236 V
7 -236 V
0 153 V
0 -40 V
3 1 V
6 -114 V
3 4 V
13 33 V
9 297 V
10 -334 V
0 1 V
9 107 V
7 100 V
12 -208 V
10 0 V
6 38 V
41 -38 V
9 49 V
32 -49 V
6 1 V
3 51 V
3 -40 V
3 52 V
0 -61 V
0 9 V
4 175 V
28 -106 V
0 56 V
3 -132 V
44 -3 V
79 13 V
9 94 V
32 -44 V
6 -46 V
0 277 V
32 -107 V
208 -188 V
0 295 V
12 -296 V
38 4 V
22 130 V
22 -130 V
6 162 V
7 -166 V
0 3 V
25 167 V
195 -92 V
13 -78 V
195 50 V
3 -49 V
117 1 V
60 46 V
0 308 V
50 -357 V
16 1 V
0 112 V
9 -43 V
16 -69 V
25 1 V
0 318 V
16 -214 V
50 126 V
73 -222 V
19 123 V
9 -132 V
22 33 V
3 -32 V
0 2 V
6 0 V
26 -3 V
0 3 V
0 -4 V
0 7 V
9 -3 V
13 0 V
6 0 V
3 -3 V
0 7 V
16 -2 V
19 -3 V
3 2 V
3 -4 V
6 5 V
4 -2 V
6 44 V
3 -43 V
0 7 V
6 -8 V
16 -3 V
16 5 V
22 -2 V
3 2 V
16 -1 V
0 6 V
6 -7 V
13 0 V
stroke 10841 3583 M
12 0 V
3 2 V
0 165 V
4 -170 V
15 3 V
13 40 V
6 112 V
16 43 V
9 -138 V
13 -58 V
6 1 V
0 131 V
3 -126 V
0 132 V
32 -139 V
12 27 V
35 -21 V
3 -4 V
95 0 V
6 5 V
3 28 V
3 -35 V
19 2 V
16 136 V
3 -60 V
3 -75 V
7 268 V
15 -259 V
0 33 V
29 -43 V
3 -3 V
6 4 V
3 1 V
3 0 V
4 -2 V
12 0 V
22 1 V
10 135 V
113 -139 V
13 2 V
12 19 V
29 23 V
25 14 V
28 -58 V
29 0 V
31 4 V
57 -3 V
53 -1 V
0 41 V
3 -41 V
13 60 V
9 -59 V
4 94 V
9 -94 V
50 58 V
13 137 V
16 84 V
6 -279 V
10 0 V
59 2 V
0 2726 V
41 -2490 V
16 -160 V
3 61 V
3 -138 V
0 4 V
0 -2 V
3 43 V
0 96 V
0 -141 V
7 1 V
6 2 V
6 154 V
7 -29 V
19 -40 V
18 14 V
16 -99 V
7 -2 V
6 0 V
3 135 V
3 -135 V
0 80 V
10 -80 V
3 118 V
3 83 V
3 -6 V
6 -195 V
0 2 V
7 -5 V
3 117 V
3 -64 V
0 -53 V
3 4 V
0 -4 V
0 119 V
3 -116 V
10 0 V
0 132 V
0 -17 V
3 -112 V
3 79 V
6 15 V
3 -96 V
0 248 V
stroke 12100 3832 M
0 -67 V
13 92 V
3 -275 V
76 1 V
3 30 V
38 -32 V
9 -1 V
69 3 V
7 92 V
0 59 V
6 7 V
28 -160 V
4 137 V
0 -110 V
6 126 V
6 -151 V
0 137 V
13 -137 V
3 1 V
3 0 V
9 -4 V
19 2 V
32 1 V
63 -3 V
28 1 V
95 0 V
0 -1 V
12 45 V
7 99 V
12 -143 V
0 -1 V
25 232 V
16 -223 V
13 5 V
28 256 V
3 -270 V
16 171 V
0 -30 V
0 148 V
3 -239 V
3 -50 V
7 0 V
3 2 V
0 46 V
6 -45 V
0 2 V
0 -5 V
0 227 V
3 -227 V
3 0 V
0 114 V
0 68 V
0 88 V
3 -164 V
0 -105 V
4 -1 V
3 10 V
0 -10 V
3 0 V
0 228 V
0 19 V
3 -247 V
10 1 V
0 136 V
0 54 V
3 -191 V
0 307 V
3 -307 V
0 2 V
0 -2 V
6 125 V
3 -125 V
3 1 V
0 -1 V
7 0 V
0 3 V
0 -2 V
0 15 V
6 239 V
9 -255 V
0 4 V
4 -4 V
0 222 V
6 -221 V
3 -1 V
3 0 V
0 59 V
0 -59 V
0 -1 V
0 1 V
0 286 V
3 -243 V
3 -42 V
0 -1 V
4 298 V
6 -212 V
3 -41 V
1200 3580 TriUF
1200 3744 TriUF
1203 3586 TriUF
1235 3581 TriUF
1247 3580 TriUF
1254 3719 TriUF
1254 3580 TriUF
1257 3580 TriUF
1257 3670 TriUF
1257 3588 TriUF
1260 3756 TriUF
1260 3580 TriUF
1263 3581 TriUF
1263 3580 TriUF
1263 3641 TriUF
1263 3901 TriUF
1269 3580 TriUF
1272 3680 TriUF
1276 3581 TriUF
1276 3603 TriUF
1279 3580 TriUF
1279 3580 TriUF
1279 3838 TriUF
1282 3580 TriUF
1282 3730 TriUF
1285 3581 TriUF
1285 3650 TriUF
1285 3580 TriUF
1285 3580 TriUF
1288 3580 TriUF
1288 3580 TriUF
1288 3580 TriUF
1288 3654 TriUF
1288 3880 TriUF
1291 3581 TriUF
1291 3581 TriUF
1291 3771 TriUF
1301 3584 TriUF
1301 3581 TriUF
1304 3580 TriUF
1304 3580 TriUF
1304 3581 TriUF
1304 3848 TriUF
1307 3713 TriUF
1313 3580 TriUF
1313 3726 TriUF
1313 3705 TriUF
1313 3814 TriUF
1317 3624 TriUF
1317 3581 TriUF
1320 3588 TriUF
1320 3580 TriUF
1323 3582 TriUF
1326 3580 TriUF
1326 3930 TriUF
1329 3581 TriUF
1329 3894 TriUF
1332 3584 TriUF
1332 3648 TriUF
1332 3638 TriUF
1332 3901 TriUF
1332 3826 TriUF
1335 3583 TriUF
1335 3580 TriUF
1339 3750 TriUF
1345 3581 TriUF
1345 3689 TriUF
1345 3767 TriUF
1345 3863 TriUF
1348 3581 TriUF
1348 3581 TriUF
1351 3582 TriUF
1351 3580 TriUF
1351 3851 TriUF
1354 3597 TriUF
1354 3646 TriUF
1357 3581 TriUF
1357 3580 TriUF
1357 3800 TriUF
1361 3638 TriUF
1361 3580 TriUF
1364 3742 TriUF
1367 3580 TriUF
1367 3581 TriUF
1370 3583 TriUF
1370 3672 TriUF
1373 3772 TriUF
1373 3831 TriUF
1380 3580 TriUF
1386 3580 TriUF
1389 3580 TriUF
1395 3580 TriUF
1398 3580 TriUF
1402 3623 TriUF
1405 3580 TriUF
1405 3621 TriUF
1405 3688 TriUF
1408 3580 TriUF
1411 3748 TriUF
1414 3580 TriUF
1417 3588 TriUF
1424 3581 TriUF
1424 3863 TriUF
1427 3581 TriUF
1427 3820 TriUF
1439 3582 TriUF
1439 3581 TriUF
1443 3655 TriUF
1446 3580 TriUF
1452 3587 TriUF
1455 3908 TriUF
1471 6566 TriUF
1506 3583 TriUF
1578 3590 TriUF
1628 3617 TriUF
1628 3769 TriUF
1631 3580 TriUF
1635 3580 TriUF
1638 3580 TriUF
1644 3580 TriUF
1644 3680 TriUF
1657 3862 TriUF
1657 3801 TriUF
1660 3580 TriUF
1663 3833 TriUF
1666 3580 TriUF
1666 3582 TriUF
1666 3819 TriUF
1666 3583 TriUF
1666 3679 TriUF
1669 3580 TriUF
1669 3586 TriUF
1672 3586 TriUF
1672 3726 TriUF
1676 3580 TriUF
1676 3792 TriUF
1679 3580 TriUF
1682 3580 TriUF
1682 3580 TriUF
1682 3580 TriUF
1682 3580 TriUF
1685 3580 TriUF
1688 3580 TriUF
1688 3581 TriUF
1691 3581 TriUF
1694 3582 TriUF
1698 3584 TriUF
1698 3580 TriUF
1701 3582 TriUF
1707 3580 TriUF
1707 3580 TriUF
1710 3580 TriUF
1710 3581 TriUF
1713 3580 TriUF
1713 3580 TriUF
1713 3832 TriUF
1713 3677 TriUF
1720 3726 TriUF
1723 3585 TriUF
1723 3580 TriUF
1723 3743 TriUF
1729 3580 TriUF
1729 3608 TriUF
1729 3580 TriUF
1729 3583 TriUF
1729 3904 TriUF
1732 3875 TriUF
1735 3580 TriUF
1735 3783 TriUF
1735 3857 TriUF
1739 3581 TriUF
1742 3801 TriUF
1745 3580 TriUF
1745 3640 TriUF
1748 3580 TriUF
1748 3581 TriUF
1748 3591 TriUF
1751 3580 TriUF
1751 3582 TriUF
1751 3654 TriUF
1754 3768 TriUF
1757 3580 TriUF
1757 3798 TriUF
1764 3875 TriUF
1767 3580 TriUF
1770 3588 TriUF
1770 3839 TriUF
1773 3581 TriUF
1776 3580 TriUF
1776 3581 TriUF
1776 3753 TriUF
1780 3580 TriUF
1780 3580 TriUF
1780 3580 TriUF
1780 3580 TriUF
1780 3581 TriUF
1783 3663 TriUF
1792 3580 TriUF
1792 4828 TriUF
1795 3580 TriUF
1795 3580 TriUF
1795 3587 TriUF
1798 3580 TriUF
1798 3584 TriUF
1798 3580 TriUF
1798 3581 TriUF
1798 3903 TriUF
1802 3580 TriUF
1805 3617 TriUF
1805 3628 TriUF
1808 3784 TriUF
1811 3688 TriUF
1814 3580 TriUF
1820 3580 TriUF
1824 3580 TriUF
1824 3581 TriUF
1842 3580 TriUF
1874 3580 TriUF
1924 3582 TriUF
1943 3584 TriUF
1965 3616 TriUF
2000 3741 TriUF
2013 3727 TriUF
2016 3667 TriUF
2063 3626 TriUF
2066 3736 TriUF
2101 3824 TriUF
2157 3581 TriUF
2173 3580 TriUF
2179 3583 TriUF
2211 3580 TriUF
2224 3616 TriUF
2255 3802 TriUF
2293 3581 TriUF
2299 3583 TriUF
2318 3617 TriUF
2324 3929 TriUF
2324 3888 TriUF
2340 3648 TriUF
2343 3616 TriUF
2343 3678 TriUF
2384 3616 TriUF
2391 3616 TriUF
2394 3853 TriUF
2397 3781 TriUF
2403 3580 TriUF
2403 3580 TriUF
2403 3580 TriUF
2403 3621 TriUF
2406 3580 TriUF
2406 3580 TriUF
2406 3586 TriUF
2416 3631 TriUF
2416 3718 TriUF
2419 3627 TriUF
2422 3580 TriUF
2425 3582 TriUF
2435 3584 TriUF
2435 3626 TriUF
2438 3625 TriUF
2438 3580 TriUF
2441 3582 TriUF
2444 3700 TriUF
2444 3753 TriUF
2447 3581 TriUF
2447 3581 TriUF
2454 3833 TriUF
2457 3585 TriUF
2457 3582 TriUF
2460 3580 TriUF
2463 3580 TriUF
2463 3647 TriUF
2463 3756 TriUF
2466 3615 TriUF
2469 3580 TriUF
2469 3581 TriUF
2476 3582 TriUF
2476 3761 TriUF
2476 3598 TriUF
2476 3909 TriUF
2479 3580 TriUF
2479 3581 TriUF
2479 3580 TriUF
2479 3581 TriUF
2479 3801 TriUF
2479 3790 TriUF
2482 3581 TriUF
2482 3580 TriUF
2482 3580 TriUF
2485 3717 TriUF
2488 3699 TriUF
2491 3829 TriUF
2498 3580 TriUF
2501 3581 TriUF
2504 3580 TriUF
2507 3680 TriUF
2510 3580 TriUF
2513 3898 TriUF
2516 3580 TriUF
2516 3582 TriUF
2516 3809 TriUF
2520 3583 TriUF
2520 3580 TriUF
2523 3581 TriUF
2523 3747 TriUF
2529 3580 TriUF
2529 3580 TriUF
2532 3584 TriUF
2542 3689 TriUF
2545 3676 TriUF
2554 3585 TriUF
2561 3582 TriUF
2561 3803 TriUF
2564 3580 TriUF
2567 3580 TriUF
2567 3581 TriUF
2567 3858 TriUF
2570 3615 TriUF
2573 3846 TriUF
2583 3606 TriUF
2583 3669 TriUF
2583 3580 TriUF
2586 3580 TriUF
2589 3697 TriUF
2589 3893 TriUF
2602 3581 TriUF
2608 3644 TriUF
2624 3630 TriUF
2636 3583 TriUF
2636 3780 TriUF
2642 3595 TriUF
2642 3581 TriUF
2649 3580 TriUF
2649 3694 TriUF
2652 3773 TriUF
2661 3697 TriUF
2661 3812 TriUF
2665 3585 TriUF
2683 3580 TriUF
2690 3693 TriUF
2693 3580 TriUF
2699 3747 TriUF
2705 3718 TriUF
2715 3670 TriUF
2718 3580 TriUF
2724 3583 TriUF
2728 3747 TriUF
2740 3733 TriUF
2759 3677 TriUF
2772 3590 TriUF
2778 3580 TriUF
2784 3745 TriUF
2784 3671 TriUF
2790 3625 TriUF
2794 3581 TriUF
2800 3581 TriUF
2813 3906 TriUF
2838 3580 TriUF
2857 4628 TriUF
2863 3904 TriUF
2876 3684 TriUF
2876 3584 TriUF
2876 3838 TriUF
2888 3580 TriUF
2901 3585 TriUF
2901 3831 TriUF
2901 3647 TriUF
2916 3626 TriUF
2932 6007 TriUF
2954 3658 TriUF
3002 3839 TriUF
3011 4390 TriUF
3024 3580 TriUF
3146 3688 TriUF
3200 3583 TriUF
3253 3591 TriUF
3260 3731 TriUF
3301 3580 TriUF
3326 3590 TriUF
3332 3817 TriUF
3376 3814 TriUF
3424 3584 TriUF
3446 3592 TriUF
3461 3689 TriUF
3474 3590 TriUF
3477 3580 TriUF
3572 3623 TriUF
3587 3589 TriUF
3594 3590 TriUF
3609 3580 TriUF
3625 3581 TriUF
3669 3593 TriUF
3679 3672 TriUF
3745 3581 TriUF
3754 3582 TriUF
3776 3580 TriUF
3824 3581 TriUF
3830 3581 TriUF
3868 3580 TriUF
3896 3731 TriUF
3905 3580 TriUF
3909 3581 TriUF
3940 6045 TriUF
3943 3580 TriUF
3956 3584 TriUF
3984 3582 TriUF
4006 3864 TriUF
4009 3581 TriUF
4016 4463 TriUF
4088 3583 TriUF
4129 3580 TriUF
4132 3841 TriUF
4154 3580 TriUF
4164 3580 TriUF
4189 3581 TriUF
4227 3749 TriUF
4233 3722 TriUF
4236 3581 TriUF
4236 3580 TriUF
4252 3580 TriUF
4261 3634 TriUF
4261 3679 TriUF
4274 3580 TriUF
4280 3580 TriUF
4290 3774 TriUF
4296 3580 TriUF
4312 3582 TriUF
4334 3580 TriUF
4353 3815 TriUF
4356 3693 TriUF
4375 3872 TriUF
4378 3817 TriUF
4381 3581 TriUF
4390 3883 TriUF
4422 3623 TriUF
4425 3713 TriUF
4428 3843 TriUF
4431 3616 TriUF
4453 3584 TriUF
4453 3793 TriUF
4457 3587 TriUF
4457 3757 TriUF
4460 3828 TriUF
4472 3667 TriUF
4494 3581 TriUF
4504 3581 TriUF
4507 3627 TriUF
4516 3582 TriUF
4516 3581 TriUF
4520 3633 TriUF
4526 3580 TriUF
4564 3862 TriUF
4573 3857 TriUF
4595 3582 TriUF
4595 3580 TriUF
4627 3581 TriUF
4639 3584 TriUF
4639 3835 TriUF
4686 3696 TriUF
4690 3585 TriUF
4699 3593 TriUF
4712 3581 TriUF
4787 3581 TriUF
4790 3580 TriUF
4850 3580 TriUF
4891 3694 TriUF
4894 3581 TriUF
4923 3588 TriUF
4923 3589 TriUF
4929 3722 TriUF
4954 3582 TriUF
4961 3580 TriUF
4970 3666 TriUF
4979 3592 TriUF
4983 3581 TriUF
5049 3590 TriUF
5049 3822 TriUF
5055 3580 TriUF
5061 3580 TriUF
5064 3580 TriUF
5071 3584 TriUF
5102 3612 TriUF
5102 3950 TriUF
5105 3758 TriUF
5105 3885 TriUF
5115 3636 TriUF
5115 3580 TriUF
5131 3828 TriUF
5134 3580 TriUF
5156 3590 TriUF
5168 3580 TriUF
5175 3591 TriUF
5184 3580 TriUF
5190 3583 TriUF
5194 3822 TriUF
5197 3587 TriUF
5200 3580 TriUF
5203 3832 TriUF
5209 3847 TriUF
5222 3705 TriUF
5228 3760 TriUF
5241 3581 TriUF
5241 3888 TriUF
5244 3824 TriUF
5260 3580 TriUF
5272 3592 TriUF
5307 3580 TriUF
5310 3817 TriUF
5316 3580 TriUF
5323 3581 TriUF
5338 3682 TriUF
5342 3581 TriUF
5376 3581 TriUF
5379 3885 TriUF
5383 3640 TriUF
5392 3580 TriUF
5411 3584 TriUF
5420 3580 TriUF
5427 3581 TriUF
5427 3848 TriUF
5455 3580 TriUF
5474 3584 TriUF
5477 3583 TriUF
5496 3829 TriUF
5505 3597 TriUF
5515 3580 TriUF
5515 3580 TriUF
5556 3581 TriUF
5575 3583 TriUF
5587 3580 TriUF
5587 3691 TriUF
5590 3674 TriUF
5594 3627 TriUF
5594 3581 TriUF
5597 3583 TriUF
5600 3718 TriUF
5631 3631 TriUF
5657 3841 TriUF
5663 3587 TriUF
5666 3584 TriUF
5666 3583 TriUF
5666 3744 TriUF
5666 3916 TriUF
5672 3761 TriUF
5675 3761 TriUF
5679 3581 TriUF
5679 3712 TriUF
5679 3710 TriUF
5685 3580 TriUF
5688 3581 TriUF
5697 3582 TriUF
5701 3580 TriUF
5704 3580 TriUF
5707 3842 TriUF
5707 3907 TriUF
5710 3580 TriUF
5720 3583 TriUF
5723 3580 TriUF
5723 3580 TriUF
5726 3836 TriUF
5729 3858 TriUF
5732 3580 TriUF
5732 3581 TriUF
5732 3747 TriUF
5738 3582 TriUF
5742 3580 TriUF
5742 3581 TriUF
5742 3581 TriUF
5748 3857 TriUF
5754 3582 TriUF
5754 3583 TriUF
5757 3582 TriUF
5767 3580 TriUF
5767 3584 TriUF
5767 3618 TriUF
5767 3832 TriUF
5770 3580 TriUF
5770 3851 TriUF
5776 3580 TriUF
5776 3594 TriUF
5776 3839 TriUF
5779 3581 TriUF
5779 3752 TriUF
5779 3803 TriUF
5783 3585 TriUF
5783 3770 TriUF
5786 3636 TriUF
5786 3581 TriUF
5786 3800 TriUF
5789 3581 TriUF
5789 3676 TriUF
5789 3581 TriUF
5795 3580 TriUF
5795 3651 TriUF
5798 3779 TriUF
5805 3580 TriUF
5805 3581 TriUF
5805 3651 TriUF
5808 3581 TriUF
5808 3581 TriUF
5811 3582 TriUF
5811 3580 TriUF
5811 3761 TriUF
5814 3583 TriUF
5814 3744 TriUF
5814 3725 TriUF
5814 3869 TriUF
5817 3583 TriUF
5817 3584 TriUF
5820 3580 TriUF
5820 3667 TriUF
5820 3595 TriUF
5823 3661 TriUF
5823 3828 TriUF
5827 3580 TriUF
5827 3580 TriUF
5833 3597 TriUF
5842 3581 TriUF
5846 3581 TriUF
5846 3582 TriUF
5846 3580 TriUF
5849 3698 TriUF
5852 3584 TriUF
5852 3583 TriUF
5855 3583 TriUF
5855 3583 TriUF
5858 3580 TriUF
5861 3581 TriUF
5861 3580 TriUF
5871 3580 TriUF
5871 3583 TriUF
5874 3583 TriUF
5874 3682 TriUF
5877 3580 TriUF
5880 3583 TriUF
5886 3679 TriUF
5918 3581 TriUF
5931 3856 TriUF
5934 3581 TriUF
5934 3808 TriUF
5949 3629 TriUF
5953 3785 TriUF
5965 3580 TriUF
5968 3580 TriUF
5975 3583 TriUF
5990 3581 TriUF
5990 3582 TriUF
5997 3777 TriUF
6009 3581 TriUF
6009 3637 TriUF
6012 3581 TriUF
6019 3581 TriUF
6025 3897 TriUF
6025 3863 TriUF
6028 3601 TriUF
6041 3581 TriUF
6041 3892 TriUF
6044 3583 TriUF
6050 3580 TriUF
6053 3604 TriUF
6066 3580 TriUF
6075 3586 TriUF
6075 3815 TriUF
6079 3580 TriUF
6097 3585 TriUF
6107 3580 TriUF
6110 3633 TriUF
6113 3593 TriUF
6126 3581 TriUF
6129 3580 TriUF
6135 3580 TriUF
6145 3663 TriUF
6148 3585 TriUF
6160 3647 TriUF
6160 3584 TriUF
6179 3778 TriUF
6195 3581 TriUF
6198 3580 TriUF
6220 3581 TriUF
6249 3580 TriUF
6252 3797 TriUF
6274 3617 TriUF
6416 3580 TriUF
6419 3580 TriUF
6425 3593 TriUF
6457 3823 TriUF
6469 3582 TriUF
6472 3580 TriUF
6482 3580 TriUF
6485 3580 TriUF
6488 3580 TriUF
6494 3582 TriUF
6494 3755 TriUF
6497 3581 TriUF
6516 3580 TriUF
6526 3581 TriUF
6529 3623 TriUF
6538 3580 TriUF
6542 3744 TriUF
6564 3580 TriUF
6564 3580 TriUF
6564 3580 TriUF
6573 3785 TriUF
6586 3759 TriUF
6595 3580 TriUF
6611 3666 TriUF
6617 3698 TriUF
6671 3807 TriUF
6708 3582 TriUF
6708 3580 TriUF
6727 3662 TriUF
6746 3625 TriUF
6753 3792 TriUF
6756 3580 TriUF
6759 3580 TriUF
6759 3584 TriUF
6768 3581 TriUF
6781 3727 TriUF
6784 3580 TriUF
6803 3707 TriUF
6806 3582 TriUF
6816 3580 TriUF
6834 3582 TriUF
6882 3583 TriUF
6885 3580 TriUF
6888 3580 TriUF
6897 3636 TriUF
6926 3580 TriUF
6948 3580 TriUF
6967 3585 TriUF
6970 3861 TriUF
6992 3584 TriUF
7001 3581 TriUF
7005 3581 TriUF
7008 3580 TriUF
7008 3585 TriUF
7008 3853 TriUF
7011 3868 TriUF
7014 3580 TriUF
7014 3837 TriUF
7017 3581 TriUF
7020 3602 TriUF
7020 3586 TriUF
7027 3582 TriUF
7030 3582 TriUF
7033 3581 TriUF
7033 3585 TriUF
7033 3580 TriUF
7039 3581 TriUF
7039 3800 TriUF
7045 3581 TriUF
7045 3817 TriUF
7049 4506 TriUF
7052 3582 TriUF
7052 3588 TriUF
7052 3580 TriUF
7055 3849 TriUF
7058 3580 TriUF
7061 3595 TriUF
7061 3580 TriUF
7061 3580 TriUF
7061 3583 TriUF
7064 3696 TriUF
7068 3583 TriUF
7068 3586 TriUF
7071 3582 TriUF
7071 3581 TriUF
7071 3581 TriUF
7071 3750 TriUF
7071 4424 TriUF
7074 3582 TriUF
7077 3581 TriUF
7077 3774 TriUF
7080 3580 TriUF
7083 3862 TriUF
7086 3816 TriUF
7086 3886 TriUF
7090 3580 TriUF
7090 3581 TriUF
7093 3585 TriUF
7096 3584 TriUF
7099 3581 TriUF
7102 3581 TriUF
7102 3580 TriUF
7102 3581 TriUF
7105 3581 TriUF
7105 3739 TriUF
7105 3875 TriUF
7108 3582 TriUF
7112 3580 TriUF
7112 3671 TriUF
7112 3722 TriUF
7112 3912 TriUF
7112 3823 TriUF
7115 3717 TriUF
7115 3581 TriUF
7115 3581 TriUF
7118 3714 TriUF
7118 3583 TriUF
7118 3584 TriUF
7121 3592 TriUF
7121 3581 TriUF
7121 3580 TriUF
7124 3583 TriUF
7124 3582 TriUF
7124 3580 TriUF
7124 3580 TriUF
7127 3580 TriUF
7131 3581 TriUF
7131 3580 TriUF
7131 3792 TriUF
7134 3580 TriUF
7137 3581 TriUF
7137 3781 TriUF
7140 3622 TriUF
7140 3753 TriUF
7140 3850 TriUF
7143 3581 TriUF
7146 3646 TriUF
7146 3626 TriUF
7146 3580 TriUF
7146 3815 TriUF
7149 3623 TriUF
7149 3649 TriUF
7149 3846 TriUF
7153 3580 TriUF
7153 3775 TriUF
7153 3873 TriUF
7153 3764 TriUF
7153 3787 TriUF
7156 3580 TriUF
7156 3580 TriUF
7156 3780 TriUF
7159 3581 TriUF
7159 3631 TriUF
7159 3736 TriUF
7159 3899 TriUF
7162 4312 TriUF
7165 3580 TriUF
7165 3580 TriUF
7168 3583 TriUF
7168 3580 TriUF
7168 3600 TriUF
7168 3581 TriUF
7171 3580 TriUF
7171 3582 TriUF
7171 3658 TriUF
7171 3845 TriUF
7175 3772 TriUF
7178 3580 TriUF
7178 3825 TriUF
7181 3580 TriUF
7181 3764 TriUF
7181 3581 TriUF
7181 6466 TriUF
7184 3580 TriUF
7184 3580 TriUF
7184 3580 TriUF
7187 3580 TriUF
7187 3580 TriUF
7193 3580 TriUF
7193 3592 TriUF
7197 3580 TriUF
7197 3820 TriUF
7203 3584 TriUF
7203 3581 TriUF
7209 3580 TriUF
7231 3585 TriUF
7253 3586 TriUF
7253 3583 TriUF
7272 3764 TriUF
7275 3738 TriUF
7285 3580 TriUF
7285 3705 TriUF
7288 3584 TriUF
7301 3584 TriUF
7304 3632 TriUF
7304 3749 TriUF
7307 3580 TriUF
7319 3581 TriUF
7348 3583 TriUF
7351 3583 TriUF
7354 3645 TriUF
7357 3586 TriUF
7357 3581 TriUF
7364 3586 TriUF
7376 3782 TriUF
7389 3604 TriUF
7392 3580 TriUF
7392 3583 TriUF
7392 3690 TriUF
7395 3583 TriUF
7401 3605 TriUF
7401 3730 TriUF
7401 3599 TriUF
7405 3678 TriUF
7405 3749 TriUF
7408 3616 TriUF
7414 3582 TriUF
7417 3587 TriUF
7417 3583 TriUF
7420 3709 TriUF
7423 3584 TriUF
7423 3580 TriUF
7423 3719 TriUF
7430 3907 TriUF
7433 3580 TriUF
7439 3665 TriUF
7442 3580 TriUF
7442 3679 TriUF
7445 3583 TriUF
7449 3584 TriUF
7449 3580 TriUF
7455 3703 TriUF
7455 3744 TriUF
7455 3794 TriUF
7461 3581 TriUF
7461 3870 TriUF
7464 3580 TriUF
7464 3674 TriUF
7464 3584 TriUF
7464 3868 TriUF
7471 3690 TriUF
7471 3836 TriUF
7474 3603 TriUF
7474 3584 TriUF
7474 3582 TriUF
7474 3584 TriUF
7477 3581 TriUF
7477 3580 TriUF
7477 3583 TriUF
7480 3674 TriUF
7483 3883 TriUF
7486 3720 TriUF
7486 3753 TriUF
7490 3581 TriUF
7490 3580 TriUF
7490 3583 TriUF
7493 3580 TriUF
7493 3636 TriUF
7496 3580 TriUF
7496 3580 TriUF
7496 3625 TriUF
7499 3581 TriUF
7499 3581 TriUF
7502 3580 TriUF
7508 3581 TriUF
7508 3581 TriUF
7508 3580 TriUF
7512 3583 TriUF
7515 3582 TriUF
7515 3800 TriUF
7518 3582 TriUF
7518 3582 TriUF
7521 3725 TriUF
7521 3581 TriUF
7521 3868 TriUF
7524 3580 TriUF
7524 3678 TriUF
7527 3800 TriUF
7527 3795 TriUF
7530 3686 TriUF
7534 3584 TriUF
7537 3581 TriUF
7537 3850 TriUF
7543 3580 TriUF
7549 3703 TriUF
7549 3849 TriUF
7553 3599 TriUF
7553 3580 TriUF
7553 3580 TriUF
7553 3865 TriUF
7556 3931 TriUF
7559 3631 TriUF
7559 3599 TriUF
7559 3580 TriUF
7562 3580 TriUF
7562 3788 TriUF
7565 3583 TriUF
7565 3580 TriUF
7568 3580 TriUF
7568 3742 TriUF
7571 3758 TriUF
7571 3582 TriUF
7575 3583 TriUF
7578 3580 TriUF
7578 3718 TriUF
7584 3580 TriUF
7587 3792 TriUF
7590 3581 TriUF
7590 3676 TriUF
7625 3896 TriUF
7656 3580 TriUF
7675 3581 TriUF
7713 3580 TriUF
7845 3580 TriUF
7883 3675 TriUF
7937 3580 TriUF
7937 3611 TriUF
7940 3583 TriUF
7943 3581 TriUF
7978 3595 TriUF
7987 3593 TriUF
8041 3613 TriUF
8044 3833 TriUF
8094 3588 TriUF
8110 3588 TriUF
8116 3580 TriUF
8119 3764 TriUF
8154 3736 TriUF
8236 3775 TriUF
8308 3860 TriUF
8321 3580 TriUF
8334 3580 TriUF
8346 3581 TriUF
8353 3625 TriUF
8359 3580 TriUF
8365 3579 TriUF
8368 3580 TriUF
8378 3583 TriUF
8378 3580 TriUF
8378 3585 TriUF
8378 3581 TriUF
8384 3581 TriUF
8384 3580 TriUF
8384 3581 TriUF
8393 3580 TriUF
8393 3580 TriUF
8393 3580 TriUF
8397 3585 TriUF
8403 3580 TriUF
8403 3741 TriUF
8406 3581 TriUF
8409 3859 TriUF
8419 3810 TriUF
8419 3625 TriUF
8422 3828 TriUF
8425 3581 TriUF
8431 3581 TriUF
8434 3580 TriUF
8438 3580 TriUF
8444 3626 TriUF
8447 3770 TriUF
8450 3690 TriUF
8453 3581 TriUF
8456 3581 TriUF
8460 3580 TriUF
8466 3580 TriUF
8472 3581 TriUF
8475 3580 TriUF
8475 3580 TriUF
8475 3580 TriUF
8478 3739 TriUF
8478 3586 TriUF
8478 3710 TriUF
8482 3621 TriUF
8485 3580 TriUF
8485 3580 TriUF
8485 3750 TriUF
8488 3673 TriUF
8494 3707 TriUF
8497 3581 TriUF
8497 3585 TriUF
8501 3581 TriUF
8513 3581 TriUF
8513 3580 TriUF
8516 3580 TriUF
8516 3731 TriUF
8516 3798 TriUF
8516 3788 TriUF
8519 3581 TriUF
8526 3580 TriUF
8529 3790 TriUF
8532 3580 TriUF
8532 3581 TriUF
8532 3643 TriUF
8532 3764 TriUF
8538 3583 TriUF
8541 6543 TriUF
8548 3838 TriUF
8557 3580 TriUF
8560 3580 TriUF
8560 3582 TriUF
8564 3800 TriUF
8601 3586 TriUF
8885 3580 TriUF
8885 3580 TriUF
8891 3583 TriUF
8894 3580 TriUF
8904 3580 TriUF
8907 3638 TriUF
8916 3580 TriUF
8923 3644 TriUF
8926 3580 TriUF
8926 3625 TriUF
8938 3740 TriUF
8941 3580 TriUF
8954 3580 TriUF
8957 3580 TriUF
8960 3816 TriUF
8967 3580 TriUF
8967 3733 TriUF
8967 3693 TriUF
8970 3694 TriUF
8976 3580 TriUF
8979 3584 TriUF
8992 3617 TriUF
9001 3914 TriUF
9011 3580 TriUF
9011 3580 TriUF
9011 3581 TriUF
9020 3688 TriUF
9027 3788 TriUF
9039 3580 TriUF
9049 3580 TriUF
9049 3580 TriUF
9055 3618 TriUF
9096 3580 TriUF
9105 3629 TriUF
9137 3580 TriUF
9143 3581 TriUF
9146 3632 TriUF
9149 3592 TriUF
9152 3644 TriUF
9152 3583 TriUF
9152 3592 TriUF
9156 3767 TriUF
9184 3661 TriUF
9184 3717 TriUF
9187 3585 TriUF
9231 3582 TriUF
9310 3595 TriUF
9319 3689 TriUF
9351 3645 TriUF
9357 3599 TriUF
9357 3876 TriUF
9389 3769 TriUF
9597 3581 TriUF
9597 3876 TriUF
9609 3580 TriUF
9647 3584 TriUF
9669 3714 TriUF
9691 3584 TriUF
9697 3746 TriUF
9704 3580 TriUF
9704 3583 TriUF
9729 3750 TriUF
9924 3658 TriUF
9937 3580 TriUF
10132 3630 TriUF
10135 3581 TriUF
10252 3582 TriUF
10312 3628 TriUF
10312 3936 TriUF
10362 3579 TriUF
10378 3580 TriUF
10378 3692 TriUF
10387 3649 TriUF
10403 3580 TriUF
10428 3581 TriUF
10428 3899 TriUF
10444 3685 TriUF
10494 3811 TriUF
10567 3589 TriUF
10586 3712 TriUF
10595 3580 TriUF
10617 3613 TriUF
10620 3581 TriUF
10620 3583 TriUF
10626 3583 TriUF
10652 3580 TriUF
10652 3583 TriUF
10652 3579 TriUF
10652 3586 TriUF
10661 3583 TriUF
10661 3583 TriUF
10674 3583 TriUF
10680 3583 TriUF
10683 3580 TriUF
10683 3587 TriUF
10699 3585 TriUF
10718 3582 TriUF
10721 3584 TriUF
10724 3580 TriUF
10730 3585 TriUF
10734 3583 TriUF
10740 3627 TriUF
10743 3584 TriUF
10743 3591 TriUF
10749 3583 TriUF
10765 3580 TriUF
10781 3585 TriUF
10803 3583 TriUF
10806 3585 TriUF
10822 3584 TriUF
10822 3590 TriUF
10828 3583 TriUF
10841 3583 TriUF
10853 3583 TriUF
10856 3585 TriUF
10856 3750 TriUF
10860 3580 TriUF
10875 3583 TriUF
10888 3623 TriUF
10894 3735 TriUF
10910 3778 TriUF
10919 3640 TriUF
10932 3582 TriUF
10938 3583 TriUF
10938 3714 TriUF
10941 3588 TriUF
10941 3720 TriUF
10973 3581 TriUF
10985 3608 TriUF
11020 3587 TriUF
11023 3583 TriUF
11118 3583 TriUF
11124 3588 TriUF
11127 3616 TriUF
11130 3581 TriUF
11149 3583 TriUF
11165 3719 TriUF
11168 3659 TriUF
11171 3584 TriUF
11178 3852 TriUF
11193 3593 TriUF
11193 3626 TriUF
11222 3583 TriUF
11225 3580 TriUF
11231 3584 TriUF
11234 3585 TriUF
11237 3585 TriUF
11241 3583 TriUF
11253 3583 TriUF
11275 3584 TriUF
11285 3719 TriUF
11398 3580 TriUF
11411 3582 TriUF
11423 3601 TriUF
11452 3624 TriUF
11477 3638 TriUF
11505 3580 TriUF
11534 3580 TriUF
11565 3584 TriUF
11622 3581 TriUF
11675 3580 TriUF
11675 3621 TriUF
11678 3580 TriUF
11691 3640 TriUF
11700 3581 TriUF
11704 3675 TriUF
11713 3581 TriUF
11763 3639 TriUF
11776 3776 TriUF
11792 3860 TriUF
11798 3581 TriUF
11808 3581 TriUF
11867 3583 TriUF
11867 6309 TriUF
11908 3819 TriUF
11924 3659 TriUF
11927 3720 TriUF
11930 3582 TriUF
11930 3586 TriUF
11930 3584 TriUF
11933 3627 TriUF
11933 3723 TriUF
11933 3582 TriUF
11940 3583 TriUF
11946 3585 TriUF
11952 3739 TriUF
11959 3710 TriUF
11978 3670 TriUF
11996 3684 TriUF
12012 3585 TriUF
12019 3583 TriUF
12025 3583 TriUF
12028 3718 TriUF
12031 3583 TriUF
12031 3663 TriUF
12041 3583 TriUF
12044 3701 TriUF
12047 3784 TriUF
12050 3778 TriUF
12056 3583 TriUF
12056 3585 TriUF
12063 3580 TriUF
12066 3697 TriUF
12069 3633 TriUF
12069 3580 TriUF
12072 3584 TriUF
12072 3580 TriUF
12072 3699 TriUF
12075 3583 TriUF
12075 3583 TriUF
12085 3583 TriUF
12085 3715 TriUF
12085 3698 TriUF
12088 3586 TriUF
12091 3665 TriUF
12097 3680 TriUF
12100 3584 TriUF
12100 3832 TriUF
12100 3765 TriUF
12113 3857 TriUF
12116 3582 TriUF
12192 3583 TriUF
12195 3613 TriUF
12233 3581 TriUF
12233 3581 TriUF
12242 3580 TriUF
12311 3583 TriUF
12318 3675 TriUF
12318 3734 TriUF
12324 3741 TriUF
12352 3581 TriUF
12356 3718 TriUF
12356 3608 TriUF
12362 3734 TriUF
12368 3583 TriUF
12368 3583 TriUF
12368 3720 TriUF
12381 3583 TriUF
12384 3584 TriUF
12387 3584 TriUF
12396 3580 TriUF
12415 3582 TriUF
12447 3583 TriUF
12510 3580 TriUF
12538 3581 TriUF
12633 3581 TriUF
12633 3580 TriUF
12645 3625 TriUF
12652 3724 TriUF
12664 3581 TriUF
12664 3580 TriUF
12689 3812 TriUF
12705 3589 TriUF
12718 3594 TriUF
12746 3850 TriUF
12749 3580 TriUF
12765 3751 TriUF
12765 3721 TriUF
12765 3869 TriUF
12768 3630 TriUF
12771 3580 TriUF
12778 3580 TriUF
12778 3580 TriUF
12781 3582 TriUF
12781 3628 TriUF
12787 3583 TriUF
12787 3585 TriUF
12787 3580 TriUF
12787 3807 TriUF
12790 3580 TriUF
12793 3580 TriUF
12793 3694 TriUF
12793 3762 TriUF
12793 3850 TriUF
12796 3686 TriUF
12796 3581 TriUF
12800 3580 TriUF
12803 3590 TriUF
12803 3580 TriUF
12803 3580 TriUF
12806 3580 TriUF
12806 3808 TriUF
12806 3827 TriUF
12809 3580 TriUF
12809 3580 TriUF
12809 3580 TriUF
12809 3580 TriUF
12819 3581 TriUF
12819 3717 TriUF
12819 3771 TriUF
12822 3580 TriUF
12822 3887 TriUF
12825 3580 TriUF
12825 3580 TriUF
12825 3582 TriUF
12825 3580 TriUF
12831 3705 TriUF
12834 3580 TriUF
12837 3581 TriUF
12837 3581 TriUF
12837 3580 TriUF
12844 3580 TriUF
12844 3583 TriUF
12844 3581 TriUF
12844 3581 TriUF
12844 3596 TriUF
12850 3835 TriUF
12859 3580 TriUF
12859 3584 TriUF
12863 3580 TriUF
12863 3580 TriUF
12863 3802 TriUF
12869 3581 TriUF
12872 3580 TriUF
12875 3580 TriUF
12875 3639 TriUF
12875 3580 TriUF
12875 3579 TriUF
12875 3580 TriUF
12875 3866 TriUF
12878 3623 TriUF
12881 3581 TriUF
12881 3580 TriUF
12885 3878 TriUF
12891 3666 TriUF
12894 3625 TriUF
% End plot #1
1.000 UL
LTb
LCb setrgbcolor
1200 7049 N
0 -3556 V
12598 0 V
0 3556 V
-12598 0 V
Z stroke
1.000 UP
1.000 UL
LTb
LCb setrgbcolor
stroke
grestore
end
showpage
%%Page: 2 2
gnudict begin
gsave
doclip
50 50 translate
0.050 0.050 scale
0 setgray
newpath
(Times) findfont 200 scalefont setfont
BackgroundColor 0 lt 3 1 roll 0 lt exch 0 lt or or not {BackgroundColor C 1.000 0 0 14400.00 10080.00 BoxColFill} if
1.000 UL
LTb
LCb setrgbcolor
1.000 UL
LTa
LCa setrgbcolor
600 3323 M
12598 0 V
stroke
LTb
LCb setrgbcolor
600 3323 M
63 0 V
12535 0 R
-63 0 V
stroke
480 3323 M
[ [(Times) 200.0 0.0 true true 0 ( 0)]
] -66.7 MRshow
1.000 UL
LTb
LCb setrgbcolor
1.000 UL
LTa
LCa setrgbcolor
600 3696 M
12598 0 V
stroke
LTb
LCb setrgbcolor
600 3696 M
63 0 V
12535 0 R
-63 0 V
stroke
480 3696 M
[ [(Times) 200.0 0.0 true true 0 ( 2000)]
] -66.7 MRshow
1.000 UL
LTb
LCb setrgbcolor
1.000 UL
LTa
LCa setrgbcolor
600 4068 M
12598 0 V
stroke
LTb
LCb setrgbcolor
600 4068 M
63 0 V
12535 0 R
-63 0 V
stroke
480 4068 M
[ [(Times) 200.0 0.0 true true 0 ( 4000)]
] -66.7 MRshow
1.000 UL
LTb
LCb setrgbcolor
1.000 UL
LTa
LCa setrgbcolor
600 4441 M
12598 0 V
stroke
LTb
LCb setrgbcolor
600 4441 M
63 0 V
12535 0 R
-63 0 V
stroke
480 4441 M
[ [(Times) 200.0 0.0 true true 0 ( 6000)]
] -66.7 MRshow
1.000 UL
LTb
LCb setrgbcolor
1.000 UL
LTa
LCa setrgbcolor
600 4813 M
12598 0 V
stroke
LTb
LCb setrgbcolor
600 4813 M
63 0 V
12535 0 R
-63 0 V
stroke
480 4813 M
[ [(Times) 200.0 0.0 true true 0 ( 8000)]
] -66.7 MRshow
1.000 UL
LTb
LCb setrgbcolor
1.000 UL
LTa
LCa setrgbcolor
600 5186 M
12598 0 V
stroke
LTb
LCb setrgbcolor
600 5186 M
63 0 V
12535 0 R
-63 0 V
stroke
480 5186 M
[ [(Times) 200.0 0.0 true true 0 ( 10000)]
] -66.7 MRshow
1.000 UL
LTb
LCb setrgbcolor
1.000 UL
LTa
LCa setrgbcolor
600 5559 M
12598 0 V
stroke
LTb
LCb setrgbcolor
600 5559 M
63 0 V
12535 0 R
-63 0 V
stroke
480 5559 M
[ [(Times) 200.0 0.0 true true 0 ( 12000)]
] -66.7 MRshow
1.000 UL
LTb
LCb setrgbcolor
1.000 UL
LTa
LCa setrgbcolor
600 5931 M
12598 0 V
stroke
LTb
LCb setrgbcolor
600 5931 M
63 0 V
12535 0 R
-63 0 V
stroke
480 5931 M
[ [(Times) 200.0 0.0 true true 0 ( 14000)]
] -66.7 MRshow
1.000 UL
LTb
LCb setrgbcolor
1.000 UL
LTa
LCa setrgbcolor
600 6304 M
12598 0 V
stroke
LTb
LCb setrgbcolor
600 6304 M
63 0 V
12535 0 R
-63 0 V
stroke
480 6304 M
[ [(Times) 200.0 0.0 true true 0 ( 16000)]
] -66.7 MRshow
1.000 UL
LTb
LCb setrgbcolor
1.000 UL
LTa
LCa setrgbcolor
600 6676 M
12598 0 V
stroke
LTb
LCb setrgbcolor
600 6676 M
63 0 V
12535 0 R
-63 0 V
stroke
480 6676 M
[ [(Times) 200.0 0.0 true true 0 ( 18000)]
] -66.7 MRshow
1.000 UL
LTb
LCb setrgbcolor
1.000 UL
LTa
LCa setrgbcolor
600 7049 M
12598 0 V
stroke
LTb
LCb setrgbcolor
600 7049 M
63 0 V
12535 0 R
-63 0 V
stroke
480 7049 M
[ [(Times) 200.0 0.0 true true 0 ( 20000)]
] -66.7 MRshow
1.000 UL
LTb
LCb setrgbcolor
1.000 UL
LTa
LCa setrgbcolor
600 3323 M
0 3726 V
stroke
LTb
LCb setrgbcolor
600 3323 M
0 63 V
0 3663 R
0 -63 V
stroke
600 3203 M
currentpoint gsave translate -45 rotate 0 0 moveto
[ [(Times) 200.0 0.0 true true 0 ( 0)]
] -66.7 MLshow
grestore
1.000 UL
LTb
LCb setrgbcolor
1.000 UL
LTa
LCa setrgbcolor
2700 3323 M
0 3726 V
stroke
LTb
LCb setrgbcolor
2700 3323 M
0 63 V
0 3663 R
0 -63 V
stroke
2700 3203 M
currentpoint gsave translate -45 rotate 0 0 moveto
[ [(Times) 200.0 0.0 true true 0 ( 2)]
] -66.7 MLshow
grestore
1.000 UL
LTb
LCb setrgbcolor
1.000 UL
LTa
LCa setrgbcolor
4799 3323 M
0 3726 V
stroke
LTb
LCb setrgbcolor
4799 3323 M
0 63 V
0 3663 R
0 -63 V
stroke
4799 3203 M
currentpoint gsave translate -45 rotate 0 0 moveto
[ [(Times) 200.0 0.0 true true 0 ( 4)]
] -66.7 MLshow
grestore
1.000 UL
LTb
LCb setrgbcolor
1.000 UL
LTa
LCa setrgbcolor
6899 3323 M
0 3726 V
stroke
LTb
LCb setrgbcolor
6899 3323 M
0 63 V
0 3663 R
0 -63 V
stroke
6899 3203 M
currentpoint gsave translate -45 rotate 0 0 moveto
[ [(Times) 200.0 0.0 true true 0 ( 6)]
] -66.7 MLshow
grestore
1.000 UL
LTb
LCb setrgbcolor
1.000 UL
LTa
LCa setrgbcolor
8999 3323 M
0 3726 V
stroke
LTb
LCb setrgbcolor
8999 3323 M
0 63 V
0 3663 R
0 -63 V
stroke
8999 3203 M
currentpoint gsave translate -45 rotate 0 0 moveto
[ [(Times) 200.0 0.0 true true 0 ( 8)]
] -66.7 MLshow
grestore
1.000 UL
LTb
LCb setrgbcolor
1.000 UL
LTa
LCa setrgbcolor
11098 3323 M
0 3726 V
stroke
LTb
LCb setrgbcolor
11098 3323 M
0 63 V
0 3663 R
0 -63 V
stroke
11098 3203 M
currentpoint gsave translate -45 rotate 0 0 moveto
[ [(Times) 200.0 0.0 true true 0 ( 10)]
] -66.7 MLshow
grestore
1.000 UL
LTb
LCb setrgbcolor
1.000 UL
LTa
LCa setrgbcolor
13198 3323 M
0 3726 V
stroke
LTb
LCb setrgbcolor
13198 3323 M
0 63 V
0 3663 R
0 -63 V
stroke
13198 3203 M
currentpoint gsave translate -45 rotate 0 0 moveto
[ [(Times) 200.0 0.0 true true 0 ( 12)]
] -66.7 MLshow
grestore
1.000 UL
LTb
LCb setrgbcolor
1.000 UL
LTb
LCb setrgbcolor
600 7049 N
0 -3726 V
12598 0 V
0 3726 V
600 7049 L
Z stroke
LCb setrgbcolor
-460 5186 M
currentpoint gsave translate -270 rotate 0 0 moveto
[ [(Times) 200.0 0.0 true true 0 (Flow size [bytes])]
] -66.7 MCshow
grestore
LTb
LCb setrgbcolor
6899 2769 M
[ [(Times) 200.0 0.0 true true 0 (Duration [sec])]
] -66.7 MCshow
LTb
6899 7349 M
[ [(Times) 200.0 0.0 true true 0 (src port 80, repeating connections sorted by duration)]
] -66.7 MCshow
1.000 UP
1.000 UL
LTb
LCb setrgbcolor
1.000 UL
LT8
LC8 setrgbcolor
6508 63 N
782 0 V
-782 0 V
Z stroke
% Begin plot #1
1.000 UP
1.000 UL
LT8
1.00 0.00 0.00 C 906 3400 TriUF
906 3426 TriUF
906 3400 TriUF
906 3432 TriUF
906 3400 TriUF
906 3400 TriUF
907 3427 TriUF
907 3449 TriUF
907 3444 TriUF
907 3414 TriUF
907 3411 TriUF
907 3435 TriUF
907 4176 TriUF
907 3400 TriUF
907 3488 TriUF
907 3400 TriUF
907 3411 TriUF
907 3432 TriUF
907 3414 TriUF
907 3399 TriUF
907 3513 TriUF
907 3411 TriUF
907 3431 TriUF
907 3400 TriUF
907 3400 TriUF
907 4225 TriUF
907 3445 TriUF
907 3434 TriUF
907 3409 TriUF
907 3400 TriUF
907 3400 TriUF
907 3400 TriUF
907 3416 TriUF
907 3436 TriUF
907 4225 TriUF
907 3418 TriUF
907 3433 TriUF
907 3502 TriUF
907 3411 TriUF
907 3432 TriUF
907 3436 TriUF
907 3436 TriUF
907 3419 TriUF
907 3400 TriUF
907 3426 TriUF
907 3449 TriUF
907 3400 TriUF
907 4175 TriUF
907 3411 TriUF
907 3400 TriUF
907 3446 TriUF
907 3413 TriUF
907 3411 TriUF
907 3485 TriUF
907 3432 TriUF
907 4176 TriUF
907 3404 TriUF
907 3428 TriUF
907 3508 TriUF
907 4221 TriUF
907 4225 TriUF
907 3410 TriUF
907 3411 TriUF
907 3400 TriUF
908 3411 TriUF
908 4224 TriUF
908 3434 TriUF
908 3400 TriUF
908 3411 TriUF
908 3444 TriUF
908 3400 TriUF
908 4164 TriUF
908 4223 TriUF
908 4176 TriUF
908 3431 TriUF
908 4225 TriUF
908 3441 TriUF
908 3442 TriUF
908 3411 TriUF
908 4222 TriUF
908 3400 TriUF
908 3441 TriUF
908 3400 TriUF
908 3436 TriUF
908 4223 TriUF
908 3400 TriUF
908 3443 TriUF
908 3423 TriUF
908 3507 TriUF
908 3411 TriUF
908 3400 TriUF
908 3434 TriUF
908 4225 TriUF
908 3428 TriUF
908 3421 TriUF
908 4176 TriUF
908 4221 TriUF
908 3400 TriUF
908 3449 TriUF
908 4180 TriUF
908 4176 TriUF
908 3411 TriUF
908 3376 TriUF
908 3411 TriUF
908 4225 TriUF
908 3434 TriUF
908 3433 TriUF
908 3517 TriUF
908 3433 TriUF
908 3419 TriUF
908 3400 TriUF
908 3430 TriUF
908 3432 TriUF
908 3412 TriUF
908 3424 TriUF
908 3411 TriUF
908 3411 TriUF
908 4176 TriUF
908 3426 TriUF
908 3435 TriUF
908 3412 TriUF
908 3436 TriUF
908 3414 TriUF
908 4225 TriUF
908 3445 TriUF
908 3443 TriUF
908 3433 TriUF
908 3443 TriUF
908 3400 TriUF
908 3400 TriUF
908 3400 TriUF
908 4221 TriUF
908 3426 TriUF
908 3449 TriUF
908 3444 TriUF
908 3448 TriUF
908 3411 TriUF
908 4225 TriUF
908 4223 TriUF
908 3519 TriUF
908 3433 TriUF
908 3399 TriUF
908 3433 TriUF
908 3427 TriUF
908 3449 TriUF
908 3449 TriUF
908 4176 TriUF
908 4164 TriUF
908 3430 TriUF
908 3400 TriUF
908 3421 TriUF
908 3514 TriUF
908 3485 TriUF
908 3429 TriUF
908 3441 TriUF
908 3411 TriUF
908 4225 TriUF
908 3433 TriUF
908 3441 TriUF
908 3436 TriUF
908 3400 TriUF
908 3420 TriUF
908 3400 TriUF
908 3449 TriUF
908 3449 TriUF
908 4176 TriUF
908 4176 TriUF
908 4176 TriUF
908 3482 TriUF
908 3440 TriUF
908 3491 TriUF
908 3505 TriUF
908 3400 TriUF
908 3421 TriUF
908 3443 TriUF
908 4163 TriUF
908 3400 TriUF
909 3400 TriUF
909 3431 TriUF
909 3455 TriUF
909 3431 TriUF
909 3413 TriUF
909 3449 TriUF
909 3439 TriUF
909 3455 TriUF
909 3376 TriUF
909 4163 TriUF
909 4221 TriUF
909 4163 TriUF
909 4226 TriUF
909 3509 TriUF
909 4224 TriUF
909 3411 TriUF
909 3411 TriUF
909 3411 TriUF
909 4230 TriUF
909 4180 TriUF
909 3508 TriUF
909 4181 TriUF
909 4175 TriUF
909 3441 TriUF
909 3443 TriUF
909 3411 TriUF
909 3439 TriUF
909 3433 TriUF
909 4221 TriUF
909 3432 TriUF
909 3431 TriUF
909 3424 TriUF
909 3449 TriUF
909 3411 TriUF
909 3454 TriUF
909 4164 TriUF
909 3517 TriUF
909 3376 TriUF
909 3400 TriUF
909 4222 TriUF
909 3449 TriUF
909 3421 TriUF
909 3400 TriUF
909 3411 TriUF
909 3441 TriUF
909 4163 TriUF
909 3437 TriUF
909 3459 TriUF
909 4176 TriUF
909 3444 TriUF
909 4225 TriUF
909 4177 TriUF
909 3430 TriUF
909 4176 TriUF
909 3411 TriUF
909 3507 TriUF
909 3445 TriUF
909 3400 TriUF
909 3376 TriUF
909 3411 TriUF
909 3404 TriUF
909 3411 TriUF
909 3411 TriUF
909 3506 TriUF
909 3411 TriUF
909 4180 TriUF
909 3435 TriUF
909 4239 TriUF
909 3425 TriUF
909 3495 TriUF
909 3436 TriUF
909 3525 TriUF
909 3422 TriUF
909 3447 TriUF
909 3433 TriUF
909 4163 TriUF
909 3411 TriUF
909 4219 TriUF
909 3410 TriUF
909 4176 TriUF
909 3483 TriUF
909 3477 TriUF
909 3422 TriUF
909 3412 TriUF
909 3501 TriUF
909 3485 TriUF
909 3400 TriUF
909 3426 TriUF
909 4228 TriUF
909 3446 TriUF
909 4180 TriUF
909 4224 TriUF
909 4180 TriUF
909 3434 TriUF
909 4225 TriUF
909 3411 TriUF
909 3411 TriUF
909 3430 TriUF
909 3449 TriUF
909 4176 TriUF
909 3410 TriUF
909 3411 TriUF
909 4225 TriUF
909 4225 TriUF
909 4225 TriUF
909 4225 TriUF
909 3460 TriUF
909 4225 TriUF
909 3413 TriUF
909 3442 TriUF
909 3445 TriUF
909 3507 TriUF
909 3404 TriUF
909 3449 TriUF
909 4163 TriUF
909 3414 TriUF
909 3400 TriUF
909 4164 TriUF
909 3429 TriUF
909 3400 TriUF
909 4224 TriUF
909 3411 TriUF
909 3448 TriUF
909 3411 TriUF
909 4180 TriUF
909 3485 TriUF
909 3455 TriUF
909 4223 TriUF
909 3435 TriUF
909 3432 TriUF
909 3432 TriUF
909 3415 TriUF
909 3400 TriUF
910 4163 TriUF
910 3445 TriUF
910 3509 TriUF
910 3438 TriUF
910 4225 TriUF
910 3411 TriUF
910 3443 TriUF
910 3411 TriUF
910 4221 TriUF
910 3522 TriUF
910 3435 TriUF
910 4176 TriUF
910 3411 TriUF
910 3453 TriUF
910 4163 TriUF
910 3410 TriUF
910 3409 TriUF
910 3411 TriUF
910 4224 TriUF
910 4228 TriUF
910 3434 TriUF
910 3525 TriUF
910 3443 TriUF
910 3400 TriUF
910 3433 TriUF
910 3432 TriUF
910 3512 TriUF
910 3434 TriUF
910 3438 TriUF
910 3411 TriUF
910 4224 TriUF
910 4163 TriUF
910 3432 TriUF
910 3432 TriUF
910 3445 TriUF
910 3400 TriUF
910 3459 TriUF
910 4220 TriUF
910 4164 TriUF
910 4176 TriUF
910 3410 TriUF
910 4180 TriUF
910 3400 TriUF
910 4225 TriUF
910 3446 TriUF
910 3444 TriUF
910 4229 TriUF
910 4224 TriUF
910 3441 TriUF
910 4224 TriUF
910 3434 TriUF
910 3432 TriUF
910 4176 TriUF
910 4225 TriUF
910 4229 TriUF
910 4176 TriUF
910 4180 TriUF
910 4180 TriUF
910 3443 TriUF
910 4179 TriUF
910 3504 TriUF
910 3409 TriUF
910 3411 TriUF
910 3433 TriUF
910 4238 TriUF
910 4229 TriUF
910 3413 TriUF
910 3400 TriUF
910 3449 TriUF
910 4178 TriUF
910 4238 TriUF
910 3449 TriUF
910 4224 TriUF
910 4163 TriUF
910 3443 TriUF
910 3409 TriUF
910 3410 TriUF
910 3400 TriUF
910 3400 TriUF
910 3376 TriUF
910 3411 TriUF
910 3423 TriUF
910 3404 TriUF
910 4223 TriUF
910 4175 TriUF
910 4223 TriUF
910 4176 TriUF
910 3399 TriUF
910 4181 TriUF
910 4221 TriUF
910 3433 TriUF
910 4221 TriUF
910 3376 TriUF
910 3448 TriUF
910 3433 TriUF
910 3460 TriUF
910 3441 TriUF
910 4224 TriUF
910 4223 TriUF
910 3449 TriUF
910 4180 TriUF
910 3505 TriUF
910 3454 TriUF
910 4229 TriUF
910 3522 TriUF
910 3400 TriUF
910 4163 TriUF
910 3439 TriUF
910 3442 TriUF
910 4163 TriUF
911 3404 TriUF
911 3449 TriUF
911 4223 TriUF
911 4225 TriUF
911 4225 TriUF
911 4164 TriUF
911 4224 TriUF
911 3506 TriUF
911 3459 TriUF
911 4225 TriUF
911 3444 TriUF
911 3435 TriUF
911 4224 TriUF
911 3411 TriUF
911 3432 TriUF
911 3400 TriUF
911 3442 TriUF
911 3443 TriUF
911 3443 TriUF
911 3447 TriUF
911 3400 TriUF
911 3455 TriUF
911 3441 TriUF
911 3417 TriUF
911 4225 TriUF
911 3400 TriUF
911 4229 TriUF
911 4229 TriUF
911 4176 TriUF
911 4176 TriUF
911 3454 TriUF
911 3453 TriUF
911 3500 TriUF
911 3495 TriUF
911 4176 TriUF
911 3434 TriUF
911 3376 TriUF
911 4221 TriUF
911 3400 TriUF
911 3411 TriUF
911 4223 TriUF
911 4164 TriUF
911 4176 TriUF
911 3400 TriUF
911 4225 TriUF
911 4228 TriUF
911 4225 TriUF
911 4176 TriUF
911 3400 TriUF
911 3435 TriUF
911 4223 TriUF
911 3443 TriUF
911 3410 TriUF
911 3376 TriUF
911 3400 TriUF
911 3400 TriUF
911 4229 TriUF
911 3400 TriUF
911 3411 TriUF
911 4225 TriUF
912 3459 TriUF
912 3449 TriUF
912 3420 TriUF
912 4175 TriUF
912 3442 TriUF
912 4229 TriUF
912 4179 TriUF
912 4223 TriUF
912 3418 TriUF
912 3432 TriUF
912 4176 TriUF
912 3411 TriUF
912 4225 TriUF
912 4225 TriUF
912 3400 TriUF
912 3376 TriUF
912 3410 TriUF
912 3410 TriUF
912 4228 TriUF
912 4175 TriUF
912 4223 TriUF
912 3400 TriUF
912 3400 TriUF
912 3506 TriUF
912 3510 TriUF
912 3456 TriUF
912 3400 TriUF
912 4179 TriUF
912 3411 TriUF
912 3422 TriUF
912 3445 TriUF
912 3421 TriUF
912 3400 TriUF
912 3376 TriUF
912 4224 TriUF
912 3409 TriUF
912 3509 TriUF
913 3411 TriUF
913 4164 TriUF
913 3436 TriUF
913 3460 TriUF
913 3447 TriUF
913 3411 TriUF
913 3400 TriUF
913 4221 TriUF
913 4164 TriUF
913 4180 TriUF
913 3411 TriUF
913 3460 TriUF
913 3400 TriUF
913 4163 TriUF
913 3449 TriUF
913 3410 TriUF
913 3400 TriUF
913 4163 TriUF
913 3400 TriUF
913 4225 TriUF
913 3522 TriUF
913 4176 TriUF
913 4175 TriUF
913 3436 TriUF
913 3400 TriUF
913 3420 TriUF
913 3421 TriUF
913 4225 TriUF
913 4228 TriUF
914 3399 TriUF
914 3428 TriUF
914 3438 TriUF
914 3400 TriUF
914 3400 TriUF
914 4223 TriUF
914 3411 TriUF
914 3400 TriUF
914 4225 TriUF
914 3400 TriUF
914 4178 TriUF
914 4164 TriUF
914 3409 TriUF
914 3438 TriUF
914 3441 TriUF
914 4175 TriUF
914 3376 TriUF
914 3436 TriUF
914 3404 TriUF
914 3443 TriUF
915 4176 TriUF
915 3449 TriUF
915 3411 TriUF
915 3412 TriUF
915 3576 TriUF
915 4176 TriUF
915 3539 TriUF
915 4176 TriUF
915 3410 TriUF
915 4164 TriUF
915 3449 TriUF
915 4229 TriUF
915 4224 TriUF
915 4221 TriUF
916 3400 TriUF
916 3426 TriUF
916 3538 TriUF
916 3437 TriUF
916 4221 TriUF
916 4224 TriUF
916 4229 TriUF
916 3444 TriUF
916 3399 TriUF
916 3423 TriUF
916 3504 TriUF
916 3413 TriUF
916 4221 TriUF
917 3520 TriUF
917 4163 TriUF
917 3491 TriUF
917 3400 TriUF
917 3444 TriUF
917 3541 TriUF
917 3411 TriUF
917 3410 TriUF
917 3528 TriUF
917 3413 TriUF
917 3427 TriUF
917 4224 TriUF
917 3540 TriUF
917 3486 TriUF
917 4225 TriUF
917 4221 TriUF
917 3427 TriUF
917 4225 TriUF
917 3424 TriUF
917 3517 TriUF
917 3411 TriUF
917 3400 TriUF
917 3432 TriUF
917 3507 TriUF
918 4175 TriUF
918 3410 TriUF
918 3492 TriUF
918 3400 TriUF
918 4225 TriUF
918 4175 TriUF
918 4176 TriUF
918 3503 TriUF
918 3400 TriUF
918 3455 TriUF
918 3534 TriUF
918 3493 TriUF
918 3411 TriUF
918 4225 TriUF
918 3400 TriUF
918 3400 TriUF
918 3400 TriUF
918 3400 TriUF
918 4175 TriUF
918 3399 TriUF
919 4164 TriUF
919 3400 TriUF
919 3421 TriUF
919 3494 TriUF
919 3418 TriUF
919 3376 TriUF
919 3427 TriUF
919 3411 TriUF
919 3411 TriUF
919 3428 TriUF
919 3400 TriUF
919 3400 TriUF
919 3400 TriUF
919 3481 TriUF
919 4225 TriUF
919 3376 TriUF
919 3489 TriUF
919 4225 TriUF
919 3410 TriUF
919 4224 TriUF
919 3400 TriUF
919 3429 TriUF
919 4175 TriUF
919 3493 TriUF
919 3496 TriUF
919 3400 TriUF
919 3442 TriUF
919 4176 TriUF
919 4175 TriUF
920 3410 TriUF
920 3400 TriUF
920 3410 TriUF
920 4222 TriUF
920 4225 TriUF
920 3422 TriUF
920 4164 TriUF
920 3433 TriUF
920 3410 TriUF
920 3400 TriUF
920 3376 TriUF
920 3376 TriUF
920 3400 TriUF
920 3411 TriUF
920 3489 TriUF
920 4163 TriUF
920 3481 TriUF
920 3400 TriUF
920 3423 TriUF
920 3400 TriUF
920 3411 TriUF
920 4175 TriUF
920 3488 TriUF
920 3519 TriUF
920 4176 TriUF
920 3400 TriUF
920 3481 TriUF
920 3521 TriUF
920 3420 TriUF
921 3400 TriUF
921 3401 TriUF
921 3400 TriUF
921 3410 TriUF
921 4229 TriUF
921 3444 TriUF
921 3486 TriUF
921 3400 TriUF
921 3411 TriUF
921 4225 TriUF
921 3400 TriUF
921 3400 TriUF
921 3400 TriUF
921 3444 TriUF
921 4239 TriUF
921 4176 TriUF
921 3411 TriUF
921 4222 TriUF
921 3400 TriUF
921 3484 TriUF
921 4175 TriUF
922 3445 TriUF
922 3411 TriUF
922 3400 TriUF
922 3460 TriUF
922 3419 TriUF
922 4221 TriUF
922 3431 TriUF
922 3430 TriUF
922 3421 TriUF
922 4175 TriUF
922 3448 TriUF
922 3410 TriUF
922 4175 TriUF
922 3430 TriUF
922 4175 TriUF
922 3411 TriUF
922 3400 TriUF
922 3421 TriUF
922 3411 TriUF
923 4176 TriUF
923 4175 TriUF
923 3460 TriUF
923 3440 TriUF
923 3434 TriUF
923 3411 TriUF
923 4175 TriUF
924 4176 TriUF
924 3427 TriUF
924 3499 TriUF
924 3493 TriUF
924 3400 TriUF
924 3410 TriUF
924 3411 TriUF
924 3441 TriUF
925 3436 TriUF
925 4175 TriUF
925 3530 TriUF
925 3400 TriUF
925 3400 TriUF
925 3400 TriUF
925 3376 TriUF
925 3411 TriUF
925 3466 TriUF
925 3443 TriUF
925 3411 TriUF
925 3519 TriUF
926 3400 TriUF
926 3525 TriUF
926 3411 TriUF
926 3523 TriUF
926 3400 TriUF
926 3400 TriUF
926 3436 TriUF
927 3444 TriUF
927 3434 TriUF
927 3523 TriUF
927 3418 TriUF
927 4223 TriUF
927 4180 TriUF
928 3440 TriUF
928 3411 TriUF
928 4176 TriUF
928 3525 TriUF
928 3529 TriUF
929 3411 TriUF
929 4225 TriUF
929 3517 TriUF
929 3409 TriUF
929 3431 TriUF
930 3526 TriUF
930 4178 TriUF
930 3400 TriUF
930 4225 TriUF
931 3400 TriUF
931 3433 TriUF
931 3540 TriUF
933 3420 TriUF
934 3400 TriUF
934 3400 TriUF
934 3412 TriUF
934 4229 TriUF
934 4224 TriUF
935 3417 TriUF
935 3411 TriUF
936 3436 TriUF
936 4221 TriUF
936 4176 TriUF
937 4225 TriUF
937 3489 TriUF
937 3509 TriUF
938 3431 TriUF
938 4181 TriUF
938 3411 TriUF
939 3411 TriUF
941 3422 TriUF
941 3416 TriUF
941 4176 TriUF
943 3411 TriUF
943 3414 TriUF
944 3629 TriUF
944 4176 TriUF
944 3412 TriUF
944 3417 TriUF
945 3422 TriUF
945 3487 TriUF
945 3444 TriUF
946 3411 TriUF
948 3414 TriUF
949 3400 TriUF
949 3435 TriUF
949 4221 TriUF
949 3490 TriUF
949 3411 TriUF
950 3425 TriUF
950 4175 TriUF
950 3400 TriUF
952 4176 TriUF
953 3376 TriUF
953 4175 TriUF
954 3400 TriUF
954 3376 TriUF
956 4164 TriUF
956 3376 TriUF
957 3400 TriUF
957 4225 TriUF
960 3398 TriUF
960 3449 TriUF
961 3422 TriUF
963 4176 TriUF
963 4224 TriUF
966 4229 TriUF
967 3411 TriUF
968 4223 TriUF
969 3436 TriUF
972 4225 TriUF
975 4239 TriUF
975 3433 TriUF
975 3436 TriUF
975 3411 TriUF
978 3454 TriUF
983 3504 TriUF
983 4224 TriUF
985 4222 TriUF
989 4225 TriUF
989 4180 TriUF
992 3411 TriUF
994 3615 TriUF
996 3589 TriUF
1002 4181 TriUF
1007 4224 TriUF
1007 3589 TriUF
1007 4176 TriUF
1017 4223 TriUF
1021 4175 TriUF
1025 3400 TriUF
1026 4175 TriUF
1027 4175 TriUF
1033 4229 TriUF
1033 3606 TriUF
1035 3635 TriUF
1035 4163 TriUF
1036 4176 TriUF
1036 3618 TriUF
1036 3417 TriUF
1037 3417 TriUF
1037 3417 TriUF
1037 4221 TriUF
1038 4221 TriUF
1038 4163 TriUF
1039 3406 TriUF
1040 4225 TriUF
1040 3406 TriUF
1041 4176 TriUF
1042 4176 TriUF
1052 4225 TriUF
1054 4223 TriUF
1055 3400 TriUF
1055 3818 TriUF
1056 4228 TriUF
1059 3651 TriUF
1060 3485 TriUF
1061 4175 TriUF
1061 4174 TriUF
1062 3616 TriUF
1062 4163 TriUF
1062 4224 TriUF
1063 3400 TriUF
1065 4225 TriUF
1066 4228 TriUF
1066 4176 TriUF
1066 4179 TriUF
1067 4224 TriUF
1068 4062 TriUF
1068 4176 TriUF
1069 3646 TriUF
1069 4225 TriUF
1069 4229 TriUF
1070 3633 TriUF
1070 4225 TriUF
1071 3408 TriUF
1071 4180 TriUF
1072 4164 TriUF
1073 4174 TriUF
1074 3480 TriUF
1074 4175 TriUF
1075 4164 TriUF
1075 4164 TriUF
1075 3571 TriUF
1078 3431 TriUF
1078 3574 TriUF
1078 4175 TriUF
1081 4179 TriUF
1081 4225 TriUF
1085 4180 TriUF
1087 4225 TriUF
1087 4239 TriUF
1087 4175 TriUF
1089 4225 TriUF
1089 4164 TriUF
1090 3615 TriUF
1092 3466 TriUF
1094 4222 TriUF
1095 4163 TriUF
1097 3411 TriUF
1098 4225 TriUF
1100 4224 TriUF
1105 4224 TriUF
1107 4225 TriUF
1108 4181 TriUF
1108 4228 TriUF
1109 4162 TriUF
1114 3480 TriUF
1114 3536 TriUF
1115 3620 TriUF
1115 3418 TriUF
1117 4225 TriUF
1118 4224 TriUF
1120 3400 TriUF
1121 4175 TriUF
1122 4228 TriUF
1122 4224 TriUF
1123 3683 TriUF
1133 3632 TriUF
1136 4175 TriUF
1136 3655 TriUF
1137 3407 TriUF
1138 3626 TriUF
1140 3417 TriUF
1140 4180 TriUF
1140 3653 TriUF
1145 3407 TriUF
1146 4179 TriUF
1147 3589 TriUF
1148 3511 TriUF
1151 4163 TriUF
1152 4175 TriUF
1153 3632 TriUF
1157 3669 TriUF
1159 3604 TriUF
1159 4223 TriUF
1170 4180 TriUF
1171 3622 TriUF
1173 4176 TriUF
1183 4225 TriUF
1186 3645 TriUF
1186 4224 TriUF
1187 3603 TriUF
1187 4176 TriUF
1194 4219 TriUF
1194 4175 TriUF
1199 3594 TriUF
1201 3648 TriUF
1201 4225 TriUF
1204 4175 TriUF
1209 3641 TriUF
1210 3599 TriUF
1212 4224 TriUF
1212 3597 TriUF
1213 3618 TriUF
1216 3653 TriUF
1216 4162 TriUF
1216 3610 TriUF
1225 3616 TriUF
1226 4175 TriUF
1226 4176 TriUF
1229 3517 TriUF
1229 4179 TriUF
1232 3466 TriUF
1233 4229 TriUF
1234 4163 TriUF
1237 4225 TriUF
1241 3613 TriUF
1241 3628 TriUF
1242 4176 TriUF
1243 3517 TriUF
1244 3517 TriUF
1245 4178 TriUF
1249 3634 TriUF
1250 4225 TriUF
1250 3615 TriUF
1253 3596 TriUF
1253 3597 TriUF
1254 3614 TriUF
1256 4164 TriUF
1257 4225 TriUF
1258 3746 TriUF
1259 3400 TriUF
1259 4225 TriUF
1260 4153 TriUF
1261 4176 TriUF
1262 4176 TriUF
1262 3646 TriUF
1263 4175 TriUF
1268 3605 TriUF
1271 3576 TriUF
1276 3631 TriUF
1277 3467 TriUF
1281 4176 TriUF
1284 4228 TriUF
1285 3641 TriUF
1291 3453 TriUF
1292 4163 TriUF
1292 3637 TriUF
1292 4176 TriUF
1293 3603 TriUF
1293 3668 TriUF
1295 3593 TriUF
1295 4221 TriUF
1297 3680 TriUF
1297 3431 TriUF
1299 3603 TriUF
1301 4176 TriUF
1304 4176 TriUF
1309 3612 TriUF
1309 3626 TriUF
1310 3610 TriUF
1311 3635 TriUF
1311 3606 TriUF
1312 3775 TriUF
1313 3610 TriUF
1320 4225 TriUF
1320 4225 TriUF
1323 4180 TriUF
1323 4225 TriUF
1324 3571 TriUF
1325 3604 TriUF
1326 3486 TriUF
1327 3592 TriUF
1330 3613 TriUF
1331 3599 TriUF
1333 3431 TriUF
1339 3620 TriUF
1343 4225 TriUF
1345 4181 TriUF
1350 3621 TriUF
1350 3550 TriUF
1352 3599 TriUF
1352 3677 TriUF
1357 4180 TriUF
1357 3642 TriUF
1366 4228 TriUF
1369 3482 TriUF
1369 3601 TriUF
1370 3605 TriUF
1375 4224 TriUF
1375 3642 TriUF
1379 3607 TriUF
1380 3409 TriUF
1383 4223 TriUF
1384 4225 TriUF
1385 4164 TriUF
1386 3616 TriUF
1392 4222 TriUF
1393 4221 TriUF
1394 3606 TriUF
1394 3581 TriUF
1396 3633 TriUF
1396 4220 TriUF
1397 4175 TriUF
1397 4164 TriUF
1397 4176 TriUF
1397 3591 TriUF
1400 4179 TriUF
1400 4175 TriUF
1401 4229 TriUF
1401 4175 TriUF
1403 4175 TriUF
1404 4176 TriUF
1405 4175 TriUF
1406 4175 TriUF
1408 4224 TriUF
1410 4176 TriUF
1410 4229 TriUF
1412 3434 TriUF
1415 4175 TriUF
1417 4225 TriUF
1421 3599 TriUF
1422 3585 TriUF
1425 3705 TriUF
1426 3606 TriUF
1427 4225 TriUF
1428 4221 TriUF
1429 4180 TriUF
1439 3599 TriUF
1440 4222 TriUF
1443 3643 TriUF
1444 3614 TriUF
1444 3632 TriUF
1450 4176 TriUF
1452 4176 TriUF
1453 4176 TriUF
1455 4175 TriUF
1457 3585 TriUF
1459 4176 TriUF
1459 4221 TriUF
1461 4224 TriUF
1468 4224 TriUF
1471 4175 TriUF
1472 4223 TriUF
1472 3615 TriUF
1475 4176 TriUF
1479 3609 TriUF
1479 4175 TriUF
1480 3615 TriUF
1483 3614 TriUF
1483 3634 TriUF
1486 4176 TriUF
1488 4176 TriUF
1490 3612 TriUF
1490 4014 TriUF
1490 4181 TriUF
1491 4222 TriUF
1491 3615 TriUF
1496 4221 TriUF
1498 4175 TriUF
1498 3789 TriUF
1499 3575 TriUF
1502 4175 TriUF
1504 3634 TriUF
1507 4226 TriUF
1507 3466 TriUF
1508 4176 TriUF
1509 4225 TriUF
1509 4164 TriUF
1510 3610 TriUF
1510 4239 TriUF
1512 4224 TriUF
1515 4225 TriUF
1516 3651 TriUF
1520 3604 TriUF
1520 4223 TriUF
1522 3494 TriUF
1523 3614 TriUF
1529 4176 TriUF
1531 3618 TriUF
1533 4180 TriUF
1536 4224 TriUF
1540 4163 TriUF
1541 4228 TriUF
1541 4176 TriUF
1546 3666 TriUF
1548 4176 TriUF
1548 3619 TriUF
1550 4221 TriUF
1550 3577 TriUF
1551 3599 TriUF
1558 4224 TriUF
1560 4225 TriUF
1561 3613 TriUF
1562 3882 TriUF
1562 3591 TriUF
1564 4175 TriUF
1569 3613 TriUF
1572 3645 TriUF
1574 4225 TriUF
1578 4164 TriUF
1579 4223 TriUF
1580 4221 TriUF
1582 3910 TriUF
1584 3588 TriUF
1584 3651 TriUF
1587 3602 TriUF
1589 4225 TriUF
1590 4239 TriUF
1594 4225 TriUF
1596 3635 TriUF
1598 3619 TriUF
1599 4221 TriUF
1603 4225 TriUF
1607 3566 TriUF
1610 4164 TriUF
1610 3657 TriUF
1611 4164 TriUF
1614 3591 TriUF
1616 3633 TriUF
1617 4224 TriUF
1621 4225 TriUF
1622 3626 TriUF
1623 4165 TriUF
1627 4224 TriUF
1630 3673 TriUF
1632 4163 TriUF
1634 3660 TriUF
1634 4176 TriUF
1641 3760 TriUF
1644 3652 TriUF
1645 4176 TriUF
1645 4176 TriUF
1651 4225 TriUF
1652 3603 TriUF
1659 3621 TriUF
1659 3688 TriUF
1660 4163 TriUF
1661 4225 TriUF
1664 3615 TriUF
1665 3635 TriUF
1669 4082 TriUF
1678 4164 TriUF
1680 3622 TriUF
1682 3605 TriUF
1686 3619 TriUF
1686 3646 TriUF
1687 4225 TriUF
1687 4224 TriUF
1687 3637 TriUF
1689 3618 TriUF
1690 4180 TriUF
1691 3594 TriUF
1691 4239 TriUF
1694 3621 TriUF
1695 3598 TriUF
1699 3675 TriUF
1699 3637 TriUF
1711 4176 TriUF
1712 3595 TriUF
1715 4224 TriUF
1716 3553 TriUF
1718 3616 TriUF
1722 4223 TriUF
1727 4227 TriUF
1729 4176 TriUF
1729 4176 TriUF
1736 3615 TriUF
1737 4225 TriUF
1739 3651 TriUF
1739 4225 TriUF
1740 3633 TriUF
1743 4225 TriUF
1744 4176 TriUF
1747 4163 TriUF
1749 4224 TriUF
1749 3714 TriUF
1749 3633 TriUF
1754 4178 TriUF
1757 4180 TriUF
1757 3587 TriUF
1757 3632 TriUF
1764 3600 TriUF
1764 4224 TriUF
1768 4176 TriUF
1770 3600 TriUF
1773 4224 TriUF
1773 3640 TriUF
1776 3634 TriUF
1781 3617 TriUF
1782 3598 TriUF
1787 3622 TriUF
1787 4224 TriUF
1787 3610 TriUF
1788 3588 TriUF
1790 3614 TriUF
1792 4224 TriUF
1796 3675 TriUF
1798 3575 TriUF
1800 4221 TriUF
1801 3600 TriUF
1802 3662 TriUF
1802 4225 TriUF
1804 4225 TriUF
1805 3596 TriUF
1805 4164 TriUF
1810 4176 TriUF
1811 4176 TriUF
1813 3596 TriUF
1814 3574 TriUF
1820 4224 TriUF
1821 3594 TriUF
1822 3599 TriUF
1824 3609 TriUF
1827 3619 TriUF
1827 4225 TriUF
1827 3641 TriUF
1831 3622 TriUF
1834 4175 TriUF
1835 4176 TriUF
1839 3601 TriUF
1846 4224 TriUF
1850 3706 TriUF
1850 4225 TriUF
1855 3579 TriUF
1858 4180 TriUF
1859 4222 TriUF
1861 3627 TriUF
1862 4180 TriUF
1863 3620 TriUF
1863 4180 TriUF
1865 4178 TriUF
1866 4223 TriUF
1868 4224 TriUF
1868 4221 TriUF
1871 4225 TriUF
1876 4225 TriUF
1876 4224 TriUF
1885 3614 TriUF
1889 4164 TriUF
1890 3675 TriUF
1890 3535 TriUF
1891 3612 TriUF
1892 3574 TriUF
1893 4225 TriUF
1897 3592 TriUF
1899 4180 TriUF
1901 3585 TriUF
1904 4163 TriUF
1907 4176 TriUF
1907 4163 TriUF
1908 3707 TriUF
1911 3659 TriUF
1911 3598 TriUF
1912 4163 TriUF
1915 3603 TriUF
1917 4223 TriUF
1923 3659 TriUF
1927 3618 TriUF
1927 4225 TriUF
1929 3466 TriUF
1930 4180 TriUF
1931 4223 TriUF
1936 4181 TriUF
1942 3651 TriUF
1947 4179 TriUF
1953 3600 TriUF
1954 3660 TriUF
1954 3660 TriUF
1955 3676 TriUF
1957 4223 TriUF
1965 3632 TriUF
1970 3680 TriUF
1983 3577 TriUF
1983 3376 TriUF
1988 3646 TriUF
1990 3685 TriUF
1991 3654 TriUF
1997 3596 TriUF
2000 3629 TriUF
2000 4164 TriUF
2012 3635 TriUF
2016 3594 TriUF
2021 3633 TriUF
2028 3592 TriUF
2031 3585 TriUF
2035 3648 TriUF
2039 4164 TriUF
2040 3666 TriUF
2045 3596 TriUF
2046 3734 TriUF
2052 3748 TriUF
2056 3594 TriUF
2057 3618 TriUF
2064 3618 TriUF
2065 3607 TriUF
2066 3602 TriUF
2071 4177 TriUF
2073 3598 TriUF
2086 3751 TriUF
2090 4176 TriUF
2099 3611 TriUF
2144 3630 TriUF
2148 3612 TriUF
2152 3586 TriUF
2170 4176 TriUF
2218 3485 TriUF
3501 3443 TriUF
3777 3419 TriUF
3898 3376 TriUF
4038 4164 TriUF
4188 3482 TriUF
4621 6768 TriUF
5329 3434 TriUF
9507 3408 TriUF
9641 3481 TriUF
10575 3400 TriUF
11134 4175 TriUF
11406 3372 TriUF
11486 3529 TriUF
% End plot #1
1.000 UL
LTb
LCb setrgbcolor
600 7049 N
0 -3726 V
12598 0 V
0 3726 V
600 7049 L
Z stroke
1.000 UP
1.000 UL
LTb
LCb setrgbcolor
stroke
grestore
end
showpage
%%Trailer
%%DocumentFonts: Times
