%!PS-Adobe-2.0 EPSF-2.0
%%Title: repeating_conn_2492180285_722864432.eps
%%Creator: gnuplot 4.6 patchlevel 2
%%CreationDate: Tue Apr  8 12:59:15 2014
%%DocumentFonts: (atend)
%%BoundingBox: 50 50 770 554
%%EndComments
%%BeginProlog
/gnudict 256 dict def
gnudict begin
%
% The following true/false flags may be edited by hand if desired.
% The unit line width and grayscale image gamma correction may also be changed.
%
/Color true def
/Blacktext false def
/Solid false def
/Dashlength 1 def
/Landscape false def
/Level1 false def
/Rounded false def
/ClipToBoundingBox false def
/SuppressPDFMark false def
/TransparentPatterns false def
/gnulinewidth 5.000 def
/userlinewidth gnulinewidth def
/Gamma 1.0 def
/BackgroundColor {-1.000 -1.000 -1.000} def
%
/vshift -66 def
/dl1 {
  10.0 Dashlength mul mul
  Rounded { currentlinewidth 0.75 mul sub dup 0 le { pop 0.01 } if } if
} def
/dl2 {
  10.0 Dashlength mul mul
  Rounded { currentlinewidth 0.75 mul add } if
} def
/hpt_ 31.5 def
/vpt_ 31.5 def
/hpt hpt_ def
/vpt vpt_ def
/doclip {
  ClipToBoundingBox {
    newpath 50 50 moveto 770 50 lineto 770 554 lineto 50 554 lineto closepath
    clip
  } if
} def
%
% Gnuplot Prolog Version 4.6 (September 2012)
%
%/SuppressPDFMark true def
%
/M {moveto} bind def
/L {lineto} bind def
/R {rmoveto} bind def
/V {rlineto} bind def
/N {newpath moveto} bind def
/Z {closepath} bind def
/C {setrgbcolor} bind def
/f {rlineto fill} bind def
/g {setgray} bind def
/Gshow {show} def   % May be redefined later in the file to support UTF-8
/vpt2 vpt 2 mul def
/hpt2 hpt 2 mul def
/Lshow {currentpoint stroke M 0 vshift R 
	Blacktext {gsave 0 setgray show grestore} {show} ifelse} def
/Rshow {currentpoint stroke M dup stringwidth pop neg vshift R
	Blacktext {gsave 0 setgray show grestore} {show} ifelse} def
/Cshow {currentpoint stroke M dup stringwidth pop -2 div vshift R 
	Blacktext {gsave 0 setgray show grestore} {show} ifelse} def
/UP {dup vpt_ mul /vpt exch def hpt_ mul /hpt exch def
  /hpt2 hpt 2 mul def /vpt2 vpt 2 mul def} def
/DL {Color {setrgbcolor Solid {pop []} if 0 setdash}
 {pop pop pop 0 setgray Solid {pop []} if 0 setdash} ifelse} def
/BL {stroke userlinewidth 2 mul setlinewidth
	Rounded {1 setlinejoin 1 setlinecap} if} def
/AL {stroke userlinewidth 2 div setlinewidth
	Rounded {1 setlinejoin 1 setlinecap} if} def
/UL {dup gnulinewidth mul /userlinewidth exch def
	dup 1 lt {pop 1} if 10 mul /udl exch def} def
/PL {stroke userlinewidth setlinewidth
	Rounded {1 setlinejoin 1 setlinecap} if} def
3.8 setmiterlimit
% Default Line colors
/LCw {1 1 1} def
/LCb {0 0 0} def
/LCa {0 0 0} def
/LC0 {1 0 0} def
/LC1 {0 1 0} def
/LC2 {0 0 1} def
/LC3 {1 0 1} def
/LC4 {0 1 1} def
/LC5 {1 1 0} def
/LC6 {0 0 0} def
/LC7 {1 0.3 0} def
/LC8 {0.5 0.5 0.5} def
% Default Line Types
/LTw {PL [] 1 setgray} def
/LTb {BL [] LCb DL} def
/LTa {AL [1 udl mul 2 udl mul] 0 setdash LCa setrgbcolor} def
/LT0 {PL [] LC0 DL} def
/LT1 {PL [4 dl1 2 dl2] LC1 DL} def
/LT2 {PL [2 dl1 3 dl2] LC2 DL} def
/LT3 {PL [1 dl1 1.5 dl2] LC3 DL} def
/LT4 {PL [6 dl1 2 dl2 1 dl1 2 dl2] LC4 DL} def
/LT5 {PL [3 dl1 3 dl2 1 dl1 3 dl2] LC5 DL} def
/LT6 {PL [2 dl1 2 dl2 2 dl1 6 dl2] LC6 DL} def
/LT7 {PL [1 dl1 2 dl2 6 dl1 2 dl2 1 dl1 2 dl2] LC7 DL} def
/LT8 {PL [2 dl1 2 dl2 2 dl1 2 dl2 2 dl1 2 dl2 2 dl1 4 dl2] LC8 DL} def
/Pnt {stroke [] 0 setdash gsave 1 setlinecap M 0 0 V stroke grestore} def
/Dia {stroke [] 0 setdash 2 copy vpt add M
  hpt neg vpt neg V hpt vpt neg V
  hpt vpt V hpt neg vpt V closepath stroke
  Pnt} def
/Pls {stroke [] 0 setdash vpt sub M 0 vpt2 V
  currentpoint stroke M
  hpt neg vpt neg R hpt2 0 V stroke
 } def
/Box {stroke [] 0 setdash 2 copy exch hpt sub exch vpt add M
  0 vpt2 neg V hpt2 0 V 0 vpt2 V
  hpt2 neg 0 V closepath stroke
  Pnt} def
/Crs {stroke [] 0 setdash exch hpt sub exch vpt add M
  hpt2 vpt2 neg V currentpoint stroke M
  hpt2 neg 0 R hpt2 vpt2 V stroke} def
/TriU {stroke [] 0 setdash 2 copy vpt 1.12 mul add M
  hpt neg vpt -1.62 mul V
  hpt 2 mul 0 V
  hpt neg vpt 1.62 mul V closepath stroke
  Pnt} def
/Star {2 copy Pls Crs} def
/BoxF {stroke [] 0 setdash exch hpt sub exch vpt add M
  0 vpt2 neg V hpt2 0 V 0 vpt2 V
  hpt2 neg 0 V closepath fill} def
/TriUF {stroke [] 0 setdash vpt 1.12 mul add M
  hpt neg vpt -1.62 mul V
  hpt 2 mul 0 V
  hpt neg vpt 1.62 mul V closepath fill} def
/TriD {stroke [] 0 setdash 2 copy vpt 1.12 mul sub M
  hpt neg vpt 1.62 mul V
  hpt 2 mul 0 V
  hpt neg vpt -1.62 mul V closepath stroke
  Pnt} def
/TriDF {stroke [] 0 setdash vpt 1.12 mul sub M
  hpt neg vpt 1.62 mul V
  hpt 2 mul 0 V
  hpt neg vpt -1.62 mul V closepath fill} def
/DiaF {stroke [] 0 setdash vpt add M
  hpt neg vpt neg V hpt vpt neg V
  hpt vpt V hpt neg vpt V closepath fill} def
/Pent {stroke [] 0 setdash 2 copy gsave
  translate 0 hpt M 4 {72 rotate 0 hpt L} repeat
  closepath stroke grestore Pnt} def
/PentF {stroke [] 0 setdash gsave
  translate 0 hpt M 4 {72 rotate 0 hpt L} repeat
  closepath fill grestore} def
/Circle {stroke [] 0 setdash 2 copy
  hpt 0 360 arc stroke Pnt} def
/CircleF {stroke [] 0 setdash hpt 0 360 arc fill} def
/C0 {BL [] 0 setdash 2 copy moveto vpt 90 450 arc} bind def
/C1 {BL [] 0 setdash 2 copy moveto
	2 copy vpt 0 90 arc closepath fill
	vpt 0 360 arc closepath} bind def
/C2 {BL [] 0 setdash 2 copy moveto
	2 copy vpt 90 180 arc closepath fill
	vpt 0 360 arc closepath} bind def
/C3 {BL [] 0 setdash 2 copy moveto
	2 copy vpt 0 180 arc closepath fill
	vpt 0 360 arc closepath} bind def
/C4 {BL [] 0 setdash 2 copy moveto
	2 copy vpt 180 270 arc closepath fill
	vpt 0 360 arc closepath} bind def
/C5 {BL [] 0 setdash 2 copy moveto
	2 copy vpt 0 90 arc
	2 copy moveto
	2 copy vpt 180 270 arc closepath fill
	vpt 0 360 arc} bind def
/C6 {BL [] 0 setdash 2 copy moveto
	2 copy vpt 90 270 arc closepath fill
	vpt 0 360 arc closepath} bind def
/C7 {BL [] 0 setdash 2 copy moveto
	2 copy vpt 0 270 arc closepath fill
	vpt 0 360 arc closepath} bind def
/C8 {BL [] 0 setdash 2 copy moveto
	2 copy vpt 270 360 arc closepath fill
	vpt 0 360 arc closepath} bind def
/C9 {BL [] 0 setdash 2 copy moveto
	2 copy vpt 270 450 arc closepath fill
	vpt 0 360 arc closepath} bind def
/C10 {BL [] 0 setdash 2 copy 2 copy moveto vpt 270 360 arc closepath fill
	2 copy moveto
	2 copy vpt 90 180 arc closepath fill
	vpt 0 360 arc closepath} bind def
/C11 {BL [] 0 setdash 2 copy moveto
	2 copy vpt 0 180 arc closepath fill
	2 copy moveto
	2 copy vpt 270 360 arc closepath fill
	vpt 0 360 arc closepath} bind def
/C12 {BL [] 0 setdash 2 copy moveto
	2 copy vpt 180 360 arc closepath fill
	vpt 0 360 arc closepath} bind def
/C13 {BL [] 0 setdash 2 copy moveto
	2 copy vpt 0 90 arc closepath fill
	2 copy moveto
	2 copy vpt 180 360 arc closepath fill
	vpt 0 360 arc closepath} bind def
/C14 {BL [] 0 setdash 2 copy moveto
	2 copy vpt 90 360 arc closepath fill
	vpt 0 360 arc} bind def
/C15 {BL [] 0 setdash 2 copy vpt 0 360 arc closepath fill
	vpt 0 360 arc closepath} bind def
/Rec {newpath 4 2 roll moveto 1 index 0 rlineto 0 exch rlineto
	neg 0 rlineto closepath} bind def
/Square {dup Rec} bind def
/Bsquare {vpt sub exch vpt sub exch vpt2 Square} bind def
/S0 {BL [] 0 setdash 2 copy moveto 0 vpt rlineto BL Bsquare} bind def
/S1 {BL [] 0 setdash 2 copy vpt Square fill Bsquare} bind def
/S2 {BL [] 0 setdash 2 copy exch vpt sub exch vpt Square fill Bsquare} bind def
/S3 {BL [] 0 setdash 2 copy exch vpt sub exch vpt2 vpt Rec fill Bsquare} bind def
/S4 {BL [] 0 setdash 2 copy exch vpt sub exch vpt sub vpt Square fill Bsquare} bind def
/S5 {BL [] 0 setdash 2 copy 2 copy vpt Square fill
	exch vpt sub exch vpt sub vpt Square fill Bsquare} bind def
/S6 {BL [] 0 setdash 2 copy exch vpt sub exch vpt sub vpt vpt2 Rec fill Bsquare} bind def
/S7 {BL [] 0 setdash 2 copy exch vpt sub exch vpt sub vpt vpt2 Rec fill
	2 copy vpt Square fill Bsquare} bind def
/S8 {BL [] 0 setdash 2 copy vpt sub vpt Square fill Bsquare} bind def
/S9 {BL [] 0 setdash 2 copy vpt sub vpt vpt2 Rec fill Bsquare} bind def
/S10 {BL [] 0 setdash 2 copy vpt sub vpt Square fill 2 copy exch vpt sub exch vpt Square fill
	Bsquare} bind def
/S11 {BL [] 0 setdash 2 copy vpt sub vpt Square fill 2 copy exch vpt sub exch vpt2 vpt Rec fill
	Bsquare} bind def
/S12 {BL [] 0 setdash 2 copy exch vpt sub exch vpt sub vpt2 vpt Rec fill Bsquare} bind def
/S13 {BL [] 0 setdash 2 copy exch vpt sub exch vpt sub vpt2 vpt Rec fill
	2 copy vpt Square fill Bsquare} bind def
/S14 {BL [] 0 setdash 2 copy exch vpt sub exch vpt sub vpt2 vpt Rec fill
	2 copy exch vpt sub exch vpt Square fill Bsquare} bind def
/S15 {BL [] 0 setdash 2 copy Bsquare fill Bsquare} bind def
/D0 {gsave translate 45 rotate 0 0 S0 stroke grestore} bind def
/D1 {gsave translate 45 rotate 0 0 S1 stroke grestore} bind def
/D2 {gsave translate 45 rotate 0 0 S2 stroke grestore} bind def
/D3 {gsave translate 45 rotate 0 0 S3 stroke grestore} bind def
/D4 {gsave translate 45 rotate 0 0 S4 stroke grestore} bind def
/D5 {gsave translate 45 rotate 0 0 S5 stroke grestore} bind def
/D6 {gsave translate 45 rotate 0 0 S6 stroke grestore} bind def
/D7 {gsave translate 45 rotate 0 0 S7 stroke grestore} bind def
/D8 {gsave translate 45 rotate 0 0 S8 stroke grestore} bind def
/D9 {gsave translate 45 rotate 0 0 S9 stroke grestore} bind def
/D10 {gsave translate 45 rotate 0 0 S10 stroke grestore} bind def
/D11 {gsave translate 45 rotate 0 0 S11 stroke grestore} bind def
/D12 {gsave translate 45 rotate 0 0 S12 stroke grestore} bind def
/D13 {gsave translate 45 rotate 0 0 S13 stroke grestore} bind def
/D14 {gsave translate 45 rotate 0 0 S14 stroke grestore} bind def
/D15 {gsave translate 45 rotate 0 0 S15 stroke grestore} bind def
/DiaE {stroke [] 0 setdash vpt add M
  hpt neg vpt neg V hpt vpt neg V
  hpt vpt V hpt neg vpt V closepath stroke} def
/BoxE {stroke [] 0 setdash exch hpt sub exch vpt add M
  0 vpt2 neg V hpt2 0 V 0 vpt2 V
  hpt2 neg 0 V closepath stroke} def
/TriUE {stroke [] 0 setdash vpt 1.12 mul add M
  hpt neg vpt -1.62 mul V
  hpt 2 mul 0 V
  hpt neg vpt 1.62 mul V closepath stroke} def
/TriDE {stroke [] 0 setdash vpt 1.12 mul sub M
  hpt neg vpt 1.62 mul V
  hpt 2 mul 0 V
  hpt neg vpt -1.62 mul V closepath stroke} def
/PentE {stroke [] 0 setdash gsave
  translate 0 hpt M 4 {72 rotate 0 hpt L} repeat
  closepath stroke grestore} def
/CircE {stroke [] 0 setdash 
  hpt 0 360 arc stroke} def
/Opaque {gsave closepath 1 setgray fill grestore 0 setgray closepath} def
/DiaW {stroke [] 0 setdash vpt add M
  hpt neg vpt neg V hpt vpt neg V
  hpt vpt V hpt neg vpt V Opaque stroke} def
/BoxW {stroke [] 0 setdash exch hpt sub exch vpt add M
  0 vpt2 neg V hpt2 0 V 0 vpt2 V
  hpt2 neg 0 V Opaque stroke} def
/TriUW {stroke [] 0 setdash vpt 1.12 mul add M
  hpt neg vpt -1.62 mul V
  hpt 2 mul 0 V
  hpt neg vpt 1.62 mul V Opaque stroke} def
/TriDW {stroke [] 0 setdash vpt 1.12 mul sub M
  hpt neg vpt 1.62 mul V
  hpt 2 mul 0 V
  hpt neg vpt -1.62 mul V Opaque stroke} def
/PentW {stroke [] 0 setdash gsave
  translate 0 hpt M 4 {72 rotate 0 hpt L} repeat
  Opaque stroke grestore} def
/CircW {stroke [] 0 setdash 
  hpt 0 360 arc Opaque stroke} def
/BoxFill {gsave Rec 1 setgray fill grestore} def
/Density {
  /Fillden exch def
  currentrgbcolor
  /ColB exch def /ColG exch def /ColR exch def
  /ColR ColR Fillden mul Fillden sub 1 add def
  /ColG ColG Fillden mul Fillden sub 1 add def
  /ColB ColB Fillden mul Fillden sub 1 add def
  ColR ColG ColB setrgbcolor} def
/BoxColFill {gsave Rec PolyFill} def
/PolyFill {gsave Density fill grestore grestore} def
/h {rlineto rlineto rlineto gsave closepath fill grestore} bind def
%
% PostScript Level 1 Pattern Fill routine for rectangles
% Usage: x y w h s a XX PatternFill
%	x,y = lower left corner of box to be filled
%	w,h = width and height of box
%	  a = angle in degrees between lines and x-axis
%	 XX = 0/1 for no/yes cross-hatch
%
/PatternFill {gsave /PFa [ 9 2 roll ] def
  PFa 0 get PFa 2 get 2 div add PFa 1 get PFa 3 get 2 div add translate
  PFa 2 get -2 div PFa 3 get -2 div PFa 2 get PFa 3 get Rec
  TransparentPatterns {} {gsave 1 setgray fill grestore} ifelse
  clip
  currentlinewidth 0.5 mul setlinewidth
  /PFs PFa 2 get dup mul PFa 3 get dup mul add sqrt def
  0 0 M PFa 5 get rotate PFs -2 div dup translate
  0 1 PFs PFa 4 get div 1 add floor cvi
	{PFa 4 get mul 0 M 0 PFs V} for
  0 PFa 6 get ne {
	0 1 PFs PFa 4 get div 1 add floor cvi
	{PFa 4 get mul 0 2 1 roll M PFs 0 V} for
 } if
  stroke grestore} def
%
/languagelevel where
 {pop languagelevel} {1} ifelse
 2 lt
	{/InterpretLevel1 true def}
	{/InterpretLevel1 Level1 def}
 ifelse
%
% PostScript level 2 pattern fill definitions
%
/Level2PatternFill {
/Tile8x8 {/PaintType 2 /PatternType 1 /TilingType 1 /BBox [0 0 8 8] /XStep 8 /YStep 8}
	bind def
/KeepColor {currentrgbcolor [/Pattern /DeviceRGB] setcolorspace} bind def
<< Tile8x8
 /PaintProc {0.5 setlinewidth pop 0 0 M 8 8 L 0 8 M 8 0 L stroke} 
>> matrix makepattern
/Pat1 exch def
<< Tile8x8
 /PaintProc {0.5 setlinewidth pop 0 0 M 8 8 L 0 8 M 8 0 L stroke
	0 4 M 4 8 L 8 4 L 4 0 L 0 4 L stroke}
>> matrix makepattern
/Pat2 exch def
<< Tile8x8
 /PaintProc {0.5 setlinewidth pop 0 0 M 0 8 L
	8 8 L 8 0 L 0 0 L fill}
>> matrix makepattern
/Pat3 exch def
<< Tile8x8
 /PaintProc {0.5 setlinewidth pop -4 8 M 8 -4 L
	0 12 M 12 0 L stroke}
>> matrix makepattern
/Pat4 exch def
<< Tile8x8
 /PaintProc {0.5 setlinewidth pop -4 0 M 8 12 L
	0 -4 M 12 8 L stroke}
>> matrix makepattern
/Pat5 exch def
<< Tile8x8
 /PaintProc {0.5 setlinewidth pop -2 8 M 4 -4 L
	0 12 M 8 -4 L 4 12 M 10 0 L stroke}
>> matrix makepattern
/Pat6 exch def
<< Tile8x8
 /PaintProc {0.5 setlinewidth pop -2 0 M 4 12 L
	0 -4 M 8 12 L 4 -4 M 10 8 L stroke}
>> matrix makepattern
/Pat7 exch def
<< Tile8x8
 /PaintProc {0.5 setlinewidth pop 8 -2 M -4 4 L
	12 0 M -4 8 L 12 4 M 0 10 L stroke}
>> matrix makepattern
/Pat8 exch def
<< Tile8x8
 /PaintProc {0.5 setlinewidth pop 0 -2 M 12 4 L
	-4 0 M 12 8 L -4 4 M 8 10 L stroke}
>> matrix makepattern
/Pat9 exch def
/Pattern1 {PatternBgnd KeepColor Pat1 setpattern} bind def
/Pattern2 {PatternBgnd KeepColor Pat2 setpattern} bind def
/Pattern3 {PatternBgnd KeepColor Pat3 setpattern} bind def
/Pattern4 {PatternBgnd KeepColor Landscape {Pat5} {Pat4} ifelse setpattern} bind def
/Pattern5 {PatternBgnd KeepColor Landscape {Pat4} {Pat5} ifelse setpattern} bind def
/Pattern6 {PatternBgnd KeepColor Landscape {Pat9} {Pat6} ifelse setpattern} bind def
/Pattern7 {PatternBgnd KeepColor Landscape {Pat8} {Pat7} ifelse setpattern} bind def
} def
%
%
%End of PostScript Level 2 code
%
/PatternBgnd {
  TransparentPatterns {} {gsave 1 setgray fill grestore} ifelse
} def
%
% Substitute for Level 2 pattern fill codes with
% grayscale if Level 2 support is not selected.
%
/Level1PatternFill {
/Pattern1 {0.250 Density} bind def
/Pattern2 {0.500 Density} bind def
/Pattern3 {0.750 Density} bind def
/Pattern4 {0.125 Density} bind def
/Pattern5 {0.375 Density} bind def
/Pattern6 {0.625 Density} bind def
/Pattern7 {0.875 Density} bind def
} def
%
% Now test for support of Level 2 code
%
Level1 {Level1PatternFill} {Level2PatternFill} ifelse
%
/Symbol-Oblique /Symbol findfont [1 0 .167 1 0 0] makefont
dup length dict begin {1 index /FID eq {pop pop} {def} ifelse} forall
currentdict end definefont pop
/MFshow {
   { dup 5 get 3 ge
     { 5 get 3 eq {gsave} {grestore} ifelse }
     {dup dup 0 get findfont exch 1 get scalefont setfont
     [ currentpoint ] exch dup 2 get 0 exch R dup 5 get 2 ne {dup dup 6
     get exch 4 get {Gshow} {stringwidth pop 0 R} ifelse }if dup 5 get 0 eq
     {dup 3 get {2 get neg 0 exch R pop} {pop aload pop M} ifelse} {dup 5
     get 1 eq {dup 2 get exch dup 3 get exch 6 get stringwidth pop -2 div
     dup 0 R} {dup 6 get stringwidth pop -2 div 0 R 6 get
     show 2 index {aload pop M neg 3 -1 roll neg R pop pop} {pop pop pop
     pop aload pop M} ifelse }ifelse }ifelse }
     ifelse }
   forall} def
/Gswidth {dup type /stringtype eq {stringwidth} {pop (n) stringwidth} ifelse} def
/MFwidth {0 exch { dup 5 get 3 ge { 5 get 3 eq { 0 } { pop } ifelse }
 {dup 3 get{dup dup 0 get findfont exch 1 get scalefont setfont
     6 get Gswidth pop add} {pop} ifelse} ifelse} forall} def
/MLshow { currentpoint stroke M
  0 exch R
  Blacktext {gsave 0 setgray MFshow grestore} {MFshow} ifelse } bind def
/MRshow { currentpoint stroke M
  exch dup MFwidth neg 3 -1 roll R
  Blacktext {gsave 0 setgray MFshow grestore} {MFshow} ifelse } bind def
/MCshow { currentpoint stroke M
  exch dup MFwidth -2 div 3 -1 roll R
  Blacktext {gsave 0 setgray MFshow grestore} {MFshow} ifelse } bind def
/XYsave    { [( ) 1 2 true false 3 ()] } bind def
/XYrestore { [( ) 1 2 true false 4 ()] } bind def
Level1 SuppressPDFMark or 
{} {
/SDict 10 dict def
systemdict /pdfmark known not {
  userdict /pdfmark systemdict /cleartomark get put
} if
SDict begin [
  /Title (repeating_conn_2492180285_722864432.eps)
  /Subject (gnuplot plot)
  /Creator (gnuplot 4.6 patchlevel 2)
  /Author (olgabo)
%  /Producer (gnuplot)
%  /Keywords ()
  /CreationDate (Tue Apr  8 12:59:15 2014)
  /DOCINFO pdfmark
end
} ifelse
end
%%EndProlog
%%Page: 1 1
gnudict begin
gsave
doclip
50 50 translate
0.050 0.050 scale
0 setgray
newpath
(Times) findfont 200 scalefont setfont
BackgroundColor 0 lt 3 1 roll 0 lt exch 0 lt or or not {BackgroundColor C 1.000 0 0 14400.00 10080.00 BoxColFill} if
1.000 UL
LTb
LCb setrgbcolor
1.000 UL
LTa
LCa setrgbcolor
1200 3493 M
12598 0 V
stroke
LTb
LCb setrgbcolor
1200 3493 M
63 0 V
12535 0 R
-63 0 V
stroke
1080 3493 M
[ [(Times) 200.0 0.0 true true 0 ( 0)]
] -66.7 MRshow
1.000 UL
LTb
LCb setrgbcolor
1.000 UL
LTa
LCa setrgbcolor
1200 3938 M
12598 0 V
stroke
LTb
LCb setrgbcolor
1200 3938 M
63 0 V
12535 0 R
-63 0 V
stroke
1080 3938 M
[ [(Times) 200.0 0.0 true true 0 ( 100)]
] -66.7 MRshow
1.000 UL
LTb
LCb setrgbcolor
1.000 UL
LTa
LCa setrgbcolor
1200 4382 M
12598 0 V
stroke
LTb
LCb setrgbcolor
1200 4382 M
63 0 V
12535 0 R
-63 0 V
stroke
1080 4382 M
[ [(Times) 200.0 0.0 true true 0 ( 200)]
] -66.7 MRshow
1.000 UL
LTb
LCb setrgbcolor
1.000 UL
LTa
LCa setrgbcolor
1200 4827 M
12598 0 V
stroke
LTb
LCb setrgbcolor
1200 4827 M
63 0 V
12535 0 R
-63 0 V
stroke
1080 4827 M
[ [(Times) 200.0 0.0 true true 0 ( 300)]
] -66.7 MRshow
1.000 UL
LTb
LCb setrgbcolor
1.000 UL
LTa
LCa setrgbcolor
1200 5271 M
12598 0 V
stroke
LTb
LCb setrgbcolor
1200 5271 M
63 0 V
12535 0 R
-63 0 V
stroke
1080 5271 M
[ [(Times) 200.0 0.0 true true 0 ( 400)]
] -66.7 MRshow
1.000 UL
LTb
LCb setrgbcolor
1.000 UL
LTa
LCa setrgbcolor
1200 5716 M
12598 0 V
stroke
LTb
LCb setrgbcolor
1200 5716 M
63 0 V
12535 0 R
-63 0 V
stroke
1080 5716 M
[ [(Times) 200.0 0.0 true true 0 ( 500)]
] -66.7 MRshow
1.000 UL
LTb
LCb setrgbcolor
1.000 UL
LTa
LCa setrgbcolor
1200 6160 M
12598 0 V
stroke
LTb
LCb setrgbcolor
1200 6160 M
63 0 V
12535 0 R
-63 0 V
stroke
1080 6160 M
[ [(Times) 200.0 0.0 true true 0 ( 600)]
] -66.7 MRshow
1.000 UL
LTb
LCb setrgbcolor
1.000 UL
LTa
LCa setrgbcolor
1200 6605 M
12598 0 V
stroke
LTb
LCb setrgbcolor
1200 6605 M
63 0 V
12535 0 R
-63 0 V
stroke
1080 6605 M
[ [(Times) 200.0 0.0 true true 0 ( 700)]
] -66.7 MRshow
1.000 UL
LTb
LCb setrgbcolor
1.000 UL
LTa
LCa setrgbcolor
1200 7049 M
12598 0 V
stroke
LTb
LCb setrgbcolor
1200 7049 M
63 0 V
12535 0 R
-63 0 V
stroke
1080 7049 M
[ [(Times) 200.0 0.0 true true 0 ( 800)]
] -66.7 MRshow
1.000 UL
LTb
LCb setrgbcolor
1.000 UL
LTa
LCa setrgbcolor
1200 3493 M
0 3556 V
stroke
LTb
LCb setrgbcolor
1200 3493 M
0 63 V
0 3493 R
0 -63 V
stroke
1200 3373 M
currentpoint gsave translate -45 rotate 0 0 moveto
[ [(Times) 200.0 0.0 true true 0 ( 0)]
] -66.7 MLshow
grestore
1.000 UL
LTb
LCb setrgbcolor
1.000 UL
LTa
LCa setrgbcolor
2775 3493 M
0 3556 V
stroke
LTb
LCb setrgbcolor
2775 3493 M
0 63 V
0 3493 R
0 -63 V
stroke
2775 3373 M
currentpoint gsave translate -45 rotate 0 0 moveto
[ [(Times) 200.0 0.0 true true 0 ( 500)]
] -66.7 MLshow
grestore
1.000 UL
LTb
LCb setrgbcolor
1.000 UL
LTa
LCa setrgbcolor
4350 3493 M
0 3556 V
stroke
LTb
LCb setrgbcolor
4350 3493 M
0 63 V
0 3493 R
0 -63 V
stroke
4350 3373 M
currentpoint gsave translate -45 rotate 0 0 moveto
[ [(Times) 200.0 0.0 true true 0 ( 1000)]
] -66.7 MLshow
grestore
1.000 UL
LTb
LCb setrgbcolor
1.000 UL
LTa
LCa setrgbcolor
5924 3493 M
0 3556 V
stroke
LTb
LCb setrgbcolor
5924 3493 M
0 63 V
0 3493 R
0 -63 V
stroke
5924 3373 M
currentpoint gsave translate -45 rotate 0 0 moveto
[ [(Times) 200.0 0.0 true true 0 ( 1500)]
] -66.7 MLshow
grestore
1.000 UL
LTb
LCb setrgbcolor
1.000 UL
LTa
LCa setrgbcolor
7499 3493 M
0 3556 V
stroke
LTb
LCb setrgbcolor
7499 3493 M
0 63 V
0 3493 R
0 -63 V
stroke
7499 3373 M
currentpoint gsave translate -45 rotate 0 0 moveto
[ [(Times) 200.0 0.0 true true 0 ( 2000)]
] -66.7 MLshow
grestore
1.000 UL
LTb
LCb setrgbcolor
1.000 UL
LTa
LCa setrgbcolor
9074 3493 M
0 3556 V
stroke
LTb
LCb setrgbcolor
9074 3493 M
0 63 V
0 3493 R
0 -63 V
stroke
9074 3373 M
currentpoint gsave translate -45 rotate 0 0 moveto
[ [(Times) 200.0 0.0 true true 0 ( 2500)]
] -66.7 MLshow
grestore
1.000 UL
LTb
LCb setrgbcolor
1.000 UL
LTa
LCa setrgbcolor
10649 3493 M
0 3556 V
stroke
LTb
LCb setrgbcolor
10649 3493 M
0 63 V
0 3493 R
0 -63 V
stroke
10649 3373 M
currentpoint gsave translate -45 rotate 0 0 moveto
[ [(Times) 200.0 0.0 true true 0 ( 3000)]
] -66.7 MLshow
grestore
1.000 UL
LTb
LCb setrgbcolor
1.000 UL
LTa
LCa setrgbcolor
12223 3493 M
0 3556 V
stroke
LTb
LCb setrgbcolor
12223 3493 M
0 63 V
0 3493 R
0 -63 V
stroke
12223 3373 M
currentpoint gsave translate -45 rotate 0 0 moveto
[ [(Times) 200.0 0.0 true true 0 ( 3500)]
] -66.7 MLshow
grestore
1.000 UL
LTb
LCb setrgbcolor
1.000 UL
LTa
LCa setrgbcolor
13798 3493 M
0 3556 V
stroke
LTb
LCb setrgbcolor
13798 3493 M
0 63 V
0 3493 R
0 -63 V
stroke
13798 3373 M
currentpoint gsave translate -45 rotate 0 0 moveto
[ [(Times) 200.0 0.0 true true 0 ( 4000)]
] -66.7 MLshow
grestore
1.000 UL
LTb
LCb setrgbcolor
1.000 UL
LTb
LCb setrgbcolor
1200 7049 N
0 -3556 V
12598 0 V
0 3556 V
-12598 0 V
Z stroke
LCb setrgbcolor
380 5271 M
currentpoint gsave translate -270 rotate 0 0 moveto
[ [(Times) 200.0 0.0 true true 0 (Duration [sec])]
] -66.7 MCshow
grestore
LTb
LCb setrgbcolor
7499 2769 M
[ [(Times) 200.0 0.0 true true 0 (Time [sec])]
] -66.7 MCshow
LTb
7499 7349 M
[ [(Times) 200.0 0.0 true true 0 (src port 80, repeating connections sorted by start time)]
] -66.7 MCshow
1.000 UP
1.000 UL
LTb
LCb setrgbcolor
1.000 UL
LT8
LC8 setrgbcolor
7108 63 N
782 0 V
-782 0 V
Z stroke
% Begin plot #1
1.000 UP
1.000 UL
LT8
0.00 0.00 1.00 C 1200 4326 M
186 502 V
25 9 V
28 -332 V
26 590 V
1757 3494 L
10 296 V
3 -7 V
19 -289 V
22 1 V
22 -1 V
50 1 V
126 328 V
16 489 V
0 76 V
126 -894 V
3 -1 V
3 0 V
89 1 V
9 0 V
120 557 V
167 257 V
15 -814 V
10 0 V
3 0 V
6 0 V
3 0 V
41 1 V
4 -1 V
9 509 V
66 -509 V
3 0 V
3 0 V
7 0 V
0 448 V
6 106 V
0 5 V
28 -559 V
54 0 V
13 0 V
3 0 V
25 0 V
91 306 V
10 -307 V
9 1 V
3 0 V
0 -1 V
0 2 V
3 -2 V
16 1 V
10 0 V
3 0 V
3 -1 V
3 1 V
0 1 V
10 -1 V
3 0 V
0 1 V
3 -1 V
6 2 V
3 -2 V
13 1 V
6 1 V
6 1 V
29 0 V
12 -4 V
32 3 V
6 0 V
6 1 V
38 2528 V
44 -2531 V
41 1084 V
0 293 V
3389 3494 L
31 2 V
29 0 V
31 -1 V
3 -1 V
252 1 V
4825 6719 L
41 -58 V
25 -2656 V
57 -292 V
123 1116 V
365 -624 V
0 40 V
410 1471 V
47 -1892 V
110 -330 V
123 298 V
12 219 V
16 9 V
35 808 V
85 -1294 V
9 1346 V
6538 3508 L
70 1380 V
179 702 V
22 -553 V
375 -260 V
13 -159 V
163 -279 V
98 -61 V
205 -272 V
349 -197 V
4 88 V
0 -2 V
0 188 V
3 -258 V
88 212 V
57 -101 V
9 -46 V
57 -395 V
91 510 V
57 35 V
34 -30 V
145 366 V
0 133 V
7 -239 V
220 -267 V
318 -170 V
0 32 V
142 -168 V
22 119 V
176 -323 V
22 466 V
32 18 V
293 32 V
94 55 V
142 154 V
148 -722 V
101 6 V
6 -7 V
44 478 V
0 204 V
41 -77 V
224 -317 V
15 -82 V
164 17 V
25 -109 V
16 -1 V
0 4 V
0 156 V
136 -108 V
0 53 V
12 133 V
214 1363 V
230 -1466 V
0 89 V
0 80 V
164 75 V
41 50 V
25 -152 V
199 -115 V
151 239 V
3 -82 V
145 -300 V
107 -132 V
44 30 V
0 240 V
25 239 V
1200 4326 TriUF
1386 4828 TriUF
1411 4837 TriUF
1439 4505 TriUF
1465 5095 TriUF
1757 3494 TriUF
1767 3790 TriUF
1770 3783 TriUF
1789 3494 TriUF
1811 3495 TriUF
1833 3494 TriUF
1883 3495 TriUF
2009 3823 TriUF
2025 4312 TriUF
2025 4388 TriUF
2151 3494 TriUF
2154 3493 TriUF
2157 3493 TriUF
2246 3494 TriUF
2255 3494 TriUF
2255 3494 TriUF
2255 3494 TriUF
2255 3494 TriUF
2375 4051 TriUF
2542 4308 TriUF
2557 3494 TriUF
2567 3494 TriUF
2567 3494 TriUF
2567 3494 TriUF
2570 3494 TriUF
2576 3494 TriUF
2576 3494 TriUF
2576 3494 TriUF
2576 3494 TriUF
2579 3494 TriUF
2579 3494 TriUF
2620 3495 TriUF
2624 3494 TriUF
2633 4003 TriUF
2699 3494 TriUF
2702 3494 TriUF
2705 3494 TriUF
2705 3494 TriUF
2712 3494 TriUF
2712 3942 TriUF
2718 4048 TriUF
2718 4053 TriUF
2746 3494 TriUF
2800 3494 TriUF
2813 3494 TriUF
2816 3494 TriUF
2841 3494 TriUF
2932 3800 TriUF
2932 3800 TriUF
2942 3493 TriUF
2951 3494 TriUF
2954 3494 TriUF
2954 3493 TriUF
2954 3495 TriUF
2957 3493 TriUF
2973 3494 TriUF
2983 3494 TriUF
2986 3494 TriUF
2986 3494 TriUF
2989 3493 TriUF
2992 3494 TriUF
2992 3495 TriUF
3002 3494 TriUF
3005 3494 TriUF
3005 3495 TriUF
3008 3494 TriUF
3014 3496 TriUF
3017 3494 TriUF
3030 3495 TriUF
3036 3496 TriUF
3042 3497 TriUF
3071 3497 TriUF
3083 3493 TriUF
3115 3496 TriUF
3121 3496 TriUF
3127 3497 TriUF
3165 6025 TriUF
3209 3494 TriUF
3250 4578 TriUF
3250 4871 TriUF
3389 3494 TriUF
3420 3496 TriUF
3449 3496 TriUF
3480 3495 TriUF
3483 3494 TriUF
3735 3495 TriUF
4825 6719 TriUF
4866 6661 TriUF
4891 4005 TriUF
4948 3713 TriUF
5071 4829 TriUF
5436 4205 TriUF
5436 4245 TriUF
5846 5716 TriUF
5893 3824 TriUF
6003 3494 TriUF
6126 3792 TriUF
6126 3792 TriUF
6138 4011 TriUF
6154 4020 TriUF
6189 4828 TriUF
6274 3534 TriUF
6283 4880 TriUF
6538 3508 TriUF
6608 4888 TriUF
6787 5590 TriUF
6809 5037 TriUF
7184 4777 TriUF
7197 4618 TriUF
7360 4339 TriUF
7458 4278 TriUF
7663 4006 TriUF
8012 3809 TriUF
8016 3897 TriUF
8016 3895 TriUF
8016 4083 TriUF
8019 3825 TriUF
8107 4037 TriUF
8164 3936 TriUF
8173 3890 TriUF
8230 3495 TriUF
8321 4005 TriUF
8378 4040 TriUF
8412 4010 TriUF
8412 4010 TriUF
8557 4376 TriUF
8557 4509 TriUF
8564 4270 TriUF
8784 4003 TriUF
9102 3833 TriUF
9102 3865 TriUF
9244 3697 TriUF
9266 3816 TriUF
9442 3493 TriUF
9464 3959 TriUF
9496 3977 TriUF
9789 4009 TriUF
9883 4064 TriUF
10025 4218 TriUF
10173 3496 TriUF
10274 3502 TriUF
10280 3495 TriUF
10324 3973 TriUF
10324 4177 TriUF
10365 4100 TriUF
10589 3783 TriUF
10604 3701 TriUF
10768 3718 TriUF
10793 3609 TriUF
10809 3608 TriUF
10809 3612 TriUF
10809 3768 TriUF
10945 3660 TriUF
10945 3713 TriUF
10957 3846 TriUF
10957 3846 TriUF
11171 5209 TriUF
11401 3743 TriUF
11401 3832 TriUF
11401 3912 TriUF
11565 3987 TriUF
11606 4037 TriUF
11631 3885 TriUF
11830 3770 TriUF
11981 4009 TriUF
11984 3927 TriUF
12129 3627 TriUF
12236 3495 TriUF
12280 3525 TriUF
12280 3765 TriUF
12305 4004 TriUF
% End plot #1
1.000 UL
LTb
LCb setrgbcolor
1200 7049 N
0 -3556 V
12598 0 V
0 3556 V
-12598 0 V
Z stroke
1.000 UP
1.000 UL
LTb
LCb setrgbcolor
stroke
grestore
end
showpage
%%Page: 2 2
gnudict begin
gsave
doclip
50 50 translate
0.050 0.050 scale
0 setgray
newpath
(Times) findfont 200 scalefont setfont
BackgroundColor 0 lt 3 1 roll 0 lt exch 0 lt or or not {BackgroundColor C 1.000 0 0 14400.00 10080.00 BoxColFill} if
1.000 UL
LTb
LCb setrgbcolor
1.000 UL
LTa
LCa setrgbcolor
600 3408 M
12598 0 V
stroke
LTb
LCb setrgbcolor
600 3408 M
63 0 V
12535 0 R
-63 0 V
stroke
480 3408 M
[ [(Times) 200.0 0.0 true true 0 ( 0)]
] -66.7 MRshow
1.000 UL
LTb
LCb setrgbcolor
1.000 UL
LTa
LCa setrgbcolor
600 4015 M
12598 0 V
stroke
LTb
LCb setrgbcolor
600 4015 M
63 0 V
12535 0 R
-63 0 V
stroke
480 4015 M
[ [(Times) 200.0 0.0 true true 0 ( 50000)]
] -66.7 MRshow
1.000 UL
LTb
LCb setrgbcolor
1.000 UL
LTa
LCa setrgbcolor
600 4622 M
12598 0 V
stroke
LTb
LCb setrgbcolor
600 4622 M
63 0 V
12535 0 R
-63 0 V
stroke
480 4622 M
[ [(Times) 200.0 0.0 true true 0 ( 100000)]
] -66.7 MRshow
1.000 UL
LTb
LCb setrgbcolor
1.000 UL
LTa
LCa setrgbcolor
600 5229 M
12598 0 V
stroke
LTb
LCb setrgbcolor
600 5229 M
63 0 V
12535 0 R
-63 0 V
stroke
480 5229 M
[ [(Times) 200.0 0.0 true true 0 ( 150000)]
] -66.7 MRshow
1.000 UL
LTb
LCb setrgbcolor
1.000 UL
LTa
LCa setrgbcolor
600 5835 M
12598 0 V
stroke
LTb
LCb setrgbcolor
600 5835 M
63 0 V
12535 0 R
-63 0 V
stroke
480 5835 M
[ [(Times) 200.0 0.0 true true 0 ( 200000)]
] -66.7 MRshow
1.000 UL
LTb
LCb setrgbcolor
1.000 UL
LTa
LCa setrgbcolor
600 6442 M
12598 0 V
stroke
LTb
LCb setrgbcolor
600 6442 M
63 0 V
12535 0 R
-63 0 V
stroke
480 6442 M
[ [(Times) 200.0 0.0 true true 0 ( 250000)]
] -66.7 MRshow
1.000 UL
LTb
LCb setrgbcolor
1.000 UL
LTa
LCa setrgbcolor
600 7049 M
12598 0 V
stroke
LTb
LCb setrgbcolor
600 7049 M
63 0 V
12535 0 R
-63 0 V
stroke
480 7049 M
[ [(Times) 200.0 0.0 true true 0 ( 300000)]
] -66.7 MRshow
1.000 UL
LTb
LCb setrgbcolor
1.000 UL
LTa
LCa setrgbcolor
600 3408 M
0 3641 V
stroke
LTb
LCb setrgbcolor
600 3408 M
0 63 V
0 3578 R
0 -63 V
stroke
600 3288 M
currentpoint gsave translate -45 rotate 0 0 moveto
[ [(Times) 200.0 0.0 true true 0 ( 0)]
] -66.7 MLshow
grestore
1.000 UL
LTb
LCb setrgbcolor
1.000 UL
LTa
LCa setrgbcolor
2175 3408 M
0 3641 V
stroke
LTb
LCb setrgbcolor
2175 3408 M
0 63 V
0 3578 R
0 -63 V
stroke
2175 3288 M
currentpoint gsave translate -45 rotate 0 0 moveto
[ [(Times) 200.0 0.0 true true 0 ( 100)]
] -66.7 MLshow
grestore
1.000 UL
LTb
LCb setrgbcolor
1.000 UL
LTa
LCa setrgbcolor
3750 3408 M
0 3641 V
stroke
LTb
LCb setrgbcolor
3750 3408 M
0 63 V
0 3578 R
0 -63 V
stroke
3750 3288 M
currentpoint gsave translate -45 rotate 0 0 moveto
[ [(Times) 200.0 0.0 true true 0 ( 200)]
] -66.7 MLshow
grestore
1.000 UL
LTb
LCb setrgbcolor
1.000 UL
LTa
LCa setrgbcolor
5324 3408 M
0 3641 V
stroke
LTb
LCb setrgbcolor
5324 3408 M
0 63 V
0 3578 R
0 -63 V
stroke
5324 3288 M
currentpoint gsave translate -45 rotate 0 0 moveto
[ [(Times) 200.0 0.0 true true 0 ( 300)]
] -66.7 MLshow
grestore
1.000 UL
LTb
LCb setrgbcolor
1.000 UL
LTa
LCa setrgbcolor
6899 3408 M
0 3641 V
stroke
LTb
LCb setrgbcolor
6899 3408 M
0 63 V
0 3578 R
0 -63 V
stroke
6899 3288 M
currentpoint gsave translate -45 rotate 0 0 moveto
[ [(Times) 200.0 0.0 true true 0 ( 400)]
] -66.7 MLshow
grestore
1.000 UL
LTb
LCb setrgbcolor
1.000 UL
LTa
LCa setrgbcolor
8474 3408 M
0 3641 V
stroke
LTb
LCb setrgbcolor
8474 3408 M
0 63 V
0 3578 R
0 -63 V
stroke
8474 3288 M
currentpoint gsave translate -45 rotate 0 0 moveto
[ [(Times) 200.0 0.0 true true 0 ( 500)]
] -66.7 MLshow
grestore
1.000 UL
LTb
LCb setrgbcolor
1.000 UL
LTa
LCa setrgbcolor
10049 3408 M
0 3641 V
stroke
LTb
LCb setrgbcolor
10049 3408 M
0 63 V
0 3578 R
0 -63 V
stroke
10049 3288 M
currentpoint gsave translate -45 rotate 0 0 moveto
[ [(Times) 200.0 0.0 true true 0 ( 600)]
] -66.7 MLshow
grestore
1.000 UL
LTb
LCb setrgbcolor
1.000 UL
LTa
LCa setrgbcolor
11623 3408 M
0 3641 V
stroke
LTb
LCb setrgbcolor
11623 3408 M
0 63 V
0 3578 R
0 -63 V
stroke
11623 3288 M
currentpoint gsave translate -45 rotate 0 0 moveto
[ [(Times) 200.0 0.0 true true 0 ( 700)]
] -66.7 MLshow
grestore
1.000 UL
LTb
LCb setrgbcolor
1.000 UL
LTa
LCa setrgbcolor
13198 3408 M
0 3641 V
stroke
LTb
LCb setrgbcolor
13198 3408 M
0 63 V
0 3578 R
0 -63 V
stroke
13198 3288 M
currentpoint gsave translate -45 rotate 0 0 moveto
[ [(Times) 200.0 0.0 true true 0 ( 800)]
] -66.7 MLshow
grestore
1.000 UL
LTb
LCb setrgbcolor
1.000 UL
LTb
LCb setrgbcolor
600 7049 N
0 -3641 V
12598 0 V
0 3641 V
600 7049 L
Z stroke
LCb setrgbcolor
-580 5228 M
currentpoint gsave translate -270 rotate 0 0 moveto
[ [(Times) 200.0 0.0 true true 0 (Flow size [bytes])]
] -66.7 MCshow
grestore
LTb
LCb setrgbcolor
6899 2769 M
[ [(Times) 200.0 0.0 true true 0 (Duration [sec])]
] -66.7 MCshow
LTb
6899 7349 M
[ [(Times) 200.0 0.0 true true 0 (src port 80, repeating connections sorted by duration)]
] -66.7 MCshow
1.000 UP
1.000 UL
LTb
LCb setrgbcolor
1.000 UL
LT8
LC8 setrgbcolor
6508 63 N
782 0 V
-782 0 V
Z stroke
% Begin plot #1
1.000 UP
1.000 UL
LT8
1.00 0.00 0.00 C 601 3414 TriUF
601 3414 TriUF
601 3414 TriUF
601 3414 TriUF
601 3414 TriUF
601 3413 TriUF
601 3417 TriUF
602 3414 TriUF
602 3414 TriUF
603 3414 TriUF
603 3414 TriUF
603 3414 TriUF
603 3414 TriUF
603 3414 TriUF
603 3414 TriUF
603 3414 TriUF
603 3414 TriUF
603 3414 TriUF
603 3414 TriUF
603 3411 TriUF
603 3414 TriUF
603 3414 TriUF
603 3414 TriUF
604 3414 TriUF
604 3414 TriUF
604 3414 TriUF
604 3414 TriUF
604 3414 TriUF
604 3414 TriUF
604 3414 TriUF
604 3414 TriUF
604 3414 TriUF
604 3414 TriUF
604 3414 TriUF
604 3414 TriUF
604 3414 TriUF
604 3414 TriUF
604 3414 TriUF
604 3414 TriUF
604 3414 TriUF
604 3414 TriUF
604 3414 TriUF
604 3414 TriUF
604 3414 TriUF
604 3414 TriUF
604 3414 TriUF
604 3414 TriUF
604 3414 TriUF
604 3414 TriUF
604 3413 TriUF
604 3414 TriUF
604 3414 TriUF
605 3414 TriUF
605 3414 TriUF
606 3414 TriUF
606 3414 TriUF
606 3445 TriUF
606 3414 TriUF
606 3414 TriUF
606 3470 TriUF
606 3414 TriUF
607 3414 TriUF
607 3414 TriUF
608 3414 TriUF
608 3452 TriUF
608 3419 TriUF
609 3414 TriUF
611 3419 TriUF
612 3414 TriUF
612 3414 TriUF
612 3414 TriUF
612 3414 TriUF
612 3414 TriUF
612 3414 TriUF
613 3414 TriUF
614 3414 TriUF
631 4087 TriUF
653 3946 TriUF
713 3497 TriUF
745 3414 TriUF
1007 3442 TriUF
1012 3442 TriUF
1022 3452 TriUF
1073 5126 TriUF
1190 4967 TriUF
1322 3444 TriUF
1337 3443 TriUF
1378 3831 TriUF
1379 3757 TriUF
1397 3648 TriUF
1487 3410 TriUF
1562 3432 TriUF
1574 3518 TriUF
1580 3443 TriUF
1626 6381 TriUF
1628 3419 TriUF
1652 4617 TriUF
1660 3455 TriUF
1660 3475 TriUF
1686 3507 TriUF
1686 3431 TriUF
1718 3410 TriUF
1744 3443 TriUF
1768 3445 TriUF
1774 3417 TriUF
1777 3417 TriUF
1802 3410 TriUF
1806 3517 TriUF
1852 3482 TriUF
1852 3478 TriUF
1916 3427 TriUF
1987 3552 TriUF
2006 3471 TriUF
2024 3420 TriUF
2032 3703 TriUF
2085 3468 TriUF
2137 3472 TriUF
2171 3412 TriUF
2190 3477 TriUF
2250 3452 TriUF
2300 3446 TriUF
2316 3438 TriUF
2349 3576 TriUF
2406 3443 TriUF
2409 3421 TriUF
2410 3452 TriUF
2414 3451 TriUF
2414 3515 TriUF
2419 3411 TriUF
2426 3414 TriUF
2428 3413 TriUF
2433 3567 TriUF
2433 3513 TriUF
2434 3437 TriUF
2465 3412 TriUF
2526 3620 TriUF
2526 3413 TriUF
2538 3451 TriUF
2567 3415 TriUF
2575 4359 TriUF
2583 3415 TriUF
2623 3577 TriUF
2689 3543 TriUF
2750 3472 TriUF
3024 3513 TriUF
3123 3489 TriUF
3170 3497 TriUF
3265 3515 TriUF
3352 3416 TriUF
3379 3414 TriUF
3487 3557 TriUF
3503 3442 TriUF
3550 3430 TriUF
3598 3731 TriUF
3728 4754 TriUF
3771 3435 TriUF
4186 3444 TriUF
4201 4021 TriUF
4443 3411 TriUF
4586 3557 TriUF
5148 3452 TriUF
5330 3510 TriUF
5331 3411 TriUF
5332 3438 TriUF
5362 3430 TriUF
5480 3414 TriUF
5512 3586 TriUF
5543 3443 TriUF
6069 6477 TriUF
6276 5144 TriUF
6680 3546 TriUF
8028 3723 TriUF
8475 3412 TriUF
9572 3497 TriUF
11823 3673 TriUF
12027 4007 TriUF
% End plot #1
1.000 UL
LTb
LCb setrgbcolor
600 7049 N
0 -3641 V
12598 0 V
0 3641 V
600 7049 L
Z stroke
1.000 UP
1.000 UL
LTb
LCb setrgbcolor
stroke
grestore
end
showpage
%%Trailer
%%DocumentFonts: Times
