%!PS-Adobe-2.0 EPSF-2.0
%%Title: repeating_conn_12319367_130245203.eps
%%Creator: gnuplot 4.6 patchlevel 2
%%CreationDate: Tue Apr  8 12:18:24 2014
%%DocumentFonts: (atend)
%%BoundingBox: 50 50 770 554
%%EndComments
%%BeginProlog
/gnudict 256 dict def
gnudict begin
%
% The following true/false flags may be edited by hand if desired.
% The unit line width and grayscale image gamma correction may also be changed.
%
/Color true def
/Blacktext false def
/Solid false def
/Dashlength 1 def
/Landscape false def
/Level1 false def
/Rounded false def
/ClipToBoundingBox false def
/SuppressPDFMark false def
/TransparentPatterns false def
/gnulinewidth 5.000 def
/userlinewidth gnulinewidth def
/Gamma 1.0 def
/BackgroundColor {-1.000 -1.000 -1.000} def
%
/vshift -66 def
/dl1 {
  10.0 Dashlength mul mul
  Rounded { currentlinewidth 0.75 mul sub dup 0 le { pop 0.01 } if } if
} def
/dl2 {
  10.0 Dashlength mul mul
  Rounded { currentlinewidth 0.75 mul add } if
} def
/hpt_ 31.5 def
/vpt_ 31.5 def
/hpt hpt_ def
/vpt vpt_ def
/doclip {
  ClipToBoundingBox {
    newpath 50 50 moveto 770 50 lineto 770 554 lineto 50 554 lineto closepath
    clip
  } if
} def
%
% Gnuplot Prolog Version 4.6 (September 2012)
%
%/SuppressPDFMark true def
%
/M {moveto} bind def
/L {lineto} bind def
/R {rmoveto} bind def
/V {rlineto} bind def
/N {newpath moveto} bind def
/Z {closepath} bind def
/C {setrgbcolor} bind def
/f {rlineto fill} bind def
/g {setgray} bind def
/Gshow {show} def   % May be redefined later in the file to support UTF-8
/vpt2 vpt 2 mul def
/hpt2 hpt 2 mul def
/Lshow {currentpoint stroke M 0 vshift R 
	Blacktext {gsave 0 setgray show grestore} {show} ifelse} def
/Rshow {currentpoint stroke M dup stringwidth pop neg vshift R
	Blacktext {gsave 0 setgray show grestore} {show} ifelse} def
/Cshow {currentpoint stroke M dup stringwidth pop -2 div vshift R 
	Blacktext {gsave 0 setgray show grestore} {show} ifelse} def
/UP {dup vpt_ mul /vpt exch def hpt_ mul /hpt exch def
  /hpt2 hpt 2 mul def /vpt2 vpt 2 mul def} def
/DL {Color {setrgbcolor Solid {pop []} if 0 setdash}
 {pop pop pop 0 setgray Solid {pop []} if 0 setdash} ifelse} def
/BL {stroke userlinewidth 2 mul setlinewidth
	Rounded {1 setlinejoin 1 setlinecap} if} def
/AL {stroke userlinewidth 2 div setlinewidth
	Rounded {1 setlinejoin 1 setlinecap} if} def
/UL {dup gnulinewidth mul /userlinewidth exch def
	dup 1 lt {pop 1} if 10 mul /udl exch def} def
/PL {stroke userlinewidth setlinewidth
	Rounded {1 setlinejoin 1 setlinecap} if} def
3.8 setmiterlimit
% Default Line colors
/LCw {1 1 1} def
/LCb {0 0 0} def
/LCa {0 0 0} def
/LC0 {1 0 0} def
/LC1 {0 1 0} def
/LC2 {0 0 1} def
/LC3 {1 0 1} def
/LC4 {0 1 1} def
/LC5 {1 1 0} def
/LC6 {0 0 0} def
/LC7 {1 0.3 0} def
/LC8 {0.5 0.5 0.5} def
% Default Line Types
/LTw {PL [] 1 setgray} def
/LTb {BL [] LCb DL} def
/LTa {AL [1 udl mul 2 udl mul] 0 setdash LCa setrgbcolor} def
/LT0 {PL [] LC0 DL} def
/LT1 {PL [4 dl1 2 dl2] LC1 DL} def
/LT2 {PL [2 dl1 3 dl2] LC2 DL} def
/LT3 {PL [1 dl1 1.5 dl2] LC3 DL} def
/LT4 {PL [6 dl1 2 dl2 1 dl1 2 dl2] LC4 DL} def
/LT5 {PL [3 dl1 3 dl2 1 dl1 3 dl2] LC5 DL} def
/LT6 {PL [2 dl1 2 dl2 2 dl1 6 dl2] LC6 DL} def
/LT7 {PL [1 dl1 2 dl2 6 dl1 2 dl2 1 dl1 2 dl2] LC7 DL} def
/LT8 {PL [2 dl1 2 dl2 2 dl1 2 dl2 2 dl1 2 dl2 2 dl1 4 dl2] LC8 DL} def
/Pnt {stroke [] 0 setdash gsave 1 setlinecap M 0 0 V stroke grestore} def
/Dia {stroke [] 0 setdash 2 copy vpt add M
  hpt neg vpt neg V hpt vpt neg V
  hpt vpt V hpt neg vpt V closepath stroke
  Pnt} def
/Pls {stroke [] 0 setdash vpt sub M 0 vpt2 V
  currentpoint stroke M
  hpt neg vpt neg R hpt2 0 V stroke
 } def
/Box {stroke [] 0 setdash 2 copy exch hpt sub exch vpt add M
  0 vpt2 neg V hpt2 0 V 0 vpt2 V
  hpt2 neg 0 V closepath stroke
  Pnt} def
/Crs {stroke [] 0 setdash exch hpt sub exch vpt add M
  hpt2 vpt2 neg V currentpoint stroke M
  hpt2 neg 0 R hpt2 vpt2 V stroke} def
/TriU {stroke [] 0 setdash 2 copy vpt 1.12 mul add M
  hpt neg vpt -1.62 mul V
  hpt 2 mul 0 V
  hpt neg vpt 1.62 mul V closepath stroke
  Pnt} def
/Star {2 copy Pls Crs} def
/BoxF {stroke [] 0 setdash exch hpt sub exch vpt add M
  0 vpt2 neg V hpt2 0 V 0 vpt2 V
  hpt2 neg 0 V closepath fill} def
/TriUF {stroke [] 0 setdash vpt 1.12 mul add M
  hpt neg vpt -1.62 mul V
  hpt 2 mul 0 V
  hpt neg vpt 1.62 mul V closepath fill} def
/TriD {stroke [] 0 setdash 2 copy vpt 1.12 mul sub M
  hpt neg vpt 1.62 mul V
  hpt 2 mul 0 V
  hpt neg vpt -1.62 mul V closepath stroke
  Pnt} def
/TriDF {stroke [] 0 setdash vpt 1.12 mul sub M
  hpt neg vpt 1.62 mul V
  hpt 2 mul 0 V
  hpt neg vpt -1.62 mul V closepath fill} def
/DiaF {stroke [] 0 setdash vpt add M
  hpt neg vpt neg V hpt vpt neg V
  hpt vpt V hpt neg vpt V closepath fill} def
/Pent {stroke [] 0 setdash 2 copy gsave
  translate 0 hpt M 4 {72 rotate 0 hpt L} repeat
  closepath stroke grestore Pnt} def
/PentF {stroke [] 0 setdash gsave
  translate 0 hpt M 4 {72 rotate 0 hpt L} repeat
  closepath fill grestore} def
/Circle {stroke [] 0 setdash 2 copy
  hpt 0 360 arc stroke Pnt} def
/CircleF {stroke [] 0 setdash hpt 0 360 arc fill} def
/C0 {BL [] 0 setdash 2 copy moveto vpt 90 450 arc} bind def
/C1 {BL [] 0 setdash 2 copy moveto
	2 copy vpt 0 90 arc closepath fill
	vpt 0 360 arc closepath} bind def
/C2 {BL [] 0 setdash 2 copy moveto
	2 copy vpt 90 180 arc closepath fill
	vpt 0 360 arc closepath} bind def
/C3 {BL [] 0 setdash 2 copy moveto
	2 copy vpt 0 180 arc closepath fill
	vpt 0 360 arc closepath} bind def
/C4 {BL [] 0 setdash 2 copy moveto
	2 copy vpt 180 270 arc closepath fill
	vpt 0 360 arc closepath} bind def
/C5 {BL [] 0 setdash 2 copy moveto
	2 copy vpt 0 90 arc
	2 copy moveto
	2 copy vpt 180 270 arc closepath fill
	vpt 0 360 arc} bind def
/C6 {BL [] 0 setdash 2 copy moveto
	2 copy vpt 90 270 arc closepath fill
	vpt 0 360 arc closepath} bind def
/C7 {BL [] 0 setdash 2 copy moveto
	2 copy vpt 0 270 arc closepath fill
	vpt 0 360 arc closepath} bind def
/C8 {BL [] 0 setdash 2 copy moveto
	2 copy vpt 270 360 arc closepath fill
	vpt 0 360 arc closepath} bind def
/C9 {BL [] 0 setdash 2 copy moveto
	2 copy vpt 270 450 arc closepath fill
	vpt 0 360 arc closepath} bind def
/C10 {BL [] 0 setdash 2 copy 2 copy moveto vpt 270 360 arc closepath fill
	2 copy moveto
	2 copy vpt 90 180 arc closepath fill
	vpt 0 360 arc closepath} bind def
/C11 {BL [] 0 setdash 2 copy moveto
	2 copy vpt 0 180 arc closepath fill
	2 copy moveto
	2 copy vpt 270 360 arc closepath fill
	vpt 0 360 arc closepath} bind def
/C12 {BL [] 0 setdash 2 copy moveto
	2 copy vpt 180 360 arc closepath fill
	vpt 0 360 arc closepath} bind def
/C13 {BL [] 0 setdash 2 copy moveto
	2 copy vpt 0 90 arc closepath fill
	2 copy moveto
	2 copy vpt 180 360 arc closepath fill
	vpt 0 360 arc closepath} bind def
/C14 {BL [] 0 setdash 2 copy moveto
	2 copy vpt 90 360 arc closepath fill
	vpt 0 360 arc} bind def
/C15 {BL [] 0 setdash 2 copy vpt 0 360 arc closepath fill
	vpt 0 360 arc closepath} bind def
/Rec {newpath 4 2 roll moveto 1 index 0 rlineto 0 exch rlineto
	neg 0 rlineto closepath} bind def
/Square {dup Rec} bind def
/Bsquare {vpt sub exch vpt sub exch vpt2 Square} bind def
/S0 {BL [] 0 setdash 2 copy moveto 0 vpt rlineto BL Bsquare} bind def
/S1 {BL [] 0 setdash 2 copy vpt Square fill Bsquare} bind def
/S2 {BL [] 0 setdash 2 copy exch vpt sub exch vpt Square fill Bsquare} bind def
/S3 {BL [] 0 setdash 2 copy exch vpt sub exch vpt2 vpt Rec fill Bsquare} bind def
/S4 {BL [] 0 setdash 2 copy exch vpt sub exch vpt sub vpt Square fill Bsquare} bind def
/S5 {BL [] 0 setdash 2 copy 2 copy vpt Square fill
	exch vpt sub exch vpt sub vpt Square fill Bsquare} bind def
/S6 {BL [] 0 setdash 2 copy exch vpt sub exch vpt sub vpt vpt2 Rec fill Bsquare} bind def
/S7 {BL [] 0 setdash 2 copy exch vpt sub exch vpt sub vpt vpt2 Rec fill
	2 copy vpt Square fill Bsquare} bind def
/S8 {BL [] 0 setdash 2 copy vpt sub vpt Square fill Bsquare} bind def
/S9 {BL [] 0 setdash 2 copy vpt sub vpt vpt2 Rec fill Bsquare} bind def
/S10 {BL [] 0 setdash 2 copy vpt sub vpt Square fill 2 copy exch vpt sub exch vpt Square fill
	Bsquare} bind def
/S11 {BL [] 0 setdash 2 copy vpt sub vpt Square fill 2 copy exch vpt sub exch vpt2 vpt Rec fill
	Bsquare} bind def
/S12 {BL [] 0 setdash 2 copy exch vpt sub exch vpt sub vpt2 vpt Rec fill Bsquare} bind def
/S13 {BL [] 0 setdash 2 copy exch vpt sub exch vpt sub vpt2 vpt Rec fill
	2 copy vpt Square fill Bsquare} bind def
/S14 {BL [] 0 setdash 2 copy exch vpt sub exch vpt sub vpt2 vpt Rec fill
	2 copy exch vpt sub exch vpt Square fill Bsquare} bind def
/S15 {BL [] 0 setdash 2 copy Bsquare fill Bsquare} bind def
/D0 {gsave translate 45 rotate 0 0 S0 stroke grestore} bind def
/D1 {gsave translate 45 rotate 0 0 S1 stroke grestore} bind def
/D2 {gsave translate 45 rotate 0 0 S2 stroke grestore} bind def
/D3 {gsave translate 45 rotate 0 0 S3 stroke grestore} bind def
/D4 {gsave translate 45 rotate 0 0 S4 stroke grestore} bind def
/D5 {gsave translate 45 rotate 0 0 S5 stroke grestore} bind def
/D6 {gsave translate 45 rotate 0 0 S6 stroke grestore} bind def
/D7 {gsave translate 45 rotate 0 0 S7 stroke grestore} bind def
/D8 {gsave translate 45 rotate 0 0 S8 stroke grestore} bind def
/D9 {gsave translate 45 rotate 0 0 S9 stroke grestore} bind def
/D10 {gsave translate 45 rotate 0 0 S10 stroke grestore} bind def
/D11 {gsave translate 45 rotate 0 0 S11 stroke grestore} bind def
/D12 {gsave translate 45 rotate 0 0 S12 stroke grestore} bind def
/D13 {gsave translate 45 rotate 0 0 S13 stroke grestore} bind def
/D14 {gsave translate 45 rotate 0 0 S14 stroke grestore} bind def
/D15 {gsave translate 45 rotate 0 0 S15 stroke grestore} bind def
/DiaE {stroke [] 0 setdash vpt add M
  hpt neg vpt neg V hpt vpt neg V
  hpt vpt V hpt neg vpt V closepath stroke} def
/BoxE {stroke [] 0 setdash exch hpt sub exch vpt add M
  0 vpt2 neg V hpt2 0 V 0 vpt2 V
  hpt2 neg 0 V closepath stroke} def
/TriUE {stroke [] 0 setdash vpt 1.12 mul add M
  hpt neg vpt -1.62 mul V
  hpt 2 mul 0 V
  hpt neg vpt 1.62 mul V closepath stroke} def
/TriDE {stroke [] 0 setdash vpt 1.12 mul sub M
  hpt neg vpt 1.62 mul V
  hpt 2 mul 0 V
  hpt neg vpt -1.62 mul V closepath stroke} def
/PentE {stroke [] 0 setdash gsave
  translate 0 hpt M 4 {72 rotate 0 hpt L} repeat
  closepath stroke grestore} def
/CircE {stroke [] 0 setdash 
  hpt 0 360 arc stroke} def
/Opaque {gsave closepath 1 setgray fill grestore 0 setgray closepath} def
/DiaW {stroke [] 0 setdash vpt add M
  hpt neg vpt neg V hpt vpt neg V
  hpt vpt V hpt neg vpt V Opaque stroke} def
/BoxW {stroke [] 0 setdash exch hpt sub exch vpt add M
  0 vpt2 neg V hpt2 0 V 0 vpt2 V
  hpt2 neg 0 V Opaque stroke} def
/TriUW {stroke [] 0 setdash vpt 1.12 mul add M
  hpt neg vpt -1.62 mul V
  hpt 2 mul 0 V
  hpt neg vpt 1.62 mul V Opaque stroke} def
/TriDW {stroke [] 0 setdash vpt 1.12 mul sub M
  hpt neg vpt 1.62 mul V
  hpt 2 mul 0 V
  hpt neg vpt -1.62 mul V Opaque stroke} def
/PentW {stroke [] 0 setdash gsave
  translate 0 hpt M 4 {72 rotate 0 hpt L} repeat
  Opaque stroke grestore} def
/CircW {stroke [] 0 setdash 
  hpt 0 360 arc Opaque stroke} def
/BoxFill {gsave Rec 1 setgray fill grestore} def
/Density {
  /Fillden exch def
  currentrgbcolor
  /ColB exch def /ColG exch def /ColR exch def
  /ColR ColR Fillden mul Fillden sub 1 add def
  /ColG ColG Fillden mul Fillden sub 1 add def
  /ColB ColB Fillden mul Fillden sub 1 add def
  ColR ColG ColB setrgbcolor} def
/BoxColFill {gsave Rec PolyFill} def
/PolyFill {gsave Density fill grestore grestore} def
/h {rlineto rlineto rlineto gsave closepath fill grestore} bind def
%
% PostScript Level 1 Pattern Fill routine for rectangles
% Usage: x y w h s a XX PatternFill
%	x,y = lower left corner of box to be filled
%	w,h = width and height of box
%	  a = angle in degrees between lines and x-axis
%	 XX = 0/1 for no/yes cross-hatch
%
/PatternFill {gsave /PFa [ 9 2 roll ] def
  PFa 0 get PFa 2 get 2 div add PFa 1 get PFa 3 get 2 div add translate
  PFa 2 get -2 div PFa 3 get -2 div PFa 2 get PFa 3 get Rec
  TransparentPatterns {} {gsave 1 setgray fill grestore} ifelse
  clip
  currentlinewidth 0.5 mul setlinewidth
  /PFs PFa 2 get dup mul PFa 3 get dup mul add sqrt def
  0 0 M PFa 5 get rotate PFs -2 div dup translate
  0 1 PFs PFa 4 get div 1 add floor cvi
	{PFa 4 get mul 0 M 0 PFs V} for
  0 PFa 6 get ne {
	0 1 PFs PFa 4 get div 1 add floor cvi
	{PFa 4 get mul 0 2 1 roll M PFs 0 V} for
 } if
  stroke grestore} def
%
/languagelevel where
 {pop languagelevel} {1} ifelse
 2 lt
	{/InterpretLevel1 true def}
	{/InterpretLevel1 Level1 def}
 ifelse
%
% PostScript level 2 pattern fill definitions
%
/Level2PatternFill {
/Tile8x8 {/PaintType 2 /PatternType 1 /TilingType 1 /BBox [0 0 8 8] /XStep 8 /YStep 8}
	bind def
/KeepColor {currentrgbcolor [/Pattern /DeviceRGB] setcolorspace} bind def
<< Tile8x8
 /PaintProc {0.5 setlinewidth pop 0 0 M 8 8 L 0 8 M 8 0 L stroke} 
>> matrix makepattern
/Pat1 exch def
<< Tile8x8
 /PaintProc {0.5 setlinewidth pop 0 0 M 8 8 L 0 8 M 8 0 L stroke
	0 4 M 4 8 L 8 4 L 4 0 L 0 4 L stroke}
>> matrix makepattern
/Pat2 exch def
<< Tile8x8
 /PaintProc {0.5 setlinewidth pop 0 0 M 0 8 L
	8 8 L 8 0 L 0 0 L fill}
>> matrix makepattern
/Pat3 exch def
<< Tile8x8
 /PaintProc {0.5 setlinewidth pop -4 8 M 8 -4 L
	0 12 M 12 0 L stroke}
>> matrix makepattern
/Pat4 exch def
<< Tile8x8
 /PaintProc {0.5 setlinewidth pop -4 0 M 8 12 L
	0 -4 M 12 8 L stroke}
>> matrix makepattern
/Pat5 exch def
<< Tile8x8
 /PaintProc {0.5 setlinewidth pop -2 8 M 4 -4 L
	0 12 M 8 -4 L 4 12 M 10 0 L stroke}
>> matrix makepattern
/Pat6 exch def
<< Tile8x8
 /PaintProc {0.5 setlinewidth pop -2 0 M 4 12 L
	0 -4 M 8 12 L 4 -4 M 10 8 L stroke}
>> matrix makepattern
/Pat7 exch def
<< Tile8x8
 /PaintProc {0.5 setlinewidth pop 8 -2 M -4 4 L
	12 0 M -4 8 L 12 4 M 0 10 L stroke}
>> matrix makepattern
/Pat8 exch def
<< Tile8x8
 /PaintProc {0.5 setlinewidth pop 0 -2 M 12 4 L
	-4 0 M 12 8 L -4 4 M 8 10 L stroke}
>> matrix makepattern
/Pat9 exch def
/Pattern1 {PatternBgnd KeepColor Pat1 setpattern} bind def
/Pattern2 {PatternBgnd KeepColor Pat2 setpattern} bind def
/Pattern3 {PatternBgnd KeepColor Pat3 setpattern} bind def
/Pattern4 {PatternBgnd KeepColor Landscape {Pat5} {Pat4} ifelse setpattern} bind def
/Pattern5 {PatternBgnd KeepColor Landscape {Pat4} {Pat5} ifelse setpattern} bind def
/Pattern6 {PatternBgnd KeepColor Landscape {Pat9} {Pat6} ifelse setpattern} bind def
/Pattern7 {PatternBgnd KeepColor Landscape {Pat8} {Pat7} ifelse setpattern} bind def
} def
%
%
%End of PostScript Level 2 code
%
/PatternBgnd {
  TransparentPatterns {} {gsave 1 setgray fill grestore} ifelse
} def
%
% Substitute for Level 2 pattern fill codes with
% grayscale if Level 2 support is not selected.
%
/Level1PatternFill {
/Pattern1 {0.250 Density} bind def
/Pattern2 {0.500 Density} bind def
/Pattern3 {0.750 Density} bind def
/Pattern4 {0.125 Density} bind def
/Pattern5 {0.375 Density} bind def
/Pattern6 {0.625 Density} bind def
/Pattern7 {0.875 Density} bind def
} def
%
% Now test for support of Level 2 code
%
Level1 {Level1PatternFill} {Level2PatternFill} ifelse
%
/Symbol-Oblique /Symbol findfont [1 0 .167 1 0 0] makefont
dup length dict begin {1 index /FID eq {pop pop} {def} ifelse} forall
currentdict end definefont pop
/MFshow {
   { dup 5 get 3 ge
     { 5 get 3 eq {gsave} {grestore} ifelse }
     {dup dup 0 get findfont exch 1 get scalefont setfont
     [ currentpoint ] exch dup 2 get 0 exch R dup 5 get 2 ne {dup dup 6
     get exch 4 get {Gshow} {stringwidth pop 0 R} ifelse }if dup 5 get 0 eq
     {dup 3 get {2 get neg 0 exch R pop} {pop aload pop M} ifelse} {dup 5
     get 1 eq {dup 2 get exch dup 3 get exch 6 get stringwidth pop -2 div
     dup 0 R} {dup 6 get stringwidth pop -2 div 0 R 6 get
     show 2 index {aload pop M neg 3 -1 roll neg R pop pop} {pop pop pop
     pop aload pop M} ifelse }ifelse }ifelse }
     ifelse }
   forall} def
/Gswidth {dup type /stringtype eq {stringwidth} {pop (n) stringwidth} ifelse} def
/MFwidth {0 exch { dup 5 get 3 ge { 5 get 3 eq { 0 } { pop } ifelse }
 {dup 3 get{dup dup 0 get findfont exch 1 get scalefont setfont
     6 get Gswidth pop add} {pop} ifelse} ifelse} forall} def
/MLshow { currentpoint stroke M
  0 exch R
  Blacktext {gsave 0 setgray MFshow grestore} {MFshow} ifelse } bind def
/MRshow { currentpoint stroke M
  exch dup MFwidth neg 3 -1 roll R
  Blacktext {gsave 0 setgray MFshow grestore} {MFshow} ifelse } bind def
/MCshow { currentpoint stroke M
  exch dup MFwidth -2 div 3 -1 roll R
  Blacktext {gsave 0 setgray MFshow grestore} {MFshow} ifelse } bind def
/XYsave    { [( ) 1 2 true false 3 ()] } bind def
/XYrestore { [( ) 1 2 true false 4 ()] } bind def
Level1 SuppressPDFMark or 
{} {
/SDict 10 dict def
systemdict /pdfmark known not {
  userdict /pdfmark systemdict /cleartomark get put
} if
SDict begin [
  /Title (repeating_conn_12319367_130245203.eps)
  /Subject (gnuplot plot)
  /Creator (gnuplot 4.6 patchlevel 2)
  /Author (olgabo)
%  /Producer (gnuplot)
%  /Keywords ()
  /CreationDate (Tue Apr  8 12:18:24 2014)
  /DOCINFO pdfmark
end
} ifelse
end
%%EndProlog
%%Page: 1 1
gnudict begin
gsave
doclip
50 50 translate
0.050 0.050 scale
0 setgray
newpath
(Times) findfont 200 scalefont setfont
BackgroundColor 0 lt 3 1 roll 0 lt exch 0 lt or or not {BackgroundColor C 1.000 0 0 14400.00 10080.00 BoxColFill} if
1.000 UL
LTb
LCb setrgbcolor
1.000 UL
LTa
LCa setrgbcolor
1200 3493 M
12598 0 V
stroke
LTb
LCb setrgbcolor
1200 3493 M
63 0 V
12535 0 R
-63 0 V
stroke
1080 3493 M
[ [(Times) 200.0 0.0 true true 0 ( 0)]
] -66.7 MRshow
1.000 UL
LTb
LCb setrgbcolor
1.000 UL
LTa
LCa setrgbcolor
1200 4001 M
12598 0 V
stroke
LTb
LCb setrgbcolor
1200 4001 M
63 0 V
12535 0 R
-63 0 V
stroke
1080 4001 M
[ [(Times) 200.0 0.0 true true 0 ( 100)]
] -66.7 MRshow
1.000 UL
LTb
LCb setrgbcolor
1.000 UL
LTa
LCa setrgbcolor
1200 4509 M
12598 0 V
stroke
LTb
LCb setrgbcolor
1200 4509 M
63 0 V
12535 0 R
-63 0 V
stroke
1080 4509 M
[ [(Times) 200.0 0.0 true true 0 ( 200)]
] -66.7 MRshow
1.000 UL
LTb
LCb setrgbcolor
1.000 UL
LTa
LCa setrgbcolor
1200 5017 M
12598 0 V
stroke
LTb
LCb setrgbcolor
1200 5017 M
63 0 V
12535 0 R
-63 0 V
stroke
1080 5017 M
[ [(Times) 200.0 0.0 true true 0 ( 300)]
] -66.7 MRshow
1.000 UL
LTb
LCb setrgbcolor
1.000 UL
LTa
LCa setrgbcolor
1200 5525 M
12598 0 V
stroke
LTb
LCb setrgbcolor
1200 5525 M
63 0 V
12535 0 R
-63 0 V
stroke
1080 5525 M
[ [(Times) 200.0 0.0 true true 0 ( 400)]
] -66.7 MRshow
1.000 UL
LTb
LCb setrgbcolor
1.000 UL
LTa
LCa setrgbcolor
1200 6033 M
12598 0 V
stroke
LTb
LCb setrgbcolor
1200 6033 M
63 0 V
12535 0 R
-63 0 V
stroke
1080 6033 M
[ [(Times) 200.0 0.0 true true 0 ( 500)]
] -66.7 MRshow
1.000 UL
LTb
LCb setrgbcolor
1.000 UL
LTa
LCa setrgbcolor
1200 6541 M
12598 0 V
stroke
LTb
LCb setrgbcolor
1200 6541 M
63 0 V
12535 0 R
-63 0 V
stroke
1080 6541 M
[ [(Times) 200.0 0.0 true true 0 ( 600)]
] -66.7 MRshow
1.000 UL
LTb
LCb setrgbcolor
1.000 UL
LTa
LCa setrgbcolor
1200 7049 M
12598 0 V
stroke
LTb
LCb setrgbcolor
1200 7049 M
63 0 V
12535 0 R
-63 0 V
stroke
1080 7049 M
[ [(Times) 200.0 0.0 true true 0 ( 700)]
] -66.7 MRshow
1.000 UL
LTb
LCb setrgbcolor
1.000 UL
LTa
LCa setrgbcolor
1200 3493 M
0 3556 V
stroke
LTb
LCb setrgbcolor
1200 3493 M
0 63 V
0 3493 R
0 -63 V
stroke
1200 3373 M
currentpoint gsave translate -45 rotate 0 0 moveto
[ [(Times) 200.0 0.0 true true 0 ( 0)]
] -66.7 MLshow
grestore
1.000 UL
LTb
LCb setrgbcolor
1.000 UL
LTa
LCa setrgbcolor
2775 3493 M
0 3556 V
stroke
LTb
LCb setrgbcolor
2775 3493 M
0 63 V
0 3493 R
0 -63 V
stroke
2775 3373 M
currentpoint gsave translate -45 rotate 0 0 moveto
[ [(Times) 200.0 0.0 true true 0 ( 500)]
] -66.7 MLshow
grestore
1.000 UL
LTb
LCb setrgbcolor
1.000 UL
LTa
LCa setrgbcolor
4350 3493 M
0 3556 V
stroke
LTb
LCb setrgbcolor
4350 3493 M
0 63 V
0 3493 R
0 -63 V
stroke
4350 3373 M
currentpoint gsave translate -45 rotate 0 0 moveto
[ [(Times) 200.0 0.0 true true 0 ( 1000)]
] -66.7 MLshow
grestore
1.000 UL
LTb
LCb setrgbcolor
1.000 UL
LTa
LCa setrgbcolor
5924 3493 M
0 3556 V
stroke
LTb
LCb setrgbcolor
5924 3493 M
0 63 V
0 3493 R
0 -63 V
stroke
5924 3373 M
currentpoint gsave translate -45 rotate 0 0 moveto
[ [(Times) 200.0 0.0 true true 0 ( 1500)]
] -66.7 MLshow
grestore
1.000 UL
LTb
LCb setrgbcolor
1.000 UL
LTa
LCa setrgbcolor
7499 3493 M
0 3556 V
stroke
LTb
LCb setrgbcolor
7499 3493 M
0 63 V
0 3493 R
0 -63 V
stroke
7499 3373 M
currentpoint gsave translate -45 rotate 0 0 moveto
[ [(Times) 200.0 0.0 true true 0 ( 2000)]
] -66.7 MLshow
grestore
1.000 UL
LTb
LCb setrgbcolor
1.000 UL
LTa
LCa setrgbcolor
9074 3493 M
0 3556 V
stroke
LTb
LCb setrgbcolor
9074 3493 M
0 63 V
0 3493 R
0 -63 V
stroke
9074 3373 M
currentpoint gsave translate -45 rotate 0 0 moveto
[ [(Times) 200.0 0.0 true true 0 ( 2500)]
] -66.7 MLshow
grestore
1.000 UL
LTb
LCb setrgbcolor
1.000 UL
LTa
LCa setrgbcolor
10649 3493 M
0 3556 V
stroke
LTb
LCb setrgbcolor
10649 3493 M
0 63 V
0 3493 R
0 -63 V
stroke
10649 3373 M
currentpoint gsave translate -45 rotate 0 0 moveto
[ [(Times) 200.0 0.0 true true 0 ( 3000)]
] -66.7 MLshow
grestore
1.000 UL
LTb
LCb setrgbcolor
1.000 UL
LTa
LCa setrgbcolor
12223 3493 M
0 3556 V
stroke
LTb
LCb setrgbcolor
12223 3493 M
0 63 V
0 3493 R
0 -63 V
stroke
12223 3373 M
currentpoint gsave translate -45 rotate 0 0 moveto
[ [(Times) 200.0 0.0 true true 0 ( 3500)]
] -66.7 MLshow
grestore
1.000 UL
LTb
LCb setrgbcolor
1.000 UL
LTa
LCa setrgbcolor
13798 3493 M
0 3556 V
stroke
LTb
LCb setrgbcolor
13798 3493 M
0 63 V
0 3493 R
0 -63 V
stroke
13798 3373 M
currentpoint gsave translate -45 rotate 0 0 moveto
[ [(Times) 200.0 0.0 true true 0 ( 4000)]
] -66.7 MLshow
grestore
1.000 UL
LTb
LCb setrgbcolor
1.000 UL
LTb
LCb setrgbcolor
1200 7049 N
0 -3556 V
12598 0 V
0 3556 V
-12598 0 V
Z stroke
LCb setrgbcolor
380 5271 M
currentpoint gsave translate -270 rotate 0 0 moveto
[ [(Times) 200.0 0.0 true true 0 (Duration [sec])]
] -66.7 MCshow
grestore
LTb
LCb setrgbcolor
7499 2769 M
[ [(Times) 200.0 0.0 true true 0 (Time [sec])]
] -66.7 MCshow
LTb
7499 7349 M
[ [(Times) 200.0 0.0 true true 0 (src port 80, repeating connections sorted by start time)]
] -66.7 MCshow
1.000 UP
1.000 UL
LTb
LCb setrgbcolor
1.000 UL
LT8
LC8 setrgbcolor
7108 63 N
782 0 V
-782 0 V
Z stroke
% Begin plot #1
1.000 UP
1.000 UL
LT8
0.00 0.00 1.00 C 1200 5357 M
41 -1709 V
22 1405 V
13 -1560 V
3 1 V
3 -1 V
3 0 V
6 0 V
10 0 V
82 471 V
41 -92 V
6 -172 V
9 -207 V
123 189 V
117 -107 V
132 -81 V
0 -1 V
0 1 V
0 1 V
0 -1 V
0 1 V
0 -1 V
0 3 V
0 421 V
0 518 V
9 -943 V
95 0 V
170 0 V
145 1 V
126 -1 V
19 790 V
0 442 V
22 -1232 V
25 2 V
19 273 V
0 17 V
0 130 V
179 -421 V
0 4 V
0 1 V
0 1592 V
16 -1597 V
44 60 V
0 1921 V
0 1142 V
2869 3531 L
29 -8 V
12 754 V
10 -683 V
0 1497 V
69 -1395 V
28 284 V
44 -481 V
13 -5 V
47 -1 V
19 249 V
0 1 V
85 -32 V
6 -47 V
54 272 V
54 -443 V
0 1 V
144 12 V
4 317 V
3 -330 V
0 2 V
0 3 V
0 93 V
0 587 V
69 -685 V
3 0 V
16 0 V
113 20 V
0 375 V
0 942 V
7 -894 V
0 1105 V
0 35 V
4006 3494 L
189 -1 V
151 0 V
29 0 V
182 51 V
0 1205 V
0 20 V
4680 3494 L
0 1 V
0 1018 V
0 96 V
13 -1115 V
94 3 V
0 -4 V
73 2 V
116 -2 V
0 1 V
0 627 V
101 -628 V
142 1 V
0 125 V
88 -124 V
129 14 V
117 1550 V
6 -1564 V
53 921 V
63 90 V
26 -1012 V
0 1 V
0 704 V
53 -706 V
0 639 V
0 738 V
6160 3494 L
0 661 V
161 -661 V
6 590 V
16 -590 V
32 0 V
9 0 V
95 0 V
47 -1 V
3 0 V
6 0 V
10 0 V
22 0 V
31 1 V
10 -1 V
3 0 V
82 2 V
0 -2 V
6 0 V
63 110 V
0 545 V
0 885 V
6 -1540 V
26 541 V
135 1034 V
79 -1566 V
189 1568 V
78 922 V
67 -1856 V
56 86 V
132 2037 V
7650 3494 L
151 138 V
0 18 V
76 288 V
101 -445 V
34 1 V
0 1 V
0 1 V
0 667 V
10 -670 V
119 1 V
193 0 V
94 -1 V
19 327 V
94 56 V
19 1295 V
0 2 V
38 -1679 V
101 46 V
277 -46 V
195 692 V
73 -691 V
63 222 V
12 -224 V
7 366 V
91 -148 V
28 -218 V
4 0 V
6 0 V
12 0 V
22 0 V
63 0 V
4 0 V
3 0 V
3 0 V
13 0 V
18 1 V
10 647 V
66 -582 V
0 475 V
104 -541 V
0 568 V
205 -87 V
0 467 V
0 21 V
0 319 V
59 -1234 V
51 31 V
28 281 V
32 76 V
91 -441 V
0 976 V
88 -976 V
0 99 V
19 -100 V
151 1 V
54 806 V
0 18 V
22 -823 V
31 837 V
145 -839 V
0 1 V
0 632 V
117 -632 V
189 -1 V
38 1 V
126 -1 V
103 0 V
215 0 V
25 0 V
0 80 V
12 -79 V
41 -1 V
67 171 V
53 -170 V
6 -1 V
4 99 V
0 268 V
148 -367 V
66 103 V
0 230 V
63 -245 V
135 -87 V
6 676 V
0 300 V
82 -976 V
0 258 V
82 207 V
79 -270 V
57 -196 V
3 285 V
9 416 V
7 -419 V
88 22 V
15 -136 V
22 -168 V
0 1 V
35 0 V
0 72 V
0 1 V
0 49 V
0 244 V
79 -367 V
0 141 V
85 -141 V
stroke 12806 3493 M
6 0 V
1200 5357 TriUF
1241 3648 TriUF
1241 3648 TriUF
1263 5053 TriUF
1276 3493 TriUF
1279 3494 TriUF
1282 3493 TriUF
1282 3493 TriUF
1285 3493 TriUF
1291 3493 TriUF
1301 3493 TriUF
1383 3964 TriUF
1424 3872 TriUF
1430 3700 TriUF
1430 3700 TriUF
1439 3493 TriUF
1562 3682 TriUF
1679 3575 TriUF
1811 3494 TriUF
1811 3493 TriUF
1811 3494 TriUF
1811 3494 TriUF
1811 3494 TriUF
1811 3494 TriUF
1811 3495 TriUF
1811 3494 TriUF
1811 3495 TriUF
1811 3494 TriUF
1811 3497 TriUF
1811 3918 TriUF
1811 4436 TriUF
1811 4436 TriUF
1820 3493 TriUF
1915 3493 TriUF
2085 3493 TriUF
2230 3494 TriUF
2356 3493 TriUF
2375 4283 TriUF
2375 4725 TriUF
2397 3493 TriUF
2397 3493 TriUF
2422 3495 TriUF
2441 3768 TriUF
2441 3785 TriUF
2441 3915 TriUF
2620 3494 TriUF
2620 3498 TriUF
2620 3499 TriUF
2620 5091 TriUF
2636 3494 TriUF
2680 3554 TriUF
2680 5475 TriUF
2680 6617 TriUF
2869 3531 TriUF
2898 3523 TriUF
2910 4277 TriUF
2920 3594 TriUF
2920 5091 TriUF
2920 5091 TriUF
2920 5091 TriUF
2989 3696 TriUF
3017 3980 TriUF
3061 3499 TriUF
3074 3494 TriUF
3121 3493 TriUF
3140 3742 TriUF
3140 3743 TriUF
3225 3711 TriUF
3231 3664 TriUF
3231 3664 TriUF
3285 3936 TriUF
3339 3493 TriUF
3339 3494 TriUF
3339 3494 TriUF
3483 3506 TriUF
3487 3823 TriUF
3490 3493 TriUF
3490 3495 TriUF
3490 3498 TriUF
3490 3591 TriUF
3490 4178 TriUF
3559 3493 TriUF
3562 3493 TriUF
3578 3493 TriUF
3691 3513 TriUF
3691 3888 TriUF
3691 4830 TriUF
3698 3936 TriUF
3698 3936 TriUF
3698 5041 TriUF
3698 5076 TriUF
4006 3494 TriUF
4006 3494 TriUF
4195 3493 TriUF
4346 3493 TriUF
4375 3493 TriUF
4375 3493 TriUF
4557 3544 TriUF
4557 4749 TriUF
4557 4769 TriUF
4680 3494 TriUF
4680 3494 TriUF
4680 3494 TriUF
4680 3495 TriUF
4680 4513 TriUF
4680 4609 TriUF
4693 3494 TriUF
4787 3497 TriUF
4787 3493 TriUF
4860 3495 TriUF
4976 3493 TriUF
4976 3494 TriUF
4976 4121 TriUF
5077 3493 TriUF
5219 3494 TriUF
5219 3619 TriUF
5307 3495 TriUF
5436 3509 TriUF
5553 5059 TriUF
5553 5059 TriUF
5559 3495 TriUF
5612 4416 TriUF
5675 4506 TriUF
5701 3494 TriUF
5701 3495 TriUF
5701 3495 TriUF
5701 3495 TriUF
5701 4199 TriUF
5754 3493 TriUF
5754 4132 TriUF
5754 4870 TriUF
6160 3494 TriUF
6160 3494 TriUF
6160 4155 TriUF
6321 3494 TriUF
6327 4084 TriUF
6343 3494 TriUF
6375 3494 TriUF
6384 3494 TriUF
6479 3494 TriUF
6479 3494 TriUF
6526 3493 TriUF
6526 3493 TriUF
6526 3493 TriUF
6526 3493 TriUF
6529 3493 TriUF
6529 3493 TriUF
6535 3493 TriUF
6535 3493 TriUF
6545 3493 TriUF
6545 3493 TriUF
6567 3493 TriUF
6567 3493 TriUF
6598 3494 TriUF
6608 3493 TriUF
6611 3493 TriUF
6693 3495 TriUF
6693 3493 TriUF
6699 3493 TriUF
6762 3603 TriUF
6762 4148 TriUF
6762 5033 TriUF
6768 3493 TriUF
6794 4034 TriUF
6929 5068 TriUF
7008 3502 TriUF
7197 5070 TriUF
7275 5992 TriUF
7342 4136 TriUF
7398 4222 TriUF
7530 6259 TriUF
7650 3494 TriUF
7801 3632 TriUF
7801 3650 TriUF
7877 3938 TriUF
7978 3493 TriUF
8012 3494 TriUF
8012 3494 TriUF
8012 3495 TriUF
8012 3496 TriUF
8012 3496 TriUF
8012 4163 TriUF
8012 4163 TriUF
8022 3493 TriUF
8141 3494 TriUF
8334 3494 TriUF
8428 3493 TriUF
8428 3493 TriUF
8447 3820 TriUF
8541 3876 TriUF
8560 5171 TriUF
8560 5173 TriUF
8598 3494 TriUF
8699 3540 TriUF
8976 3494 TriUF
9171 4186 TriUF
9244 3495 TriUF
9307 3717 TriUF
9307 3717 TriUF
9319 3493 TriUF
9326 3859 TriUF
9417 3711 TriUF
9445 3493 TriUF
9445 3493 TriUF
9445 3493 TriUF
9445 3493 TriUF
9449 3493 TriUF
9449 3493 TriUF
9455 3493 TriUF
9467 3493 TriUF
9489 3493 TriUF
9552 3493 TriUF
9556 3493 TriUF
9559 3493 TriUF
9562 3493 TriUF
9575 3493 TriUF
9593 3494 TriUF
9603 4141 TriUF
9669 3559 TriUF
9669 4034 TriUF
9773 3493 TriUF
9773 3493 TriUF
9773 4061 TriUF
9978 3974 TriUF
9978 4441 TriUF
9978 4462 TriUF
9978 4781 TriUF
10037 3547 TriUF
10088 3578 TriUF
10116 3859 TriUF
10148 3935 TriUF
10239 3494 TriUF
10239 4470 TriUF
10327 3494 TriUF
10327 3593 TriUF
10346 3493 TriUF
10497 3494 TriUF
10551 4300 TriUF
10551 4318 TriUF
10573 3495 TriUF
10604 4332 TriUF
10749 3493 TriUF
10749 3493 TriUF
10749 3494 TriUF
10749 4126 TriUF
10866 3494 TriUF
11055 3493 TriUF
11055 3493 TriUF
11093 3494 TriUF
11219 3493 TriUF
11322 3493 TriUF
11537 3493 TriUF
11562 3493 TriUF
11562 3573 TriUF
11574 3494 TriUF
11615 3493 TriUF
11682 3664 TriUF
11735 3494 TriUF
11735 3494 TriUF
11741 3493 TriUF
11745 3592 TriUF
11745 3860 TriUF
11893 3493 TriUF
11959 3596 TriUF
11959 3826 TriUF
12022 3581 TriUF
12022 3581 TriUF
12157 3494 TriUF
12163 4170 TriUF
12163 4470 TriUF
12245 3494 TriUF
12245 3752 TriUF
12327 3959 TriUF
12406 3689 TriUF
12463 3493 TriUF
12466 3778 TriUF
12475 4194 TriUF
12482 3775 TriUF
12570 3797 TriUF
12585 3661 TriUF
12607 3493 TriUF
12607 3494 TriUF
12642 3494 TriUF
12642 3566 TriUF
12642 3566 TriUF
12642 3567 TriUF
12642 3616 TriUF
12642 3860 TriUF
12721 3493 TriUF
12721 3634 TriUF
12806 3493 TriUF
12812 3493 TriUF
% End plot #1
1.000 UL
LTb
LCb setrgbcolor
1200 7049 N
0 -3556 V
12598 0 V
0 3556 V
-12598 0 V
Z stroke
1.000 UP
1.000 UL
LTb
LCb setrgbcolor
stroke
grestore
end
showpage
%%Page: 2 2
gnudict begin
gsave
doclip
50 50 translate
0.050 0.050 scale
0 setgray
newpath
(Times) findfont 200 scalefont setfont
BackgroundColor 0 lt 3 1 roll 0 lt exch 0 lt or or not {BackgroundColor C 1.000 0 0 14400.00 10080.00 BoxColFill} if
1.000 UL
LTb
LCb setrgbcolor
1.000 UL
LTa
LCa setrgbcolor
600 3408 M
12598 0 V
stroke
LTb
LCb setrgbcolor
600 3408 M
63 0 V
12535 0 R
-63 0 V
stroke
480 3408 M
[ [(Times) 200.0 0.0 true true 0 ( 0)]
] -66.7 MRshow
1.000 UL
LTb
LCb setrgbcolor
1.000 UL
LTa
LCa setrgbcolor
600 4015 M
12598 0 V
stroke
LTb
LCb setrgbcolor
600 4015 M
63 0 V
12535 0 R
-63 0 V
stroke
480 4015 M
[ [(Times) 200.0 0.0 true true 0 ( 20000)]
] -66.7 MRshow
1.000 UL
LTb
LCb setrgbcolor
1.000 UL
LTa
LCa setrgbcolor
600 4622 M
12598 0 V
stroke
LTb
LCb setrgbcolor
600 4622 M
63 0 V
12535 0 R
-63 0 V
stroke
480 4622 M
[ [(Times) 200.0 0.0 true true 0 ( 40000)]
] -66.7 MRshow
1.000 UL
LTb
LCb setrgbcolor
1.000 UL
LTa
LCa setrgbcolor
600 5229 M
12598 0 V
stroke
LTb
LCb setrgbcolor
600 5229 M
63 0 V
12535 0 R
-63 0 V
stroke
480 5229 M
[ [(Times) 200.0 0.0 true true 0 ( 60000)]
] -66.7 MRshow
1.000 UL
LTb
LCb setrgbcolor
1.000 UL
LTa
LCa setrgbcolor
600 5835 M
12598 0 V
stroke
LTb
LCb setrgbcolor
600 5835 M
63 0 V
12535 0 R
-63 0 V
stroke
480 5835 M
[ [(Times) 200.0 0.0 true true 0 ( 80000)]
] -66.7 MRshow
1.000 UL
LTb
LCb setrgbcolor
1.000 UL
LTa
LCa setrgbcolor
600 6442 M
12598 0 V
stroke
LTb
LCb setrgbcolor
600 6442 M
63 0 V
12535 0 R
-63 0 V
stroke
480 6442 M
[ [(Times) 200.0 0.0 true true 0 ( 100000)]
] -66.7 MRshow
1.000 UL
LTb
LCb setrgbcolor
1.000 UL
LTa
LCa setrgbcolor
600 7049 M
12598 0 V
stroke
LTb
LCb setrgbcolor
600 7049 M
63 0 V
12535 0 R
-63 0 V
stroke
480 7049 M
[ [(Times) 200.0 0.0 true true 0 ( 120000)]
] -66.7 MRshow
1.000 UL
LTb
LCb setrgbcolor
1.000 UL
LTa
LCa setrgbcolor
600 3408 M
0 3641 V
stroke
LTb
LCb setrgbcolor
600 3408 M
0 63 V
0 3578 R
0 -63 V
stroke
600 3288 M
currentpoint gsave translate -45 rotate 0 0 moveto
[ [(Times) 200.0 0.0 true true 0 ( 0)]
] -66.7 MLshow
grestore
1.000 UL
LTb
LCb setrgbcolor
1.000 UL
LTa
LCa setrgbcolor
2400 3408 M
0 3641 V
stroke
LTb
LCb setrgbcolor
2400 3408 M
0 63 V
0 3578 R
0 -63 V
stroke
2400 3288 M
currentpoint gsave translate -45 rotate 0 0 moveto
[ [(Times) 200.0 0.0 true true 0 ( 100)]
] -66.7 MLshow
grestore
1.000 UL
LTb
LCb setrgbcolor
1.000 UL
LTa
LCa setrgbcolor
4199 3408 M
0 3641 V
stroke
LTb
LCb setrgbcolor
4199 3408 M
0 63 V
0 3578 R
0 -63 V
stroke
4199 3288 M
currentpoint gsave translate -45 rotate 0 0 moveto
[ [(Times) 200.0 0.0 true true 0 ( 200)]
] -66.7 MLshow
grestore
1.000 UL
LTb
LCb setrgbcolor
1.000 UL
LTa
LCa setrgbcolor
5999 3408 M
0 3641 V
stroke
LTb
LCb setrgbcolor
5999 3408 M
0 63 V
0 3578 R
0 -63 V
stroke
5999 3288 M
currentpoint gsave translate -45 rotate 0 0 moveto
[ [(Times) 200.0 0.0 true true 0 ( 300)]
] -66.7 MLshow
grestore
1.000 UL
LTb
LCb setrgbcolor
1.000 UL
LTa
LCa setrgbcolor
7799 3408 M
0 3641 V
stroke
LTb
LCb setrgbcolor
7799 3408 M
0 63 V
0 3578 R
0 -63 V
stroke
7799 3288 M
currentpoint gsave translate -45 rotate 0 0 moveto
[ [(Times) 200.0 0.0 true true 0 ( 400)]
] -66.7 MLshow
grestore
1.000 UL
LTb
LCb setrgbcolor
1.000 UL
LTa
LCa setrgbcolor
9599 3408 M
0 3641 V
stroke
LTb
LCb setrgbcolor
9599 3408 M
0 63 V
0 3578 R
0 -63 V
stroke
9599 3288 M
currentpoint gsave translate -45 rotate 0 0 moveto
[ [(Times) 200.0 0.0 true true 0 ( 500)]
] -66.7 MLshow
grestore
1.000 UL
LTb
LCb setrgbcolor
1.000 UL
LTa
LCa setrgbcolor
11398 3408 M
0 3641 V
stroke
LTb
LCb setrgbcolor
11398 3408 M
0 63 V
0 3578 R
0 -63 V
stroke
11398 3288 M
currentpoint gsave translate -45 rotate 0 0 moveto
[ [(Times) 200.0 0.0 true true 0 ( 600)]
] -66.7 MLshow
grestore
1.000 UL
LTb
LCb setrgbcolor
1.000 UL
LTa
LCa setrgbcolor
13198 3408 M
0 3641 V
stroke
LTb
LCb setrgbcolor
13198 3408 M
0 63 V
0 3578 R
0 -63 V
stroke
13198 3288 M
currentpoint gsave translate -45 rotate 0 0 moveto
[ [(Times) 200.0 0.0 true true 0 ( 700)]
] -66.7 MLshow
grestore
1.000 UL
LTb
LCb setrgbcolor
1.000 UL
LTb
LCb setrgbcolor
600 7049 N
0 -3641 V
12598 0 V
0 3641 V
600 7049 L
Z stroke
LCb setrgbcolor
-580 5228 M
currentpoint gsave translate -270 rotate 0 0 moveto
[ [(Times) 200.0 0.0 true true 0 (Flow size [bytes])]
] -66.7 MCshow
grestore
LTb
LCb setrgbcolor
6899 2769 M
[ [(Times) 200.0 0.0 true true 0 (Duration [sec])]
] -66.7 MCshow
LTb
6899 7349 M
[ [(Times) 200.0 0.0 true true 0 (src port 80, repeating connections sorted by duration)]
] -66.7 MCshow
1.000 UP
1.000 UL
LTb
LCb setrgbcolor
1.000 UL
LT8
LC8 setrgbcolor
6508 63 N
782 0 V
-782 0 V
Z stroke
% Begin plot #1
1.000 UP
1.000 UL
LT8
1.00 0.00 0.00 C 600 3409 TriUF
600 3409 TriUF
600 3409 TriUF
600 3409 TriUF
600 3409 TriUF
600 3409 TriUF
600 3409 TriUF
600 3409 TriUF
600 3409 TriUF
600 3409 TriUF
600 3409 TriUF
600 3409 TriUF
600 3409 TriUF
600 3409 TriUF
600 3409 TriUF
600 3409 TriUF
600 3409 TriUF
600 3409 TriUF
600 3409 TriUF
600 3409 TriUF
600 3409 TriUF
600 3409 TriUF
600 3409 TriUF
600 3409 TriUF
600 3409 TriUF
600 3409 TriUF
600 3409 TriUF
600 3409 TriUF
600 3409 TriUF
600 3409 TriUF
600 3409 TriUF
600 3409 TriUF
600 3409 TriUF
600 3409 TriUF
600 3409 TriUF
600 3409 TriUF
600 3409 TriUF
600 3409 TriUF
601 3496 TriUF
601 3492 TriUF
601 3702 TriUF
601 3544 TriUF
601 3549 TriUF
601 3555 TriUF
601 3519 TriUF
601 3496 TriUF
601 3569 TriUF
601 3565 TriUF
601 3584 TriUF
601 3510 TriUF
601 3701 TriUF
601 3715 TriUF
601 3822 TriUF
601 3713 TriUF
601 3610 TriUF
601 3588 TriUF
601 3651 TriUF
601 3630 TriUF
601 3590 TriUF
601 3634 TriUF
601 3545 TriUF
601 3495 TriUF
601 3695 TriUF
601 3585 TriUF
601 3632 TriUF
601 3577 TriUF
601 3684 TriUF
601 3799 TriUF
601 3587 TriUF
601 3621 TriUF
601 3606 TriUF
601 3687 TriUF
601 3571 TriUF
601 3700 TriUF
601 3657 TriUF
601 3691 TriUF
601 3781 TriUF
601 3683 TriUF
601 3714 TriUF
601 3645 TriUF
602 3674 TriUF
602 4113 TriUF
602 3497 TriUF
602 3626 TriUF
602 3546 TriUF
602 3691 TriUF
602 3495 TriUF
602 3515 TriUF
602 5325 TriUF
602 3955 TriUF
602 3570 TriUF
602 4776 TriUF
602 3677 TriUF
602 3512 TriUF
602 4613 TriUF
602 3613 TriUF
602 3835 TriUF
602 3656 TriUF
602 3626 TriUF
602 3555 TriUF
602 3609 TriUF
603 3626 TriUF
603 3493 TriUF
603 6732 TriUF
603 3597 TriUF
603 3718 TriUF
603 4375 TriUF
603 4160 TriUF
603 3718 TriUF
603 3634 TriUF
603 3653 TriUF
603 3672 TriUF
603 4408 TriUF
603 3703 TriUF
604 3750 TriUF
604 4776 TriUF
604 3795 TriUF
604 5136 TriUF
604 3695 TriUF
604 4232 TriUF
604 4064 TriUF
604 3800 TriUF
604 3763 TriUF
604 3791 TriUF
604 4299 TriUF
604 3703 TriUF
604 4073 TriUF
605 3698 TriUF
605 4184 TriUF
605 3721 TriUF
605 4334 TriUF
605 3579 TriUF
605 3659 TriUF
605 3677 TriUF
605 3708 TriUF
605 4887 TriUF
606 4532 TriUF
606 4540 TriUF
606 3599 TriUF
606 3701 TriUF
606 4031 TriUF
606 3681 TriUF
607 5048 TriUF
607 4103 TriUF
607 4938 TriUF
607 3656 TriUF
608 5516 TriUF
609 3634 TriUF
609 4575 TriUF
609 3960 TriUF
609 5212 TriUF
609 6228 TriUF
610 4107 TriUF
613 4381 TriUF
616 3657 TriUF
617 4510 TriUF
617 4623 TriUF
620 5544 TriUF
622 5528 TriUF
631 3612 TriUF
644 4412 TriUF
655 3682 TriUF
669 3854 TriUF
706 3679 TriUF
733 3645 TriUF
766 3696 TriUF
781 5306 TriUF
793 3809 TriUF
815 3864 TriUF
834 4741 TriUF
859 3734 TriUF
860 3764 TriUF
861 3713 TriUF
883 5060 TriUF
891 4629 TriUF
903 5610 TriUF
912 3685 TriUF
913 3698 TriUF
948 4866 TriUF
951 4238 TriUF
954 4990 TriUF
959 3595 TriUF
965 3597 TriUF
991 3908 TriUF
1034 3654 TriUF
1048 6682 TriUF
1092 3712 TriUF
1101 3576 TriUF
1148 3677 TriUF
1148 3675 TriUF
1157 3865 TriUF
1196 3866 TriUF
1205 3801 TriUF
1205 4355 TriUF
1207 4483 TriUF
1270 3676 TriUF
1295 3765 TriUF
1320 3672 TriUF
1334 3497 TriUF
1334 3495 TriUF
1372 3494 TriUF
1373 3674 TriUF
1393 3497 TriUF
1393 3507 TriUF
1484 3762 TriUF
1487 3913 TriUF
1517 3833 TriUF
1575 4415 TriUF
1598 3586 TriUF
1609 3817 TriUF
1635 5281 TriUF
1678 3726 TriUF
1758 3938 TriUF
1769 3881 TriUF
1779 4061 TriUF
1897 3555 TriUF
1898 3840 TriUF
1899 4519 TriUF
1900 4138 TriUF
1943 3754 TriUF
1957 4706 TriUF
1998 3678 TriUF
2094 3500 TriUF
2107 3602 TriUF
2167 3773 TriUF
2168 3946 TriUF
2169 3768 TriUF
2171 3746 TriUF
2175 3852 TriUF
2251 4921 TriUF
2270 4034 TriUF
2304 3622 TriUF
2324 3753 TriUF
2516 3659 TriUF
2518 3956 TriUF
2611 3858 TriUF
2692 3684 TriUF
2824 3564 TriUF
2842 3765 TriUF
2863 3609 TriUF
2879 3517 TriUF
2894 3761 TriUF
2919 3452 TriUF
2945 3628 TriUF
2973 3591 TriUF
2975 3819 TriUF
2998 3448 TriUF
3025 3759 TriUF
3055 3813 TriUF
3084 3574 TriUF
3102 3659 TriUF
3182 4035 TriUF
3377 4074 TriUF
3400 3661 TriUF
3460 3471 TriUF
3524 5025 TriUF
3574 3485 TriUF
3871 3749 TriUF
3941 3457 TriUF
3941 3456 TriUF
3957 3769 TriUF
4032 4657 TriUF
4060 3451 TriUF
4062 5753 TriUF
4188 3856 TriUF
4212 3456 TriUF
4554 3452 TriUF
4964 4201 TriUF
5049 3506 TriUF
5121 3498 TriUF
5161 4573 TriUF
5337 3965 TriUF
5479 3585 TriUF
6057 3465 TriUF
6084 3454 TriUF
6128 3473 TriUF
6148 3555 TriUF
6148 3551 TriUF
6179 3814 TriUF
6187 3964 TriUF
6210 4560 TriUF
6260 3580 TriUF
6260 3555 TriUF
6260 3597 TriUF
6263 4009 TriUF
6546 4052 TriUF
6551 4014 TriUF
7202 3625 TriUF
7620 3785 TriUF
9454 4459 TriUF
10400 5338 TriUF
11669 3712 TriUF
% End plot #1
1.000 UL
LTb
LCb setrgbcolor
600 7049 N
0 -3641 V
12598 0 V
0 3641 V
600 7049 L
Z stroke
1.000 UP
1.000 UL
LTb
LCb setrgbcolor
stroke
grestore
end
showpage
%%Trailer
%%DocumentFonts: Times
