%!PS-Adobe-2.0 EPSF-2.0
%%Title: repeating_conn_1278362483_3247155005.eps
%%Creator: gnuplot 4.6 patchlevel 2
%%CreationDate: Tue Apr  8 12:42:53 2014
%%DocumentFonts: (atend)
%%BoundingBox: 50 50 770 554
%%EndComments
%%BeginProlog
/gnudict 256 dict def
gnudict begin
%
% The following true/false flags may be edited by hand if desired.
% The unit line width and grayscale image gamma correction may also be changed.
%
/Color true def
/Blacktext false def
/Solid false def
/Dashlength 1 def
/Landscape false def
/Level1 false def
/Rounded false def
/ClipToBoundingBox false def
/SuppressPDFMark false def
/TransparentPatterns false def
/gnulinewidth 5.000 def
/userlinewidth gnulinewidth def
/Gamma 1.0 def
/BackgroundColor {-1.000 -1.000 -1.000} def
%
/vshift -66 def
/dl1 {
  10.0 Dashlength mul mul
  Rounded { currentlinewidth 0.75 mul sub dup 0 le { pop 0.01 } if } if
} def
/dl2 {
  10.0 Dashlength mul mul
  Rounded { currentlinewidth 0.75 mul add } if
} def
/hpt_ 31.5 def
/vpt_ 31.5 def
/hpt hpt_ def
/vpt vpt_ def
/doclip {
  ClipToBoundingBox {
    newpath 50 50 moveto 770 50 lineto 770 554 lineto 50 554 lineto closepath
    clip
  } if
} def
%
% Gnuplot Prolog Version 4.6 (September 2012)
%
%/SuppressPDFMark true def
%
/M {moveto} bind def
/L {lineto} bind def
/R {rmoveto} bind def
/V {rlineto} bind def
/N {newpath moveto} bind def
/Z {closepath} bind def
/C {setrgbcolor} bind def
/f {rlineto fill} bind def
/g {setgray} bind def
/Gshow {show} def   % May be redefined later in the file to support UTF-8
/vpt2 vpt 2 mul def
/hpt2 hpt 2 mul def
/Lshow {currentpoint stroke M 0 vshift R 
	Blacktext {gsave 0 setgray show grestore} {show} ifelse} def
/Rshow {currentpoint stroke M dup stringwidth pop neg vshift R
	Blacktext {gsave 0 setgray show grestore} {show} ifelse} def
/Cshow {currentpoint stroke M dup stringwidth pop -2 div vshift R 
	Blacktext {gsave 0 setgray show grestore} {show} ifelse} def
/UP {dup vpt_ mul /vpt exch def hpt_ mul /hpt exch def
  /hpt2 hpt 2 mul def /vpt2 vpt 2 mul def} def
/DL {Color {setrgbcolor Solid {pop []} if 0 setdash}
 {pop pop pop 0 setgray Solid {pop []} if 0 setdash} ifelse} def
/BL {stroke userlinewidth 2 mul setlinewidth
	Rounded {1 setlinejoin 1 setlinecap} if} def
/AL {stroke userlinewidth 2 div setlinewidth
	Rounded {1 setlinejoin 1 setlinecap} if} def
/UL {dup gnulinewidth mul /userlinewidth exch def
	dup 1 lt {pop 1} if 10 mul /udl exch def} def
/PL {stroke userlinewidth setlinewidth
	Rounded {1 setlinejoin 1 setlinecap} if} def
3.8 setmiterlimit
% Default Line colors
/LCw {1 1 1} def
/LCb {0 0 0} def
/LCa {0 0 0} def
/LC0 {1 0 0} def
/LC1 {0 1 0} def
/LC2 {0 0 1} def
/LC3 {1 0 1} def
/LC4 {0 1 1} def
/LC5 {1 1 0} def
/LC6 {0 0 0} def
/LC7 {1 0.3 0} def
/LC8 {0.5 0.5 0.5} def
% Default Line Types
/LTw {PL [] 1 setgray} def
/LTb {BL [] LCb DL} def
/LTa {AL [1 udl mul 2 udl mul] 0 setdash LCa setrgbcolor} def
/LT0 {PL [] LC0 DL} def
/LT1 {PL [4 dl1 2 dl2] LC1 DL} def
/LT2 {PL [2 dl1 3 dl2] LC2 DL} def
/LT3 {PL [1 dl1 1.5 dl2] LC3 DL} def
/LT4 {PL [6 dl1 2 dl2 1 dl1 2 dl2] LC4 DL} def
/LT5 {PL [3 dl1 3 dl2 1 dl1 3 dl2] LC5 DL} def
/LT6 {PL [2 dl1 2 dl2 2 dl1 6 dl2] LC6 DL} def
/LT7 {PL [1 dl1 2 dl2 6 dl1 2 dl2 1 dl1 2 dl2] LC7 DL} def
/LT8 {PL [2 dl1 2 dl2 2 dl1 2 dl2 2 dl1 2 dl2 2 dl1 4 dl2] LC8 DL} def
/Pnt {stroke [] 0 setdash gsave 1 setlinecap M 0 0 V stroke grestore} def
/Dia {stroke [] 0 setdash 2 copy vpt add M
  hpt neg vpt neg V hpt vpt neg V
  hpt vpt V hpt neg vpt V closepath stroke
  Pnt} def
/Pls {stroke [] 0 setdash vpt sub M 0 vpt2 V
  currentpoint stroke M
  hpt neg vpt neg R hpt2 0 V stroke
 } def
/Box {stroke [] 0 setdash 2 copy exch hpt sub exch vpt add M
  0 vpt2 neg V hpt2 0 V 0 vpt2 V
  hpt2 neg 0 V closepath stroke
  Pnt} def
/Crs {stroke [] 0 setdash exch hpt sub exch vpt add M
  hpt2 vpt2 neg V currentpoint stroke M
  hpt2 neg 0 R hpt2 vpt2 V stroke} def
/TriU {stroke [] 0 setdash 2 copy vpt 1.12 mul add M
  hpt neg vpt -1.62 mul V
  hpt 2 mul 0 V
  hpt neg vpt 1.62 mul V closepath stroke
  Pnt} def
/Star {2 copy Pls Crs} def
/BoxF {stroke [] 0 setdash exch hpt sub exch vpt add M
  0 vpt2 neg V hpt2 0 V 0 vpt2 V
  hpt2 neg 0 V closepath fill} def
/TriUF {stroke [] 0 setdash vpt 1.12 mul add M
  hpt neg vpt -1.62 mul V
  hpt 2 mul 0 V
  hpt neg vpt 1.62 mul V closepath fill} def
/TriD {stroke [] 0 setdash 2 copy vpt 1.12 mul sub M
  hpt neg vpt 1.62 mul V
  hpt 2 mul 0 V
  hpt neg vpt -1.62 mul V closepath stroke
  Pnt} def
/TriDF {stroke [] 0 setdash vpt 1.12 mul sub M
  hpt neg vpt 1.62 mul V
  hpt 2 mul 0 V
  hpt neg vpt -1.62 mul V closepath fill} def
/DiaF {stroke [] 0 setdash vpt add M
  hpt neg vpt neg V hpt vpt neg V
  hpt vpt V hpt neg vpt V closepath fill} def
/Pent {stroke [] 0 setdash 2 copy gsave
  translate 0 hpt M 4 {72 rotate 0 hpt L} repeat
  closepath stroke grestore Pnt} def
/PentF {stroke [] 0 setdash gsave
  translate 0 hpt M 4 {72 rotate 0 hpt L} repeat
  closepath fill grestore} def
/Circle {stroke [] 0 setdash 2 copy
  hpt 0 360 arc stroke Pnt} def
/CircleF {stroke [] 0 setdash hpt 0 360 arc fill} def
/C0 {BL [] 0 setdash 2 copy moveto vpt 90 450 arc} bind def
/C1 {BL [] 0 setdash 2 copy moveto
	2 copy vpt 0 90 arc closepath fill
	vpt 0 360 arc closepath} bind def
/C2 {BL [] 0 setdash 2 copy moveto
	2 copy vpt 90 180 arc closepath fill
	vpt 0 360 arc closepath} bind def
/C3 {BL [] 0 setdash 2 copy moveto
	2 copy vpt 0 180 arc closepath fill
	vpt 0 360 arc closepath} bind def
/C4 {BL [] 0 setdash 2 copy moveto
	2 copy vpt 180 270 arc closepath fill
	vpt 0 360 arc closepath} bind def
/C5 {BL [] 0 setdash 2 copy moveto
	2 copy vpt 0 90 arc
	2 copy moveto
	2 copy vpt 180 270 arc closepath fill
	vpt 0 360 arc} bind def
/C6 {BL [] 0 setdash 2 copy moveto
	2 copy vpt 90 270 arc closepath fill
	vpt 0 360 arc closepath} bind def
/C7 {BL [] 0 setdash 2 copy moveto
	2 copy vpt 0 270 arc closepath fill
	vpt 0 360 arc closepath} bind def
/C8 {BL [] 0 setdash 2 copy moveto
	2 copy vpt 270 360 arc closepath fill
	vpt 0 360 arc closepath} bind def
/C9 {BL [] 0 setdash 2 copy moveto
	2 copy vpt 270 450 arc closepath fill
	vpt 0 360 arc closepath} bind def
/C10 {BL [] 0 setdash 2 copy 2 copy moveto vpt 270 360 arc closepath fill
	2 copy moveto
	2 copy vpt 90 180 arc closepath fill
	vpt 0 360 arc closepath} bind def
/C11 {BL [] 0 setdash 2 copy moveto
	2 copy vpt 0 180 arc closepath fill
	2 copy moveto
	2 copy vpt 270 360 arc closepath fill
	vpt 0 360 arc closepath} bind def
/C12 {BL [] 0 setdash 2 copy moveto
	2 copy vpt 180 360 arc closepath fill
	vpt 0 360 arc closepath} bind def
/C13 {BL [] 0 setdash 2 copy moveto
	2 copy vpt 0 90 arc closepath fill
	2 copy moveto
	2 copy vpt 180 360 arc closepath fill
	vpt 0 360 arc closepath} bind def
/C14 {BL [] 0 setdash 2 copy moveto
	2 copy vpt 90 360 arc closepath fill
	vpt 0 360 arc} bind def
/C15 {BL [] 0 setdash 2 copy vpt 0 360 arc closepath fill
	vpt 0 360 arc closepath} bind def
/Rec {newpath 4 2 roll moveto 1 index 0 rlineto 0 exch rlineto
	neg 0 rlineto closepath} bind def
/Square {dup Rec} bind def
/Bsquare {vpt sub exch vpt sub exch vpt2 Square} bind def
/S0 {BL [] 0 setdash 2 copy moveto 0 vpt rlineto BL Bsquare} bind def
/S1 {BL [] 0 setdash 2 copy vpt Square fill Bsquare} bind def
/S2 {BL [] 0 setdash 2 copy exch vpt sub exch vpt Square fill Bsquare} bind def
/S3 {BL [] 0 setdash 2 copy exch vpt sub exch vpt2 vpt Rec fill Bsquare} bind def
/S4 {BL [] 0 setdash 2 copy exch vpt sub exch vpt sub vpt Square fill Bsquare} bind def
/S5 {BL [] 0 setdash 2 copy 2 copy vpt Square fill
	exch vpt sub exch vpt sub vpt Square fill Bsquare} bind def
/S6 {BL [] 0 setdash 2 copy exch vpt sub exch vpt sub vpt vpt2 Rec fill Bsquare} bind def
/S7 {BL [] 0 setdash 2 copy exch vpt sub exch vpt sub vpt vpt2 Rec fill
	2 copy vpt Square fill Bsquare} bind def
/S8 {BL [] 0 setdash 2 copy vpt sub vpt Square fill Bsquare} bind def
/S9 {BL [] 0 setdash 2 copy vpt sub vpt vpt2 Rec fill Bsquare} bind def
/S10 {BL [] 0 setdash 2 copy vpt sub vpt Square fill 2 copy exch vpt sub exch vpt Square fill
	Bsquare} bind def
/S11 {BL [] 0 setdash 2 copy vpt sub vpt Square fill 2 copy exch vpt sub exch vpt2 vpt Rec fill
	Bsquare} bind def
/S12 {BL [] 0 setdash 2 copy exch vpt sub exch vpt sub vpt2 vpt Rec fill Bsquare} bind def
/S13 {BL [] 0 setdash 2 copy exch vpt sub exch vpt sub vpt2 vpt Rec fill
	2 copy vpt Square fill Bsquare} bind def
/S14 {BL [] 0 setdash 2 copy exch vpt sub exch vpt sub vpt2 vpt Rec fill
	2 copy exch vpt sub exch vpt Square fill Bsquare} bind def
/S15 {BL [] 0 setdash 2 copy Bsquare fill Bsquare} bind def
/D0 {gsave translate 45 rotate 0 0 S0 stroke grestore} bind def
/D1 {gsave translate 45 rotate 0 0 S1 stroke grestore} bind def
/D2 {gsave translate 45 rotate 0 0 S2 stroke grestore} bind def
/D3 {gsave translate 45 rotate 0 0 S3 stroke grestore} bind def
/D4 {gsave translate 45 rotate 0 0 S4 stroke grestore} bind def
/D5 {gsave translate 45 rotate 0 0 S5 stroke grestore} bind def
/D6 {gsave translate 45 rotate 0 0 S6 stroke grestore} bind def
/D7 {gsave translate 45 rotate 0 0 S7 stroke grestore} bind def
/D8 {gsave translate 45 rotate 0 0 S8 stroke grestore} bind def
/D9 {gsave translate 45 rotate 0 0 S9 stroke grestore} bind def
/D10 {gsave translate 45 rotate 0 0 S10 stroke grestore} bind def
/D11 {gsave translate 45 rotate 0 0 S11 stroke grestore} bind def
/D12 {gsave translate 45 rotate 0 0 S12 stroke grestore} bind def
/D13 {gsave translate 45 rotate 0 0 S13 stroke grestore} bind def
/D14 {gsave translate 45 rotate 0 0 S14 stroke grestore} bind def
/D15 {gsave translate 45 rotate 0 0 S15 stroke grestore} bind def
/DiaE {stroke [] 0 setdash vpt add M
  hpt neg vpt neg V hpt vpt neg V
  hpt vpt V hpt neg vpt V closepath stroke} def
/BoxE {stroke [] 0 setdash exch hpt sub exch vpt add M
  0 vpt2 neg V hpt2 0 V 0 vpt2 V
  hpt2 neg 0 V closepath stroke} def
/TriUE {stroke [] 0 setdash vpt 1.12 mul add M
  hpt neg vpt -1.62 mul V
  hpt 2 mul 0 V
  hpt neg vpt 1.62 mul V closepath stroke} def
/TriDE {stroke [] 0 setdash vpt 1.12 mul sub M
  hpt neg vpt 1.62 mul V
  hpt 2 mul 0 V
  hpt neg vpt -1.62 mul V closepath stroke} def
/PentE {stroke [] 0 setdash gsave
  translate 0 hpt M 4 {72 rotate 0 hpt L} repeat
  closepath stroke grestore} def
/CircE {stroke [] 0 setdash 
  hpt 0 360 arc stroke} def
/Opaque {gsave closepath 1 setgray fill grestore 0 setgray closepath} def
/DiaW {stroke [] 0 setdash vpt add M
  hpt neg vpt neg V hpt vpt neg V
  hpt vpt V hpt neg vpt V Opaque stroke} def
/BoxW {stroke [] 0 setdash exch hpt sub exch vpt add M
  0 vpt2 neg V hpt2 0 V 0 vpt2 V
  hpt2 neg 0 V Opaque stroke} def
/TriUW {stroke [] 0 setdash vpt 1.12 mul add M
  hpt neg vpt -1.62 mul V
  hpt 2 mul 0 V
  hpt neg vpt 1.62 mul V Opaque stroke} def
/TriDW {stroke [] 0 setdash vpt 1.12 mul sub M
  hpt neg vpt 1.62 mul V
  hpt 2 mul 0 V
  hpt neg vpt -1.62 mul V Opaque stroke} def
/PentW {stroke [] 0 setdash gsave
  translate 0 hpt M 4 {72 rotate 0 hpt L} repeat
  Opaque stroke grestore} def
/CircW {stroke [] 0 setdash 
  hpt 0 360 arc Opaque stroke} def
/BoxFill {gsave Rec 1 setgray fill grestore} def
/Density {
  /Fillden exch def
  currentrgbcolor
  /ColB exch def /ColG exch def /ColR exch def
  /ColR ColR Fillden mul Fillden sub 1 add def
  /ColG ColG Fillden mul Fillden sub 1 add def
  /ColB ColB Fillden mul Fillden sub 1 add def
  ColR ColG ColB setrgbcolor} def
/BoxColFill {gsave Rec PolyFill} def
/PolyFill {gsave Density fill grestore grestore} def
/h {rlineto rlineto rlineto gsave closepath fill grestore} bind def
%
% PostScript Level 1 Pattern Fill routine for rectangles
% Usage: x y w h s a XX PatternFill
%	x,y = lower left corner of box to be filled
%	w,h = width and height of box
%	  a = angle in degrees between lines and x-axis
%	 XX = 0/1 for no/yes cross-hatch
%
/PatternFill {gsave /PFa [ 9 2 roll ] def
  PFa 0 get PFa 2 get 2 div add PFa 1 get PFa 3 get 2 div add translate
  PFa 2 get -2 div PFa 3 get -2 div PFa 2 get PFa 3 get Rec
  TransparentPatterns {} {gsave 1 setgray fill grestore} ifelse
  clip
  currentlinewidth 0.5 mul setlinewidth
  /PFs PFa 2 get dup mul PFa 3 get dup mul add sqrt def
  0 0 M PFa 5 get rotate PFs -2 div dup translate
  0 1 PFs PFa 4 get div 1 add floor cvi
	{PFa 4 get mul 0 M 0 PFs V} for
  0 PFa 6 get ne {
	0 1 PFs PFa 4 get div 1 add floor cvi
	{PFa 4 get mul 0 2 1 roll M PFs 0 V} for
 } if
  stroke grestore} def
%
/languagelevel where
 {pop languagelevel} {1} ifelse
 2 lt
	{/InterpretLevel1 true def}
	{/InterpretLevel1 Level1 def}
 ifelse
%
% PostScript level 2 pattern fill definitions
%
/Level2PatternFill {
/Tile8x8 {/PaintType 2 /PatternType 1 /TilingType 1 /BBox [0 0 8 8] /XStep 8 /YStep 8}
	bind def
/KeepColor {currentrgbcolor [/Pattern /DeviceRGB] setcolorspace} bind def
<< Tile8x8
 /PaintProc {0.5 setlinewidth pop 0 0 M 8 8 L 0 8 M 8 0 L stroke} 
>> matrix makepattern
/Pat1 exch def
<< Tile8x8
 /PaintProc {0.5 setlinewidth pop 0 0 M 8 8 L 0 8 M 8 0 L stroke
	0 4 M 4 8 L 8 4 L 4 0 L 0 4 L stroke}
>> matrix makepattern
/Pat2 exch def
<< Tile8x8
 /PaintProc {0.5 setlinewidth pop 0 0 M 0 8 L
	8 8 L 8 0 L 0 0 L fill}
>> matrix makepattern
/Pat3 exch def
<< Tile8x8
 /PaintProc {0.5 setlinewidth pop -4 8 M 8 -4 L
	0 12 M 12 0 L stroke}
>> matrix makepattern
/Pat4 exch def
<< Tile8x8
 /PaintProc {0.5 setlinewidth pop -4 0 M 8 12 L
	0 -4 M 12 8 L stroke}
>> matrix makepattern
/Pat5 exch def
<< Tile8x8
 /PaintProc {0.5 setlinewidth pop -2 8 M 4 -4 L
	0 12 M 8 -4 L 4 12 M 10 0 L stroke}
>> matrix makepattern
/Pat6 exch def
<< Tile8x8
 /PaintProc {0.5 setlinewidth pop -2 0 M 4 12 L
	0 -4 M 8 12 L 4 -4 M 10 8 L stroke}
>> matrix makepattern
/Pat7 exch def
<< Tile8x8
 /PaintProc {0.5 setlinewidth pop 8 -2 M -4 4 L
	12 0 M -4 8 L 12 4 M 0 10 L stroke}
>> matrix makepattern
/Pat8 exch def
<< Tile8x8
 /PaintProc {0.5 setlinewidth pop 0 -2 M 12 4 L
	-4 0 M 12 8 L -4 4 M 8 10 L stroke}
>> matrix makepattern
/Pat9 exch def
/Pattern1 {PatternBgnd KeepColor Pat1 setpattern} bind def
/Pattern2 {PatternBgnd KeepColor Pat2 setpattern} bind def
/Pattern3 {PatternBgnd KeepColor Pat3 setpattern} bind def
/Pattern4 {PatternBgnd KeepColor Landscape {Pat5} {Pat4} ifelse setpattern} bind def
/Pattern5 {PatternBgnd KeepColor Landscape {Pat4} {Pat5} ifelse setpattern} bind def
/Pattern6 {PatternBgnd KeepColor Landscape {Pat9} {Pat6} ifelse setpattern} bind def
/Pattern7 {PatternBgnd KeepColor Landscape {Pat8} {Pat7} ifelse setpattern} bind def
} def
%
%
%End of PostScript Level 2 code
%
/PatternBgnd {
  TransparentPatterns {} {gsave 1 setgray fill grestore} ifelse
} def
%
% Substitute for Level 2 pattern fill codes with
% grayscale if Level 2 support is not selected.
%
/Level1PatternFill {
/Pattern1 {0.250 Density} bind def
/Pattern2 {0.500 Density} bind def
/Pattern3 {0.750 Density} bind def
/Pattern4 {0.125 Density} bind def
/Pattern5 {0.375 Density} bind def
/Pattern6 {0.625 Density} bind def
/Pattern7 {0.875 Density} bind def
} def
%
% Now test for support of Level 2 code
%
Level1 {Level1PatternFill} {Level2PatternFill} ifelse
%
/Symbol-Oblique /Symbol findfont [1 0 .167 1 0 0] makefont
dup length dict begin {1 index /FID eq {pop pop} {def} ifelse} forall
currentdict end definefont pop
/MFshow {
   { dup 5 get 3 ge
     { 5 get 3 eq {gsave} {grestore} ifelse }
     {dup dup 0 get findfont exch 1 get scalefont setfont
     [ currentpoint ] exch dup 2 get 0 exch R dup 5 get 2 ne {dup dup 6
     get exch 4 get {Gshow} {stringwidth pop 0 R} ifelse }if dup 5 get 0 eq
     {dup 3 get {2 get neg 0 exch R pop} {pop aload pop M} ifelse} {dup 5
     get 1 eq {dup 2 get exch dup 3 get exch 6 get stringwidth pop -2 div
     dup 0 R} {dup 6 get stringwidth pop -2 div 0 R 6 get
     show 2 index {aload pop M neg 3 -1 roll neg R pop pop} {pop pop pop
     pop aload pop M} ifelse }ifelse }ifelse }
     ifelse }
   forall} def
/Gswidth {dup type /stringtype eq {stringwidth} {pop (n) stringwidth} ifelse} def
/MFwidth {0 exch { dup 5 get 3 ge { 5 get 3 eq { 0 } { pop } ifelse }
 {dup 3 get{dup dup 0 get findfont exch 1 get scalefont setfont
     6 get Gswidth pop add} {pop} ifelse} ifelse} forall} def
/MLshow { currentpoint stroke M
  0 exch R
  Blacktext {gsave 0 setgray MFshow grestore} {MFshow} ifelse } bind def
/MRshow { currentpoint stroke M
  exch dup MFwidth neg 3 -1 roll R
  Blacktext {gsave 0 setgray MFshow grestore} {MFshow} ifelse } bind def
/MCshow { currentpoint stroke M
  exch dup MFwidth -2 div 3 -1 roll R
  Blacktext {gsave 0 setgray MFshow grestore} {MFshow} ifelse } bind def
/XYsave    { [( ) 1 2 true false 3 ()] } bind def
/XYrestore { [( ) 1 2 true false 4 ()] } bind def
Level1 SuppressPDFMark or 
{} {
/SDict 10 dict def
systemdict /pdfmark known not {
  userdict /pdfmark systemdict /cleartomark get put
} if
SDict begin [
  /Title (repeating_conn_1278362483_3247155005.eps)
  /Subject (gnuplot plot)
  /Creator (gnuplot 4.6 patchlevel 2)
  /Author (olgabo)
%  /Producer (gnuplot)
%  /Keywords ()
  /CreationDate (Tue Apr  8 12:42:53 2014)
  /DOCINFO pdfmark
end
} ifelse
end
%%EndProlog
%%Page: 1 1
gnudict begin
gsave
doclip
50 50 translate
0.050 0.050 scale
0 setgray
newpath
(Times) findfont 200 scalefont setfont
BackgroundColor 0 lt 3 1 roll 0 lt exch 0 lt or or not {BackgroundColor C 1.000 0 0 14400.00 10080.00 BoxColFill} if
1.000 UL
LTb
LCb setrgbcolor
1.000 UL
LTa
LCa setrgbcolor
1200 3493 M
12598 0 V
stroke
LTb
LCb setrgbcolor
1200 3493 M
63 0 V
12535 0 R
-63 0 V
stroke
1080 3493 M
[ [(Times) 200.0 0.0 true true 0 ( 0)]
] -66.7 MRshow
1.000 UL
LTb
LCb setrgbcolor
1.000 UL
LTa
LCa setrgbcolor
1200 4086 M
12598 0 V
stroke
LTb
LCb setrgbcolor
1200 4086 M
63 0 V
12535 0 R
-63 0 V
stroke
1080 4086 M
[ [(Times) 200.0 0.0 true true 0 ( 100)]
] -66.7 MRshow
1.000 UL
LTb
LCb setrgbcolor
1.000 UL
LTa
LCa setrgbcolor
1200 4678 M
12598 0 V
stroke
LTb
LCb setrgbcolor
1200 4678 M
63 0 V
12535 0 R
-63 0 V
stroke
1080 4678 M
[ [(Times) 200.0 0.0 true true 0 ( 200)]
] -66.7 MRshow
1.000 UL
LTb
LCb setrgbcolor
1.000 UL
LTa
LCa setrgbcolor
1200 5271 M
12598 0 V
stroke
LTb
LCb setrgbcolor
1200 5271 M
63 0 V
12535 0 R
-63 0 V
stroke
1080 5271 M
[ [(Times) 200.0 0.0 true true 0 ( 300)]
] -66.7 MRshow
1.000 UL
LTb
LCb setrgbcolor
1.000 UL
LTa
LCa setrgbcolor
1200 5864 M
12598 0 V
stroke
LTb
LCb setrgbcolor
1200 5864 M
63 0 V
12535 0 R
-63 0 V
stroke
1080 5864 M
[ [(Times) 200.0 0.0 true true 0 ( 400)]
] -66.7 MRshow
1.000 UL
LTb
LCb setrgbcolor
1.000 UL
LTa
LCa setrgbcolor
1200 6456 M
12598 0 V
stroke
LTb
LCb setrgbcolor
1200 6456 M
63 0 V
12535 0 R
-63 0 V
stroke
1080 6456 M
[ [(Times) 200.0 0.0 true true 0 ( 500)]
] -66.7 MRshow
1.000 UL
LTb
LCb setrgbcolor
1.000 UL
LTa
LCa setrgbcolor
1200 7049 M
12598 0 V
stroke
LTb
LCb setrgbcolor
1200 7049 M
63 0 V
12535 0 R
-63 0 V
stroke
1080 7049 M
[ [(Times) 200.0 0.0 true true 0 ( 600)]
] -66.7 MRshow
1.000 UL
LTb
LCb setrgbcolor
1.000 UL
LTa
LCa setrgbcolor
1200 3493 M
0 3556 V
stroke
LTb
LCb setrgbcolor
1200 3493 M
0 63 V
0 3493 R
0 -63 V
stroke
1200 3373 M
currentpoint gsave translate -45 rotate 0 0 moveto
[ [(Times) 200.0 0.0 true true 0 ( 0)]
] -66.7 MLshow
grestore
1.000 UL
LTb
LCb setrgbcolor
1.000 UL
LTa
LCa setrgbcolor
2775 3493 M
0 3556 V
stroke
LTb
LCb setrgbcolor
2775 3493 M
0 63 V
0 3493 R
0 -63 V
stroke
2775 3373 M
currentpoint gsave translate -45 rotate 0 0 moveto
[ [(Times) 200.0 0.0 true true 0 ( 500)]
] -66.7 MLshow
grestore
1.000 UL
LTb
LCb setrgbcolor
1.000 UL
LTa
LCa setrgbcolor
4350 3493 M
0 3556 V
stroke
LTb
LCb setrgbcolor
4350 3493 M
0 63 V
0 3493 R
0 -63 V
stroke
4350 3373 M
currentpoint gsave translate -45 rotate 0 0 moveto
[ [(Times) 200.0 0.0 true true 0 ( 1000)]
] -66.7 MLshow
grestore
1.000 UL
LTb
LCb setrgbcolor
1.000 UL
LTa
LCa setrgbcolor
5924 3493 M
0 3556 V
stroke
LTb
LCb setrgbcolor
5924 3493 M
0 63 V
0 3493 R
0 -63 V
stroke
5924 3373 M
currentpoint gsave translate -45 rotate 0 0 moveto
[ [(Times) 200.0 0.0 true true 0 ( 1500)]
] -66.7 MLshow
grestore
1.000 UL
LTb
LCb setrgbcolor
1.000 UL
LTa
LCa setrgbcolor
7499 3493 M
0 3556 V
stroke
LTb
LCb setrgbcolor
7499 3493 M
0 63 V
0 3493 R
0 -63 V
stroke
7499 3373 M
currentpoint gsave translate -45 rotate 0 0 moveto
[ [(Times) 200.0 0.0 true true 0 ( 2000)]
] -66.7 MLshow
grestore
1.000 UL
LTb
LCb setrgbcolor
1.000 UL
LTa
LCa setrgbcolor
9074 3493 M
0 3556 V
stroke
LTb
LCb setrgbcolor
9074 3493 M
0 63 V
0 3493 R
0 -63 V
stroke
9074 3373 M
currentpoint gsave translate -45 rotate 0 0 moveto
[ [(Times) 200.0 0.0 true true 0 ( 2500)]
] -66.7 MLshow
grestore
1.000 UL
LTb
LCb setrgbcolor
1.000 UL
LTa
LCa setrgbcolor
10649 3493 M
0 3556 V
stroke
LTb
LCb setrgbcolor
10649 3493 M
0 63 V
0 3493 R
0 -63 V
stroke
10649 3373 M
currentpoint gsave translate -45 rotate 0 0 moveto
[ [(Times) 200.0 0.0 true true 0 ( 3000)]
] -66.7 MLshow
grestore
1.000 UL
LTb
LCb setrgbcolor
1.000 UL
LTa
LCa setrgbcolor
12223 3493 M
0 3556 V
stroke
LTb
LCb setrgbcolor
12223 3493 M
0 63 V
0 3493 R
0 -63 V
stroke
12223 3373 M
currentpoint gsave translate -45 rotate 0 0 moveto
[ [(Times) 200.0 0.0 true true 0 ( 3500)]
] -66.7 MLshow
grestore
1.000 UL
LTb
LCb setrgbcolor
1.000 UL
LTa
LCa setrgbcolor
13798 3493 M
0 3556 V
stroke
LTb
LCb setrgbcolor
13798 3493 M
0 63 V
0 3493 R
0 -63 V
stroke
13798 3373 M
currentpoint gsave translate -45 rotate 0 0 moveto
[ [(Times) 200.0 0.0 true true 0 ( 4000)]
] -66.7 MLshow
grestore
1.000 UL
LTb
LCb setrgbcolor
1.000 UL
LTb
LCb setrgbcolor
1200 7049 N
0 -3556 V
12598 0 V
0 3556 V
-12598 0 V
Z stroke
LCb setrgbcolor
380 5271 M
currentpoint gsave translate -270 rotate 0 0 moveto
[ [(Times) 200.0 0.0 true true 0 (Duration [sec])]
] -66.7 MCshow
grestore
LTb
LCb setrgbcolor
7499 2769 M
[ [(Times) 200.0 0.0 true true 0 (Time [sec])]
] -66.7 MCshow
LTb
7499 7349 M
[ [(Times) 200.0 0.0 true true 0 (src port 80, repeating connections sorted by start time)]
] -66.7 MCshow
1.000 UP
1.000 UL
LTb
LCb setrgbcolor
1.000 UL
LT8
LC8 setrgbcolor
7108 63 N
782 0 V
-782 0 V
Z stroke
% Begin plot #1
1.000 UP
1.000 UL
LT8
0.00 0.00 1.00 C 1200 3494 M
9 0 V
10 1362 V
19 -1362 V
6 0 V
10 0 V
3 0 V
28 0 V
6 1 V
10 2 V
3 1 V
13 -4 V
15 0 V
10 0 V
3 0 V
3 0 V
13 0 V
6 0 V
3 0 V
44 0 V
22 0 V
0 1 V
13 -1 V
16 0 V
15 0 V
10 0 V
28 1 V
25 179 V
10 -180 V
3 0 V
6 0 V
6 0 V
16 0 V
25 0 V
13 1 V
13 -1 V
15 0 V
0 2 V
22 -2 V
4 0 V
3 1 V
15 0 V
0 -1 V
7 0 V
9 0 V
16 0 V
16 2 V
3 -2 V
12 0 V
13 0 V
16 0 V
31 0 V
13 0 V
22 0 V
31 2 V
35 -2 V
38 0 V
6 1 V
3 0 V
7 0 V
12 -1 V
7 1 V
9 -1 V
19 0 V
12 0 V
16 1643 V
10 -1643 V
6 4 V
9 -2 V
16 -2 V
13 1 V
28 -1 V
6 0 V
4 0 V
6 0 V
6 1 V
10 -1 V
9 0 V
32 1 V
63 -1 V
15 1 V
13 1 V
0 -1 V
6 -1 V
3 0 V
16 2 V
13 -2 V
22 0 V
6 0 V
9 1 V
7 3 V
6 -4 V
3 0 V
7 1 V
9 -1 V
13 1 V
15 -1 V
3 2 V
4 0 V
3 -1 V
12 1 V
10 -2 V
3 0 V
9 2 V
26 -2 V
stroke 2498 3494 M
0 3248 V
3 -3246 V
25 -1 V
6 -1 V
0 1 V
3 -1 V
10 2 V
31 -2 V
3 0 V
4 0 V
22 0 V
44 0 V
3 0 V
3 0 V
13 0 V
34 0 V
7 0 V
6 3 V
6 -2 V
3 -1 V
13 0 V
16 1 V
19 -1 V
3 0 V
12 1 V
26 1186 V
6 -1187 V
6 1 V
13 -1 V
41 1 V
15 -1 V
7 0 V
3 0 V
6 1 V
3 -1 V
3 0 V
16 0 V
7 0 V
25 0 V
3 1 V
35 -1 V
18 0 V
32 0 V
31 0 V
7 0 V
9 0 V
16 0 V
0 1 V
6 0 V
10 -1 V
3 1 V
3 -1 V
9 0 V
10 1 V
22 0 V
12 0 V
19 -1 V
4 2 V
6 -2 V
3 2 V
6 -2 V
32 0 V
3 0 V
22 -1 V
22 1 V
9 0 V
0 1 V
4 -1 V
3 1 V
16 -1 V
3 0 V
3 0 V
28 1 V
10 0 V
3 -1 V
3 0 V
3 0 V
3 0 V
0 3 V
10 -1 V
12 -2 V
10 0 V
6 0 V
3 1 V
6 -1 V
7 0 V
0 1 V
6 -1 V
0 8 V
19 -8 V
22 2 V
0 -1 V
3 -1 V
10 0 V
9 0 V
6 2 V
3 -2 V
13 0 V
0 1 V
13 -1 V
9 0 V
16 0 V
3 0 V
3 0 V
stroke 3584 3494 M
0 1 V
25 0 V
4 -1 V
15 0 V
29 0 V
3 0 V
6 1 V
13 -1 V
22 0 V
15 0 V
7 1 V
3 -1 V
0 1 V
3 0 V
16 -1 V
6 0 V
13 2 V
3 -2 V
9 0 V
10 1 V
12 0 V
16 -1 V
6 2 V
16 -1 V
6 0 V
4 -1 V
9 0 V
6 1 V
10 -1 V
9 2 V
19 0 V
28 -2 V
10 1 V
6 0 V
3 -1 V
10 2 V
6 -2 V
3 0 V
3 0 V
7 0 V
31 0 V
3 0 V
7 0 V
6 0 V
13 0 V
12 0 V
6 2 V
7 0 V
19 -2 V
3 2 V
9 -2 V
3 0 V
4 0 V
9 1 V
6 1 V
16 -2 V
3 1 V
3 1 V
3 -2 V
4 2 V
12 -2 V
10 1 V
3 -1 V
9 0 V
3 0 V
10 0 V
12 0 V
13 0 V
3 0 V
3 0 V
22 1 V
4 0 V
31 1 V
10 -2 V
3 2 V
12 -2 V
7 0 V
3 0 V
9 0 V
3 0 V
0 1 V
3 0 V
26 -1 V
15 2 V
4 -2 V
12 0 V
6 1 V
19 1 V
10 -1 V
3 0 V
13 -1 V
15 0 V
3 3 V
13 -3 V
6 0 V
16 0 V
3 0 V
7 0 V
25 2 V
15 -2 V
4 0 V
28 0 V
0 1 V
16 -1 V
stroke 4586 3494 M
19 0 V
3 1 V
3 0 V
13 -1 V
6 0 V
22 0 V
9 3 V
7 -3 V
6 2 V
3 -2 V
3 1 V
6 1 V
0 -1 V
41 1 V
7 -1 V
9 1 V
19 -2 V
38 0 V
3 0 V
25 0 V
0 1 V
19 -1 V
3 0 V
3 0 V
7 0 V
3 0 V
6 0 V
19 1 V
19 -1 V
9 0 V
4 0 V
12 0 V
25 0 V
4 0 V
3 0 V
9 2 V
13 -2 V
12 0 V
10 0 V
3 0 V
0 1 V
6 -1 V
19 0 V
0 3 V
16 -3 V
6 0 V
3 0 V
13 2 V
19 0 V
16 -2 V
15 0 V
16 0 V
19 2 V
9 -2 V
7 0 V
9 1 V
3 -1 V
7 0 V
3 1 V
3 -1 V
3 0 V
3 2 V
25 -2 V
0 1 V
0 -1 V
7 0 V
3 0 V
12 0 V
0 1 V
10 -1 V
3 1 V
0 -1 V
6 0 V
13 1 V
3 0 V
6 -1 V
0 1 V
7 0 V
6 0 V
16 -1 V
41 0 V
3 0 V
25 1 V
16 -1 V
9 2 V
22 0 V
7 -2 V
12 0 V
3 0 V
19 2 V
3 -2 V
10 2 V
3 -2 V
9 0 V
16 0 V
13 2 V
9 -2 V
51 0 V
12 0 V
13 0 V
6 0 V
32 0 V
3 2 V
6 -1 V
stroke 5666 3495 M
6 -1 V
29 0 V
9 0 V
10 0 V
9 0 V
6 0 V
0 2 V
22 -2 V
3 0 V
4 0 V
6 0 V
3 1 V
25 0 V
13 0 V
19 -1 V
6 0 V
0 1 V
16 0 V
34 -1 V
10 0 V
31 1 V
7 0 V
15 -1 V
13 1 V
9 1 V
19 -1 V
10 1 V
9 0 V
10 -2 V
6 0 V
6 0 V
29 2 V
6 -2 V
3 0 V
19 1 V
3 1 V
3 -2 V
0 1 V
16 0 V
6 -1 V
4 0 V
6 0 V
3 0 V
31 1 V
23 -1 V
15 0 V
19 0 V
6 2 V
7 -2 V
6 3 V
32 -3 V
3 0 V
9 0 V
6 1 V
4 -1 V
22 0 V
3 0 V
3 1 V
13 1 V
9 -2 V
19 0 V
3 0 V
0 1 V
3 1 V
3 -2 V
16 0 V
22 2 V
16 0 V
6 -2 V
3 2 V
10 -1 V
38 -1 V
3 0 V
6 0 V
0 2 V
13 -1 V
37 -1 V
22 0 V
4 1 V
12 0 V
0 -1 V
16 0 V
3 1 V
3 -1 V
19 2 V
13 0 V
3 -1 V
57 0 V
12 -1 V
10 1 V
9 -1 V
38 0 V
25 1 V
13 -1 V
19 2 V
6 0 V
22 -2 V
3 1 V
13 -1 V
9 0 V
3 0 V
3 0 V
0 1 V
10 1 V
stroke 6885 3496 M
3 -1 V
9 1 V
26 -2 V
3 1585 V
9 -1583 V
19 0 V
6 0 V
82 0 V
13 -2 V
0 2 V
6 -2 V
7 0 V
3 0 V
15 1 V
0 -1 V
4 0 V
15 0 V
7 0 V
3 0 V
12 0 V
7 1 V
3 -1 V
22 0 V
6 1 V
0 -1 V
3 0 V
7 0 V
6 0 V
41 0 V
12 2 V
19 -2 V
13 0 V
35 1 V
6 -1 V
3 0 V
3 0 V
13 0 V
6 2 V
3 -2 V
3 2 V
10 -2 V
6 0 V
6 0 V
13 2 V
25 -2 V
7 0 V
6 0 V
9 0 V
3 1 V
7 -1 V
3 2 V
19 -2 V
19 2 V
25 -2 V
3 0 V
13 1 V
0 29 V
6 -30 V
16 0 V
9 2 V
3 -2 V
3 0 V
13 2 V
13 -2 V
0 1 V
3 -1 V
19 0 V
9 0 V
19 0 V
25 0 V
13 2 V
3 -2 V
25 0 V
3 3 V
3 -3 V
13 0 V
9 1 V
4 -1 V
15 0 V
29 2 V
6 -1 V
6 0 V
7 0 V
9 1 V
3 -1 V
13 1 V
12 -2 V
32 0 V
0 1 V
31 -1 V
7 2 V
3 -2 V
12 0 V
13 2 V
0 1 V
13 -2 V
12 -1 V
38 0 V
3 2 V
25 -2 V
16 0 V
10 0 V
3 0 V
3 2 V
stroke 8044 3496 M
9 -2 V
7 0 V
25 0 V
19 0 V
15 0 V
16 0 V
16 2 V
16 -2 V
9 0 V
6 1 V
19 0 V
0 -1 V
0 10 V
10 -8 V
6 -1 V
6 -1 V
7 0 V
31 0 V
22 0 V
10 1 V
3 -1 V
9 0 V
7 2 V
3 0 V
9 -2 V
32 1 V
25 0 V
12 -1 V
4 1 V
3 1 V
63 -1 V
6 -1 V
3 0 V
0 2 V
10 -1 V
3 0 V
28 0 V
0 -1 V
22 2 V
3 -2 V
35 0 V
22 1 V
0 -1 V
9 0 V
26 0 V
3 0 V
6 0 V
6 1 V
19 -1 V
10 2 V
0 -2 V
28 0 V
13 0 V
25 0 V
6 0 V
3 0 V
4 1 V
0 -1 V
9 0 V
3 2 V
3 -2 V
10 0 V
3 0 V
3 1702 V
9 -1701 V
10 -1 V
3 0 V
19 677 V
16 -676 V
15 0 V
10 1 V
25 -2 V
6 0 V
29 2 V
9 0 V
3 -1 V
10 1 V
28 0 V
3 -2 V
3 1 V
10 0 V
6 1 V
3 -2 V
13 0 V
6 0 V
3 1 V
13 1 V
25 0 V
13 0 V
3 -1 V
19 -1 V
3 0 V
3 0 V
3 0 V
35 1 V
3 -1 V
38 1 V
28 -1 V
25 2 V
7 -2 V
9 2 V
3 -2 V
3 0 V
4 2 V
stroke 9260 3496 M
37 -2 V
4 0 V
9 1 V
9 7 V
4 -6 V
3 -2 V
0 1 V
38 -1 V
22 2 V
9 -2 V
16 0 V
25 0 V
6 0 V
7 0 V
9 0 V
3 1 V
16 0 V
16 -1 V
3 3 V
22 -1 V
0 -2 V
12 1 V
13 -1 V
0 2 V
0 4 V
44 -6 V
19 2 V
3 -1 V
0 -1 V
60 0 V
3 0 V
3 2 V
10 -2 V
3 0 V
25 1 V
13 -1 V
19 1 V
6 0 V
6 0 V
6 0 V
19 0 V
7 2 V
31 -3 V
3 2 V
3 -2 V
4 0 V
6 0 V
6 2 V
7 -2 V
0 1 V
6 1 V
6 -2 V
3 2 V
10 -2 V
25 0 V
3 0 V
6 1 V
10 -1 V
3 1 V
3 0 V
6 -1 V
7 0 V
38 0 V
18 3 V
4 2 V
3 -5 V
3 0 V
9 0 V
7 0 V
9 0 V
3 0 V
0 1 V
0 -1 V
19 0 V
3 1 V
0 -1 V
22 0 V
16 0 V
6 0 V
3 0 V
4 0 V
6 1 V
25 1774 V
13 -1774 V
15 -1 V
26 1 V
3 0 V
9 0 V
19 0 V
6 -1 V
4 1066 V
6 -1066 V
28 0 V
22 0 V
13 0 V
9 2 V
107 -2 V
4 0 V
3 0 V
3 0 V
3 0 V
3 0 V
3 0 V
10 0 V
stroke 10444 3494 M
12 0 V
10 1 V
3 0 V
22 -1 V
13 0 V
3 0 V
3 0 V
3 1 V
13 -1 V
60 0 V
9 0 V
0 2 V
9 -2 V
4 1 V
15 -1 V
63 0 V
7 0 V
9 0 V
41 0 V
47 0 V
13 1 V
41 -1 V
9 2 V
22 -2 V
19 0 V
3 0 V
3 0 V
7 0 V
6 2 V
16 -2 V
0 2 V
9 -1 V
19 -1 V
3 1 V
3 -1 V
22 2 V
13 -1 V
19 -1 V
54 0 V
12 913 V
10 -913 V
15 0 V
13 1 V
50 -1 V
3 1 V
26 -1 V
3 0 V
38 0 V
22 2 V
6 -2 V
3 0 V
28 0 V
7 0 V
9 1 V
25 -1 V
38 1 V
16 -1 V
44 0 V
25 1 V
32 1 V
15 -2 V
4 0 V
15 0 V
32 0 V
19 0 V
6 1 V
22 -1 V
22 374 V
16 -374 V
16 0 V
3 0 V
41 1 V
25 -1 V
9 0 V
44 1 V
4 -1 V
19 1 V
3 1 V
9 -2 V
3 0 V
35 0 V
9 0 V
10 0 V
19 0 V
12 0 V
16 0 V
6 0 V
10 0 V
9 0 V
13 0 V
16 0 V
3 0 V
22 0 V
41 0 V
25 0 V
3 2 V
0 -1 V
0 -1 V
3 0 V
10 0 V
66 1 V
9 10 V
41 -11 V
3 0 V
stroke 12204 3494 M
10 1 V
3 -1 V
22 0 V
6 0 V
3 1 V
26 -1 V
15 0 V
22 1 V
32 -1 V
76 0 V
15 0 V
3 0 V
10 0 V
31 1 V
38 1 V
22 -2 V
13 0 V
12 0 V
29 0 V
0 2 V
28 1 V
10 -1 V
3 0 V
3 -1 V
16 -1 V
25 0 V
22 0 V
6 0 V
16 0 V
6 0 V
16 0 V
16 0 V
9 0 V
44 1 V
3 61 V
38 -62 V
10 2 V
3 -2 V
6 1 V
3 -1 V
10 0 V
1200 3494 TriUF
1209 3494 TriUF
1219 4856 TriUF
1238 3494 TriUF
1244 3494 TriUF
1254 3494 TriUF
1257 3494 TriUF
1285 3494 TriUF
1291 3495 TriUF
1301 3497 TriUF
1304 3498 TriUF
1317 3494 TriUF
1332 3494 TriUF
1342 3494 TriUF
1345 3494 TriUF
1348 3494 TriUF
1361 3494 TriUF
1361 3494 TriUF
1367 3494 TriUF
1370 3494 TriUF
1414 3494 TriUF
1436 3494 TriUF
1436 3495 TriUF
1449 3494 TriUF
1465 3494 TriUF
1480 3494 TriUF
1490 3494 TriUF
1518 3495 TriUF
1518 3495 TriUF
1543 3674 TriUF
1553 3494 TriUF
1556 3494 TriUF
1562 3494 TriUF
1568 3494 TriUF
1584 3494 TriUF
1609 3494 TriUF
1609 3494 TriUF
1622 3495 TriUF
1635 3494 TriUF
1635 3494 TriUF
1650 3494 TriUF
1650 3496 TriUF
1672 3494 TriUF
1676 3494 TriUF
1679 3495 TriUF
1694 3495 TriUF
1694 3494 TriUF
1701 3494 TriUF
1701 3494 TriUF
1710 3494 TriUF
1726 3494 TriUF
1742 3496 TriUF
1745 3494 TriUF
1757 3494 TriUF
1770 3494 TriUF
1770 3494 TriUF
1786 3494 TriUF
1817 3494 TriUF
1830 3494 TriUF
1852 3494 TriUF
1883 3496 TriUF
1918 3494 TriUF
1956 3494 TriUF
1956 3494 TriUF
1962 3495 TriUF
1965 3495 TriUF
1972 3495 TriUF
1984 3494 TriUF
1991 3495 TriUF
2000 3494 TriUF
2000 3494 TriUF
2019 3494 TriUF
2031 3494 TriUF
2047 5137 TriUF
2057 3494 TriUF
2063 3498 TriUF
2072 3496 TriUF
2088 3494 TriUF
2101 3495 TriUF
2129 3494 TriUF
2135 3494 TriUF
2139 3494 TriUF
2145 3494 TriUF
2151 3495 TriUF
2161 3494 TriUF
2170 3494 TriUF
2202 3495 TriUF
2265 3494 TriUF
2280 3495 TriUF
2293 3496 TriUF
2293 3495 TriUF
2299 3494 TriUF
2302 3494 TriUF
2302 3494 TriUF
2318 3496 TriUF
2331 3494 TriUF
2353 3494 TriUF
2359 3494 TriUF
2368 3495 TriUF
2375 3498 TriUF
2381 3494 TriUF
2384 3494 TriUF
2391 3495 TriUF
2400 3494 TriUF
2413 3495 TriUF
2428 3494 TriUF
2428 3494 TriUF
2431 3496 TriUF
2435 3496 TriUF
2438 3495 TriUF
2450 3496 TriUF
2460 3494 TriUF
2463 3494 TriUF
2463 3494 TriUF
2472 3496 TriUF
2498 3494 TriUF
2498 6742 TriUF
2501 3496 TriUF
2526 3495 TriUF
2526 3495 TriUF
2532 3494 TriUF
2532 3495 TriUF
2535 3494 TriUF
2545 3496 TriUF
2576 3494 TriUF
2579 3494 TriUF
2579 3494 TriUF
2583 3494 TriUF
2605 3494 TriUF
2649 3494 TriUF
2649 3494 TriUF
2652 3494 TriUF
2655 3494 TriUF
2668 3494 TriUF
2702 3494 TriUF
2709 3494 TriUF
2709 3494 TriUF
2715 3497 TriUF
2721 3495 TriUF
2724 3494 TriUF
2737 3494 TriUF
2753 3495 TriUF
2772 3494 TriUF
2772 3494 TriUF
2775 3494 TriUF
2787 3495 TriUF
2813 4681 TriUF
2819 3494 TriUF
2825 3495 TriUF
2838 3494 TriUF
2879 3495 TriUF
2894 3494 TriUF
2901 3494 TriUF
2904 3494 TriUF
2910 3495 TriUF
2913 3494 TriUF
2913 3494 TriUF
2916 3494 TriUF
2932 3494 TriUF
2932 3494 TriUF
2939 3494 TriUF
2964 3494 TriUF
2967 3495 TriUF
2967 3495 TriUF
3002 3494 TriUF
3002 3494 TriUF
3020 3494 TriUF
3052 3494 TriUF
3083 3494 TriUF
3090 3494 TriUF
3099 3494 TriUF
3115 3494 TriUF
3115 3494 TriUF
3115 3495 TriUF
3121 3495 TriUF
3131 3494 TriUF
3134 3495 TriUF
3137 3494 TriUF
3146 3494 TriUF
3146 3494 TriUF
3156 3495 TriUF
3178 3495 TriUF
3178 3495 TriUF
3190 3495 TriUF
3190 3495 TriUF
3209 3494 TriUF
3213 3496 TriUF
3219 3494 TriUF
3222 3496 TriUF
3228 3494 TriUF
3260 3494 TriUF
3263 3494 TriUF
3285 3493 TriUF
3307 3494 TriUF
3316 3494 TriUF
3316 3495 TriUF
3320 3494 TriUF
3323 3495 TriUF
3339 3494 TriUF
3342 3494 TriUF
3345 3494 TriUF
3345 3494 TriUF
3373 3495 TriUF
3383 3495 TriUF
3386 3494 TriUF
3389 3494 TriUF
3392 3494 TriUF
3395 3494 TriUF
3395 3497 TriUF
3405 3496 TriUF
3417 3494 TriUF
3417 3494 TriUF
3427 3494 TriUF
3427 3494 TriUF
3433 3494 TriUF
3436 3495 TriUF
3442 3494 TriUF
3449 3494 TriUF
3449 3495 TriUF
3455 3494 TriUF
3455 3502 TriUF
3474 3494 TriUF
3496 3496 TriUF
3496 3495 TriUF
3499 3494 TriUF
3509 3494 TriUF
3509 3494 TriUF
3518 3494 TriUF
3524 3496 TriUF
3527 3494 TriUF
3540 3494 TriUF
3540 3495 TriUF
3553 3494 TriUF
3562 3494 TriUF
3562 3494 TriUF
3562 3494 TriUF
3562 3494 TriUF
3578 3494 TriUF
3578 3494 TriUF
3581 3494 TriUF
3584 3494 TriUF
3584 3495 TriUF
3609 3495 TriUF
3613 3494 TriUF
3628 3494 TriUF
3657 3494 TriUF
3660 3494 TriUF
3666 3495 TriUF
3679 3494 TriUF
3701 3494 TriUF
3716 3494 TriUF
3723 3495 TriUF
3726 3494 TriUF
3726 3494 TriUF
3726 3495 TriUF
3729 3495 TriUF
3745 3494 TriUF
3745 3494 TriUF
3751 3494 TriUF
3751 3494 TriUF
3764 3496 TriUF
3767 3494 TriUF
3776 3494 TriUF
3776 3494 TriUF
3786 3495 TriUF
3798 3495 TriUF
3814 3494 TriUF
3820 3496 TriUF
3836 3495 TriUF
3842 3495 TriUF
3846 3494 TriUF
3855 3494 TriUF
3861 3495 TriUF
3871 3494 TriUF
3880 3496 TriUF
3899 3496 TriUF
3927 3494 TriUF
3927 3494 TriUF
3937 3495 TriUF
3943 3495 TriUF
3946 3494 TriUF
3956 3496 TriUF
3962 3494 TriUF
3965 3494 TriUF
3968 3494 TriUF
3975 3494 TriUF
4006 3494 TriUF
4009 3494 TriUF
4016 3494 TriUF
4022 3494 TriUF
4035 3494 TriUF
4047 3494 TriUF
4053 3496 TriUF
4060 3496 TriUF
4079 3494 TriUF
4082 3496 TriUF
4091 3494 TriUF
4094 3494 TriUF
4098 3494 TriUF
4107 3495 TriUF
4113 3496 TriUF
4129 3494 TriUF
4132 3495 TriUF
4135 3496 TriUF
4138 3494 TriUF
4142 3496 TriUF
4154 3494 TriUF
4164 3495 TriUF
4167 3494 TriUF
4176 3494 TriUF
4179 3494 TriUF
4189 3494 TriUF
4201 3494 TriUF
4214 3494 TriUF
4217 3494 TriUF
4220 3494 TriUF
4242 3495 TriUF
4246 3495 TriUF
4277 3496 TriUF
4287 3494 TriUF
4290 3496 TriUF
4302 3494 TriUF
4309 3494 TriUF
4312 3494 TriUF
4321 3494 TriUF
4324 3494 TriUF
4324 3495 TriUF
4327 3495 TriUF
4327 3495 TriUF
4353 3494 TriUF
4368 3496 TriUF
4372 3494 TriUF
4384 3494 TriUF
4390 3495 TriUF
4409 3496 TriUF
4419 3495 TriUF
4422 3495 TriUF
4422 3495 TriUF
4435 3494 TriUF
4450 3494 TriUF
4453 3497 TriUF
4466 3494 TriUF
4472 3494 TriUF
4488 3494 TriUF
4491 3494 TriUF
4498 3494 TriUF
4523 3496 TriUF
4538 3494 TriUF
4542 3494 TriUF
4570 3494 TriUF
4570 3495 TriUF
4586 3494 TriUF
4605 3494 TriUF
4605 3494 TriUF
4608 3495 TriUF
4611 3495 TriUF
4624 3494 TriUF
4630 3494 TriUF
4652 3494 TriUF
4661 3497 TriUF
4668 3494 TriUF
4674 3496 TriUF
4677 3494 TriUF
4677 3494 TriUF
4680 3495 TriUF
4686 3496 TriUF
4686 3495 TriUF
4727 3496 TriUF
4734 3495 TriUF
4743 3496 TriUF
4762 3494 TriUF
4800 3494 TriUF
4803 3494 TriUF
4828 3494 TriUF
4828 3495 TriUF
4847 3494 TriUF
4847 3494 TriUF
4847 3494 TriUF
4850 3494 TriUF
4853 3494 TriUF
4860 3494 TriUF
4863 3494 TriUF
4869 3494 TriUF
4888 3495 TriUF
4907 3494 TriUF
4916 3494 TriUF
4920 3494 TriUF
4932 3494 TriUF
4957 3494 TriUF
4961 3494 TriUF
4964 3494 TriUF
4973 3496 TriUF
4986 3494 TriUF
4998 3494 TriUF
5008 3494 TriUF
5011 3494 TriUF
5011 3495 TriUF
5017 3494 TriUF
5036 3494 TriUF
5036 3497 TriUF
5052 3494 TriUF
5058 3494 TriUF
5061 3494 TriUF
5061 3494 TriUF
5074 3496 TriUF
5093 3496 TriUF
5109 3494 TriUF
5124 3494 TriUF
5140 3494 TriUF
5140 3494 TriUF
5159 3496 TriUF
5168 3494 TriUF
5175 3494 TriUF
5184 3495 TriUF
5187 3494 TriUF
5194 3494 TriUF
5197 3495 TriUF
5200 3494 TriUF
5200 3494 TriUF
5200 3494 TriUF
5203 3494 TriUF
5206 3496 TriUF
5231 3494 TriUF
5231 3495 TriUF
5231 3494 TriUF
5231 3494 TriUF
5238 3494 TriUF
5238 3494 TriUF
5241 3494 TriUF
5253 3494 TriUF
5253 3495 TriUF
5263 3494 TriUF
5266 3495 TriUF
5266 3494 TriUF
5272 3494 TriUF
5285 3495 TriUF
5288 3495 TriUF
5294 3494 TriUF
5294 3495 TriUF
5301 3495 TriUF
5307 3495 TriUF
5323 3494 TriUF
5364 3494 TriUF
5367 3494 TriUF
5392 3495 TriUF
5408 3494 TriUF
5408 3494 TriUF
5417 3496 TriUF
5439 3496 TriUF
5446 3494 TriUF
5458 3494 TriUF
5461 3494 TriUF
5480 3496 TriUF
5483 3494 TriUF
5483 3494 TriUF
5493 3496 TriUF
5496 3494 TriUF
5505 3494 TriUF
5521 3494 TriUF
5534 3496 TriUF
5543 3494 TriUF
5594 3494 TriUF
5606 3494 TriUF
5606 3494 TriUF
5619 3494 TriUF
5625 3494 TriUF
5657 3494 TriUF
5660 3496 TriUF
5666 3495 TriUF
5672 3494 TriUF
5701 3494 TriUF
5701 3494 TriUF
5710 3494 TriUF
5720 3494 TriUF
5729 3494 TriUF
5729 3494 TriUF
5735 3494 TriUF
5735 3494 TriUF
5735 3496 TriUF
5757 3494 TriUF
5760 3494 TriUF
5764 3494 TriUF
5764 3494 TriUF
5770 3494 TriUF
5770 3494 TriUF
5773 3495 TriUF
5798 3495 TriUF
5811 3495 TriUF
5830 3494 TriUF
5830 3494 TriUF
5836 3494 TriUF
5836 3495 TriUF
5852 3495 TriUF
5886 3494 TriUF
5896 3494 TriUF
5927 3495 TriUF
5934 3495 TriUF
5949 3494 TriUF
5949 3494 TriUF
5962 3495 TriUF
5971 3496 TriUF
5990 3495 TriUF
6000 3496 TriUF
6009 3496 TriUF
6019 3494 TriUF
6025 3494 TriUF
6025 3494 TriUF
6031 3494 TriUF
6060 3496 TriUF
6066 3494 TriUF
6069 3494 TriUF
6088 3495 TriUF
6091 3496 TriUF
6094 3494 TriUF
6094 3495 TriUF
6110 3495 TriUF
6116 3494 TriUF
6120 3494 TriUF
6120 3494 TriUF
6126 3494 TriUF
6129 3494 TriUF
6129 3494 TriUF
6160 3495 TriUF
6183 3494 TriUF
6198 3494 TriUF
6217 3494 TriUF
6223 3496 TriUF
6230 3494 TriUF
6236 3497 TriUF
6268 3494 TriUF
6271 3494 TriUF
6280 3494 TriUF
6286 3495 TriUF
6290 3494 TriUF
6312 3494 TriUF
6315 3494 TriUF
6315 3494 TriUF
6315 3494 TriUF
6318 3495 TriUF
6331 3496 TriUF
6340 3494 TriUF
6359 3494 TriUF
6362 3494 TriUF
6362 3495 TriUF
6365 3496 TriUF
6368 3494 TriUF
6384 3494 TriUF
6406 3496 TriUF
6422 3496 TriUF
6428 3494 TriUF
6428 3494 TriUF
6431 3496 TriUF
6441 3495 TriUF
6479 3494 TriUF
6482 3494 TriUF
6488 3494 TriUF
6488 3496 TriUF
6501 3495 TriUF
6538 3494 TriUF
6560 3494 TriUF
6564 3495 TriUF
6576 3495 TriUF
6576 3494 TriUF
6592 3494 TriUF
6595 3495 TriUF
6598 3494 TriUF
6617 3496 TriUF
6630 3496 TriUF
6633 3495 TriUF
6690 3495 TriUF
6702 3494 TriUF
6702 3494 TriUF
6712 3495 TriUF
6721 3494 TriUF
6759 3494 TriUF
6784 3495 TriUF
6797 3494 TriUF
6816 3496 TriUF
6822 3496 TriUF
6844 3494 TriUF
6847 3495 TriUF
6860 3494 TriUF
6869 3494 TriUF
6872 3494 TriUF
6875 3494 TriUF
6875 3495 TriUF
6885 3496 TriUF
6888 3495 TriUF
6897 3496 TriUF
6923 3494 TriUF
6926 5079 TriUF
6935 3496 TriUF
6954 3496 TriUF
6960 3496 TriUF
7042 3496 TriUF
7055 3494 TriUF
7055 3496 TriUF
7061 3494 TriUF
7068 3494 TriUF
7071 3494 TriUF
7086 3495 TriUF
7086 3494 TriUF
7090 3494 TriUF
7105 3494 TriUF
7112 3494 TriUF
7115 3494 TriUF
7127 3494 TriUF
7127 3494 TriUF
7134 3495 TriUF
7137 3494 TriUF
7159 3494 TriUF
7165 3495 TriUF
7165 3494 TriUF
7168 3494 TriUF
7175 3494 TriUF
7181 3494 TriUF
7222 3494 TriUF
7234 3496 TriUF
7253 3494 TriUF
7266 3494 TriUF
7301 3495 TriUF
7307 3494 TriUF
7310 3494 TriUF
7313 3494 TriUF
7326 3494 TriUF
7332 3496 TriUF
7335 3494 TriUF
7335 3494 TriUF
7338 3496 TriUF
7348 3494 TriUF
7354 3494 TriUF
7360 3494 TriUF
7373 3496 TriUF
7398 3494 TriUF
7405 3494 TriUF
7411 3494 TriUF
7420 3494 TriUF
7423 3495 TriUF
7430 3494 TriUF
7430 3494 TriUF
7433 3496 TriUF
7452 3494 TriUF
7452 3494 TriUF
7471 3496 TriUF
7496 3494 TriUF
7499 3494 TriUF
7499 3494 TriUF
7499 3494 TriUF
7512 3495 TriUF
7512 3524 TriUF
7518 3494 TriUF
7534 3494 TriUF
7543 3496 TriUF
7546 3494 TriUF
7549 3494 TriUF
7562 3496 TriUF
7575 3494 TriUF
7575 3495 TriUF
7578 3494 TriUF
7597 3494 TriUF
7597 3494 TriUF
7606 3494 TriUF
7625 3494 TriUF
7650 3494 TriUF
7663 3496 TriUF
7666 3494 TriUF
7691 3494 TriUF
7694 3497 TriUF
7697 3494 TriUF
7710 3494 TriUF
7719 3495 TriUF
7723 3494 TriUF
7738 3494 TriUF
7767 3496 TriUF
7773 3495 TriUF
7779 3495 TriUF
7786 3495 TriUF
7786 3495 TriUF
7795 3496 TriUF
7798 3495 TriUF
7811 3496 TriUF
7823 3494 TriUF
7855 3494 TriUF
7855 3495 TriUF
7886 3494 TriUF
7893 3496 TriUF
7896 3494 TriUF
7908 3494 TriUF
7921 3496 TriUF
7921 3497 TriUF
7934 3495 TriUF
7946 3494 TriUF
7984 3494 TriUF
7987 3496 TriUF
8012 3494 TriUF
8028 3494 TriUF
8038 3494 TriUF
8041 3494 TriUF
8044 3496 TriUF
8053 3494 TriUF
8060 3494 TriUF
8085 3494 TriUF
8104 3494 TriUF
8104 3494 TriUF
8119 3494 TriUF
8135 3494 TriUF
8151 3496 TriUF
8167 3494 TriUF
8176 3494 TriUF
8182 3495 TriUF
8201 3495 TriUF
8201 3494 TriUF
8201 3504 TriUF
8211 3496 TriUF
8217 3495 TriUF
8223 3494 TriUF
8230 3494 TriUF
8261 3494 TriUF
8283 3494 TriUF
8283 3494 TriUF
8293 3495 TriUF
8296 3494 TriUF
8305 3494 TriUF
8312 3496 TriUF
8315 3496 TriUF
8324 3494 TriUF
8356 3495 TriUF
8381 3495 TriUF
8393 3494 TriUF
8397 3495 TriUF
8400 3496 TriUF
8400 3496 TriUF
8463 3495 TriUF
8463 3495 TriUF
8463 3495 TriUF
8469 3494 TriUF
8469 3494 TriUF
8472 3494 TriUF
8472 3496 TriUF
8482 3495 TriUF
8485 3495 TriUF
8513 3495 TriUF
8513 3494 TriUF
8535 3496 TriUF
8538 3494 TriUF
8573 3494 TriUF
8595 3495 TriUF
8595 3494 TriUF
8604 3494 TriUF
8630 3494 TriUF
8633 3494 TriUF
8639 3494 TriUF
8645 3495 TriUF
8664 3494 TriUF
8664 3494 TriUF
8674 3496 TriUF
8674 3494 TriUF
8702 3494 TriUF
8715 3494 TriUF
8740 3494 TriUF
8740 3494 TriUF
8740 3494 TriUF
8746 3494 TriUF
8749 3494 TriUF
8753 3495 TriUF
8753 3494 TriUF
8762 3494 TriUF
8765 3496 TriUF
8768 3494 TriUF
8778 3494 TriUF
8781 3494 TriUF
8784 5196 TriUF
8793 3495 TriUF
8803 3494 TriUF
8806 3494 TriUF
8825 4171 TriUF
8841 3495 TriUF
8856 3495 TriUF
8866 3496 TriUF
8891 3494 TriUF
8897 3494 TriUF
8926 3496 TriUF
8935 3496 TriUF
8938 3495 TriUF
8948 3496 TriUF
8976 3496 TriUF
8979 3494 TriUF
8979 3494 TriUF
8982 3495 TriUF
8992 3495 TriUF
8998 3496 TriUF
9001 3494 TriUF
9014 3494 TriUF
9020 3494 TriUF
9023 3495 TriUF
9036 3496 TriUF
9061 3496 TriUF
9074 3496 TriUF
9077 3495 TriUF
9096 3494 TriUF
9096 3494 TriUF
9099 3494 TriUF
9102 3494 TriUF
9105 3494 TriUF
9140 3495 TriUF
9143 3494 TriUF
9143 3494 TriUF
9181 3495 TriUF
9209 3494 TriUF
9234 3496 TriUF
9241 3494 TriUF
9241 3494 TriUF
9250 3496 TriUF
9253 3494 TriUF
9256 3494 TriUF
9260 3496 TriUF
9297 3494 TriUF
9301 3494 TriUF
9310 3495 TriUF
9319 3502 TriUF
9323 3496 TriUF
9326 3494 TriUF
9326 3495 TriUF
9364 3494 TriUF
9386 3496 TriUF
9395 3494 TriUF
9395 3494 TriUF
9411 3494 TriUF
9436 3494 TriUF
9442 3494 TriUF
9449 3494 TriUF
9458 3494 TriUF
9461 3495 TriUF
9477 3495 TriUF
9477 3495 TriUF
9493 3494 TriUF
9496 3497 TriUF
9518 3496 TriUF
9518 3494 TriUF
9530 3495 TriUF
9543 3494 TriUF
9543 3496 TriUF
9543 3500 TriUF
9587 3494 TriUF
9606 3496 TriUF
9609 3495 TriUF
9609 3494 TriUF
9669 3494 TriUF
9672 3494 TriUF
9675 3496 TriUF
9685 3494 TriUF
9688 3494 TriUF
9713 3495 TriUF
9726 3494 TriUF
9745 3495 TriUF
9751 3495 TriUF
9757 3495 TriUF
9763 3495 TriUF
9782 3495 TriUF
9789 3497 TriUF
9820 3494 TriUF
9823 3496 TriUF
9826 3494 TriUF
9826 3494 TriUF
9830 3494 TriUF
9836 3494 TriUF
9842 3496 TriUF
9849 3494 TriUF
9849 3495 TriUF
9855 3496 TriUF
9861 3494 TriUF
9861 3494 TriUF
9864 3496 TriUF
9874 3494 TriUF
9899 3494 TriUF
9902 3494 TriUF
9908 3495 TriUF
9908 3495 TriUF
9918 3494 TriUF
9921 3495 TriUF
9924 3495 TriUF
9930 3494 TriUF
9937 3494 TriUF
9975 3494 TriUF
9975 3494 TriUF
9993 3497 TriUF
9997 3499 TriUF
10000 3494 TriUF
10003 3494 TriUF
10012 3494 TriUF
10019 3494 TriUF
10028 3494 TriUF
10031 3494 TriUF
10031 3495 TriUF
10031 3494 TriUF
10050 3494 TriUF
10053 3495 TriUF
10053 3494 TriUF
10053 3494 TriUF
10053 3494 TriUF
10075 3494 TriUF
10091 3494 TriUF
10097 3494 TriUF
10100 3494 TriUF
10100 3494 TriUF
10100 3494 TriUF
10104 3494 TriUF
10110 3495 TriUF
10135 5269 TriUF
10148 3495 TriUF
10163 3494 TriUF
10189 3495 TriUF
10192 3495 TriUF
10201 3495 TriUF
10220 3495 TriUF
10226 3494 TriUF
10226 3494 TriUF
10230 4560 TriUF
10236 3494 TriUF
10264 3494 TriUF
10286 3494 TriUF
10299 3494 TriUF
10308 3496 TriUF
10415 3494 TriUF
10419 3494 TriUF
10422 3494 TriUF
10425 3494 TriUF
10428 3494 TriUF
10431 3494 TriUF
10431 3494 TriUF
10434 3494 TriUF
10444 3494 TriUF
10456 3494 TriUF
10466 3495 TriUF
10469 3495 TriUF
10491 3494 TriUF
10504 3494 TriUF
10504 3494 TriUF
10507 3494 TriUF
10510 3494 TriUF
10513 3495 TriUF
10526 3494 TriUF
10586 3494 TriUF
10595 3494 TriUF
10595 3496 TriUF
10604 3494 TriUF
10604 3494 TriUF
10608 3495 TriUF
10623 3494 TriUF
10686 3494 TriUF
10693 3494 TriUF
10702 3494 TriUF
10743 3494 TriUF
10790 3494 TriUF
10803 3495 TriUF
10844 3494 TriUF
10853 3496 TriUF
10875 3494 TriUF
10894 3494 TriUF
10897 3494 TriUF
10900 3494 TriUF
10907 3494 TriUF
10913 3496 TriUF
10929 3494 TriUF
10929 3496 TriUF
10938 3495 TriUF
10957 3494 TriUF
10960 3495 TriUF
10963 3494 TriUF
10985 3496 TriUF
10998 3495 TriUF
11017 3494 TriUF
11071 3494 TriUF
11083 4407 TriUF
11093 3494 TriUF
11108 3494 TriUF
11121 3495 TriUF
11171 3494 TriUF
11174 3495 TriUF
11200 3494 TriUF
11203 3494 TriUF
11241 3494 TriUF
11263 3496 TriUF
11269 3494 TriUF
11272 3494 TriUF
11300 3494 TriUF
11300 3494 TriUF
11307 3494 TriUF
11316 3495 TriUF
11341 3494 TriUF
11379 3495 TriUF
11395 3494 TriUF
11439 3494 TriUF
11464 3495 TriUF
11496 3496 TriUF
11511 3494 TriUF
11515 3494 TriUF
11530 3494 TriUF
11562 3494 TriUF
11581 3494 TriUF
11587 3495 TriUF
11609 3494 TriUF
11631 3868 TriUF
11647 3494 TriUF
11647 3494 TriUF
11663 3494 TriUF
11663 3494 TriUF
11666 3494 TriUF
11707 3495 TriUF
11732 3494 TriUF
11741 3494 TriUF
11785 3495 TriUF
11789 3494 TriUF
11808 3495 TriUF
11811 3496 TriUF
11820 3494 TriUF
11820 3494 TriUF
11823 3494 TriUF
11858 3494 TriUF
11867 3494 TriUF
11877 3494 TriUF
11877 3494 TriUF
11896 3494 TriUF
11896 3494 TriUF
11908 3494 TriUF
11924 3494 TriUF
11930 3494 TriUF
11940 3494 TriUF
11949 3494 TriUF
11962 3494 TriUF
11978 3494 TriUF
11981 3494 TriUF
11981 3494 TriUF
12003 3494 TriUF
12044 3494 TriUF
12069 3494 TriUF
12069 3494 TriUF
12072 3496 TriUF
12072 3495 TriUF
12072 3494 TriUF
12075 3494 TriUF
12085 3494 TriUF
12151 3495 TriUF
12160 3505 TriUF
12201 3494 TriUF
12204 3494 TriUF
12214 3495 TriUF
12217 3494 TriUF
12217 3494 TriUF
12239 3494 TriUF
12245 3494 TriUF
12248 3495 TriUF
12274 3494 TriUF
12289 3494 TriUF
12311 3495 TriUF
12343 3494 TriUF
12419 3494 TriUF
12434 3494 TriUF
12437 3494 TriUF
12447 3494 TriUF
12478 3495 TriUF
12516 3496 TriUF
12538 3494 TriUF
12538 3494 TriUF
12551 3494 TriUF
12563 3494 TriUF
12592 3494 TriUF
12592 3496 TriUF
12620 3497 TriUF
12630 3496 TriUF
12633 3496 TriUF
12636 3495 TriUF
12652 3494 TriUF
12677 3494 TriUF
12699 3494 TriUF
12705 3494 TriUF
12721 3494 TriUF
12727 3494 TriUF
12743 3494 TriUF
12743 3494 TriUF
12759 3494 TriUF
12768 3494 TriUF
12812 3495 TriUF
12815 3556 TriUF
12853 3494 TriUF
12863 3496 TriUF
12866 3494 TriUF
12872 3495 TriUF
12875 3494 TriUF
12885 3494 TriUF
% End plot #1
1.000 UL
LTb
LCb setrgbcolor
1200 7049 N
0 -3556 V
12598 0 V
0 3556 V
-12598 0 V
Z stroke
1.000 UP
1.000 UL
LTb
LCb setrgbcolor
stroke
grestore
end
showpage
%%Page: 2 2
gnudict begin
gsave
doclip
50 50 translate
0.050 0.050 scale
0 setgray
newpath
(Times) findfont 200 scalefont setfont
BackgroundColor 0 lt 3 1 roll 0 lt exch 0 lt or or not {BackgroundColor C 1.000 0 0 14400.00 10080.00 BoxColFill} if
1.000 UL
LTb
LCb setrgbcolor
1.000 UL
LTa
LCa setrgbcolor
600 3408 M
12598 0 V
stroke
LTb
LCb setrgbcolor
600 3408 M
63 0 V
12535 0 R
-63 0 V
stroke
480 3408 M
[ [(Times) 200.0 0.0 true true 0 ( 0)]
] -66.7 MRshow
1.000 UL
LTb
LCb setrgbcolor
1.000 UL
LTa
LCa setrgbcolor
600 3928 M
12598 0 V
stroke
LTb
LCb setrgbcolor
600 3928 M
63 0 V
12535 0 R
-63 0 V
stroke
480 3928 M
[ [(Times) 200.0 0.0 true true 0 ( 200000)]
] -66.7 MRshow
1.000 UL
LTb
LCb setrgbcolor
1.000 UL
LTa
LCa setrgbcolor
600 4448 M
12598 0 V
stroke
LTb
LCb setrgbcolor
600 4448 M
63 0 V
12535 0 R
-63 0 V
stroke
480 4448 M
[ [(Times) 200.0 0.0 true true 0 ( 400000)]
] -66.7 MRshow
1.000 UL
LTb
LCb setrgbcolor
1.000 UL
LTa
LCa setrgbcolor
600 4968 M
12598 0 V
stroke
LTb
LCb setrgbcolor
600 4968 M
63 0 V
12535 0 R
-63 0 V
stroke
480 4968 M
[ [(Times) 200.0 0.0 true true 0 ( 600000)]
] -66.7 MRshow
1.000 UL
LTb
LCb setrgbcolor
1.000 UL
LTa
LCa setrgbcolor
600 5489 M
12598 0 V
stroke
LTb
LCb setrgbcolor
600 5489 M
63 0 V
12535 0 R
-63 0 V
stroke
480 5489 M
[ [(Times) 200.0 0.0 true true 0 ( 800000)]
] -66.7 MRshow
1.000 UL
LTb
LCb setrgbcolor
1.000 UL
LTa
LCa setrgbcolor
600 6009 M
12598 0 V
stroke
LTb
LCb setrgbcolor
600 6009 M
63 0 V
12535 0 R
-63 0 V
stroke
480 6009 M
[ [(Times) 200.0 0.0 true true 0 ( 1e+06)]
] -66.7 MRshow
1.000 UL
LTb
LCb setrgbcolor
1.000 UL
LTa
LCa setrgbcolor
600 6529 M
12598 0 V
stroke
LTb
LCb setrgbcolor
600 6529 M
63 0 V
12535 0 R
-63 0 V
stroke
480 6529 M
[ [(Times) 200.0 0.0 true true 0 ( 1.2e+06)]
] -66.7 MRshow
1.000 UL
LTb
LCb setrgbcolor
1.000 UL
LTa
LCa setrgbcolor
600 7049 M
12598 0 V
stroke
LTb
LCb setrgbcolor
600 7049 M
63 0 V
12535 0 R
-63 0 V
stroke
480 7049 M
[ [(Times) 200.0 0.0 true true 0 ( 1.4e+06)]
] -66.7 MRshow
1.000 UL
LTb
LCb setrgbcolor
1.000 UL
LTa
LCa setrgbcolor
600 3408 M
0 3641 V
stroke
LTb
LCb setrgbcolor
600 3408 M
0 63 V
0 3578 R
0 -63 V
stroke
600 3288 M
currentpoint gsave translate -45 rotate 0 0 moveto
[ [(Times) 200.0 0.0 true true 0 ( 0)]
] -66.7 MLshow
grestore
1.000 UL
LTb
LCb setrgbcolor
1.000 UL
LTa
LCa setrgbcolor
2700 3408 M
0 3641 V
stroke
LTb
LCb setrgbcolor
2700 3408 M
0 63 V
0 3578 R
0 -63 V
stroke
2700 3288 M
currentpoint gsave translate -45 rotate 0 0 moveto
[ [(Times) 200.0 0.0 true true 0 ( 100)]
] -66.7 MLshow
grestore
1.000 UL
LTb
LCb setrgbcolor
1.000 UL
LTa
LCa setrgbcolor
4799 3408 M
0 3641 V
stroke
LTb
LCb setrgbcolor
4799 3408 M
0 63 V
0 3578 R
0 -63 V
stroke
4799 3288 M
currentpoint gsave translate -45 rotate 0 0 moveto
[ [(Times) 200.0 0.0 true true 0 ( 200)]
] -66.7 MLshow
grestore
1.000 UL
LTb
LCb setrgbcolor
1.000 UL
LTa
LCa setrgbcolor
6899 3408 M
0 3641 V
stroke
LTb
LCb setrgbcolor
6899 3408 M
0 63 V
0 3578 R
0 -63 V
stroke
6899 3288 M
currentpoint gsave translate -45 rotate 0 0 moveto
[ [(Times) 200.0 0.0 true true 0 ( 300)]
] -66.7 MLshow
grestore
1.000 UL
LTb
LCb setrgbcolor
1.000 UL
LTa
LCa setrgbcolor
8999 3408 M
0 3641 V
stroke
LTb
LCb setrgbcolor
8999 3408 M
0 63 V
0 3578 R
0 -63 V
stroke
8999 3288 M
currentpoint gsave translate -45 rotate 0 0 moveto
[ [(Times) 200.0 0.0 true true 0 ( 400)]
] -66.7 MLshow
grestore
1.000 UL
LTb
LCb setrgbcolor
1.000 UL
LTa
LCa setrgbcolor
11098 3408 M
0 3641 V
stroke
LTb
LCb setrgbcolor
11098 3408 M
0 63 V
0 3578 R
0 -63 V
stroke
11098 3288 M
currentpoint gsave translate -45 rotate 0 0 moveto
[ [(Times) 200.0 0.0 true true 0 ( 500)]
] -66.7 MLshow
grestore
1.000 UL
LTb
LCb setrgbcolor
1.000 UL
LTa
LCa setrgbcolor
13198 3408 M
0 3641 V
stroke
LTb
LCb setrgbcolor
13198 3408 M
0 63 V
0 3578 R
0 -63 V
stroke
13198 3288 M
currentpoint gsave translate -45 rotate 0 0 moveto
[ [(Times) 200.0 0.0 true true 0 ( 600)]
] -66.7 MLshow
grestore
1.000 UL
LTb
LCb setrgbcolor
1.000 UL
LTb
LCb setrgbcolor
600 7049 N
0 -3641 V
12598 0 V
0 3641 V
600 7049 L
Z stroke
LCb setrgbcolor
-700 5228 M
currentpoint gsave translate -270 rotate 0 0 moveto
[ [(Times) 200.0 0.0 true true 0 (Flow size [bytes])]
] -66.7 MCshow
grestore
LTb
LCb setrgbcolor
6899 2769 M
[ [(Times) 200.0 0.0 true true 0 (Duration [sec])]
] -66.7 MCshow
LTb
6899 7349 M
[ [(Times) 200.0 0.0 true true 0 (src port 80, repeating connections sorted by duration)]
] -66.7 MCshow
1.000 UP
1.000 UL
LTb
LCb setrgbcolor
1.000 UL
LT8
LC8 setrgbcolor
6508 63 N
782 0 V
-782 0 V
Z stroke
% Begin plot #1
1.000 UP
1.000 UL
LT8
1.00 0.00 0.00 C 601 3409 TriUF
603 3410 TriUF
603 3410 TriUF
603 3410 TriUF
603 3410 TriUF
603 3410 TriUF
603 3410 TriUF
603 3410 TriUF
603 3431 TriUF
603 3426 TriUF
603 3410 TriUF
603 3410 TriUF
603 3410 TriUF
603 3410 TriUF
603 3410 TriUF
603 3410 TriUF
603 3410 TriUF
603 3410 TriUF
603 3410 TriUF
603 3410 TriUF
603 3431 TriUF
603 3427 TriUF
603 3410 TriUF
603 3410 TriUF
603 3410 TriUF
603 3410 TriUF
603 3410 TriUF
603 3410 TriUF
603 3410 TriUF
603 3427 TriUF
603 3410 TriUF
603 3427 TriUF
603 3427 TriUF
603 3410 TriUF
603 3426 TriUF
603 3410 TriUF
603 3410 TriUF
603 3426 TriUF
603 3410 TriUF
603 3410 TriUF
603 3410 TriUF
603 3428 TriUF
603 3410 TriUF
603 3433 TriUF
603 3428 TriUF
603 3410 TriUF
603 3427 TriUF
603 3427 TriUF
603 3410 TriUF
603 3410 TriUF
603 3427 TriUF
603 3410 TriUF
603 3434 TriUF
603 3410 TriUF
603 3410 TriUF
603 3429 TriUF
603 3410 TriUF
603 3410 TriUF
603 3426 TriUF
603 3428 TriUF
603 3410 TriUF
603 3429 TriUF
603 3427 TriUF
603 3410 TriUF
603 3428 TriUF
603 3427 TriUF
603 3428 TriUF
603 3426 TriUF
603 3427 TriUF
603 3410 TriUF
603 3410 TriUF
603 3410 TriUF
603 3428 TriUF
603 3430 TriUF
603 3410 TriUF
603 3429 TriUF
603 3429 TriUF
603 3430 TriUF
603 3410 TriUF
603 3410 TriUF
603 3410 TriUF
603 3430 TriUF
603 3429 TriUF
603 3427 TriUF
603 3429 TriUF
603 3432 TriUF
603 3428 TriUF
603 3428 TriUF
603 3428 TriUF
603 3426 TriUF
603 3410 TriUF
603 3427 TriUF
603 3427 TriUF
603 3428 TriUF
603 3427 TriUF
603 3433 TriUF
603 3410 TriUF
603 3437 TriUF
603 3427 TriUF
603 3428 TriUF
603 3410 TriUF
603 3410 TriUF
603 3426 TriUF
603 3431 TriUF
603 3428 TriUF
603 3428 TriUF
603 3410 TriUF
603 3427 TriUF
603 3430 TriUF
603 3427 TriUF
603 3410 TriUF
603 3435 TriUF
603 3429 TriUF
603 3427 TriUF
603 3410 TriUF
603 3410 TriUF
603 3410 TriUF
603 3436 TriUF
603 3410 TriUF
603 3431 TriUF
603 3410 TriUF
603 3410 TriUF
603 3429 TriUF
603 3429 TriUF
603 3428 TriUF
603 3429 TriUF
603 3427 TriUF
603 3426 TriUF
603 3433 TriUF
603 3410 TriUF
603 3410 TriUF
603 3426 TriUF
603 3410 TriUF
603 3428 TriUF
603 3429 TriUF
603 3410 TriUF
603 3426 TriUF
603 3410 TriUF
603 3410 TriUF
603 3431 TriUF
603 3429 TriUF
603 3410 TriUF
603 3426 TriUF
603 3429 TriUF
603 3429 TriUF
603 3433 TriUF
603 3410 TriUF
603 3428 TriUF
603 3426 TriUF
603 3410 TriUF
603 3428 TriUF
603 3428 TriUF
603 3429 TriUF
603 3410 TriUF
603 3432 TriUF
603 3410 TriUF
603 3432 TriUF
603 3410 TriUF
603 3429 TriUF
603 3410 TriUF
603 3427 TriUF
603 3427 TriUF
603 3429 TriUF
603 3410 TriUF
603 3427 TriUF
603 3429 TriUF
603 3410 TriUF
603 3440 TriUF
603 3428 TriUF
603 3429 TriUF
603 3426 TriUF
603 3410 TriUF
603 3426 TriUF
603 3433 TriUF
603 3438 TriUF
603 3426 TriUF
603 3410 TriUF
603 3410 TriUF
603 3437 TriUF
603 3428 TriUF
603 3410 TriUF
603 3410 TriUF
603 3434 TriUF
603 3428 TriUF
603 3410 TriUF
603 3428 TriUF
603 3429 TriUF
603 3427 TriUF
603 3438 TriUF
603 3429 TriUF
603 3428 TriUF
603 3427 TriUF
603 3410 TriUF
603 3425 TriUF
603 3426 TriUF
603 3410 TriUF
603 3410 TriUF
603 3435 TriUF
603 3434 TriUF
603 3410 TriUF
603 3410 TriUF
603 3427 TriUF
603 3410 TriUF
603 3428 TriUF
603 3437 TriUF
603 3410 TriUF
603 3410 TriUF
603 3410 TriUF
603 3427 TriUF
603 3410 TriUF
603 3428 TriUF
603 3415 TriUF
603 3410 TriUF
603 3430 TriUF
603 3410 TriUF
603 3410 TriUF
603 3410 TriUF
603 3410 TriUF
603 3429 TriUF
603 3410 TriUF
603 3427 TriUF
603 3427 TriUF
603 3427 TriUF
603 3410 TriUF
603 3435 TriUF
603 3426 TriUF
603 3410 TriUF
603 3428 TriUF
604 3410 TriUF
604 3427 TriUF
604 3410 TriUF
604 3429 TriUF
604 3427 TriUF
604 3410 TriUF
604 3410 TriUF
604 3427 TriUF
604 3427 TriUF
604 3410 TriUF
604 3427 TriUF
604 3426 TriUF
604 3424 TriUF
604 3428 TriUF
604 3428 TriUF
604 3429 TriUF
604 3428 TriUF
604 3428 TriUF
604 3427 TriUF
604 3430 TriUF
604 3427 TriUF
604 3427 TriUF
604 3433 TriUF
604 3427 TriUF
604 3429 TriUF
604 3429 TriUF
604 3425 TriUF
604 3426 TriUF
604 3410 TriUF
604 3429 TriUF
604 3431 TriUF
604 3426 TriUF
604 3410 TriUF
604 3429 TriUF
604 3427 TriUF
604 3413 TriUF
604 3429 TriUF
604 3410 TriUF
604 3428 TriUF
604 3428 TriUF
604 3410 TriUF
604 3431 TriUF
604 3427 TriUF
604 3426 TriUF
604 3410 TriUF
604 3427 TriUF
604 3429 TriUF
604 3427 TriUF
604 3425 TriUF
604 3436 TriUF
604 3410 TriUF
604 3410 TriUF
604 3444 TriUF
604 3411 TriUF
604 3431 TriUF
604 3438 TriUF
604 3410 TriUF
604 3423 TriUF
604 3428 TriUF
604 3410 TriUF
604 3427 TriUF
604 3410 TriUF
604 3410 TriUF
604 3410 TriUF
604 3410 TriUF
604 3410 TriUF
604 3410 TriUF
604 3427 TriUF
604 3424 TriUF
604 3429 TriUF
604 3410 TriUF
604 3410 TriUF
604 3434 TriUF
604 3410 TriUF
604 3410 TriUF
604 3410 TriUF
604 3410 TriUF
604 3410 TriUF
604 3431 TriUF
604 3410 TriUF
604 3424 TriUF
604 3410 TriUF
604 3410 TriUF
604 3410 TriUF
604 3426 TriUF
604 3428 TriUF
604 3410 TriUF
604 3410 TriUF
604 3410 TriUF
604 3410 TriUF
604 3429 TriUF
604 3410 TriUF
604 3410 TriUF
604 3410 TriUF
604 3410 TriUF
604 3410 TriUF
604 3410 TriUF
604 3426 TriUF
604 3410 TriUF
604 3410 TriUF
604 3427 TriUF
604 3410 TriUF
604 3410 TriUF
604 3410 TriUF
604 3410 TriUF
604 3410 TriUF
604 3410 TriUF
604 3410 TriUF
604 3410 TriUF
604 3410 TriUF
604 3410 TriUF
604 3410 TriUF
604 3410 TriUF
604 3410 TriUF
604 3410 TriUF
604 3410 TriUF
604 3410 TriUF
604 3410 TriUF
604 3410 TriUF
604 3410 TriUF
604 3410 TriUF
604 3410 TriUF
604 3410 TriUF
604 3410 TriUF
604 3410 TriUF
604 3410 TriUF
604 3410 TriUF
604 3410 TriUF
604 3410 TriUF
604 3410 TriUF
604 3432 TriUF
604 3410 TriUF
604 3410 TriUF
604 3410 TriUF
604 3410 TriUF
604 3410 TriUF
604 3410 TriUF
604 3410 TriUF
604 3428 TriUF
604 3428 TriUF
604 3410 TriUF
604 3428 TriUF
604 3425 TriUF
604 3415 TriUF
604 3410 TriUF
604 3410 TriUF
604 3410 TriUF
604 3410 TriUF
604 3410 TriUF
604 3410 TriUF
604 3427 TriUF
604 3410 TriUF
604 3410 TriUF
604 3410 TriUF
604 3410 TriUF
604 3432 TriUF
604 3410 TriUF
604 3429 TriUF
604 3433 TriUF
604 3410 TriUF
604 3428 TriUF
604 3410 TriUF
604 3410 TriUF
604 3423 TriUF
604 3410 TriUF
604 3410 TriUF
604 3427 TriUF
604 3410 TriUF
604 3410 TriUF
604 3410 TriUF
604 3410 TriUF
604 3427 TriUF
604 3429 TriUF
604 3432 TriUF
604 3428 TriUF
604 3410 TriUF
604 3430 TriUF
604 3426 TriUF
604 3410 TriUF
604 3429 TriUF
604 3410 TriUF
604 3427 TriUF
604 3410 TriUF
604 3429 TriUF
604 3410 TriUF
604 3427 TriUF
604 3427 TriUF
604 3427 TriUF
604 3410 TriUF
604 3410 TriUF
604 3426 TriUF
604 3410 TriUF
604 3410 TriUF
604 3410 TriUF
604 3410 TriUF
604 3410 TriUF
604 3428 TriUF
604 3410 TriUF
604 3438 TriUF
604 3410 TriUF
604 3427 TriUF
604 3410 TriUF
604 3410 TriUF
604 3426 TriUF
604 3432 TriUF
604 3427 TriUF
604 3435 TriUF
604 3431 TriUF
604 3427 TriUF
604 3410 TriUF
604 3410 TriUF
604 3410 TriUF
604 3410 TriUF
604 3429 TriUF
604 3426 TriUF
604 3419 TriUF
604 3410 TriUF
604 3410 TriUF
604 3425 TriUF
604 3410 TriUF
604 3427 TriUF
604 3410 TriUF
604 3410 TriUF
604 3410 TriUF
604 3410 TriUF
604 3410 TriUF
604 3428 TriUF
604 3410 TriUF
604 3410 TriUF
604 3428 TriUF
604 3430 TriUF
604 3410 TriUF
604 3410 TriUF
604 3433 TriUF
604 3426 TriUF
604 3410 TriUF
604 3428 TriUF
604 3410 TriUF
604 3410 TriUF
604 3435 TriUF
604 3435 TriUF
604 3427 TriUF
604 3410 TriUF
604 3410 TriUF
604 3429 TriUF
604 3427 TriUF
604 3410 TriUF
604 3413 TriUF
604 3410 TriUF
604 3435 TriUF
604 3429 TriUF
604 3429 TriUF
604 3410 TriUF
604 3410 TriUF
604 3410 TriUF
604 3415 TriUF
604 3414 TriUF
604 3436 TriUF
604 3429 TriUF
604 3410 TriUF
604 3410 TriUF
604 3410 TriUF
604 3410 TriUF
604 3410 TriUF
604 3426 TriUF
604 3414 TriUF
604 3423 TriUF
604 3433 TriUF
604 3432 TriUF
604 3430 TriUF
604 3434 TriUF
604 3418 TriUF
604 3427 TriUF
604 3410 TriUF
604 3437 TriUF
604 3427 TriUF
604 3410 TriUF
604 3410 TriUF
604 3410 TriUF
604 3425 TriUF
604 3410 TriUF
604 3434 TriUF
604 3434 TriUF
604 3434 TriUF
604 3434 TriUF
604 3427 TriUF
604 3410 TriUF
604 3434 TriUF
604 3426 TriUF
604 3422 TriUF
604 3410 TriUF
604 3427 TriUF
604 3410 TriUF
604 3435 TriUF
604 3410 TriUF
604 3410 TriUF
604 3410 TriUF
604 3434 TriUF
604 3410 TriUF
604 3437 TriUF
604 3430 TriUF
604 3433 TriUF
605 3435 TriUF
605 3410 TriUF
605 3410 TriUF
605 3410 TriUF
605 3426 TriUF
605 3410 TriUF
605 3410 TriUF
605 3410 TriUF
605 3429 TriUF
605 3431 TriUF
605 3416 TriUF
605 3433 TriUF
605 3410 TriUF
605 3410 TriUF
605 3410 TriUF
605 3410 TriUF
605 3434 TriUF
605 3410 TriUF
605 3413 TriUF
605 3410 TriUF
605 3410 TriUF
605 3437 TriUF
605 3436 TriUF
605 3410 TriUF
605 3410 TriUF
605 3410 TriUF
605 3410 TriUF
605 3434 TriUF
605 3410 TriUF
605 3410 TriUF
605 3434 TriUF
605 3426 TriUF
605 3435 TriUF
605 3410 TriUF
605 3410 TriUF
605 3410 TriUF
605 3428 TriUF
605 3410 TriUF
605 3435 TriUF
605 3410 TriUF
605 3410 TriUF
605 3410 TriUF
605 3410 TriUF
605 3428 TriUF
605 3427 TriUF
605 3427 TriUF
605 3427 TriUF
605 3428 TriUF
605 3410 TriUF
605 3410 TriUF
605 3426 TriUF
605 3427 TriUF
605 3410 TriUF
605 3437 TriUF
605 3426 TriUF
605 3410 TriUF
605 3429 TriUF
605 3410 TriUF
605 3426 TriUF
605 3410 TriUF
605 3410 TriUF
605 3410 TriUF
605 3410 TriUF
605 3410 TriUF
605 3410 TriUF
605 3427 TriUF
605 3410 TriUF
605 3426 TriUF
605 3431 TriUF
605 3410 TriUF
605 3427 TriUF
605 3410 TriUF
605 3410 TriUF
605 3426 TriUF
605 3428 TriUF
605 3435 TriUF
605 3435 TriUF
605 3411 TriUF
605 3410 TriUF
605 3410 TriUF
605 3410 TriUF
605 3410 TriUF
605 3410 TriUF
605 3411 TriUF
605 3429 TriUF
605 3426 TriUF
605 3410 TriUF
605 3428 TriUF
605 3435 TriUF
605 3434 TriUF
605 3410 TriUF
605 3410 TriUF
605 3410 TriUF
605 3410 TriUF
605 3429 TriUF
605 3433 TriUF
605 3410 TriUF
605 3438 TriUF
605 3411 TriUF
605 3410 TriUF
605 3436 TriUF
605 3429 TriUF
605 3425 TriUF
605 3410 TriUF
605 3426 TriUF
605 3427 TriUF
605 3410 TriUF
605 3410 TriUF
605 3410 TriUF
605 3413 TriUF
605 3433 TriUF
605 3410 TriUF
605 3410 TriUF
605 3410 TriUF
605 3412 TriUF
605 3410 TriUF
605 3410 TriUF
605 3410 TriUF
605 3433 TriUF
605 3410 TriUF
605 3410 TriUF
605 3410 TriUF
605 3410 TriUF
605 3410 TriUF
605 3410 TriUF
605 3410 TriUF
605 3410 TriUF
605 3410 TriUF
605 3410 TriUF
605 3429 TriUF
605 3410 TriUF
605 3410 TriUF
605 3410 TriUF
605 3410 TriUF
605 3426 TriUF
605 3410 TriUF
605 3410 TriUF
605 3432 TriUF
605 3424 TriUF
605 3410 TriUF
605 3410 TriUF
605 3410 TriUF
605 3410 TriUF
605 3410 TriUF
605 3434 TriUF
605 3410 TriUF
605 3410 TriUF
605 3417 TriUF
605 3410 TriUF
605 3410 TriUF
605 3433 TriUF
605 3410 TriUF
605 3419 TriUF
605 3424 TriUF
605 3434 TriUF
605 3410 TriUF
605 3410 TriUF
605 3410 TriUF
605 3410 TriUF
605 3422 TriUF
605 3410 TriUF
605 3436 TriUF
605 3410 TriUF
605 3410 TriUF
605 3410 TriUF
605 3410 TriUF
605 3410 TriUF
605 3416 TriUF
605 3426 TriUF
605 3410 TriUF
605 3410 TriUF
605 3410 TriUF
605 3410 TriUF
605 3411 TriUF
605 3410 TriUF
605 3410 TriUF
605 3437 TriUF
605 3410 TriUF
605 3410 TriUF
605 3415 TriUF
605 3410 TriUF
605 3434 TriUF
605 3433 TriUF
605 3433 TriUF
605 3410 TriUF
605 3410 TriUF
605 3410 TriUF
605 3410 TriUF
605 3423 TriUF
605 3422 TriUF
605 3410 TriUF
605 3434 TriUF
605 3410 TriUF
606 3410 TriUF
606 3429 TriUF
606 3418 TriUF
606 3425 TriUF
606 3410 TriUF
606 3431 TriUF
606 3434 TriUF
606 3435 TriUF
606 3420 TriUF
606 3410 TriUF
606 3410 TriUF
606 3430 TriUF
606 3422 TriUF
606 3410 TriUF
606 3410 TriUF
606 3410 TriUF
606 3428 TriUF
606 3434 TriUF
606 3435 TriUF
606 3428 TriUF
606 3410 TriUF
606 3427 TriUF
606 3410 TriUF
606 3410 TriUF
606 3426 TriUF
606 3427 TriUF
606 3410 TriUF
606 3434 TriUF
606 3410 TriUF
606 3424 TriUF
606 3410 TriUF
606 3433 TriUF
606 3410 TriUF
606 3410 TriUF
606 3410 TriUF
606 3434 TriUF
606 3429 TriUF
606 3422 TriUF
606 3410 TriUF
606 3429 TriUF
606 3424 TriUF
606 3435 TriUF
606 3425 TriUF
606 3426 TriUF
606 3410 TriUF
606 3426 TriUF
606 3433 TriUF
606 3410 TriUF
606 3435 TriUF
606 3416 TriUF
606 3430 TriUF
606 3426 TriUF
606 3410 TriUF
606 3426 TriUF
606 3435 TriUF
606 3410 TriUF
606 3410 TriUF
606 3423 TriUF
606 3410 TriUF
606 3426 TriUF
606 3410 TriUF
606 3412 TriUF
606 3410 TriUF
606 3434 TriUF
606 3429 TriUF
606 3434 TriUF
606 3410 TriUF
606 3433 TriUF
606 3426 TriUF
606 3410 TriUF
606 3423 TriUF
606 3413 TriUF
606 3423 TriUF
606 3428 TriUF
606 3410 TriUF
606 3430 TriUF
606 3427 TriUF
606 3427 TriUF
606 3410 TriUF
606 3434 TriUF
606 3410 TriUF
606 3417 TriUF
606 3429 TriUF
606 3410 TriUF
606 3415 TriUF
607 3410 TriUF
607 3422 TriUF
607 3410 TriUF
607 3422 TriUF
607 3428 TriUF
607 3425 TriUF
607 3410 TriUF
607 3435 TriUF
607 3410 TriUF
607 3427 TriUF
607 3436 TriUF
607 3411 TriUF
607 3410 TriUF
607 3410 TriUF
607 3426 TriUF
607 3410 TriUF
607 3410 TriUF
607 3411 TriUF
607 3410 TriUF
607 3434 TriUF
607 3429 TriUF
607 3427 TriUF
607 3410 TriUF
607 3435 TriUF
607 3426 TriUF
607 3426 TriUF
607 3415 TriUF
607 3410 TriUF
607 3429 TriUF
607 3410 TriUF
607 3434 TriUF
607 3427 TriUF
607 3424 TriUF
607 3428 TriUF
607 3410 TriUF
607 3427 TriUF
607 3410 TriUF
607 3426 TriUF
608 3410 TriUF
608 3435 TriUF
608 3434 TriUF
608 3418 TriUF
608 3430 TriUF
608 3434 TriUF
608 3410 TriUF
608 3424 TriUF
608 3410 TriUF
608 3434 TriUF
608 3433 TriUF
608 3435 TriUF
608 3410 TriUF
608 3410 TriUF
608 3435 TriUF
608 3434 TriUF
608 3410 TriUF
608 3435 TriUF
608 3435 TriUF
608 3418 TriUF
608 3431 TriUF
608 3410 TriUF
608 3426 TriUF
608 3412 TriUF
608 3436 TriUF
608 3436 TriUF
608 3436 TriUF
608 3410 TriUF
608 3426 TriUF
608 3431 TriUF
608 3410 TriUF
608 3434 TriUF
608 3415 TriUF
608 3411 TriUF
608 3435 TriUF
608 3435 TriUF
608 3436 TriUF
608 3424 TriUF
608 3434 TriUF
608 3425 TriUF
608 3432 TriUF
608 3410 TriUF
608 3437 TriUF
608 3422 TriUF
608 3436 TriUF
608 3435 TriUF
608 3434 TriUF
608 3435 TriUF
608 3415 TriUF
608 3428 TriUF
608 3434 TriUF
608 3435 TriUF
608 3435 TriUF
609 3434 TriUF
609 3437 TriUF
609 3423 TriUF
609 3434 TriUF
609 3426 TriUF
609 3417 TriUF
609 3430 TriUF
609 3434 TriUF
609 3433 TriUF
609 3437 TriUF
609 3436 TriUF
609 3433 TriUF
609 3433 TriUF
609 3436 TriUF
609 3410 TriUF
609 3418 TriUF
609 3432 TriUF
609 3435 TriUF
609 3434 TriUF
609 3436 TriUF
609 3434 TriUF
609 3435 TriUF
609 3428 TriUF
609 3435 TriUF
609 3434 TriUF
609 3436 TriUF
609 3436 TriUF
609 3433 TriUF
609 3434 TriUF
609 3435 TriUF
609 3435 TriUF
609 3435 TriUF
609 3410 TriUF
609 3410 TriUF
609 3434 TriUF
609 3435 TriUF
609 3435 TriUF
609 3432 TriUF
609 3433 TriUF
609 3494 TriUF
609 3435 TriUF
609 3435 TriUF
609 3434 TriUF
609 3435 TriUF
609 3435 TriUF
609 3436 TriUF
609 3434 TriUF
609 3434 TriUF
609 3434 TriUF
609 3435 TriUF
609 3436 TriUF
609 3435 TriUF
609 3436 TriUF
609 3432 TriUF
610 3434 TriUF
610 3435 TriUF
610 3435 TriUF
610 3434 TriUF
610 3436 TriUF
610 3434 TriUF
610 3435 TriUF
610 3434 TriUF
610 3433 TriUF
610 3436 TriUF
610 3436 TriUF
610 3432 TriUF
610 3436 TriUF
610 3424 TriUF
610 3410 TriUF
610 3436 TriUF
610 3436 TriUF
610 3435 TriUF
610 3434 TriUF
610 3434 TriUF
610 3436 TriUF
610 3435 TriUF
610 3438 TriUF
610 3434 TriUF
610 3434 TriUF
610 3433 TriUF
610 3434 TriUF
610 3434 TriUF
610 3433 TriUF
610 3433 TriUF
610 3432 TriUF
610 3435 TriUF
610 3436 TriUF
610 3434 TriUF
610 3434 TriUF
610 3434 TriUF
610 3434 TriUF
610 3433 TriUF
610 3410 TriUF
610 3434 TriUF
610 3434 TriUF
610 3434 TriUF
610 3434 TriUF
610 3435 TriUF
610 3432 TriUF
610 3431 TriUF
610 3428 TriUF
610 3436 TriUF
610 3431 TriUF
610 3434 TriUF
610 3410 TriUF
610 3434 TriUF
610 3436 TriUF
610 3434 TriUF
610 3434 TriUF
610 3434 TriUF
611 3431 TriUF
611 3434 TriUF
611 3435 TriUF
611 3435 TriUF
611 3429 TriUF
611 3432 TriUF
611 3435 TriUF
611 3435 TriUF
611 3435 TriUF
611 3435 TriUF
611 3434 TriUF
611 3410 TriUF
611 3435 TriUF
611 3434 TriUF
611 3434 TriUF
611 3434 TriUF
611 3436 TriUF
611 3431 TriUF
611 3436 TriUF
611 3410 TriUF
611 3410 TriUF
611 3434 TriUF
611 3434 TriUF
611 3435 TriUF
611 3435 TriUF
611 3435 TriUF
611 3435 TriUF
611 3433 TriUF
611 3433 TriUF
611 3434 TriUF
611 3437 TriUF
611 3410 TriUF
611 3437 TriUF
612 3411 TriUF
612 3435 TriUF
612 3434 TriUF
612 3434 TriUF
612 3436 TriUF
612 3434 TriUF
612 3436 TriUF
612 3437 TriUF
612 3432 TriUF
612 3435 TriUF
612 3435 TriUF
612 3433 TriUF
612 3434 TriUF
613 3434 TriUF
613 3435 TriUF
613 3431 TriUF
613 3436 TriUF
614 3432 TriUF
614 3435 TriUF
614 3429 TriUF
614 3435 TriUF
614 3436 TriUF
614 3410 TriUF
615 3410 TriUF
615 3410 TriUF
617 3411 TriUF
618 3410 TriUF
619 3410 TriUF
622 3411 TriUF
623 3410 TriUF
631 3411 TriUF
631 3415 TriUF
639 3411 TriUF
641 3410 TriUF
709 3410 TriUF
822 3411 TriUF
1242 3962 TriUF
1930 3422 TriUF
3003 3708 TriUF
3839 5066 TriUF
4379 3567 TriUF
4810 4675 TriUF
5427 3578 TriUF
6217 3627 TriUF
6425 3580 TriUF
6633 4048 TriUF
6890 6820 TriUF
12111 6580 TriUF
% End plot #1
1.000 UL
LTb
LCb setrgbcolor
600 7049 N
0 -3641 V
12598 0 V
0 3641 V
600 7049 L
Z stroke
1.000 UP
1.000 UL
LTb
LCb setrgbcolor
stroke
grestore
end
showpage
%%Trailer
%%DocumentFonts: Times
