%!PS-Adobe-2.0 EPSF-2.0
%%Title: repeating_conn_3423483060_3895992900.eps
%%Creator: gnuplot 4.6 patchlevel 2
%%CreationDate: Tue Apr  8 13:16:07 2014
%%DocumentFonts: (atend)
%%BoundingBox: 50 50 770 554
%%EndComments
%%BeginProlog
/gnudict 256 dict def
gnudict begin
%
% The following true/false flags may be edited by hand if desired.
% The unit line width and grayscale image gamma correction may also be changed.
%
/Color true def
/Blacktext false def
/Solid false def
/Dashlength 1 def
/Landscape false def
/Level1 false def
/Rounded false def
/ClipToBoundingBox false def
/SuppressPDFMark false def
/TransparentPatterns false def
/gnulinewidth 5.000 def
/userlinewidth gnulinewidth def
/Gamma 1.0 def
/BackgroundColor {-1.000 -1.000 -1.000} def
%
/vshift -66 def
/dl1 {
  10.0 Dashlength mul mul
  Rounded { currentlinewidth 0.75 mul sub dup 0 le { pop 0.01 } if } if
} def
/dl2 {
  10.0 Dashlength mul mul
  Rounded { currentlinewidth 0.75 mul add } if
} def
/hpt_ 31.5 def
/vpt_ 31.5 def
/hpt hpt_ def
/vpt vpt_ def
/doclip {
  ClipToBoundingBox {
    newpath 50 50 moveto 770 50 lineto 770 554 lineto 50 554 lineto closepath
    clip
  } if
} def
%
% Gnuplot Prolog Version 4.6 (September 2012)
%
%/SuppressPDFMark true def
%
/M {moveto} bind def
/L {lineto} bind def
/R {rmoveto} bind def
/V {rlineto} bind def
/N {newpath moveto} bind def
/Z {closepath} bind def
/C {setrgbcolor} bind def
/f {rlineto fill} bind def
/g {setgray} bind def
/Gshow {show} def   % May be redefined later in the file to support UTF-8
/vpt2 vpt 2 mul def
/hpt2 hpt 2 mul def
/Lshow {currentpoint stroke M 0 vshift R 
	Blacktext {gsave 0 setgray show grestore} {show} ifelse} def
/Rshow {currentpoint stroke M dup stringwidth pop neg vshift R
	Blacktext {gsave 0 setgray show grestore} {show} ifelse} def
/Cshow {currentpoint stroke M dup stringwidth pop -2 div vshift R 
	Blacktext {gsave 0 setgray show grestore} {show} ifelse} def
/UP {dup vpt_ mul /vpt exch def hpt_ mul /hpt exch def
  /hpt2 hpt 2 mul def /vpt2 vpt 2 mul def} def
/DL {Color {setrgbcolor Solid {pop []} if 0 setdash}
 {pop pop pop 0 setgray Solid {pop []} if 0 setdash} ifelse} def
/BL {stroke userlinewidth 2 mul setlinewidth
	Rounded {1 setlinejoin 1 setlinecap} if} def
/AL {stroke userlinewidth 2 div setlinewidth
	Rounded {1 setlinejoin 1 setlinecap} if} def
/UL {dup gnulinewidth mul /userlinewidth exch def
	dup 1 lt {pop 1} if 10 mul /udl exch def} def
/PL {stroke userlinewidth setlinewidth
	Rounded {1 setlinejoin 1 setlinecap} if} def
3.8 setmiterlimit
% Default Line colors
/LCw {1 1 1} def
/LCb {0 0 0} def
/LCa {0 0 0} def
/LC0 {1 0 0} def
/LC1 {0 1 0} def
/LC2 {0 0 1} def
/LC3 {1 0 1} def
/LC4 {0 1 1} def
/LC5 {1 1 0} def
/LC6 {0 0 0} def
/LC7 {1 0.3 0} def
/LC8 {0.5 0.5 0.5} def
% Default Line Types
/LTw {PL [] 1 setgray} def
/LTb {BL [] LCb DL} def
/LTa {AL [1 udl mul 2 udl mul] 0 setdash LCa setrgbcolor} def
/LT0 {PL [] LC0 DL} def
/LT1 {PL [4 dl1 2 dl2] LC1 DL} def
/LT2 {PL [2 dl1 3 dl2] LC2 DL} def
/LT3 {PL [1 dl1 1.5 dl2] LC3 DL} def
/LT4 {PL [6 dl1 2 dl2 1 dl1 2 dl2] LC4 DL} def
/LT5 {PL [3 dl1 3 dl2 1 dl1 3 dl2] LC5 DL} def
/LT6 {PL [2 dl1 2 dl2 2 dl1 6 dl2] LC6 DL} def
/LT7 {PL [1 dl1 2 dl2 6 dl1 2 dl2 1 dl1 2 dl2] LC7 DL} def
/LT8 {PL [2 dl1 2 dl2 2 dl1 2 dl2 2 dl1 2 dl2 2 dl1 4 dl2] LC8 DL} def
/Pnt {stroke [] 0 setdash gsave 1 setlinecap M 0 0 V stroke grestore} def
/Dia {stroke [] 0 setdash 2 copy vpt add M
  hpt neg vpt neg V hpt vpt neg V
  hpt vpt V hpt neg vpt V closepath stroke
  Pnt} def
/Pls {stroke [] 0 setdash vpt sub M 0 vpt2 V
  currentpoint stroke M
  hpt neg vpt neg R hpt2 0 V stroke
 } def
/Box {stroke [] 0 setdash 2 copy exch hpt sub exch vpt add M
  0 vpt2 neg V hpt2 0 V 0 vpt2 V
  hpt2 neg 0 V closepath stroke
  Pnt} def
/Crs {stroke [] 0 setdash exch hpt sub exch vpt add M
  hpt2 vpt2 neg V currentpoint stroke M
  hpt2 neg 0 R hpt2 vpt2 V stroke} def
/TriU {stroke [] 0 setdash 2 copy vpt 1.12 mul add M
  hpt neg vpt -1.62 mul V
  hpt 2 mul 0 V
  hpt neg vpt 1.62 mul V closepath stroke
  Pnt} def
/Star {2 copy Pls Crs} def
/BoxF {stroke [] 0 setdash exch hpt sub exch vpt add M
  0 vpt2 neg V hpt2 0 V 0 vpt2 V
  hpt2 neg 0 V closepath fill} def
/TriUF {stroke [] 0 setdash vpt 1.12 mul add M
  hpt neg vpt -1.62 mul V
  hpt 2 mul 0 V
  hpt neg vpt 1.62 mul V closepath fill} def
/TriD {stroke [] 0 setdash 2 copy vpt 1.12 mul sub M
  hpt neg vpt 1.62 mul V
  hpt 2 mul 0 V
  hpt neg vpt -1.62 mul V closepath stroke
  Pnt} def
/TriDF {stroke [] 0 setdash vpt 1.12 mul sub M
  hpt neg vpt 1.62 mul V
  hpt 2 mul 0 V
  hpt neg vpt -1.62 mul V closepath fill} def
/DiaF {stroke [] 0 setdash vpt add M
  hpt neg vpt neg V hpt vpt neg V
  hpt vpt V hpt neg vpt V closepath fill} def
/Pent {stroke [] 0 setdash 2 copy gsave
  translate 0 hpt M 4 {72 rotate 0 hpt L} repeat
  closepath stroke grestore Pnt} def
/PentF {stroke [] 0 setdash gsave
  translate 0 hpt M 4 {72 rotate 0 hpt L} repeat
  closepath fill grestore} def
/Circle {stroke [] 0 setdash 2 copy
  hpt 0 360 arc stroke Pnt} def
/CircleF {stroke [] 0 setdash hpt 0 360 arc fill} def
/C0 {BL [] 0 setdash 2 copy moveto vpt 90 450 arc} bind def
/C1 {BL [] 0 setdash 2 copy moveto
	2 copy vpt 0 90 arc closepath fill
	vpt 0 360 arc closepath} bind def
/C2 {BL [] 0 setdash 2 copy moveto
	2 copy vpt 90 180 arc closepath fill
	vpt 0 360 arc closepath} bind def
/C3 {BL [] 0 setdash 2 copy moveto
	2 copy vpt 0 180 arc closepath fill
	vpt 0 360 arc closepath} bind def
/C4 {BL [] 0 setdash 2 copy moveto
	2 copy vpt 180 270 arc closepath fill
	vpt 0 360 arc closepath} bind def
/C5 {BL [] 0 setdash 2 copy moveto
	2 copy vpt 0 90 arc
	2 copy moveto
	2 copy vpt 180 270 arc closepath fill
	vpt 0 360 arc} bind def
/C6 {BL [] 0 setdash 2 copy moveto
	2 copy vpt 90 270 arc closepath fill
	vpt 0 360 arc closepath} bind def
/C7 {BL [] 0 setdash 2 copy moveto
	2 copy vpt 0 270 arc closepath fill
	vpt 0 360 arc closepath} bind def
/C8 {BL [] 0 setdash 2 copy moveto
	2 copy vpt 270 360 arc closepath fill
	vpt 0 360 arc closepath} bind def
/C9 {BL [] 0 setdash 2 copy moveto
	2 copy vpt 270 450 arc closepath fill
	vpt 0 360 arc closepath} bind def
/C10 {BL [] 0 setdash 2 copy 2 copy moveto vpt 270 360 arc closepath fill
	2 copy moveto
	2 copy vpt 90 180 arc closepath fill
	vpt 0 360 arc closepath} bind def
/C11 {BL [] 0 setdash 2 copy moveto
	2 copy vpt 0 180 arc closepath fill
	2 copy moveto
	2 copy vpt 270 360 arc closepath fill
	vpt 0 360 arc closepath} bind def
/C12 {BL [] 0 setdash 2 copy moveto
	2 copy vpt 180 360 arc closepath fill
	vpt 0 360 arc closepath} bind def
/C13 {BL [] 0 setdash 2 copy moveto
	2 copy vpt 0 90 arc closepath fill
	2 copy moveto
	2 copy vpt 180 360 arc closepath fill
	vpt 0 360 arc closepath} bind def
/C14 {BL [] 0 setdash 2 copy moveto
	2 copy vpt 90 360 arc closepath fill
	vpt 0 360 arc} bind def
/C15 {BL [] 0 setdash 2 copy vpt 0 360 arc closepath fill
	vpt 0 360 arc closepath} bind def
/Rec {newpath 4 2 roll moveto 1 index 0 rlineto 0 exch rlineto
	neg 0 rlineto closepath} bind def
/Square {dup Rec} bind def
/Bsquare {vpt sub exch vpt sub exch vpt2 Square} bind def
/S0 {BL [] 0 setdash 2 copy moveto 0 vpt rlineto BL Bsquare} bind def
/S1 {BL [] 0 setdash 2 copy vpt Square fill Bsquare} bind def
/S2 {BL [] 0 setdash 2 copy exch vpt sub exch vpt Square fill Bsquare} bind def
/S3 {BL [] 0 setdash 2 copy exch vpt sub exch vpt2 vpt Rec fill Bsquare} bind def
/S4 {BL [] 0 setdash 2 copy exch vpt sub exch vpt sub vpt Square fill Bsquare} bind def
/S5 {BL [] 0 setdash 2 copy 2 copy vpt Square fill
	exch vpt sub exch vpt sub vpt Square fill Bsquare} bind def
/S6 {BL [] 0 setdash 2 copy exch vpt sub exch vpt sub vpt vpt2 Rec fill Bsquare} bind def
/S7 {BL [] 0 setdash 2 copy exch vpt sub exch vpt sub vpt vpt2 Rec fill
	2 copy vpt Square fill Bsquare} bind def
/S8 {BL [] 0 setdash 2 copy vpt sub vpt Square fill Bsquare} bind def
/S9 {BL [] 0 setdash 2 copy vpt sub vpt vpt2 Rec fill Bsquare} bind def
/S10 {BL [] 0 setdash 2 copy vpt sub vpt Square fill 2 copy exch vpt sub exch vpt Square fill
	Bsquare} bind def
/S11 {BL [] 0 setdash 2 copy vpt sub vpt Square fill 2 copy exch vpt sub exch vpt2 vpt Rec fill
	Bsquare} bind def
/S12 {BL [] 0 setdash 2 copy exch vpt sub exch vpt sub vpt2 vpt Rec fill Bsquare} bind def
/S13 {BL [] 0 setdash 2 copy exch vpt sub exch vpt sub vpt2 vpt Rec fill
	2 copy vpt Square fill Bsquare} bind def
/S14 {BL [] 0 setdash 2 copy exch vpt sub exch vpt sub vpt2 vpt Rec fill
	2 copy exch vpt sub exch vpt Square fill Bsquare} bind def
/S15 {BL [] 0 setdash 2 copy Bsquare fill Bsquare} bind def
/D0 {gsave translate 45 rotate 0 0 S0 stroke grestore} bind def
/D1 {gsave translate 45 rotate 0 0 S1 stroke grestore} bind def
/D2 {gsave translate 45 rotate 0 0 S2 stroke grestore} bind def
/D3 {gsave translate 45 rotate 0 0 S3 stroke grestore} bind def
/D4 {gsave translate 45 rotate 0 0 S4 stroke grestore} bind def
/D5 {gsave translate 45 rotate 0 0 S5 stroke grestore} bind def
/D6 {gsave translate 45 rotate 0 0 S6 stroke grestore} bind def
/D7 {gsave translate 45 rotate 0 0 S7 stroke grestore} bind def
/D8 {gsave translate 45 rotate 0 0 S8 stroke grestore} bind def
/D9 {gsave translate 45 rotate 0 0 S9 stroke grestore} bind def
/D10 {gsave translate 45 rotate 0 0 S10 stroke grestore} bind def
/D11 {gsave translate 45 rotate 0 0 S11 stroke grestore} bind def
/D12 {gsave translate 45 rotate 0 0 S12 stroke grestore} bind def
/D13 {gsave translate 45 rotate 0 0 S13 stroke grestore} bind def
/D14 {gsave translate 45 rotate 0 0 S14 stroke grestore} bind def
/D15 {gsave translate 45 rotate 0 0 S15 stroke grestore} bind def
/DiaE {stroke [] 0 setdash vpt add M
  hpt neg vpt neg V hpt vpt neg V
  hpt vpt V hpt neg vpt V closepath stroke} def
/BoxE {stroke [] 0 setdash exch hpt sub exch vpt add M
  0 vpt2 neg V hpt2 0 V 0 vpt2 V
  hpt2 neg 0 V closepath stroke} def
/TriUE {stroke [] 0 setdash vpt 1.12 mul add M
  hpt neg vpt -1.62 mul V
  hpt 2 mul 0 V
  hpt neg vpt 1.62 mul V closepath stroke} def
/TriDE {stroke [] 0 setdash vpt 1.12 mul sub M
  hpt neg vpt 1.62 mul V
  hpt 2 mul 0 V
  hpt neg vpt -1.62 mul V closepath stroke} def
/PentE {stroke [] 0 setdash gsave
  translate 0 hpt M 4 {72 rotate 0 hpt L} repeat
  closepath stroke grestore} def
/CircE {stroke [] 0 setdash 
  hpt 0 360 arc stroke} def
/Opaque {gsave closepath 1 setgray fill grestore 0 setgray closepath} def
/DiaW {stroke [] 0 setdash vpt add M
  hpt neg vpt neg V hpt vpt neg V
  hpt vpt V hpt neg vpt V Opaque stroke} def
/BoxW {stroke [] 0 setdash exch hpt sub exch vpt add M
  0 vpt2 neg V hpt2 0 V 0 vpt2 V
  hpt2 neg 0 V Opaque stroke} def
/TriUW {stroke [] 0 setdash vpt 1.12 mul add M
  hpt neg vpt -1.62 mul V
  hpt 2 mul 0 V
  hpt neg vpt 1.62 mul V Opaque stroke} def
/TriDW {stroke [] 0 setdash vpt 1.12 mul sub M
  hpt neg vpt 1.62 mul V
  hpt 2 mul 0 V
  hpt neg vpt -1.62 mul V Opaque stroke} def
/PentW {stroke [] 0 setdash gsave
  translate 0 hpt M 4 {72 rotate 0 hpt L} repeat
  Opaque stroke grestore} def
/CircW {stroke [] 0 setdash 
  hpt 0 360 arc Opaque stroke} def
/BoxFill {gsave Rec 1 setgray fill grestore} def
/Density {
  /Fillden exch def
  currentrgbcolor
  /ColB exch def /ColG exch def /ColR exch def
  /ColR ColR Fillden mul Fillden sub 1 add def
  /ColG ColG Fillden mul Fillden sub 1 add def
  /ColB ColB Fillden mul Fillden sub 1 add def
  ColR ColG ColB setrgbcolor} def
/BoxColFill {gsave Rec PolyFill} def
/PolyFill {gsave Density fill grestore grestore} def
/h {rlineto rlineto rlineto gsave closepath fill grestore} bind def
%
% PostScript Level 1 Pattern Fill routine for rectangles
% Usage: x y w h s a XX PatternFill
%	x,y = lower left corner of box to be filled
%	w,h = width and height of box
%	  a = angle in degrees between lines and x-axis
%	 XX = 0/1 for no/yes cross-hatch
%
/PatternFill {gsave /PFa [ 9 2 roll ] def
  PFa 0 get PFa 2 get 2 div add PFa 1 get PFa 3 get 2 div add translate
  PFa 2 get -2 div PFa 3 get -2 div PFa 2 get PFa 3 get Rec
  TransparentPatterns {} {gsave 1 setgray fill grestore} ifelse
  clip
  currentlinewidth 0.5 mul setlinewidth
  /PFs PFa 2 get dup mul PFa 3 get dup mul add sqrt def
  0 0 M PFa 5 get rotate PFs -2 div dup translate
  0 1 PFs PFa 4 get div 1 add floor cvi
	{PFa 4 get mul 0 M 0 PFs V} for
  0 PFa 6 get ne {
	0 1 PFs PFa 4 get div 1 add floor cvi
	{PFa 4 get mul 0 2 1 roll M PFs 0 V} for
 } if
  stroke grestore} def
%
/languagelevel where
 {pop languagelevel} {1} ifelse
 2 lt
	{/InterpretLevel1 true def}
	{/InterpretLevel1 Level1 def}
 ifelse
%
% PostScript level 2 pattern fill definitions
%
/Level2PatternFill {
/Tile8x8 {/PaintType 2 /PatternType 1 /TilingType 1 /BBox [0 0 8 8] /XStep 8 /YStep 8}
	bind def
/KeepColor {currentrgbcolor [/Pattern /DeviceRGB] setcolorspace} bind def
<< Tile8x8
 /PaintProc {0.5 setlinewidth pop 0 0 M 8 8 L 0 8 M 8 0 L stroke} 
>> matrix makepattern
/Pat1 exch def
<< Tile8x8
 /PaintProc {0.5 setlinewidth pop 0 0 M 8 8 L 0 8 M 8 0 L stroke
	0 4 M 4 8 L 8 4 L 4 0 L 0 4 L stroke}
>> matrix makepattern
/Pat2 exch def
<< Tile8x8
 /PaintProc {0.5 setlinewidth pop 0 0 M 0 8 L
	8 8 L 8 0 L 0 0 L fill}
>> matrix makepattern
/Pat3 exch def
<< Tile8x8
 /PaintProc {0.5 setlinewidth pop -4 8 M 8 -4 L
	0 12 M 12 0 L stroke}
>> matrix makepattern
/Pat4 exch def
<< Tile8x8
 /PaintProc {0.5 setlinewidth pop -4 0 M 8 12 L
	0 -4 M 12 8 L stroke}
>> matrix makepattern
/Pat5 exch def
<< Tile8x8
 /PaintProc {0.5 setlinewidth pop -2 8 M 4 -4 L
	0 12 M 8 -4 L 4 12 M 10 0 L stroke}
>> matrix makepattern
/Pat6 exch def
<< Tile8x8
 /PaintProc {0.5 setlinewidth pop -2 0 M 4 12 L
	0 -4 M 8 12 L 4 -4 M 10 8 L stroke}
>> matrix makepattern
/Pat7 exch def
<< Tile8x8
 /PaintProc {0.5 setlinewidth pop 8 -2 M -4 4 L
	12 0 M -4 8 L 12 4 M 0 10 L stroke}
>> matrix makepattern
/Pat8 exch def
<< Tile8x8
 /PaintProc {0.5 setlinewidth pop 0 -2 M 12 4 L
	-4 0 M 12 8 L -4 4 M 8 10 L stroke}
>> matrix makepattern
/Pat9 exch def
/Pattern1 {PatternBgnd KeepColor Pat1 setpattern} bind def
/Pattern2 {PatternBgnd KeepColor Pat2 setpattern} bind def
/Pattern3 {PatternBgnd KeepColor Pat3 setpattern} bind def
/Pattern4 {PatternBgnd KeepColor Landscape {Pat5} {Pat4} ifelse setpattern} bind def
/Pattern5 {PatternBgnd KeepColor Landscape {Pat4} {Pat5} ifelse setpattern} bind def
/Pattern6 {PatternBgnd KeepColor Landscape {Pat9} {Pat6} ifelse setpattern} bind def
/Pattern7 {PatternBgnd KeepColor Landscape {Pat8} {Pat7} ifelse setpattern} bind def
} def
%
%
%End of PostScript Level 2 code
%
/PatternBgnd {
  TransparentPatterns {} {gsave 1 setgray fill grestore} ifelse
} def
%
% Substitute for Level 2 pattern fill codes with
% grayscale if Level 2 support is not selected.
%
/Level1PatternFill {
/Pattern1 {0.250 Density} bind def
/Pattern2 {0.500 Density} bind def
/Pattern3 {0.750 Density} bind def
/Pattern4 {0.125 Density} bind def
/Pattern5 {0.375 Density} bind def
/Pattern6 {0.625 Density} bind def
/Pattern7 {0.875 Density} bind def
} def
%
% Now test for support of Level 2 code
%
Level1 {Level1PatternFill} {Level2PatternFill} ifelse
%
/Symbol-Oblique /Symbol findfont [1 0 .167 1 0 0] makefont
dup length dict begin {1 index /FID eq {pop pop} {def} ifelse} forall
currentdict end definefont pop
/MFshow {
   { dup 5 get 3 ge
     { 5 get 3 eq {gsave} {grestore} ifelse }
     {dup dup 0 get findfont exch 1 get scalefont setfont
     [ currentpoint ] exch dup 2 get 0 exch R dup 5 get 2 ne {dup dup 6
     get exch 4 get {Gshow} {stringwidth pop 0 R} ifelse }if dup 5 get 0 eq
     {dup 3 get {2 get neg 0 exch R pop} {pop aload pop M} ifelse} {dup 5
     get 1 eq {dup 2 get exch dup 3 get exch 6 get stringwidth pop -2 div
     dup 0 R} {dup 6 get stringwidth pop -2 div 0 R 6 get
     show 2 index {aload pop M neg 3 -1 roll neg R pop pop} {pop pop pop
     pop aload pop M} ifelse }ifelse }ifelse }
     ifelse }
   forall} def
/Gswidth {dup type /stringtype eq {stringwidth} {pop (n) stringwidth} ifelse} def
/MFwidth {0 exch { dup 5 get 3 ge { 5 get 3 eq { 0 } { pop } ifelse }
 {dup 3 get{dup dup 0 get findfont exch 1 get scalefont setfont
     6 get Gswidth pop add} {pop} ifelse} ifelse} forall} def
/MLshow { currentpoint stroke M
  0 exch R
  Blacktext {gsave 0 setgray MFshow grestore} {MFshow} ifelse } bind def
/MRshow { currentpoint stroke M
  exch dup MFwidth neg 3 -1 roll R
  Blacktext {gsave 0 setgray MFshow grestore} {MFshow} ifelse } bind def
/MCshow { currentpoint stroke M
  exch dup MFwidth -2 div 3 -1 roll R
  Blacktext {gsave 0 setgray MFshow grestore} {MFshow} ifelse } bind def
/XYsave    { [( ) 1 2 true false 3 ()] } bind def
/XYrestore { [( ) 1 2 true false 4 ()] } bind def
Level1 SuppressPDFMark or 
{} {
/SDict 10 dict def
systemdict /pdfmark known not {
  userdict /pdfmark systemdict /cleartomark get put
} if
SDict begin [
  /Title (repeating_conn_3423483060_3895992900.eps)
  /Subject (gnuplot plot)
  /Creator (gnuplot 4.6 patchlevel 2)
  /Author (olgabo)
%  /Producer (gnuplot)
%  /Keywords ()
  /CreationDate (Tue Apr  8 13:16:07 2014)
  /DOCINFO pdfmark
end
} ifelse
end
%%EndProlog
%%Page: 1 1
gnudict begin
gsave
doclip
50 50 translate
0.050 0.050 scale
0 setgray
newpath
(Times) findfont 200 scalefont setfont
BackgroundColor 0 lt 3 1 roll 0 lt exch 0 lt or or not {BackgroundColor C 1.000 0 0 14400.00 10080.00 BoxColFill} if
1.000 UL
LTb
LCb setrgbcolor
1.000 UL
LTa
LCa setrgbcolor
1200 3493 M
12598 0 V
stroke
LTb
LCb setrgbcolor
1200 3493 M
63 0 V
12535 0 R
-63 0 V
stroke
1080 3493 M
[ [(Times) 200.0 0.0 true true 0 ( 0)]
] -66.7 MRshow
1.000 UL
LTb
LCb setrgbcolor
1.000 UL
LTa
LCa setrgbcolor
1200 3888 M
12598 0 V
stroke
LTb
LCb setrgbcolor
1200 3888 M
63 0 V
12535 0 R
-63 0 V
stroke
1080 3888 M
[ [(Times) 200.0 0.0 true true 0 ( 200)]
] -66.7 MRshow
1.000 UL
LTb
LCb setrgbcolor
1.000 UL
LTa
LCa setrgbcolor
1200 4283 M
12598 0 V
stroke
LTb
LCb setrgbcolor
1200 4283 M
63 0 V
12535 0 R
-63 0 V
stroke
1080 4283 M
[ [(Times) 200.0 0.0 true true 0 ( 400)]
] -66.7 MRshow
1.000 UL
LTb
LCb setrgbcolor
1.000 UL
LTa
LCa setrgbcolor
1200 4678 M
12598 0 V
stroke
LTb
LCb setrgbcolor
1200 4678 M
63 0 V
12535 0 R
-63 0 V
stroke
1080 4678 M
[ [(Times) 200.0 0.0 true true 0 ( 600)]
] -66.7 MRshow
1.000 UL
LTb
LCb setrgbcolor
1.000 UL
LTa
LCa setrgbcolor
1200 5073 M
12598 0 V
stroke
LTb
LCb setrgbcolor
1200 5073 M
63 0 V
12535 0 R
-63 0 V
stroke
1080 5073 M
[ [(Times) 200.0 0.0 true true 0 ( 800)]
] -66.7 MRshow
1.000 UL
LTb
LCb setrgbcolor
1.000 UL
LTa
LCa setrgbcolor
1200 5469 M
12598 0 V
stroke
LTb
LCb setrgbcolor
1200 5469 M
63 0 V
12535 0 R
-63 0 V
stroke
1080 5469 M
[ [(Times) 200.0 0.0 true true 0 ( 1000)]
] -66.7 MRshow
1.000 UL
LTb
LCb setrgbcolor
1.000 UL
LTa
LCa setrgbcolor
1200 5864 M
12598 0 V
stroke
LTb
LCb setrgbcolor
1200 5864 M
63 0 V
12535 0 R
-63 0 V
stroke
1080 5864 M
[ [(Times) 200.0 0.0 true true 0 ( 1200)]
] -66.7 MRshow
1.000 UL
LTb
LCb setrgbcolor
1.000 UL
LTa
LCa setrgbcolor
1200 6259 M
12598 0 V
stroke
LTb
LCb setrgbcolor
1200 6259 M
63 0 V
12535 0 R
-63 0 V
stroke
1080 6259 M
[ [(Times) 200.0 0.0 true true 0 ( 1400)]
] -66.7 MRshow
1.000 UL
LTb
LCb setrgbcolor
1.000 UL
LTa
LCa setrgbcolor
1200 6654 M
12598 0 V
stroke
LTb
LCb setrgbcolor
1200 6654 M
63 0 V
12535 0 R
-63 0 V
stroke
1080 6654 M
[ [(Times) 200.0 0.0 true true 0 ( 1600)]
] -66.7 MRshow
1.000 UL
LTb
LCb setrgbcolor
1.000 UL
LTa
LCa setrgbcolor
1200 7049 M
12598 0 V
stroke
LTb
LCb setrgbcolor
1200 7049 M
63 0 V
12535 0 R
-63 0 V
stroke
1080 7049 M
[ [(Times) 200.0 0.0 true true 0 ( 1800)]
] -66.7 MRshow
1.000 UL
LTb
LCb setrgbcolor
1.000 UL
LTa
LCa setrgbcolor
1200 3493 M
0 3556 V
stroke
LTb
LCb setrgbcolor
1200 3493 M
0 63 V
0 3493 R
0 -63 V
stroke
1200 3373 M
currentpoint gsave translate -45 rotate 0 0 moveto
[ [(Times) 200.0 0.0 true true 0 ( 0)]
] -66.7 MLshow
grestore
1.000 UL
LTb
LCb setrgbcolor
1.000 UL
LTa
LCa setrgbcolor
2775 3493 M
0 3556 V
stroke
LTb
LCb setrgbcolor
2775 3493 M
0 63 V
0 3493 R
0 -63 V
stroke
2775 3373 M
currentpoint gsave translate -45 rotate 0 0 moveto
[ [(Times) 200.0 0.0 true true 0 ( 500)]
] -66.7 MLshow
grestore
1.000 UL
LTb
LCb setrgbcolor
1.000 UL
LTa
LCa setrgbcolor
4350 3493 M
0 3556 V
stroke
LTb
LCb setrgbcolor
4350 3493 M
0 63 V
0 3493 R
0 -63 V
stroke
4350 3373 M
currentpoint gsave translate -45 rotate 0 0 moveto
[ [(Times) 200.0 0.0 true true 0 ( 1000)]
] -66.7 MLshow
grestore
1.000 UL
LTb
LCb setrgbcolor
1.000 UL
LTa
LCa setrgbcolor
5924 3493 M
0 3556 V
stroke
LTb
LCb setrgbcolor
5924 3493 M
0 63 V
0 3493 R
0 -63 V
stroke
5924 3373 M
currentpoint gsave translate -45 rotate 0 0 moveto
[ [(Times) 200.0 0.0 true true 0 ( 1500)]
] -66.7 MLshow
grestore
1.000 UL
LTb
LCb setrgbcolor
1.000 UL
LTa
LCa setrgbcolor
7499 3493 M
0 3556 V
stroke
LTb
LCb setrgbcolor
7499 3493 M
0 63 V
0 3493 R
0 -63 V
stroke
7499 3373 M
currentpoint gsave translate -45 rotate 0 0 moveto
[ [(Times) 200.0 0.0 true true 0 ( 2000)]
] -66.7 MLshow
grestore
1.000 UL
LTb
LCb setrgbcolor
1.000 UL
LTa
LCa setrgbcolor
9074 3493 M
0 3556 V
stroke
LTb
LCb setrgbcolor
9074 3493 M
0 63 V
0 3493 R
0 -63 V
stroke
9074 3373 M
currentpoint gsave translate -45 rotate 0 0 moveto
[ [(Times) 200.0 0.0 true true 0 ( 2500)]
] -66.7 MLshow
grestore
1.000 UL
LTb
LCb setrgbcolor
1.000 UL
LTa
LCa setrgbcolor
10649 3493 M
0 3556 V
stroke
LTb
LCb setrgbcolor
10649 3493 M
0 63 V
0 3493 R
0 -63 V
stroke
10649 3373 M
currentpoint gsave translate -45 rotate 0 0 moveto
[ [(Times) 200.0 0.0 true true 0 ( 3000)]
] -66.7 MLshow
grestore
1.000 UL
LTb
LCb setrgbcolor
1.000 UL
LTa
LCa setrgbcolor
12223 3493 M
0 3556 V
stroke
LTb
LCb setrgbcolor
12223 3493 M
0 63 V
0 3493 R
0 -63 V
stroke
12223 3373 M
currentpoint gsave translate -45 rotate 0 0 moveto
[ [(Times) 200.0 0.0 true true 0 ( 3500)]
] -66.7 MLshow
grestore
1.000 UL
LTb
LCb setrgbcolor
1.000 UL
LTa
LCa setrgbcolor
13798 3493 M
0 3556 V
stroke
LTb
LCb setrgbcolor
13798 3493 M
0 63 V
0 3493 R
0 -63 V
stroke
13798 3373 M
currentpoint gsave translate -45 rotate 0 0 moveto
[ [(Times) 200.0 0.0 true true 0 ( 4000)]
] -66.7 MLshow
grestore
1.000 UL
LTb
LCb setrgbcolor
1.000 UL
LTb
LCb setrgbcolor
1200 7049 N
0 -3556 V
12598 0 V
0 3556 V
-12598 0 V
Z stroke
LCb setrgbcolor
260 5271 M
currentpoint gsave translate -270 rotate 0 0 moveto
[ [(Times) 200.0 0.0 true true 0 (Duration [sec])]
] -66.7 MCshow
grestore
LTb
LCb setrgbcolor
7499 2769 M
[ [(Times) 200.0 0.0 true true 0 (Time [sec])]
] -66.7 MCshow
LTb
7499 7349 M
[ [(Times) 200.0 0.0 true true 0 (src port 80, repeating connections sorted by start time)]
] -66.7 MCshow
1.000 UP
1.000 UL
LTb
LCb setrgbcolor
1.000 UL
LT8
LC8 setrgbcolor
7108 63 N
782 0 V
-782 0 V
Z stroke
% Begin plot #1
1.000 UP
1.000 UL
LT8
0.00 0.00 1.00 C 1200 3495 M
0 3 V
19 1 V
9 -3 V
7 -1 V
15 3 V
29 3 V
50 -8 V
13 75 V
12 -73 V
0 64 V
7 -63 V
3 0 V
3 1 V
0 5 V
16 -7 V
3 0 V
3 37 V
0 -39 V
6 2 V
3 4 V
13 15 V
9 -16 V
0 1 V
4 0 V
9 -5 V
16 2 V
12 1 V
0 10 V
4 -12 V
3 1 V
15 -1 V
4 1 V
6 0 V
16 0 V
6 -1 V
0 2 V
3 -1 V
10 -2 V
3 2 V
15 1 V
4 -1 V
12 -1 V
0 33 V
6 -32 V
4 -1 V
15 -1 V
0 2 V
4 -1 V
3 7 V
3 -7 V
0 -1 V
6 7 V
3 -5 V
7 32 V
0 5 V
37 -4 V
29 -25 V
3 -5 V
19 13 V
6 -17 V
13 3 V
12 -2 V
3 1 V
10 -2 V
12 57 V
19 -56 V
10 15 V
0 2 V
28 -13 V
10 12 V
22 -10 V
3 -6 V
16 3 V
12 -2 V
19 4 V
22 -5 V
13 15 V
34 32 V
10 100 V
3 -144 V
0 191 V
3 -195 V
10 0 V
3 5 V
15 6 V
7 -11 V
15 15 V
4 103 V
0 -119 V
3 2 V
12 1 V
38 -2 V
3 3 V
26 -1 V
6 -2 V
38 10 V
12 -9 V
6 -1 V
26 16 V
12 341 V
19 -348 V
6 -7 V
4 -2 V
0 3 V
stroke 2246 3498 M
12 -3 V
32 3 V
12 -1 V
3 -1 V
13 242 V
3 -241 V
10 -2 V
6 3 V
16 -4 V
9 15 V
3 -15 V
13 0 V
28 1 V
3 0 V
7 4 V
12 -4 V
7 1 V
0 2 V
3 -3 V
6 4 V
10 -4 V
6 0 V
0 4 V
16 8 V
15 -13 V
0 1 V
0 4 V
3 122 V
7 -127 V
12 1 V
3 6 V
10 -4 V
3 -2 V
6 -1 V
0 1 V
7 1781 V
3 -1781 V
12 0 V
7 33 V
15 -31 V
4 108 V
3 -111 V
0 12 V
9 9 V
19 -21 V
3 1 V
3 0 V
4 119 V
6 -106 V
16 -14 V
19 0 V
0 2 V
18 -1 V
19 158 V
16 -158 V
0 2 V
25 -1 V
3 1341 V
7 -1342 V
22 7 V
0 2 V
12 -8 V
3 0 V
23 -1 V
0 1 V
0 68 V
28 -69 V
9 -1 V
7 11 V
9 -11 V
6 4 V
44 -3 V
10 6 V
19 -6 V
0 4 V
3 -3 V
3 2 V
10 8 V
12 -8 V
3 -3 V
3 4 V
4 -5 V
0 5 V
0 7 V
15 -5 V
10 -7 V
25 1 V
0 2 V
16 -2 V
3 433 V
6 -433 V
0 3 V
0 128 V
10 -130 V
3 -1 V
0 1 V
3 2 V
3 -1 V
3 2 V
7 -4 V
31 -1 V
6 0 V
3 0 V
16 0 V
stroke 3143 3494 M
10 1 V
12 33 V
3 -34 V
13 0 V
3 1 V
3 -1 V
3 0 V
0 3 V
4 1 V
3 -3 V
31 0 V
0 18 V
7 -19 V
6 1 V
6 -1 V
3 2 V
7 -1 V
0 2 V
3 -2 V
0 72 V
3 -73 V
13 1 V
9 0 V
13 -2 V
3 1 V
6 1 V
3 1 V
13 0 V
9 7 V
0 3 V
10 -12 V
6 7 V
13 -7 V
6 2 V
9 -1 V
29 0 V
15 0 V
7 0 V
6 -1 V
16 0 V
31 4 V
7 -3 V
15 34 V
3 -35 V
7 1 V
12 3 V
7 3 V
6 -6 V
3 653 V
3 -646 V
0 2 V
25 -7 V
0 116 V
7 -118 V
3 1 V
0 5 V
47 -3 V
6 -2 V
10 0 V
22 0 V
6 2 V
16 -3 V
6 0 V
7 30 V
6 -31 V
12 5 V
16 -3 V
16 -1 V
13 0 V
0 14 V
9 -12 V
19 -1 V
3 3 V
6 0 V
10 -2 V
3 -2 V
3 0 V
22 1 V
22 10 V
3 -11 V
16 -1 V
13 1 V
0 2 V
22 1 V
3 3 V
3 -6 V
3 -1 V
0 1 V
0 2 V
16 -2 V
0 10 V
3 -5 V
3 2 V
7 -8 V
9 4 V
0 1 V
0 3 V
16 -7 V
19 17 V
25 -13 V
22 -4 V
0 3 V
19 -3 V
6 0 V
stroke 4066 3495 M
13 0 V
15 0 V
10 7 V
3 -8 V
13 2 V
53 -1 V
19 0 V
16 1 V
12 -1 V
7 3 V
15 17 V
32 -20 V
9 1 V
10 28 V
12 -24 V
10 -6 V
3 1 V
3 -1 V
6 2 V
4 53 V
15 -54 V
4 5 V
12 -5 V
0 4 V
16 -4 V
9 1 V
10 -1 V
3 0 V
22 0 V
6 1 V
0 1 V
7 116 V
3 -118 V
6 0 V
9 0 V
4 1 V
3 10 V
25 -11 V
6 6 V
3 116 V
13 -122 V
9 0 V
19 24 V
10 -24 V
3 32 V
6 -27 V
7 -4 V
15 2 V
7 0 V
6 -4 V
16 3 V
0 -1 V
6 0 V
13 17 V
31 -18 V
28 3 V
3 -3 V
10 0 V
28 6 V
22 -5 V
19 -1 V
7 1 V
6 -1 V
3 121 V
3 -119 V
10 4 V
3 152 V
6 -117 V
9 -40 V
16 160 V
3 -161 V
4 1 V
15 0 V
7 -2 V
12 0 V
16 1 V
13 23 V
6 -23 V
16 21 V
18 -21 V
0 1 V
19 1 V
0 3 V
4 -3 V
3 354 V
34 -356 V
16 0 V
3 15 V
19 -15 V
0 5 V
6 -2 V
4 -3 V
12 1 V
32 -1 V
3 0 V
16 1 V
3 37 V
22 84 V
12 -120 V
3 -2 V
10 3 V
9 116 V
4 -118 V
12 0 V
stroke 5184 3496 M
16 142 V
9 -15 V
7 -128 V
3 5 V
3 -5 V
13 0 V
28 8 V
28 93 V
22 -97 V
3 3 V
4 83 V
12 -84 V
10 -4 V
0 2 V
3 -4 V
19 0 V
6 27 V
38 -25 V
12 226 V
3 -227 V
19 -3 V
0 1 V
4 0 V
0 3 V
6 -2 V
6 -2 V
6 0 V
10 1 V
0 1 V
3 -1 V
3 1 V
19 0 V
0 4 V
10 -3 V
9 1 V
0 14 V
13 -6 V
3 0 V
3 -11 V
16 0 V
0 9 V
12 -4 V
0 2 V
3 -3 V
4 -1 V
9 1 V
9 12 V
19 -11 V
10 -1 V
0 6 V
3 -9 V
16 2 V
6 -2 V
16 2 V
41 -4 V
12 1 V
32 1 V
9 3433 V
6 -3433 V
16 0 V
7 5 V
6 -4 V
3 -2 V
0 4 V
3 114 V
3 -118 V
10 3 V
0 117 V
3 -119 V
0 6 V
3 2 V
3 -9 V
10 2 V
0 -1 V
6 10 V
13 -11 V
0 8 V
9 -3 V
22 4 V
9 -5 V
38 -3 V
10 -1 V
6 1 V
0 30 V
3 14 V
3 -41 V
7 -3 V
18 0 V
0 2 V
7 1 V
3 -3 V
6 15 V
10 -15 V
3 77 V
6 -77 V
3 1 V
16 219 V
6 -220 V
7 -1 V
12 1 V
0 14 V
19 -15 V
13 1 V
15 3 V
stroke 6097 3498 M
4 -1 V
3 -1 V
0 1 V
3 18 V
3 -20 V
16 3 V
12 -4 V
0 1 V
0 205 V
7 -206 V
19 0 V
3 2 V
9 -1 V
7 0 V
15 39 V
3 -39 V
7 0 V
12 0 V
13 -1 V
0 3 V
12 -2 V
4 -1 V
0 2 V
3 -1 V
3 -1 V
3 1 V
22 0 V
0 5 V
3 -5 V
0 -1 V
19 2 V
6 -2 V
0 5 V
19 -3 V
10 -1 V
16 0 V
3 -1 V
0 2 V
3 0 V
3 -1 V
19 -1 V
3 1 V
3 6 V
3 -7 V
0 9 V
13 -8 V
19 0 V
6 0 V
25 38 V
4 -34 V
3 -4 V
9 0 V
13 -1 V
6 1 V
3 -1 V
10 12 V
6 -9 V
16 -3 V
3 10 V
3 -10 V
13 1 V
0 4 V
6 -4 V
9 0 V
19 0 V
13 2 V
3 -2 V
13 1 V
37 49 V
13 -51 V
13 6 V
3 8 V
3 -5 V
31 -6 V
10 -2 V
0 748 V
3 -749 V
19 1 V
6 0 V
3 -1 V
13 3 V
3 3 V
13 -2 V
6 -2 V
0 1 V
3 -2 V
3 0 V
7 1 V
6 17 V
16 -18 V
0 1 V
12 1 V
10 8 V
3 -10 V
3 0 V
3 1 V
19 2 V
6 -3 V
7 0 V
25 0 V
9 1 V
6 -1 V
7 1 V
3 8 V
stroke 6929 3504 M
3 -7 V
10 5 V
9 -7 V
0 2 V
3 28 V
22 -30 V
13 0 V
3 55 V
16 -51 V
9 -4 V
6 0 V
13 -1 V
6 1 V
3 0 V
10 0 V
0 7 V
3 -8 V
13 1 V
9 0 V
16 1 V
6 -1 V
3 0 V
13 2 V
0 6 V
0 83 V
3 -91 V
16 1 V
9 0 V
13 -1 V
16 15 V
6 -9 V
3 -6 V
0 32 V
3 -32 V
10 2 V
3 0 V
28 -2 V
3 0 V
3 2 V
22 9 V
7 -8 V
12 -2 V
13 -1 V
9 -1 V
0 3 V
10 -2 V
6 0 V
25 2 V
4 -2 V
9 7 V
22 -7 V
19 -1 V
3 10 V
3 -10 V
0 34 V
3 -27 V
4 -5 V
12 -1 V
3 9 V
0 229 V
3 -237 V
7 63 V
3 -63 V
9 3 V
16 -3 V
0 10 V
6 -11 V
10 13 V
6 -13 V
6 10 V
10 -10 V
9 1 V
13 -1 V
3 0 V
16 -2 V
6 2 V
13 -1 V
12 3 V
3 -1 V
0 8 V
4 -10 V
6 2 V
0 4 V
6 -4 V
3 -2 V
0 1 V
7 5 V
6 60 V
6 55 V
3 -4 V
4 -4 V
47 -110 V
6 -2 V
6 1 V
4 1 V
9 4 V
38 -6 V
3 144 V
3 -144 V
6 2 V
16 -3 V
0 1 V
10 2 V
12 -2 V
stroke 7776 3495 M
3 2 V
7 6 V
15 -9 V
4 3 V
18 -2 V
4 5 V
6 43 V
9 -48 V
10 17 V
0 400 V
6 -413 V
13 -4 V
6 3 V
0 14 V
6 -16 V
3 6 V
26 -7 V
12 0 V
0 2 V
13 36 V
12 -33 V
7 -5 V
12 0 V
7 0 V
3 0 V
15 118 V
4 -118 V
3 66 V
3 -66 V
6 6 V
3 -4 V
4 0 V
22 -3 V
15 2 V
0 4 V
0 -1 V
16 -3 V
3 -1 V
7 0 V
0 3 V
0 -5 V
9 2 V
9 0 V
0 4 V
0 3 V
7 -2 V
9 24 V
3 -12 V
3 -17 V
13 2 V
0 3 V
6 -3 V
10 14 V
9 28 V
3 -44 V
0 9 V
4 -7 V
12 -2 V
6 0 V
7 2 V
6 -3 V
13 4 V
0 279 V
6 -282 V
9 4 V
4 -4 V
9 1 V
0 4 V
13 -3 V
12 -2 V
6 7 V
32 -4 V
9 2 V
0 111 V
10 -114 V
3 -3 V
3 1 V
6 6 V
0 4 V
26 -6 V
9 -5 V
0 2 V
3 4 V
10 -4 V
0 13 V
6 -13 V
0 120 V
6 -123 V
7 12 V
6 -10 V
3 1 V
6 2 V
16 -4 V
0 2 V
3 5 V
22 -3 V
41 -4 V
0 124 V
3 -123 V
4 1 V
0 2 V
12 -3 V
0 6 V
13 6 V
stroke 8526 3507 M
0 7 V
3 -18 V
9 2 V
3 -2 V
7 0 V
0 3 V
3 -2 V
6 7 V
3 -9 V
35 -1 V
6 4 V
0 1 V
3 6 V
16 -10 V
3 1 V
7 7 V
34 -8 V
13 4 V
22 -4 V
0 1 V
3 7 V
16 -8 V
16 0 V
0 2 V
0 341 V
9 -337 V
3 -5 V
7 5 V
12 -6 V
13 2 V
3 0 V
6 0 V
3 0 V
3 29 V
0 90 V
10 -121 V
9 112 V
22 24 V
16 -136 V
6 0 V
19 0 V
3 0 V
23 2 V
9 5 V
3 -5 V
10 -1 V
12 4 V
10 -2 V
25 95 V
6 -93 V
16 125 V
3 -128 V
13 -1 V
9 0 V
6 3 V
13 -4 V
3 24 V
3 -3 V
19 -19 V
13 28 V
9 -29 V
3 -1 V
0 2 V
7 -1 V
12 117 V
16 -117 V
9 0 V
41 5 V
4 -3 V
3 -3 V
0 6 V
6 -6 V
0 1 V
3 0 V
16 1 V
19 -2 V
31 2 V
25 -2 V
7 0 V
6 -1 V
22 0 V
0 145 V
0 284 V
19 -428 V
6 0 V
10 1 V
6 0 V
3 1 V
0 1100 V
7 -1099 V
44 2 V
6 -3 V
0 5 V
3 -1 V
9 -6 V
4 7 V
6 -6 V
3 -1 V
6 57 V
0 -59 V
16 4 V
0 1799 V
6 -1775 V
10 287 V
stroke 9477 3808 M
6 -296 V
19 -14 V
3 119 V
19 -122 V
6 3 V
7 354 V
6 -353 V
6 -3 V
26 9 V
3 12 V
12 -21 V
19 0 V
0 17 V
29 -14 V
25 -2 V
12 58 V
10 -59 V
0 5 V
0 1 V
41 129 V
12 -124 V
10 22 V
15 -21 V
4 5 V
22 -19 V
0 3 V
3 1931 V
25 -1925 V
0 17 V
35 -25 V
6 29 V
0 86 V
6 -115 V
3 1 V
19 3 V
19 -2 V
7 1 V
6 7 V
16 -10 V
6 9 V
3 13 V
0 -22 V
9 -1 V
4 193 V
15 -192 V
13 0 V
0 118 V
47 -119 V
0 2 V
19 13 V
6 16 V
38 327 V
16 -353 V
19 37 V
31 -38 V
3 14 V
48 11 V
9 89 V
41 -117 V
28 -1 V
67 2 V
3 1 V
3 5 V
19 0 V
25 -8 V
0 745 V
6 -741 V
32 -3 V
47 0 V
6 0 V
7 0 V
0 3 V
9 -3 V
6 2 V
7 7 V
12 -9 V
0 113 V
10 -109 V
0 231 V
3 -235 V
6 2 V
6 17 V
0 453 V
10 -469 V
6 2 V
3 3 V
7 -8 V
3 0 V
3 0 V
6 0 V
32 17 V
9 -17 V
7 0 V
3 3 V
0 21 V
3 -24 V
3 0 V
3 1 V
0 118 V
6 -119 V
0 3 V
10 -3 V
12 2 V
0 4 V
stroke 10689 3501 M
7 -8 V
3 2 V
3 0 V
0 7 V
3 -7 V
3 1 V
13 -1 V
0 11 V
6 -4 V
7 -7 V
9 0 V
0 3 V
3 -3 V
10 0 V
3 13 V
9 -13 V
3 0 V
7 0 V
3 0 V
3 2 V
13 -2 V
3 0 V
6 0 V
3 0 V
28 0 V
4 0 V
0 13 V
28 -14 V
3 8 V
10 -7 V
9 0 V
0 -1 V
6 0 V
3 2 V
19 -1 V
4 0 V
9 -1 V
0 2 V
9 -1 V
16 3 V
6 -2 V
4 -1 V
6 9 V
3 -9 V
3 -1 V
0 1 V
3 9 V
3 -9 V
7 106 V
16 -104 V
3 -2 V
6 -1 V
0 1 V
0 2 V
19 3 V
0 51 V
9 -48 V
0 -9 V
3 1 V
10 26 V
3 -26 V
10 2 V
6 6 V
9 0 V
3 -7 V
10 1 V
3 -2 V
9 1 V
16 161 V
10 -161 V
15 -1 V
0 3 V
4 -3 V
0 5 V
12 1 V
10 1 V
3 -4 V
9 -3 V
0 1 V
7 -1 V
9 0 V
3 0 V
3 4 V
13 -1 V
53 -3 V
0 4 V
4 -5 V
3 90 V
6 -89 V
13 -1 V
3 1 V
6 0 V
22 0 V
0 2 V
3 -4 V
3 2 V
4 3 V
3 -3 V
12 0 V
10 0 V
25 1 V
19 3 V
12 3 V
26 20 V
stroke 11452 3522 M
19 -25 V
37 1 V
10 1 V
0 856 V
3 -860 V
3 1 V
3 240 V
10 -239 V
0 93 V
0 140 V
63 -235 V
6 0 V
6 0 V
7 1 V
6 -1 V
9 4 V
3 -2 V
4 -2 V
18 0 V
10 0 V
41 9 V
3 -8 V
25 -1 V
0 121 V
3 -120 V
4 24 V
6 -11 V
3 -12 V
9 -1 V
0 22 V
10 -22 V
9 15 V
3 -14 V
7 2 V
3 -3 V
3 -2 V
0 24 V
6 -16 V
7 4 V
6 -10 V
13 71 V
3 -66 V
19 -6 V
28 1 V
28 -1 V
3 0 V
7 0 V
6 -2 V
9 2 V
7 0 V
0 54 V
16 -54 V
28 7 V
41 -7 V
25 6 V
0 -1 V
3 -5 V
10 1 V
0 19 V
0 79 V
19 -99 V
18 0 V
4 0 V
31 1 V
13 -1 V
9 0 V
6 30 V
10 -26 V
0 25 V
3 -29 V
13 0 V
3 0 V
25 2 V
6 1 V
3 -1 V
4 -2 V
3 2 V
22 -2 V
0 5 V
6 -5 V
6 0 V
10 -2 V
12 4 V
26 -2 V
9 2 V
16 35 V
6 -37 V
10 265 V
9 -249 V
3 -16 V
35 0 V
12 -1 V
7 1 V
12 0 V
25 0 V
7 9 V
3 222 V
9 -128 V
7 36 V
31 -71 V
16 -67 V
31 2 V
19 -2 V
3 106 V
stroke 12585 3602 M
13 -104 V
3 -1 V
19 -2 V
6 4 V
10 -4 V
3 17 V
3 -17 V
3 0 V
0 3 V
3 2 V
13 137 V
3 -110 V
16 -31 V
3 113 V
13 -114 V
3 0 V
3 0 V
9 89 V
16 -89 V
22 5 V
35 -7 V
0 4 V
31 -1 V
16 -2 V
10 2 V
9 2 V
3 -4 V
16 2 V
9 5 V
1200 3495 TriUF
1200 3498 TriUF
1219 3499 TriUF
1228 3496 TriUF
1228 3496 TriUF
1235 3495 TriUF
1250 3498 TriUF
1279 3501 TriUF
1329 3493 TriUF
1342 3568 TriUF
1354 3495 TriUF
1354 3559 TriUF
1361 3496 TriUF
1364 3496 TriUF
1367 3497 TriUF
1367 3502 TriUF
1383 3495 TriUF
1386 3495 TriUF
1389 3532 TriUF
1389 3493 TriUF
1395 3495 TriUF
1398 3499 TriUF
1411 3514 TriUF
1420 3498 TriUF
1420 3499 TriUF
1424 3499 TriUF
1433 3494 TriUF
1449 3496 TriUF
1461 3497 TriUF
1461 3507 TriUF
1465 3495 TriUF
1468 3496 TriUF
1483 3495 TriUF
1487 3496 TriUF
1493 3496 TriUF
1509 3496 TriUF
1515 3495 TriUF
1515 3497 TriUF
1515 3497 TriUF
1518 3496 TriUF
1528 3494 TriUF
1531 3496 TriUF
1546 3497 TriUF
1550 3496 TriUF
1562 3495 TriUF
1562 3528 TriUF
1568 3496 TriUF
1572 3495 TriUF
1587 3494 TriUF
1587 3496 TriUF
1591 3495 TriUF
1594 3502 TriUF
1597 3495 TriUF
1597 3494 TriUF
1603 3501 TriUF
1606 3496 TriUF
1613 3528 TriUF
1613 3533 TriUF
1650 3529 TriUF
1679 3504 TriUF
1682 3499 TriUF
1701 3512 TriUF
1707 3495 TriUF
1720 3498 TriUF
1732 3496 TriUF
1735 3497 TriUF
1745 3495 TriUF
1745 3495 TriUF
1757 3552 TriUF
1776 3496 TriUF
1786 3511 TriUF
1786 3513 TriUF
1814 3500 TriUF
1824 3512 TriUF
1846 3502 TriUF
1849 3496 TriUF
1865 3499 TriUF
1877 3497 TriUF
1896 3501 TriUF
1918 3496 TriUF
1931 3511 TriUF
1965 3543 TriUF
1975 3643 TriUF
1978 3499 TriUF
1978 3690 TriUF
1981 3495 TriUF
1991 3495 TriUF
1994 3500 TriUF
2009 3506 TriUF
2016 3495 TriUF
2031 3510 TriUF
2035 3613 TriUF
2035 3494 TriUF
2038 3496 TriUF
2050 3497 TriUF
2088 3495 TriUF
2091 3498 TriUF
2117 3497 TriUF
2123 3495 TriUF
2161 3505 TriUF
2173 3496 TriUF
2179 3495 TriUF
2205 3511 TriUF
2217 3852 TriUF
2236 3504 TriUF
2242 3497 TriUF
2246 3495 TriUF
2246 3498 TriUF
2258 3495 TriUF
2290 3498 TriUF
2302 3497 TriUF
2305 3496 TriUF
2318 3738 TriUF
2321 3497 TriUF
2331 3495 TriUF
2337 3498 TriUF
2353 3494 TriUF
2362 3509 TriUF
2365 3494 TriUF
2378 3494 TriUF
2406 3495 TriUF
2409 3495 TriUF
2416 3499 TriUF
2428 3495 TriUF
2435 3496 TriUF
2435 3498 TriUF
2438 3495 TriUF
2444 3499 TriUF
2454 3495 TriUF
2460 3495 TriUF
2460 3499 TriUF
2476 3507 TriUF
2491 3494 TriUF
2491 3495 TriUF
2491 3499 TriUF
2494 3621 TriUF
2501 3494 TriUF
2513 3495 TriUF
2516 3501 TriUF
2526 3497 TriUF
2529 3495 TriUF
2535 3494 TriUF
2535 3495 TriUF
2542 5276 TriUF
2545 3495 TriUF
2557 3495 TriUF
2564 3528 TriUF
2579 3497 TriUF
2583 3605 TriUF
2586 3494 TriUF
2586 3506 TriUF
2595 3515 TriUF
2614 3494 TriUF
2617 3495 TriUF
2620 3495 TriUF
2624 3614 TriUF
2630 3508 TriUF
2646 3494 TriUF
2665 3494 TriUF
2665 3496 TriUF
2683 3495 TriUF
2702 3653 TriUF
2718 3495 TriUF
2718 3497 TriUF
2743 3496 TriUF
2746 4837 TriUF
2753 3495 TriUF
2775 3502 TriUF
2775 3504 TriUF
2787 3496 TriUF
2787 3496 TriUF
2790 3496 TriUF
2813 3495 TriUF
2813 3496 TriUF
2813 3564 TriUF
2841 3495 TriUF
2850 3494 TriUF
2857 3505 TriUF
2866 3494 TriUF
2872 3498 TriUF
2916 3495 TriUF
2926 3501 TriUF
2945 3495 TriUF
2945 3499 TriUF
2948 3496 TriUF
2951 3498 TriUF
2951 3498 TriUF
2961 3506 TriUF
2973 3498 TriUF
2976 3495 TriUF
2979 3499 TriUF
2983 3494 TriUF
2983 3499 TriUF
2983 3506 TriUF
2998 3501 TriUF
3008 3494 TriUF
3033 3495 TriUF
3033 3497 TriUF
3049 3495 TriUF
3052 3928 TriUF
3058 3495 TriUF
3058 3498 TriUF
3058 3626 TriUF
3068 3496 TriUF
3071 3495 TriUF
3071 3495 TriUF
3071 3496 TriUF
3074 3498 TriUF
3077 3497 TriUF
3080 3499 TriUF
3087 3495 TriUF
3118 3494 TriUF
3124 3494 TriUF
3127 3494 TriUF
3143 3494 TriUF
3143 3494 TriUF
3153 3495 TriUF
3165 3528 TriUF
3168 3494 TriUF
3181 3494 TriUF
3184 3495 TriUF
3187 3494 TriUF
3190 3494 TriUF
3190 3497 TriUF
3194 3498 TriUF
3197 3495 TriUF
3228 3495 TriUF
3228 3513 TriUF
3235 3494 TriUF
3241 3495 TriUF
3247 3494 TriUF
3250 3496 TriUF
3257 3495 TriUF
3257 3497 TriUF
3260 3495 TriUF
3260 3567 TriUF
3263 3494 TriUF
3276 3495 TriUF
3285 3495 TriUF
3298 3493 TriUF
3301 3494 TriUF
3307 3495 TriUF
3310 3496 TriUF
3323 3496 TriUF
3332 3503 TriUF
3332 3506 TriUF
3342 3494 TriUF
3348 3501 TriUF
3361 3494 TriUF
3367 3496 TriUF
3376 3495 TriUF
3405 3495 TriUF
3420 3495 TriUF
3427 3495 TriUF
3433 3494 TriUF
3449 3494 TriUF
3480 3498 TriUF
3487 3495 TriUF
3502 3529 TriUF
3505 3494 TriUF
3512 3495 TriUF
3512 3495 TriUF
3524 3498 TriUF
3531 3501 TriUF
3537 3495 TriUF
3540 4148 TriUF
3543 3502 TriUF
3543 3504 TriUF
3568 3497 TriUF
3568 3613 TriUF
3575 3495 TriUF
3578 3496 TriUF
3578 3501 TriUF
3625 3498 TriUF
3631 3496 TriUF
3641 3496 TriUF
3663 3496 TriUF
3669 3498 TriUF
3685 3495 TriUF
3691 3495 TriUF
3698 3525 TriUF
3704 3494 TriUF
3716 3499 TriUF
3732 3496 TriUF
3748 3495 TriUF
3761 3495 TriUF
3761 3509 TriUF
3770 3497 TriUF
3789 3496 TriUF
3792 3499 TriUF
3798 3499 TriUF
3808 3497 TriUF
3811 3495 TriUF
3814 3495 TriUF
3836 3496 TriUF
3858 3506 TriUF
3861 3495 TriUF
3877 3494 TriUF
3890 3495 TriUF
3890 3497 TriUF
3912 3498 TriUF
3915 3501 TriUF
3918 3495 TriUF
3921 3494 TriUF
3921 3495 TriUF
3921 3497 TriUF
3937 3495 TriUF
3937 3505 TriUF
3940 3500 TriUF
3943 3502 TriUF
3950 3494 TriUF
3959 3498 TriUF
3959 3499 TriUF
3959 3502 TriUF
3975 3495 TriUF
3994 3512 TriUF
4019 3499 TriUF
4041 3495 TriUF
4041 3498 TriUF
4060 3495 TriUF
4066 3495 TriUF
4079 3495 TriUF
4094 3495 TriUF
4104 3502 TriUF
4107 3494 TriUF
4120 3496 TriUF
4173 3495 TriUF
4192 3495 TriUF
4208 3496 TriUF
4220 3495 TriUF
4227 3498 TriUF
4242 3515 TriUF
4274 3495 TriUF
4283 3496 TriUF
4293 3524 TriUF
4305 3500 TriUF
4315 3494 TriUF
4318 3495 TriUF
4321 3494 TriUF
4327 3496 TriUF
4331 3549 TriUF
4346 3495 TriUF
4350 3500 TriUF
4362 3495 TriUF
4362 3499 TriUF
4378 3495 TriUF
4387 3496 TriUF
4397 3495 TriUF
4400 3495 TriUF
4422 3495 TriUF
4428 3496 TriUF
4428 3497 TriUF
4435 3613 TriUF
4438 3495 TriUF
4444 3495 TriUF
4453 3495 TriUF
4457 3496 TriUF
4460 3506 TriUF
4485 3495 TriUF
4491 3501 TriUF
4494 3617 TriUF
4507 3495 TriUF
4516 3495 TriUF
4535 3519 TriUF
4545 3495 TriUF
4548 3527 TriUF
4554 3500 TriUF
4561 3496 TriUF
4576 3498 TriUF
4583 3498 TriUF
4589 3494 TriUF
4605 3497 TriUF
4605 3496 TriUF
4611 3496 TriUF
4624 3513 TriUF
4655 3495 TriUF
4683 3498 TriUF
4686 3495 TriUF
4696 3495 TriUF
4724 3501 TriUF
4746 3496 TriUF
4765 3495 TriUF
4772 3496 TriUF
4778 3495 TriUF
4781 3616 TriUF
4784 3497 TriUF
4794 3501 TriUF
4797 3653 TriUF
4803 3536 TriUF
4812 3496 TriUF
4828 3656 TriUF
4831 3495 TriUF
4835 3496 TriUF
4850 3496 TriUF
4857 3494 TriUF
4869 3494 TriUF
4885 3495 TriUF
4898 3518 TriUF
4904 3495 TriUF
4920 3516 TriUF
4938 3495 TriUF
4938 3496 TriUF
4957 3497 TriUF
4957 3500 TriUF
4961 3497 TriUF
4964 3851 TriUF
4998 3495 TriUF
5014 3495 TriUF
5017 3510 TriUF
5036 3495 TriUF
5036 3500 TriUF
5042 3498 TriUF
5046 3495 TriUF
5058 3496 TriUF
5090 3495 TriUF
5093 3495 TriUF
5109 3496 TriUF
5112 3533 TriUF
5134 3617 TriUF
5146 3497 TriUF
5149 3495 TriUF
5159 3498 TriUF
5168 3614 TriUF
5172 3496 TriUF
5184 3496 TriUF
5184 3496 TriUF
5200 3638 TriUF
5209 3623 TriUF
5216 3495 TriUF
5219 3500 TriUF
5222 3495 TriUF
5235 3495 TriUF
5263 3503 TriUF
5291 3596 TriUF
5313 3499 TriUF
5316 3502 TriUF
5320 3585 TriUF
5332 3501 TriUF
5342 3497 TriUF
5342 3499 TriUF
5345 3495 TriUF
5364 3495 TriUF
5370 3522 TriUF
5408 3497 TriUF
5420 3723 TriUF
5423 3496 TriUF
5442 3493 TriUF
5442 3494 TriUF
5446 3494 TriUF
5446 3497 TriUF
5452 3495 TriUF
5458 3493 TriUF
5464 3493 TriUF
5474 3494 TriUF
5474 3495 TriUF
5477 3494 TriUF
5480 3495 TriUF
5499 3495 TriUF
5499 3499 TriUF
5509 3496 TriUF
5518 3497 TriUF
5518 3511 TriUF
5531 3505 TriUF
5534 3505 TriUF
5537 3494 TriUF
5553 3494 TriUF
5553 3503 TriUF
5565 3499 TriUF
5565 3501 TriUF
5568 3498 TriUF
5572 3497 TriUF
5581 3498 TriUF
5590 3510 TriUF
5609 3499 TriUF
5619 3498 TriUF
5619 3504 TriUF
5622 3495 TriUF
5638 3497 TriUF
5644 3495 TriUF
5660 3497 TriUF
5701 3493 TriUF
5713 3494 TriUF
5745 3495 TriUF
5745 3495 TriUF
5754 6928 TriUF
5760 3495 TriUF
5776 3495 TriUF
5783 3500 TriUF
5789 3496 TriUF
5792 3494 TriUF
5792 3498 TriUF
5795 3612 TriUF
5798 3494 TriUF
5808 3497 TriUF
5808 3614 TriUF
5811 3495 TriUF
5811 3501 TriUF
5814 3503 TriUF
5817 3494 TriUF
5827 3496 TriUF
5827 3496 TriUF
5827 3495 TriUF
5833 3505 TriUF
5846 3494 TriUF
5846 3502 TriUF
5855 3499 TriUF
5877 3503 TriUF
5886 3498 TriUF
5924 3495 TriUF
5934 3494 TriUF
5940 3495 TriUF
5940 3525 TriUF
5943 3539 TriUF
5946 3498 TriUF
5953 3495 TriUF
5971 3495 TriUF
5971 3497 TriUF
5978 3498 TriUF
5981 3495 TriUF
5987 3510 TriUF
5997 3495 TriUF
6000 3572 TriUF
6006 3495 TriUF
6009 3496 TriUF
6025 3715 TriUF
6031 3495 TriUF
6038 3494 TriUF
6050 3495 TriUF
6050 3509 TriUF
6069 3494 TriUF
6082 3495 TriUF
6097 3498 TriUF
6101 3497 TriUF
6104 3496 TriUF
6104 3497 TriUF
6107 3515 TriUF
6110 3495 TriUF
6126 3498 TriUF
6138 3494 TriUF
6138 3495 TriUF
6138 3700 TriUF
6145 3494 TriUF
6164 3494 TriUF
6167 3496 TriUF
6176 3495 TriUF
6183 3495 TriUF
6198 3534 TriUF
6201 3495 TriUF
6208 3495 TriUF
6220 3495 TriUF
6233 3494 TriUF
6233 3497 TriUF
6245 3495 TriUF
6249 3494 TriUF
6249 3496 TriUF
6252 3495 TriUF
6255 3494 TriUF
6258 3495 TriUF
6280 3495 TriUF
6280 3500 TriUF
6283 3495 TriUF
6283 3494 TriUF
6302 3496 TriUF
6308 3494 TriUF
6308 3499 TriUF
6327 3496 TriUF
6337 3495 TriUF
6353 3495 TriUF
6356 3494 TriUF
6356 3496 TriUF
6359 3496 TriUF
6362 3495 TriUF
6381 3494 TriUF
6384 3495 TriUF
6387 3501 TriUF
6390 3494 TriUF
6390 3503 TriUF
6403 3495 TriUF
6422 3495 TriUF
6428 3495 TriUF
6453 3533 TriUF
6457 3499 TriUF
6460 3495 TriUF
6469 3495 TriUF
6482 3494 TriUF
6488 3495 TriUF
6488 3495 TriUF
6491 3494 TriUF
6501 3506 TriUF
6507 3497 TriUF
6523 3494 TriUF
6526 3504 TriUF
6529 3494 TriUF
6542 3495 TriUF
6542 3499 TriUF
6548 3495 TriUF
6557 3495 TriUF
6576 3495 TriUF
6589 3497 TriUF
6592 3495 TriUF
6605 3496 TriUF
6642 3545 TriUF
6655 3494 TriUF
6668 3500 TriUF
6671 3508 TriUF
6674 3503 TriUF
6705 3497 TriUF
6715 3495 TriUF
6715 4243 TriUF
6718 3494 TriUF
6737 3495 TriUF
6743 3495 TriUF
6746 3494 TriUF
6759 3497 TriUF
6762 3500 TriUF
6775 3498 TriUF
6781 3496 TriUF
6781 3497 TriUF
6784 3495 TriUF
6787 3495 TriUF
6794 3496 TriUF
6800 3513 TriUF
6816 3495 TriUF
6816 3496 TriUF
6828 3497 TriUF
6838 3505 TriUF
6841 3495 TriUF
6844 3495 TriUF
6847 3496 TriUF
6866 3498 TriUF
6872 3495 TriUF
6879 3495 TriUF
6904 3495 TriUF
6913 3496 TriUF
6919 3495 TriUF
6926 3496 TriUF
6929 3504 TriUF
6932 3497 TriUF
6942 3502 TriUF
6951 3495 TriUF
6951 3497 TriUF
6954 3525 TriUF
6976 3495 TriUF
6989 3495 TriUF
6992 3550 TriUF
7008 3499 TriUF
7017 3495 TriUF
7023 3495 TriUF
7036 3494 TriUF
7042 3495 TriUF
7045 3495 TriUF
7055 3495 TriUF
7055 3502 TriUF
7058 3494 TriUF
7071 3495 TriUF
7080 3495 TriUF
7096 3496 TriUF
7102 3495 TriUF
7105 3495 TriUF
7118 3497 TriUF
7118 3503 TriUF
7118 3586 TriUF
7121 3495 TriUF
7137 3496 TriUF
7146 3496 TriUF
7159 3495 TriUF
7175 3510 TriUF
7181 3501 TriUF
7184 3495 TriUF
7184 3527 TriUF
7187 3495 TriUF
7197 3497 TriUF
7200 3497 TriUF
7228 3495 TriUF
7231 3495 TriUF
7234 3497 TriUF
7256 3506 TriUF
7263 3498 TriUF
7275 3496 TriUF
7288 3495 TriUF
7297 3494 TriUF
7297 3497 TriUF
7307 3495 TriUF
7313 3495 TriUF
7338 3497 TriUF
7342 3495 TriUF
7351 3502 TriUF
7373 3495 TriUF
7392 3494 TriUF
7395 3504 TriUF
7398 3494 TriUF
7398 3528 TriUF
7401 3501 TriUF
7405 3496 TriUF
7417 3495 TriUF
7420 3504 TriUF
7420 3733 TriUF
7423 3496 TriUF
7430 3559 TriUF
7433 3496 TriUF
7442 3499 TriUF
7458 3496 TriUF
7458 3506 TriUF
7464 3495 TriUF
7474 3508 TriUF
7480 3495 TriUF
7486 3505 TriUF
7496 3495 TriUF
7505 3496 TriUF
7518 3495 TriUF
7521 3495 TriUF
7537 3493 TriUF
7543 3495 TriUF
7543 3495 TriUF
7556 3494 TriUF
7568 3497 TriUF
7571 3496 TriUF
7571 3504 TriUF
7575 3494 TriUF
7581 3496 TriUF
7581 3500 TriUF
7587 3496 TriUF
7590 3494 TriUF
7590 3495 TriUF
7597 3500 TriUF
7603 3560 TriUF
7609 3615 TriUF
7612 3611 TriUF
7616 3607 TriUF
7663 3497 TriUF
7669 3495 TriUF
7675 3496 TriUF
7679 3497 TriUF
7688 3501 TriUF
7726 3495 TriUF
7729 3639 TriUF
7732 3495 TriUF
7738 3497 TriUF
7754 3494 TriUF
7754 3495 TriUF
7764 3497 TriUF
7776 3495 TriUF
7779 3497 TriUF
7786 3503 TriUF
7801 3494 TriUF
7805 3497 TriUF
7823 3495 TriUF
7827 3500 TriUF
7833 3543 TriUF
7842 3495 TriUF
7852 3512 TriUF
7852 3912 TriUF
7858 3499 TriUF
7871 3495 TriUF
7877 3498 TriUF
7877 3512 TriUF
7883 3496 TriUF
7886 3502 TriUF
7912 3495 TriUF
7924 3495 TriUF
7924 3497 TriUF
7937 3533 TriUF
7949 3500 TriUF
7956 3495 TriUF
7956 3495 TriUF
7968 3495 TriUF
7975 3495 TriUF
7978 3495 TriUF
7993 3613 TriUF
7997 3495 TriUF
8000 3561 TriUF
8003 3495 TriUF
8009 3501 TriUF
8012 3497 TriUF
8016 3497 TriUF
8038 3494 TriUF
8053 3496 TriUF
8053 3500 TriUF
8053 3499 TriUF
8069 3496 TriUF
8072 3495 TriUF
8079 3495 TriUF
8079 3498 TriUF
8079 3493 TriUF
8088 3495 TriUF
8097 3495 TriUF
8097 3499 TriUF
8097 3502 TriUF
8104 3500 TriUF
8113 3524 TriUF
8116 3512 TriUF
8119 3495 TriUF
8132 3497 TriUF
8132 3500 TriUF
8138 3497 TriUF
8148 3511 TriUF
8157 3539 TriUF
8160 3495 TriUF
8160 3504 TriUF
8164 3497 TriUF
8176 3495 TriUF
8182 3495 TriUF
8189 3497 TriUF
8195 3494 TriUF
8208 3498 TriUF
8208 3777 TriUF
8214 3495 TriUF
8223 3499 TriUF
8227 3495 TriUF
8236 3496 TriUF
8236 3500 TriUF
8249 3497 TriUF
8261 3495 TriUF
8267 3502 TriUF
8299 3498 TriUF
8308 3500 TriUF
8308 3611 TriUF
8318 3497 TriUF
8321 3494 TriUF
8324 3495 TriUF
8330 3501 TriUF
8330 3505 TriUF
8356 3499 TriUF
8365 3494 TriUF
8365 3496 TriUF
8368 3500 TriUF
8378 3496 TriUF
8378 3509 TriUF
8384 3496 TriUF
8384 3616 TriUF
8390 3493 TriUF
8397 3505 TriUF
8403 3495 TriUF
8406 3496 TriUF
8412 3498 TriUF
8428 3494 TriUF
8428 3496 TriUF
8431 3501 TriUF
8453 3498 TriUF
8494 3494 TriUF
8494 3618 TriUF
8497 3495 TriUF
8501 3496 TriUF
8501 3498 TriUF
8513 3495 TriUF
8513 3501 TriUF
8526 3507 TriUF
8526 3514 TriUF
8529 3496 TriUF
8538 3498 TriUF
8541 3496 TriUF
8548 3496 TriUF
8548 3499 TriUF
8551 3497 TriUF
8557 3504 TriUF
8560 3495 TriUF
8595 3494 TriUF
8601 3498 TriUF
8601 3499 TriUF
8604 3505 TriUF
8620 3495 TriUF
8623 3496 TriUF
8630 3503 TriUF
8664 3495 TriUF
8677 3499 TriUF
8699 3495 TriUF
8699 3496 TriUF
8702 3503 TriUF
8718 3495 TriUF
8734 3495 TriUF
8734 3497 TriUF
8734 3838 TriUF
8743 3501 TriUF
8746 3496 TriUF
8753 3501 TriUF
8765 3495 TriUF
8778 3497 TriUF
8781 3497 TriUF
8781 3497 TriUF
8787 3497 TriUF
8790 3497 TriUF
8793 3526 TriUF
8793 3616 TriUF
8803 3495 TriUF
8812 3607 TriUF
8834 3631 TriUF
8850 3495 TriUF
8856 3495 TriUF
8875 3495 TriUF
8878 3495 TriUF
8901 3497 TriUF
8910 3502 TriUF
8913 3497 TriUF
8923 3496 TriUF
8935 3500 TriUF
8945 3498 TriUF
8970 3593 TriUF
8976 3500 TriUF
8992 3625 TriUF
8995 3497 TriUF
9008 3496 TriUF
9017 3496 TriUF
9023 3499 TriUF
9036 3495 TriUF
9039 3519 TriUF
9042 3516 TriUF
9061 3497 TriUF
9074 3525 TriUF
9083 3496 TriUF
9086 3495 TriUF
9086 3497 TriUF
9093 3496 TriUF
9105 3613 TriUF
9121 3496 TriUF
9130 3496 TriUF
9171 3501 TriUF
9175 3498 TriUF
9178 3495 TriUF
9178 3501 TriUF
9184 3495 TriUF
9184 3496 TriUF
9187 3496 TriUF
9203 3497 TriUF
9222 3495 TriUF
9253 3497 TriUF
9278 3495 TriUF
9285 3495 TriUF
9291 3494 TriUF
9313 3494 TriUF
9313 3639 TriUF
9313 3923 TriUF
9332 3495 TriUF
9338 3495 TriUF
9348 3496 TriUF
9354 3496 TriUF
9354 3496 TriUF
9357 3497 TriUF
9357 4597 TriUF
9364 3498 TriUF
9408 3500 TriUF
9414 3497 TriUF
9414 3502 TriUF
9417 3501 TriUF
9426 3495 TriUF
9430 3502 TriUF
9436 3496 TriUF
9439 3495 TriUF
9445 3552 TriUF
9445 3493 TriUF
9461 3497 TriUF
9461 5296 TriUF
9467 3521 TriUF
9477 3808 TriUF
9483 3512 TriUF
9502 3498 TriUF
9505 3617 TriUF
9524 3495 TriUF
9530 3498 TriUF
9537 3852 TriUF
9543 3499 TriUF
9549 3496 TriUF
9575 3505 TriUF
9578 3517 TriUF
9590 3496 TriUF
9609 3496 TriUF
9609 3513 TriUF
9638 3499 TriUF
9663 3497 TriUF
9675 3555 TriUF
9685 3496 TriUF
9685 3501 TriUF
9685 3502 TriUF
9726 3631 TriUF
9738 3507 TriUF
9748 3529 TriUF
9763 3508 TriUF
9767 3513 TriUF
9789 3494 TriUF
9789 3497 TriUF
9792 5428 TriUF
9817 3503 TriUF
9817 3520 TriUF
9852 3495 TriUF
9858 3524 TriUF
9858 3610 TriUF
9864 3495 TriUF
9867 3496 TriUF
9886 3499 TriUF
9905 3497 TriUF
9912 3498 TriUF
9918 3505 TriUF
9934 3495 TriUF
9940 3504 TriUF
9943 3517 TriUF
9943 3495 TriUF
9952 3494 TriUF
9956 3687 TriUF
9971 3495 TriUF
9984 3495 TriUF
9984 3613 TriUF
10031 3494 TriUF
10031 3496 TriUF
10050 3509 TriUF
10056 3525 TriUF
10094 3852 TriUF
10110 3499 TriUF
10129 3536 TriUF
10160 3498 TriUF
10163 3512 TriUF
10211 3523 TriUF
10220 3612 TriUF
10261 3495 TriUF
10289 3494 TriUF
10356 3496 TriUF
10359 3497 TriUF
10362 3502 TriUF
10381 3502 TriUF
10406 3494 TriUF
10406 4239 TriUF
10412 3498 TriUF
10444 3495 TriUF
10491 3495 TriUF
10497 3495 TriUF
10504 3495 TriUF
10504 3498 TriUF
10513 3495 TriUF
10519 3497 TriUF
10526 3504 TriUF
10538 3495 TriUF
10538 3608 TriUF
10548 3499 TriUF
10548 3730 TriUF
10551 3495 TriUF
10557 3497 TriUF
10563 3514 TriUF
10563 3967 TriUF
10573 3498 TriUF
10579 3500 TriUF
10582 3503 TriUF
10589 3495 TriUF
10592 3495 TriUF
10595 3495 TriUF
10601 3495 TriUF
10633 3512 TriUF
10642 3495 TriUF
10649 3495 TriUF
10652 3498 TriUF
10652 3519 TriUF
10655 3495 TriUF
10658 3495 TriUF
10661 3496 TriUF
10661 3614 TriUF
10667 3495 TriUF
10667 3498 TriUF
10677 3495 TriUF
10689 3497 TriUF
10689 3501 TriUF
10696 3493 TriUF
10699 3495 TriUF
10702 3495 TriUF
10702 3495 TriUF
10702 3502 TriUF
10705 3495 TriUF
10708 3496 TriUF
10721 3495 TriUF
10721 3506 TriUF
10727 3502 TriUF
10734 3495 TriUF
10743 3495 TriUF
10743 3498 TriUF
10746 3495 TriUF
10756 3495 TriUF
10759 3508 TriUF
10768 3495 TriUF
10771 3495 TriUF
10778 3495 TriUF
10781 3495 TriUF
10784 3497 TriUF
10797 3495 TriUF
10800 3495 TriUF
10806 3495 TriUF
10809 3495 TriUF
10837 3495 TriUF
10841 3495 TriUF
10841 3508 TriUF
10869 3494 TriUF
10872 3502 TriUF
10882 3495 TriUF
10891 3495 TriUF
10891 3494 TriUF
10897 3494 TriUF
10900 3496 TriUF
10919 3495 TriUF
10923 3495 TriUF
10932 3494 TriUF
10932 3496 TriUF
10941 3495 TriUF
10941 3495 TriUF
10957 3498 TriUF
10963 3496 TriUF
10967 3495 TriUF
10973 3504 TriUF
10976 3495 TriUF
10979 3494 TriUF
10979 3495 TriUF
10982 3504 TriUF
10985 3495 TriUF
10992 3601 TriUF
11008 3497 TriUF
11011 3495 TriUF
11017 3494 TriUF
11017 3495 TriUF
11017 3497 TriUF
11036 3500 TriUF
11036 3551 TriUF
11045 3503 TriUF
11045 3494 TriUF
11048 3495 TriUF
11048 3495 TriUF
11058 3521 TriUF
11061 3495 TriUF
11071 3497 TriUF
11077 3503 TriUF
11086 3503 TriUF
11089 3496 TriUF
11099 3497 TriUF
11102 3495 TriUF
11111 3496 TriUF
11127 3657 TriUF
11137 3496 TriUF
11152 3495 TriUF
11152 3498 TriUF
11156 3495 TriUF
11156 3495 TriUF
11156 3500 TriUF
11168 3501 TriUF
11178 3502 TriUF
11181 3498 TriUF
11190 3495 TriUF
11190 3496 TriUF
11197 3495 TriUF
11206 3495 TriUF
11209 3495 TriUF
11212 3499 TriUF
11225 3498 TriUF
11278 3495 TriUF
11278 3499 TriUF
11282 3494 TriUF
11285 3584 TriUF
11291 3495 TriUF
11304 3494 TriUF
11307 3495 TriUF
11313 3495 TriUF
11335 3495 TriUF
11335 3497 TriUF
11338 3493 TriUF
11341 3495 TriUF
11345 3498 TriUF
11348 3495 TriUF
11348 3495 TriUF
11360 3495 TriUF
11370 3495 TriUF
11395 3496 TriUF
11414 3499 TriUF
11426 3502 TriUF
11452 3522 TriUF
11471 3497 TriUF
11508 3498 TriUF
11518 3499 TriUF
11518 4355 TriUF
11521 3495 TriUF
11524 3496 TriUF
11527 3736 TriUF
11537 3497 TriUF
11537 3590 TriUF
11537 3730 TriUF
11600 3495 TriUF
11606 3495 TriUF
11606 3495 TriUF
11612 3495 TriUF
11612 3495 TriUF
11619 3496 TriUF
11625 3495 TriUF
11634 3499 TriUF
11637 3497 TriUF
11641 3495 TriUF
11659 3495 TriUF
11669 3495 TriUF
11710 3504 TriUF
11713 3496 TriUF
11738 3495 TriUF
11738 3616 TriUF
11741 3496 TriUF
11745 3520 TriUF
11751 3509 TriUF
11754 3497 TriUF
11763 3496 TriUF
11763 3518 TriUF
11773 3496 TriUF
11782 3511 TriUF
11785 3497 TriUF
11792 3499 TriUF
11795 3496 TriUF
11795 3496 TriUF
11798 3494 TriUF
11798 3518 TriUF
11804 3502 TriUF
11811 3506 TriUF
11817 3496 TriUF
11830 3567 TriUF
11833 3501 TriUF
11852 3495 TriUF
11852 3495 TriUF
11852 3495 TriUF
11880 3496 TriUF
11908 3495 TriUF
11908 3495 TriUF
11911 3495 TriUF
11918 3495 TriUF
11924 3493 TriUF
11933 3495 TriUF
11940 3495 TriUF
11940 3549 TriUF
11956 3495 TriUF
11984 3502 TriUF
12025 3495 TriUF
12050 3501 TriUF
12050 3500 TriUF
12053 3495 TriUF
12063 3496 TriUF
12063 3515 TriUF
12063 3594 TriUF
12082 3495 TriUF
12100 3495 TriUF
12104 3495 TriUF
12135 3496 TriUF
12148 3495 TriUF
12157 3495 TriUF
12163 3525 TriUF
12173 3499 TriUF
12173 3524 TriUF
12176 3495 TriUF
12176 3495 TriUF
12189 3495 TriUF
12192 3495 TriUF
12217 3497 TriUF
12223 3498 TriUF
12226 3497 TriUF
12230 3495 TriUF
12233 3497 TriUF
12255 3495 TriUF
12255 3500 TriUF
12261 3495 TriUF
12267 3495 TriUF
12277 3493 TriUF
12289 3497 TriUF
12315 3495 TriUF
12324 3497 TriUF
12340 3532 TriUF
12346 3495 TriUF
12346 3495 TriUF
12356 3760 TriUF
12365 3511 TriUF
12368 3495 TriUF
12403 3495 TriUF
12415 3494 TriUF
12422 3495 TriUF
12434 3495 TriUF
12459 3495 TriUF
12466 3504 TriUF
12469 3726 TriUF
12478 3598 TriUF
12485 3634 TriUF
12516 3563 TriUF
12532 3496 TriUF
12563 3498 TriUF
12582 3496 TriUF
12585 3602 TriUF
12598 3498 TriUF
12601 3497 TriUF
12620 3495 TriUF
12626 3499 TriUF
12636 3495 TriUF
12639 3512 TriUF
12642 3495 TriUF
12645 3495 TriUF
12645 3498 TriUF
12648 3500 TriUF
12661 3637 TriUF
12664 3527 TriUF
12680 3496 TriUF
12683 3609 TriUF
12696 3495 TriUF
12699 3495 TriUF
12702 3495 TriUF
12711 3584 TriUF
12727 3495 TriUF
12749 3500 TriUF
12784 3493 TriUF
12784 3497 TriUF
12815 3496 TriUF
12831 3494 TriUF
12841 3496 TriUF
12850 3498 TriUF
12853 3494 TriUF
12869 3496 TriUF
12878 3501 TriUF
% End plot #1
1.000 UL
LTb
LCb setrgbcolor
1200 7049 N
0 -3556 V
12598 0 V
0 3556 V
-12598 0 V
Z stroke
1.000 UP
1.000 UL
LTb
LCb setrgbcolor
stroke
grestore
end
showpage
%%Page: 2 2
gnudict begin
gsave
doclip
50 50 translate
0.050 0.050 scale
0 setgray
newpath
(Times) findfont 200 scalefont setfont
BackgroundColor 0 lt 3 1 roll 0 lt exch 0 lt or or not {BackgroundColor C 1.000 0 0 14400.00 10080.00 BoxColFill} if
1.000 UL
LTb
LCb setrgbcolor
1.000 UL
LTa
LCa setrgbcolor
600 3493 M
12598 0 V
stroke
LTb
LCb setrgbcolor
600 3493 M
63 0 V
12535 0 R
-63 0 V
stroke
480 3493 M
[ [(Times) 200.0 0.0 true true 0 ( 0)]
] -66.7 MRshow
1.000 UL
LTb
LCb setrgbcolor
1.000 UL
LTa
LCa setrgbcolor
600 4086 M
12598 0 V
stroke
LTb
LCb setrgbcolor
600 4086 M
63 0 V
12535 0 R
-63 0 V
stroke
480 4086 M
[ [(Times) 200.0 0.0 true true 0 ( 500000)]
] -66.7 MRshow
1.000 UL
LTb
LCb setrgbcolor
1.000 UL
LTa
LCa setrgbcolor
600 4678 M
12598 0 V
stroke
LTb
LCb setrgbcolor
600 4678 M
63 0 V
12535 0 R
-63 0 V
stroke
480 4678 M
[ [(Times) 200.0 0.0 true true 0 ( 1e+06)]
] -66.7 MRshow
1.000 UL
LTb
LCb setrgbcolor
1.000 UL
LTa
LCa setrgbcolor
600 5271 M
12598 0 V
stroke
LTb
LCb setrgbcolor
600 5271 M
63 0 V
12535 0 R
-63 0 V
stroke
480 5271 M
[ [(Times) 200.0 0.0 true true 0 ( 1.5e+06)]
] -66.7 MRshow
1.000 UL
LTb
LCb setrgbcolor
1.000 UL
LTa
LCa setrgbcolor
600 5864 M
12598 0 V
stroke
LTb
LCb setrgbcolor
600 5864 M
63 0 V
12535 0 R
-63 0 V
stroke
480 5864 M
[ [(Times) 200.0 0.0 true true 0 ( 2e+06)]
] -66.7 MRshow
1.000 UL
LTb
LCb setrgbcolor
1.000 UL
LTa
LCa setrgbcolor
600 6456 M
12598 0 V
stroke
LTb
LCb setrgbcolor
600 6456 M
63 0 V
12535 0 R
-63 0 V
stroke
480 6456 M
[ [(Times) 200.0 0.0 true true 0 ( 2.5e+06)]
] -66.7 MRshow
1.000 UL
LTb
LCb setrgbcolor
1.000 UL
LTa
LCa setrgbcolor
600 7049 M
12598 0 V
stroke
LTb
LCb setrgbcolor
600 7049 M
63 0 V
12535 0 R
-63 0 V
stroke
480 7049 M
[ [(Times) 200.0 0.0 true true 0 ( 3e+06)]
] -66.7 MRshow
1.000 UL
LTb
LCb setrgbcolor
1.000 UL
LTa
LCa setrgbcolor
600 3493 M
0 3556 V
stroke
LTb
LCb setrgbcolor
600 3493 M
0 63 V
0 3493 R
0 -63 V
stroke
600 3373 M
currentpoint gsave translate -45 rotate 0 0 moveto
[ [(Times) 200.0 0.0 true true 0 ( 0)]
] -66.7 MLshow
grestore
1.000 UL
LTb
LCb setrgbcolor
1.000 UL
LTa
LCa setrgbcolor
2000 3493 M
0 3556 V
stroke
LTb
LCb setrgbcolor
2000 3493 M
0 63 V
0 3493 R
0 -63 V
stroke
2000 3373 M
currentpoint gsave translate -45 rotate 0 0 moveto
[ [(Times) 200.0 0.0 true true 0 ( 200)]
] -66.7 MLshow
grestore
1.000 UL
LTb
LCb setrgbcolor
1.000 UL
LTa
LCa setrgbcolor
3400 3493 M
0 3556 V
stroke
LTb
LCb setrgbcolor
3400 3493 M
0 63 V
0 3493 R
0 -63 V
stroke
3400 3373 M
currentpoint gsave translate -45 rotate 0 0 moveto
[ [(Times) 200.0 0.0 true true 0 ( 400)]
] -66.7 MLshow
grestore
1.000 UL
LTb
LCb setrgbcolor
1.000 UL
LTa
LCa setrgbcolor
4799 3493 M
0 3556 V
stroke
LTb
LCb setrgbcolor
4799 3493 M
0 63 V
0 3493 R
0 -63 V
stroke
4799 3373 M
currentpoint gsave translate -45 rotate 0 0 moveto
[ [(Times) 200.0 0.0 true true 0 ( 600)]
] -66.7 MLshow
grestore
1.000 UL
LTb
LCb setrgbcolor
1.000 UL
LTa
LCa setrgbcolor
6199 3493 M
0 3556 V
stroke
LTb
LCb setrgbcolor
6199 3493 M
0 63 V
0 3493 R
0 -63 V
stroke
6199 3373 M
currentpoint gsave translate -45 rotate 0 0 moveto
[ [(Times) 200.0 0.0 true true 0 ( 800)]
] -66.7 MLshow
grestore
1.000 UL
LTb
LCb setrgbcolor
1.000 UL
LTa
LCa setrgbcolor
7599 3493 M
0 3556 V
stroke
LTb
LCb setrgbcolor
7599 3493 M
0 63 V
0 3493 R
0 -63 V
stroke
7599 3373 M
currentpoint gsave translate -45 rotate 0 0 moveto
[ [(Times) 200.0 0.0 true true 0 ( 1000)]
] -66.7 MLshow
grestore
1.000 UL
LTb
LCb setrgbcolor
1.000 UL
LTa
LCa setrgbcolor
8999 3493 M
0 3556 V
stroke
LTb
LCb setrgbcolor
8999 3493 M
0 63 V
0 3493 R
0 -63 V
stroke
8999 3373 M
currentpoint gsave translate -45 rotate 0 0 moveto
[ [(Times) 200.0 0.0 true true 0 ( 1200)]
] -66.7 MLshow
grestore
1.000 UL
LTb
LCb setrgbcolor
1.000 UL
LTa
LCa setrgbcolor
10398 3493 M
0 3556 V
stroke
LTb
LCb setrgbcolor
10398 3493 M
0 63 V
0 3493 R
0 -63 V
stroke
10398 3373 M
currentpoint gsave translate -45 rotate 0 0 moveto
[ [(Times) 200.0 0.0 true true 0 ( 1400)]
] -66.7 MLshow
grestore
1.000 UL
LTb
LCb setrgbcolor
1.000 UL
LTa
LCa setrgbcolor
11798 3493 M
0 3556 V
stroke
LTb
LCb setrgbcolor
11798 3493 M
0 63 V
0 3493 R
0 -63 V
stroke
11798 3373 M
currentpoint gsave translate -45 rotate 0 0 moveto
[ [(Times) 200.0 0.0 true true 0 ( 1600)]
] -66.7 MLshow
grestore
1.000 UL
LTb
LCb setrgbcolor
1.000 UL
LTa
LCa setrgbcolor
13198 3493 M
0 3556 V
stroke
LTb
LCb setrgbcolor
13198 3493 M
0 63 V
0 3493 R
0 -63 V
stroke
13198 3373 M
currentpoint gsave translate -45 rotate 0 0 moveto
[ [(Times) 200.0 0.0 true true 0 ( 1800)]
] -66.7 MLshow
grestore
1.000 UL
LTb
LCb setrgbcolor
1.000 UL
LTb
LCb setrgbcolor
600 7049 N
0 -3556 V
12598 0 V
0 3556 V
600 7049 L
Z stroke
LCb setrgbcolor
-700 5271 M
currentpoint gsave translate -270 rotate 0 0 moveto
[ [(Times) 200.0 0.0 true true 0 (Flow size [bytes])]
] -66.7 MCshow
grestore
LTb
LCb setrgbcolor
6899 2769 M
[ [(Times) 200.0 0.0 true true 0 (Duration [sec])]
] -66.7 MCshow
LTb
6899 7349 M
[ [(Times) 200.0 0.0 true true 0 (src port 80, repeating connections sorted by duration)]
] -66.7 MCshow
1.000 UP
1.000 UL
LTb
LCb setrgbcolor
1.000 UL
LT8
LC8 setrgbcolor
6508 63 N
782 0 V
-782 0 V
Z stroke
% Begin plot #1
1.000 UP
1.000 UL
LT8
1.00 0.00 0.00 C 600 3494 TriUF
600 3493 TriUF
600 3493 TriUF
600 3494 TriUF
600 3493 TriUF
600 3493 TriUF
600 3493 TriUF
600 3493 TriUF
600 3493 TriUF
600 3493 TriUF
600 3495 TriUF
600 3493 TriUF
600 3495 TriUF
600 3495 TriUF
600 3495 TriUF
602 3493 TriUF
602 3493 TriUF
602 3493 TriUF
603 3495 TriUF
603 3495 TriUF
603 3494 TriUF
603 3493 TriUF
604 3493 TriUF
604 3493 TriUF
604 3494 TriUF
604 3494 TriUF
604 3495 TriUF
604 3495 TriUF
604 3495 TriUF
604 3493 TriUF
604 3495 TriUF
604 3494 TriUF
604 3493 TriUF
604 3496 TriUF
604 3494 TriUF
604 3495 TriUF
604 3497 TriUF
604 3497 TriUF
604 3494 TriUF
604 3495 TriUF
604 3494 TriUF
604 3498 TriUF
604 3495 TriUF
604 3493 TriUF
604 3493 TriUF
604 3496 TriUF
604 3493 TriUF
604 3493 TriUF
604 3495 TriUF
604 3495 TriUF
604 3495 TriUF
604 3494 TriUF
605 3498 TriUF
605 3493 TriUF
605 3493 TriUF
605 3493 TriUF
605 3494 TriUF
605 3493 TriUF
605 3493 TriUF
605 3493 TriUF
605 3494 TriUF
605 3493 TriUF
605 3493 TriUF
605 3493 TriUF
605 3493 TriUF
605 3500 TriUF
605 3493 TriUF
605 3493 TriUF
605 3495 TriUF
605 3493 TriUF
605 3493 TriUF
605 3493 TriUF
605 3493 TriUF
605 3493 TriUF
605 3493 TriUF
605 3496 TriUF
605 3495 TriUF
605 3493 TriUF
605 3495 TriUF
605 3497 TriUF
605 3495 TriUF
605 3493 TriUF
605 3495 TriUF
605 3493 TriUF
605 3493 TriUF
605 3493 TriUF
605 3493 TriUF
605 3498 TriUF
605 3505 TriUF
605 3493 TriUF
605 3493 TriUF
605 3493 TriUF
605 3493 TriUF
605 3493 TriUF
605 3493 TriUF
605 3493 TriUF
605 3495 TriUF
605 3495 TriUF
605 3497 TriUF
605 3493 TriUF
605 3494 TriUF
605 3493 TriUF
605 3493 TriUF
605 3493 TriUF
605 3493 TriUF
605 3493 TriUF
605 3493 TriUF
605 3493 TriUF
605 3493 TriUF
605 3493 TriUF
605 3493 TriUF
605 3494 TriUF
605 3496 TriUF
605 3493 TriUF
605 3493 TriUF
605 3497 TriUF
605 3496 TriUF
605 3495 TriUF
605 3493 TriUF
605 3493 TriUF
605 3493 TriUF
605 3493 TriUF
605 3496 TriUF
605 3493 TriUF
605 3493 TriUF
605 3493 TriUF
605 3493 TriUF
605 3493 TriUF
605 3493 TriUF
605 3493 TriUF
605 3493 TriUF
605 3496 TriUF
605 3493 TriUF
605 3493 TriUF
605 3493 TriUF
605 3497 TriUF
605 3493 TriUF
605 3493 TriUF
605 3496 TriUF
605 3493 TriUF
605 3496 TriUF
605 3497 TriUF
605 3493 TriUF
605 3494 TriUF
605 3493 TriUF
605 3496 TriUF
605 3493 TriUF
605 3495 TriUF
605 3493 TriUF
605 3493 TriUF
605 3496 TriUF
605 3496 TriUF
605 3493 TriUF
605 3493 TriUF
606 3493 TriUF
606 3493 TriUF
606 3501 TriUF
606 3493 TriUF
606 3493 TriUF
606 3493 TriUF
606 3493 TriUF
606 3493 TriUF
606 3495 TriUF
606 3493 TriUF
606 3493 TriUF
606 3493 TriUF
606 3493 TriUF
606 3493 TriUF
606 3498 TriUF
606 3498 TriUF
606 3493 TriUF
606 3495 TriUF
606 3495 TriUF
606 3493 TriUF
606 3495 TriUF
606 3502 TriUF
606 3496 TriUF
606 3493 TriUF
606 3493 TriUF
606 3493 TriUF
606 3494 TriUF
606 3496 TriUF
606 3493 TriUF
606 3493 TriUF
606 3493 TriUF
606 3493 TriUF
606 3493 TriUF
606 3494 TriUF
606 3495 TriUF
606 3493 TriUF
606 3493 TriUF
606 3495 TriUF
606 3493 TriUF
606 3493 TriUF
606 3496 TriUF
606 3497 TriUF
606 3493 TriUF
606 3493 TriUF
606 3493 TriUF
606 3493 TriUF
606 3493 TriUF
606 3495 TriUF
606 3493 TriUF
606 3493 TriUF
606 3493 TriUF
606 3493 TriUF
606 3493 TriUF
606 3493 TriUF
606 3493 TriUF
606 3493 TriUF
606 3493 TriUF
606 3498 TriUF
606 3494 TriUF
606 3493 TriUF
606 3493 TriUF
606 3493 TriUF
606 3493 TriUF
606 3501 TriUF
606 3495 TriUF
606 3493 TriUF
606 3500 TriUF
606 3494 TriUF
606 3494 TriUF
606 3496 TriUF
606 3493 TriUF
606 3493 TriUF
606 3493 TriUF
606 3493 TriUF
606 3493 TriUF
606 3493 TriUF
606 3493 TriUF
606 3493 TriUF
606 3493 TriUF
606 3493 TriUF
606 3499 TriUF
606 3496 TriUF
606 3493 TriUF
606 3493 TriUF
606 3493 TriUF
606 3494 TriUF
606 3493 TriUF
606 3496 TriUF
606 3493 TriUF
606 3501 TriUF
606 3493 TriUF
606 3493 TriUF
606 3493 TriUF
606 3493 TriUF
606 3493 TriUF
606 3493 TriUF
606 3493 TriUF
606 3493 TriUF
606 3501 TriUF
606 3493 TriUF
606 3493 TriUF
606 3493 TriUF
606 3493 TriUF
606 3498 TriUF
606 3493 TriUF
606 3493 TriUF
606 3493 TriUF
606 3499 TriUF
606 3496 TriUF
606 3493 TriUF
606 3495 TriUF
606 3496 TriUF
606 3498 TriUF
606 3493 TriUF
606 3495 TriUF
606 3496 TriUF
606 3493 TriUF
606 3493 TriUF
606 3493 TriUF
606 3493 TriUF
606 3495 TriUF
606 3493 TriUF
607 3493 TriUF
607 3493 TriUF
607 3493 TriUF
607 3494 TriUF
607 3493 TriUF
607 3493 TriUF
607 3493 TriUF
607 3493 TriUF
607 3493 TriUF
607 3493 TriUF
607 3493 TriUF
607 3493 TriUF
607 3493 TriUF
607 3493 TriUF
607 3493 TriUF
607 3497 TriUF
607 3493 TriUF
607 3497 TriUF
607 3493 TriUF
607 3493 TriUF
607 3493 TriUF
607 3493 TriUF
607 3493 TriUF
607 3505 TriUF
607 3505 TriUF
607 3493 TriUF
607 3493 TriUF
607 3493 TriUF
607 3493 TriUF
607 3495 TriUF
607 3493 TriUF
607 3498 TriUF
607 3493 TriUF
607 3493 TriUF
607 3493 TriUF
607 3499 TriUF
607 3494 TriUF
607 3493 TriUF
607 3493 TriUF
607 3498 TriUF
607 3495 TriUF
607 3493 TriUF
607 3496 TriUF
607 3493 TriUF
607 3494 TriUF
607 3493 TriUF
607 3493 TriUF
607 3496 TriUF
607 3496 TriUF
607 3493 TriUF
607 3496 TriUF
607 3493 TriUF
607 3496 TriUF
607 3493 TriUF
607 3493 TriUF
607 3493 TriUF
607 3493 TriUF
607 3493 TriUF
607 3493 TriUF
607 3493 TriUF
607 3493 TriUF
607 3493 TriUF
607 3493 TriUF
607 3493 TriUF
607 3494 TriUF
607 3493 TriUF
607 3505 TriUF
607 3494 TriUF
607 3496 TriUF
607 3493 TriUF
607 3493 TriUF
607 3493 TriUF
607 3498 TriUF
607 3505 TriUF
607 3498 TriUF
607 3493 TriUF
607 3493 TriUF
607 3493 TriUF
607 3498 TriUF
607 3496 TriUF
607 3505 TriUF
607 3493 TriUF
607 3493 TriUF
607 3496 TriUF
607 3503 TriUF
607 3493 TriUF
607 3494 TriUF
607 3493 TriUF
607 3496 TriUF
607 3496 TriUF
607 3493 TriUF
607 3507 TriUF
607 3493 TriUF
607 3493 TriUF
607 3493 TriUF
607 3495 TriUF
607 3496 TriUF
607 3493 TriUF
607 3493 TriUF
607 3493 TriUF
607 3493 TriUF
607 3493 TriUF
607 3497 TriUF
607 3494 TriUF
607 3493 TriUF
607 3493 TriUF
607 3493 TriUF
607 3496 TriUF
607 3494 TriUF
607 3493 TriUF
607 3495 TriUF
607 3493 TriUF
607 3493 TriUF
607 3493 TriUF
607 3495 TriUF
607 3495 TriUF
607 3493 TriUF
607 3493 TriUF
607 3493 TriUF
607 3497 TriUF
607 3493 TriUF
607 3494 TriUF
607 3494 TriUF
607 3496 TriUF
607 3493 TriUF
607 3493 TriUF
607 3496 TriUF
607 3493 TriUF
607 3496 TriUF
607 3493 TriUF
607 3493 TriUF
607 3496 TriUF
607 3493 TriUF
607 3496 TriUF
608 3494 TriUF
608 3493 TriUF
608 3493 TriUF
608 3493 TriUF
608 3502 TriUF
608 3493 TriUF
608 3500 TriUF
608 3493 TriUF
608 3494 TriUF
608 3493 TriUF
608 3493 TriUF
608 3493 TriUF
608 3493 TriUF
608 3494 TriUF
608 3495 TriUF
608 3496 TriUF
608 3495 TriUF
608 3495 TriUF
608 3493 TriUF
608 3493 TriUF
608 3493 TriUF
608 3493 TriUF
608 3493 TriUF
608 3496 TriUF
608 3497 TriUF
608 3493 TriUF
608 3493 TriUF
608 3498 TriUF
608 3496 TriUF
608 3493 TriUF
608 3496 TriUF
608 3493 TriUF
608 3493 TriUF
608 3493 TriUF
608 3497 TriUF
608 3493 TriUF
608 3493 TriUF
608 3493 TriUF
608 3496 TriUF
608 3493 TriUF
608 3493 TriUF
608 3494 TriUF
608 3493 TriUF
608 3493 TriUF
608 3493 TriUF
608 3493 TriUF
608 3493 TriUF
608 3493 TriUF
608 3494 TriUF
608 3499 TriUF
608 3493 TriUF
608 3493 TriUF
608 3493 TriUF
608 3493 TriUF
608 3493 TriUF
608 3493 TriUF
608 3493 TriUF
608 3493 TriUF
608 3495 TriUF
608 3495 TriUF
608 3493 TriUF
608 3493 TriUF
608 3493 TriUF
608 3493 TriUF
608 3493 TriUF
608 3497 TriUF
608 3493 TriUF
608 3493 TriUF
608 3497 TriUF
608 3493 TriUF
608 3493 TriUF
608 3496 TriUF
608 3493 TriUF
608 3493 TriUF
608 3495 TriUF
608 3493 TriUF
608 3493 TriUF
608 3496 TriUF
608 3495 TriUF
608 3498 TriUF
608 3493 TriUF
608 3493 TriUF
608 3493 TriUF
608 3493 TriUF
608 3497 TriUF
608 3498 TriUF
608 3493 TriUF
608 3496 TriUF
608 3493 TriUF
608 3496 TriUF
608 3494 TriUF
608 3505 TriUF
608 3502 TriUF
608 3493 TriUF
608 3494 TriUF
608 3493 TriUF
608 3493 TriUF
608 3495 TriUF
608 3494 TriUF
608 3493 TriUF
608 3500 TriUF
608 3493 TriUF
608 3493 TriUF
608 3496 TriUF
608 3493 TriUF
609 3493 TriUF
609 3493 TriUF
609 3493 TriUF
609 3493 TriUF
609 3496 TriUF
609 3493 TriUF
609 3493 TriUF
609 3493 TriUF
609 3496 TriUF
609 3493 TriUF
609 3495 TriUF
609 3493 TriUF
609 3498 TriUF
609 3493 TriUF
609 3493 TriUF
609 3503 TriUF
609 3495 TriUF
609 3495 TriUF
609 3502 TriUF
609 3493 TriUF
609 3493 TriUF
609 3496 TriUF
609 3493 TriUF
609 3496 TriUF
609 3493 TriUF
609 3494 TriUF
609 3502 TriUF
609 3494 TriUF
609 3493 TriUF
609 3493 TriUF
609 3493 TriUF
609 3498 TriUF
609 3493 TriUF
609 3493 TriUF
609 3498 TriUF
609 3496 TriUF
609 3493 TriUF
609 3493 TriUF
609 3496 TriUF
609 3495 TriUF
609 3493 TriUF
609 3493 TriUF
609 3493 TriUF
609 3506 TriUF
609 3498 TriUF
609 3500 TriUF
609 3493 TriUF
609 3493 TriUF
609 3495 TriUF
609 3497 TriUF
609 3493 TriUF
609 3494 TriUF
609 3497 TriUF
609 3493 TriUF
609 3496 TriUF
609 3494 TriUF
609 3494 TriUF
609 3493 TriUF
609 3496 TriUF
609 3493 TriUF
609 3493 TriUF
609 3493 TriUF
609 3495 TriUF
609 3496 TriUF
609 3493 TriUF
609 3498 TriUF
609 3496 TriUF
609 3493 TriUF
609 3493 TriUF
610 3493 TriUF
610 3493 TriUF
610 3493 TriUF
610 3493 TriUF
610 3494 TriUF
610 3496 TriUF
610 3493 TriUF
610 3495 TriUF
610 3495 TriUF
610 3493 TriUF
610 3494 TriUF
610 3493 TriUF
610 3493 TriUF
610 3493 TriUF
610 3493 TriUF
610 3493 TriUF
610 3493 TriUF
610 3496 TriUF
610 3493 TriUF
610 3493 TriUF
610 3501 TriUF
610 3493 TriUF
610 3497 TriUF
610 3493 TriUF
610 3493 TriUF
610 3493 TriUF
610 3493 TriUF
610 3493 TriUF
610 3500 TriUF
610 3496 TriUF
610 3498 TriUF
610 3506 TriUF
610 3497 TriUF
610 3493 TriUF
610 3493 TriUF
610 3493 TriUF
610 3493 TriUF
610 3493 TriUF
610 3493 TriUF
610 3493 TriUF
610 3496 TriUF
610 3493 TriUF
611 3498 TriUF
611 3500 TriUF
611 3493 TriUF
611 3493 TriUF
611 3494 TriUF
611 3493 TriUF
611 3496 TriUF
611 3494 TriUF
611 3496 TriUF
611 3499 TriUF
611 3494 TriUF
611 3495 TriUF
611 3494 TriUF
611 3497 TriUF
611 3493 TriUF
611 3495 TriUF
611 3493 TriUF
611 3495 TriUF
611 3494 TriUF
611 3494 TriUF
611 3495 TriUF
611 3493 TriUF
611 3493 TriUF
611 3493 TriUF
611 3493 TriUF
611 3509 TriUF
611 3495 TriUF
611 3496 TriUF
611 3495 TriUF
611 3495 TriUF
611 3494 TriUF
611 3506 TriUF
611 3493 TriUF
611 3496 TriUF
611 3493 TriUF
611 3501 TriUF
611 3495 TriUF
611 3494 TriUF
611 3493 TriUF
611 3494 TriUF
611 3501 TriUF
611 3497 TriUF
611 3493 TriUF
611 3498 TriUF
611 3494 TriUF
611 3493 TriUF
611 3495 TriUF
611 3506 TriUF
611 3495 TriUF
611 3495 TriUF
612 3493 TriUF
612 3494 TriUF
612 3493 TriUF
612 3506 TriUF
612 3493 TriUF
612 3494 TriUF
612 3495 TriUF
612 3496 TriUF
612 3498 TriUF
612 3493 TriUF
612 3495 TriUF
612 3495 TriUF
612 3494 TriUF
612 3497 TriUF
612 3493 TriUF
612 3493 TriUF
612 3493 TriUF
612 3506 TriUF
612 3498 TriUF
612 3509 TriUF
612 3503 TriUF
612 3493 TriUF
612 3498 TriUF
612 3501 TriUF
612 3496 TriUF
612 3495 TriUF
612 3506 TriUF
612 3493 TriUF
612 3496 TriUF
613 3493 TriUF
613 3493 TriUF
613 3501 TriUF
613 3493 TriUF
613 3494 TriUF
613 3495 TriUF
613 3508 TriUF
613 3494 TriUF
613 3494 TriUF
613 3495 TriUF
613 3498 TriUF
613 3493 TriUF
613 3503 TriUF
613 3505 TriUF
613 3493 TriUF
613 3493 TriUF
613 3505 TriUF
613 3496 TriUF
613 3493 TriUF
613 3496 TriUF
613 3493 TriUF
613 3498 TriUF
613 3493 TriUF
613 3493 TriUF
613 3493 TriUF
613 3494 TriUF
613 3495 TriUF
613 3493 TriUF
613 3493 TriUF
613 3493 TriUF
613 3494 TriUF
613 3501 TriUF
613 3496 TriUF
613 3493 TriUF
613 3493 TriUF
614 3493 TriUF
614 3493 TriUF
614 3495 TriUF
614 3495 TriUF
614 3508 TriUF
614 3493 TriUF
614 3493 TriUF
614 3495 TriUF
614 3504 TriUF
614 3493 TriUF
614 3506 TriUF
614 3495 TriUF
614 3493 TriUF
614 3493 TriUF
614 3497 TriUF
614 3495 TriUF
614 3494 TriUF
614 3493 TriUF
614 3493 TriUF
614 3498 TriUF
614 3501 TriUF
614 3493 TriUF
614 3493 TriUF
614 3501 TriUF
614 3493 TriUF
614 3493 TriUF
614 3505 TriUF
614 3493 TriUF
614 3493 TriUF
614 3494 TriUF
614 3493 TriUF
614 3500 TriUF
614 3505 TriUF
614 3499 TriUF
615 3505 TriUF
615 3506 TriUF
615 3493 TriUF
615 3494 TriUF
615 3506 TriUF
615 3495 TriUF
615 3506 TriUF
615 3505 TriUF
615 3500 TriUF
615 3508 TriUF
615 3493 TriUF
615 3501 TriUF
615 3510 TriUF
615 3493 TriUF
615 3493 TriUF
615 3509 TriUF
615 3494 TriUF
615 3505 TriUF
615 3493 TriUF
615 3494 TriUF
615 3493 TriUF
615 3496 TriUF
615 3493 TriUF
615 3493 TriUF
615 3493 TriUF
615 3493 TriUF
615 3501 TriUF
615 3502 TriUF
616 3494 TriUF
616 3502 TriUF
616 3507 TriUF
616 3507 TriUF
616 3493 TriUF
616 3493 TriUF
616 3493 TriUF
616 3493 TriUF
616 3505 TriUF
616 3498 TriUF
616 3495 TriUF
616 3496 TriUF
616 3505 TriUF
616 3495 TriUF
616 3506 TriUF
616 3496 TriUF
616 3493 TriUF
616 3493 TriUF
616 3498 TriUF
616 3495 TriUF
616 3493 TriUF
616 3497 TriUF
616 3493 TriUF
616 3511 TriUF
616 3493 TriUF
617 3505 TriUF
617 3493 TriUF
617 3497 TriUF
617 3493 TriUF
617 3493 TriUF
617 3494 TriUF
617 3493 TriUF
617 3493 TriUF
617 3496 TriUF
617 3506 TriUF
617 3495 TriUF
617 3495 TriUF
617 3505 TriUF
617 3493 TriUF
617 3493 TriUF
617 3498 TriUF
617 3496 TriUF
617 3501 TriUF
617 3505 TriUF
617 3495 TriUF
618 3494 TriUF
618 3508 TriUF
618 3494 TriUF
618 3493 TriUF
618 3493 TriUF
618 3507 TriUF
618 3497 TriUF
618 3493 TriUF
618 3504 TriUF
618 3495 TriUF
618 3505 TriUF
618 3504 TriUF
618 3493 TriUF
618 3493 TriUF
618 3505 TriUF
618 3493 TriUF
618 3493 TriUF
618 3493 TriUF
619 3493 TriUF
619 3503 TriUF
619 3505 TriUF
619 3509 TriUF
619 3493 TriUF
619 3496 TriUF
619 3493 TriUF
619 3493 TriUF
619 3506 TriUF
619 3493 TriUF
619 3493 TriUF
619 3493 TriUF
619 3504 TriUF
619 3495 TriUF
619 3506 TriUF
619 3493 TriUF
619 3493 TriUF
619 3493 TriUF
619 3493 TriUF
619 3500 TriUF
619 3506 TriUF
619 3502 TriUF
620 3493 TriUF
620 3493 TriUF
620 3493 TriUF
620 3494 TriUF
620 3506 TriUF
620 3506 TriUF
620 3495 TriUF
620 3497 TriUF
620 3495 TriUF
620 3493 TriUF
620 3495 TriUF
620 3493 TriUF
620 3493 TriUF
620 3493 TriUF
620 3494 TriUF
620 3493 TriUF
621 3494 TriUF
621 3496 TriUF
621 3493 TriUF
621 3493 TriUF
621 3495 TriUF
621 3493 TriUF
621 3493 TriUF
621 3493 TriUF
621 3506 TriUF
621 3493 TriUF
621 3493 TriUF
621 3493 TriUF
621 3503 TriUF
621 3493 TriUF
621 3493 TriUF
621 3493 TriUF
622 3493 TriUF
622 3493 TriUF
622 3494 TriUF
622 3505 TriUF
622 3493 TriUF
622 3493 TriUF
622 3493 TriUF
622 3493 TriUF
622 3493 TriUF
623 3504 TriUF
623 3496 TriUF
623 3493 TriUF
623 3493 TriUF
623 3493 TriUF
623 3493 TriUF
623 3493 TriUF
623 3493 TriUF
623 3504 TriUF
623 3505 TriUF
623 3493 TriUF
623 3494 TriUF
623 3507 TriUF
623 3505 TriUF
623 3495 TriUF
623 3497 TriUF
623 3495 TriUF
624 3499 TriUF
624 3496 TriUF
624 3493 TriUF
624 3496 TriUF
624 3493 TriUF
624 3493 TriUF
624 3493 TriUF
624 3493 TriUF
624 3499 TriUF
624 3493 TriUF
625 3493 TriUF
625 3493 TriUF
625 3493 TriUF
625 3494 TriUF
625 3505 TriUF
625 3500 TriUF
625 3495 TriUF
625 3493 TriUF
625 3495 TriUF
625 3493 TriUF
625 3493 TriUF
626 3493 TriUF
626 3493 TriUF
626 3498 TriUF
626 3493 TriUF
626 3493 TriUF
626 3494 TriUF
626 3493 TriUF
626 3493 TriUF
627 3508 TriUF
627 3508 TriUF
627 3509 TriUF
627 3496 TriUF
627 3493 TriUF
627 3506 TriUF
627 3506 TriUF
627 3493 TriUF
627 3494 TriUF
628 3493 TriUF
628 3505 TriUF
628 3493 TriUF
628 3507 TriUF
628 3505 TriUF
628 3493 TriUF
628 3493 TriUF
628 3504 TriUF
628 3507 TriUF
628 3509 TriUF
628 3501 TriUF
628 3493 TriUF
629 3493 TriUF
629 3493 TriUF
629 3495 TriUF
629 3493 TriUF
629 3493 TriUF
629 3508 TriUF
629 3495 TriUF
630 3493 TriUF
630 3498 TriUF
630 3502 TriUF
630 3493 TriUF
630 3505 TriUF
630 3493 TriUF
630 3502 TriUF
630 3493 TriUF
630 3493 TriUF
631 3493 TriUF
631 3493 TriUF
631 3493 TriUF
631 3493 TriUF
631 3493 TriUF
631 3502 TriUF
631 3493 TriUF
631 3493 TriUF
631 3493 TriUF
631 3499 TriUF
632 3493 TriUF
632 3493 TriUF
632 3502 TriUF
632 3493 TriUF
632 3493 TriUF
632 3505 TriUF
632 3493 TriUF
632 3502 TriUF
632 3493 TriUF
633 3493 TriUF
633 3493 TriUF
633 3507 TriUF
633 3500 TriUF
633 3495 TriUF
633 3505 TriUF
633 3493 TriUF
634 3496 TriUF
634 3505 TriUF
634 3504 TriUF
634 3507 TriUF
635 3494 TriUF
635 3493 TriUF
635 3493 TriUF
635 3493 TriUF
635 3493 TriUF
635 3493 TriUF
635 3503 TriUF
636 3496 TriUF
636 3493 TriUF
637 3493 TriUF
637 3507 TriUF
637 3493 TriUF
637 3493 TriUF
637 3497 TriUF
638 3495 TriUF
638 3497 TriUF
638 3493 TriUF
638 3498 TriUF
638 3493 TriUF
639 3493 TriUF
639 3505 TriUF
639 3508 TriUF
639 3496 TriUF
639 3496 TriUF
639 3493 TriUF
640 3507 TriUF
640 3493 TriUF
640 3493 TriUF
640 3493 TriUF
640 3506 TriUF
640 3493 TriUF
641 3493 TriUF
642 3493 TriUF
642 3493 TriUF
642 3493 TriUF
642 3506 TriUF
643 3493 TriUF
643 3493 TriUF
643 3493 TriUF
643 3493 TriUF
644 3493 TriUF
644 3493 TriUF
644 3505 TriUF
644 3493 TriUF
645 3506 TriUF
645 3493 TriUF
646 3493 TriUF
646 3493 TriUF
646 3493 TriUF
646 3501 TriUF
646 3502 TriUF
646 3493 TriUF
647 3496 TriUF
647 3505 TriUF
647 3493 TriUF
647 3493 TriUF
648 3503 TriUF
649 3501 TriUF
649 3508 TriUF
650 3493 TriUF
652 3493 TriUF
652 3493 TriUF
652 3505 TriUF
653 3503 TriUF
654 3493 TriUF
655 3493 TriUF
655 3493 TriUF
656 3494 TriUF
656 3493 TriUF
656 3493 TriUF
657 3493 TriUF
657 3493 TriUF
660 3493 TriUF
660 3493 TriUF
660 3497 TriUF
662 3493 TriUF
662 3493 TriUF
662 3496 TriUF
663 3493 TriUF
664 3496 TriUF
664 3499 TriUF
664 3493 TriUF
664 3493 TriUF
665 3494 TriUF
667 3503 TriUF
667 3496 TriUF
667 3506 TriUF
667 3493 TriUF
668 3493 TriUF
668 3493 TriUF
668 3493 TriUF
668 3506 TriUF
669 3505 TriUF
669 3495 TriUF
669 3493 TriUF
670 3499 TriUF
670 3493 TriUF
671 3493 TriUF
671 3505 TriUF
672 3507 TriUF
673 3493 TriUF
674 3502 TriUF
674 3493 TriUF
677 3493 TriUF
677 3493 TriUF
678 3506 TriUF
678 3493 TriUF
681 3510 TriUF
682 3493 TriUF
684 3493 TriUF
685 3505 TriUF
688 3505 TriUF
688 3493 TriUF
689 3493 TriUF
691 3493 TriUF
691 3496 TriUF
692 3504 TriUF
694 3505 TriUF
697 3493 TriUF
698 3505 TriUF
700 3493 TriUF
702 3508 TriUF
704 3510 TriUF
707 3513 TriUF
709 3505 TriUF
710 3493 TriUF
711 3503 TriUF
711 3493 TriUF
712 3493 TriUF
712 3495 TriUF
712 3501 TriUF
714 3493 TriUF
714 3506 TriUF
715 3493 TriUF
718 3493 TriUF
719 3493 TriUF
721 3493 TriUF
721 3509 TriUF
723 3493 TriUF
724 3493 TriUF
724 3506 TriUF
725 3493 TriUF
725 3493 TriUF
728 3500 TriUF
728 3493 TriUF
729 3508 TriUF
739 3493 TriUF
739 3505 TriUF
741 3493 TriUF
742 3506 TriUF
743 3494 TriUF
743 3493 TriUF
746 3504 TriUF
752 3493 TriUF
752 3501 TriUF
762 3493 TriUF
765 3528 TriUF
777 3493 TriUF
778 3493 TriUF
784 3506 TriUF
797 3493 TriUF
800 3493 TriUF
802 3496 TriUF
807 3493 TriUF
807 3493 TriUF
810 3493 TriUF
818 3504 TriUF
833 3509 TriUF
833 3493 TriUF
839 3493 TriUF
842 3505 TriUF
847 3493 TriUF
853 3493 TriUF
862 3493 TriUF
863 3503 TriUF
864 3536 TriUF
878 3493 TriUF
923 3527 TriUF
923 3494 TriUF
925 3493 TriUF
929 3493 TriUF
943 3493 TriUF
956 3493 TriUF
958 3493 TriUF
966 3493 TriUF
971 3520 TriUF
981 3496 TriUF
986 3493 TriUF
998 3503 TriUF
1003 3493 TriUF
1004 3493 TriUF
1009 3493 TriUF
1013 3531 TriUF
1014 3537 TriUF
1020 3493 TriUF
1020 3493 TriUF
1020 3493 TriUF
1021 3493 TriUF
1024 3526 TriUF
1025 3493 TriUF
1026 3493 TriUF
1026 3493 TriUF
1026 3493 TriUF
1027 3493 TriUF
1027 3510 TriUF
1028 3493 TriUF
1030 3493 TriUF
1030 3493 TriUF
1031 3493 TriUF
1034 3493 TriUF
1035 3493 TriUF
1035 3493 TriUF
1036 3519 TriUF
1038 3493 TriUF
1040 3493 TriUF
1041 3493 TriUF
1045 3508 TriUF
1054 3494 TriUF
1062 3510 TriUF
1069 3512 TriUF
1071 3505 TriUF
1089 3504 TriUF
1089 3496 TriUF
1099 3496 TriUF
1110 3525 TriUF
1112 3493 TriUF
1116 3569 TriUF
1119 3507 TriUF
1132 3536 TriUF
1168 3554 TriUF
1168 3504 TriUF
1177 3495 TriUF
1180 3529 TriUF
1287 3493 TriUF
1298 3591 TriUF
1332 3561 TriUF
1386 3497 TriUF
1416 3493 TriUF
1424 3532 TriUF
1439 3548 TriUF
1441 3493 TriUF
1449 3493 TriUF
1460 3510 TriUF
1469 3520 TriUF
1544 3554 TriUF
1605 3570 TriUF
1716 3527 TriUF
1822 3740 TriUF
1870 3493 TriUF
1871 3493 TriUF
1872 3493 TriUF
1873 3493 TriUF
2086 3695 TriUF
2124 3507 TriUF
2142 3642 TriUF
2281 3563 TriUF
2922 3737 TriUF
3242 3580 TriUF
3258 3672 TriUF
3653 3978 TriUF
4510 3597 TriUF
5361 3928 TriUF
6917 6515 TriUF
6989 4350 TriUF
7456 4286 TriUF
12768 4457 TriUF
% End plot #1
1.000 UL
LTb
LCb setrgbcolor
600 7049 N
0 -3556 V
12598 0 V
0 3556 V
600 7049 L
Z stroke
1.000 UP
1.000 UL
LTb
LCb setrgbcolor
stroke
grestore
end
showpage
%%Trailer
%%DocumentFonts: Times
