%!PS-Adobe-2.0 EPSF-2.0
%%Title: repeating_conn_3641455796_680001840.eps
%%Creator: gnuplot 4.6 patchlevel 2
%%CreationDate: Tue Apr  8 13:19:53 2014
%%DocumentFonts: (atend)
%%BoundingBox: 50 50 770 554
%%EndComments
%%BeginProlog
/gnudict 256 dict def
gnudict begin
%
% The following true/false flags may be edited by hand if desired.
% The unit line width and grayscale image gamma correction may also be changed.
%
/Color true def
/Blacktext false def
/Solid false def
/Dashlength 1 def
/Landscape false def
/Level1 false def
/Rounded false def
/ClipToBoundingBox false def
/SuppressPDFMark false def
/TransparentPatterns false def
/gnulinewidth 5.000 def
/userlinewidth gnulinewidth def
/Gamma 1.0 def
/BackgroundColor {-1.000 -1.000 -1.000} def
%
/vshift -66 def
/dl1 {
  10.0 Dashlength mul mul
  Rounded { currentlinewidth 0.75 mul sub dup 0 le { pop 0.01 } if } if
} def
/dl2 {
  10.0 Dashlength mul mul
  Rounded { currentlinewidth 0.75 mul add } if
} def
/hpt_ 31.5 def
/vpt_ 31.5 def
/hpt hpt_ def
/vpt vpt_ def
/doclip {
  ClipToBoundingBox {
    newpath 50 50 moveto 770 50 lineto 770 554 lineto 50 554 lineto closepath
    clip
  } if
} def
%
% Gnuplot Prolog Version 4.6 (September 2012)
%
%/SuppressPDFMark true def
%
/M {moveto} bind def
/L {lineto} bind def
/R {rmoveto} bind def
/V {rlineto} bind def
/N {newpath moveto} bind def
/Z {closepath} bind def
/C {setrgbcolor} bind def
/f {rlineto fill} bind def
/g {setgray} bind def
/Gshow {show} def   % May be redefined later in the file to support UTF-8
/vpt2 vpt 2 mul def
/hpt2 hpt 2 mul def
/Lshow {currentpoint stroke M 0 vshift R 
	Blacktext {gsave 0 setgray show grestore} {show} ifelse} def
/Rshow {currentpoint stroke M dup stringwidth pop neg vshift R
	Blacktext {gsave 0 setgray show grestore} {show} ifelse} def
/Cshow {currentpoint stroke M dup stringwidth pop -2 div vshift R 
	Blacktext {gsave 0 setgray show grestore} {show} ifelse} def
/UP {dup vpt_ mul /vpt exch def hpt_ mul /hpt exch def
  /hpt2 hpt 2 mul def /vpt2 vpt 2 mul def} def
/DL {Color {setrgbcolor Solid {pop []} if 0 setdash}
 {pop pop pop 0 setgray Solid {pop []} if 0 setdash} ifelse} def
/BL {stroke userlinewidth 2 mul setlinewidth
	Rounded {1 setlinejoin 1 setlinecap} if} def
/AL {stroke userlinewidth 2 div setlinewidth
	Rounded {1 setlinejoin 1 setlinecap} if} def
/UL {dup gnulinewidth mul /userlinewidth exch def
	dup 1 lt {pop 1} if 10 mul /udl exch def} def
/PL {stroke userlinewidth setlinewidth
	Rounded {1 setlinejoin 1 setlinecap} if} def
3.8 setmiterlimit
% Default Line colors
/LCw {1 1 1} def
/LCb {0 0 0} def
/LCa {0 0 0} def
/LC0 {1 0 0} def
/LC1 {0 1 0} def
/LC2 {0 0 1} def
/LC3 {1 0 1} def
/LC4 {0 1 1} def
/LC5 {1 1 0} def
/LC6 {0 0 0} def
/LC7 {1 0.3 0} def
/LC8 {0.5 0.5 0.5} def
% Default Line Types
/LTw {PL [] 1 setgray} def
/LTb {BL [] LCb DL} def
/LTa {AL [1 udl mul 2 udl mul] 0 setdash LCa setrgbcolor} def
/LT0 {PL [] LC0 DL} def
/LT1 {PL [4 dl1 2 dl2] LC1 DL} def
/LT2 {PL [2 dl1 3 dl2] LC2 DL} def
/LT3 {PL [1 dl1 1.5 dl2] LC3 DL} def
/LT4 {PL [6 dl1 2 dl2 1 dl1 2 dl2] LC4 DL} def
/LT5 {PL [3 dl1 3 dl2 1 dl1 3 dl2] LC5 DL} def
/LT6 {PL [2 dl1 2 dl2 2 dl1 6 dl2] LC6 DL} def
/LT7 {PL [1 dl1 2 dl2 6 dl1 2 dl2 1 dl1 2 dl2] LC7 DL} def
/LT8 {PL [2 dl1 2 dl2 2 dl1 2 dl2 2 dl1 2 dl2 2 dl1 4 dl2] LC8 DL} def
/Pnt {stroke [] 0 setdash gsave 1 setlinecap M 0 0 V stroke grestore} def
/Dia {stroke [] 0 setdash 2 copy vpt add M
  hpt neg vpt neg V hpt vpt neg V
  hpt vpt V hpt neg vpt V closepath stroke
  Pnt} def
/Pls {stroke [] 0 setdash vpt sub M 0 vpt2 V
  currentpoint stroke M
  hpt neg vpt neg R hpt2 0 V stroke
 } def
/Box {stroke [] 0 setdash 2 copy exch hpt sub exch vpt add M
  0 vpt2 neg V hpt2 0 V 0 vpt2 V
  hpt2 neg 0 V closepath stroke
  Pnt} def
/Crs {stroke [] 0 setdash exch hpt sub exch vpt add M
  hpt2 vpt2 neg V currentpoint stroke M
  hpt2 neg 0 R hpt2 vpt2 V stroke} def
/TriU {stroke [] 0 setdash 2 copy vpt 1.12 mul add M
  hpt neg vpt -1.62 mul V
  hpt 2 mul 0 V
  hpt neg vpt 1.62 mul V closepath stroke
  Pnt} def
/Star {2 copy Pls Crs} def
/BoxF {stroke [] 0 setdash exch hpt sub exch vpt add M
  0 vpt2 neg V hpt2 0 V 0 vpt2 V
  hpt2 neg 0 V closepath fill} def
/TriUF {stroke [] 0 setdash vpt 1.12 mul add M
  hpt neg vpt -1.62 mul V
  hpt 2 mul 0 V
  hpt neg vpt 1.62 mul V closepath fill} def
/TriD {stroke [] 0 setdash 2 copy vpt 1.12 mul sub M
  hpt neg vpt 1.62 mul V
  hpt 2 mul 0 V
  hpt neg vpt -1.62 mul V closepath stroke
  Pnt} def
/TriDF {stroke [] 0 setdash vpt 1.12 mul sub M
  hpt neg vpt 1.62 mul V
  hpt 2 mul 0 V
  hpt neg vpt -1.62 mul V closepath fill} def
/DiaF {stroke [] 0 setdash vpt add M
  hpt neg vpt neg V hpt vpt neg V
  hpt vpt V hpt neg vpt V closepath fill} def
/Pent {stroke [] 0 setdash 2 copy gsave
  translate 0 hpt M 4 {72 rotate 0 hpt L} repeat
  closepath stroke grestore Pnt} def
/PentF {stroke [] 0 setdash gsave
  translate 0 hpt M 4 {72 rotate 0 hpt L} repeat
  closepath fill grestore} def
/Circle {stroke [] 0 setdash 2 copy
  hpt 0 360 arc stroke Pnt} def
/CircleF {stroke [] 0 setdash hpt 0 360 arc fill} def
/C0 {BL [] 0 setdash 2 copy moveto vpt 90 450 arc} bind def
/C1 {BL [] 0 setdash 2 copy moveto
	2 copy vpt 0 90 arc closepath fill
	vpt 0 360 arc closepath} bind def
/C2 {BL [] 0 setdash 2 copy moveto
	2 copy vpt 90 180 arc closepath fill
	vpt 0 360 arc closepath} bind def
/C3 {BL [] 0 setdash 2 copy moveto
	2 copy vpt 0 180 arc closepath fill
	vpt 0 360 arc closepath} bind def
/C4 {BL [] 0 setdash 2 copy moveto
	2 copy vpt 180 270 arc closepath fill
	vpt 0 360 arc closepath} bind def
/C5 {BL [] 0 setdash 2 copy moveto
	2 copy vpt 0 90 arc
	2 copy moveto
	2 copy vpt 180 270 arc closepath fill
	vpt 0 360 arc} bind def
/C6 {BL [] 0 setdash 2 copy moveto
	2 copy vpt 90 270 arc closepath fill
	vpt 0 360 arc closepath} bind def
/C7 {BL [] 0 setdash 2 copy moveto
	2 copy vpt 0 270 arc closepath fill
	vpt 0 360 arc closepath} bind def
/C8 {BL [] 0 setdash 2 copy moveto
	2 copy vpt 270 360 arc closepath fill
	vpt 0 360 arc closepath} bind def
/C9 {BL [] 0 setdash 2 copy moveto
	2 copy vpt 270 450 arc closepath fill
	vpt 0 360 arc closepath} bind def
/C10 {BL [] 0 setdash 2 copy 2 copy moveto vpt 270 360 arc closepath fill
	2 copy moveto
	2 copy vpt 90 180 arc closepath fill
	vpt 0 360 arc closepath} bind def
/C11 {BL [] 0 setdash 2 copy moveto
	2 copy vpt 0 180 arc closepath fill
	2 copy moveto
	2 copy vpt 270 360 arc closepath fill
	vpt 0 360 arc closepath} bind def
/C12 {BL [] 0 setdash 2 copy moveto
	2 copy vpt 180 360 arc closepath fill
	vpt 0 360 arc closepath} bind def
/C13 {BL [] 0 setdash 2 copy moveto
	2 copy vpt 0 90 arc closepath fill
	2 copy moveto
	2 copy vpt 180 360 arc closepath fill
	vpt 0 360 arc closepath} bind def
/C14 {BL [] 0 setdash 2 copy moveto
	2 copy vpt 90 360 arc closepath fill
	vpt 0 360 arc} bind def
/C15 {BL [] 0 setdash 2 copy vpt 0 360 arc closepath fill
	vpt 0 360 arc closepath} bind def
/Rec {newpath 4 2 roll moveto 1 index 0 rlineto 0 exch rlineto
	neg 0 rlineto closepath} bind def
/Square {dup Rec} bind def
/Bsquare {vpt sub exch vpt sub exch vpt2 Square} bind def
/S0 {BL [] 0 setdash 2 copy moveto 0 vpt rlineto BL Bsquare} bind def
/S1 {BL [] 0 setdash 2 copy vpt Square fill Bsquare} bind def
/S2 {BL [] 0 setdash 2 copy exch vpt sub exch vpt Square fill Bsquare} bind def
/S3 {BL [] 0 setdash 2 copy exch vpt sub exch vpt2 vpt Rec fill Bsquare} bind def
/S4 {BL [] 0 setdash 2 copy exch vpt sub exch vpt sub vpt Square fill Bsquare} bind def
/S5 {BL [] 0 setdash 2 copy 2 copy vpt Square fill
	exch vpt sub exch vpt sub vpt Square fill Bsquare} bind def
/S6 {BL [] 0 setdash 2 copy exch vpt sub exch vpt sub vpt vpt2 Rec fill Bsquare} bind def
/S7 {BL [] 0 setdash 2 copy exch vpt sub exch vpt sub vpt vpt2 Rec fill
	2 copy vpt Square fill Bsquare} bind def
/S8 {BL [] 0 setdash 2 copy vpt sub vpt Square fill Bsquare} bind def
/S9 {BL [] 0 setdash 2 copy vpt sub vpt vpt2 Rec fill Bsquare} bind def
/S10 {BL [] 0 setdash 2 copy vpt sub vpt Square fill 2 copy exch vpt sub exch vpt Square fill
	Bsquare} bind def
/S11 {BL [] 0 setdash 2 copy vpt sub vpt Square fill 2 copy exch vpt sub exch vpt2 vpt Rec fill
	Bsquare} bind def
/S12 {BL [] 0 setdash 2 copy exch vpt sub exch vpt sub vpt2 vpt Rec fill Bsquare} bind def
/S13 {BL [] 0 setdash 2 copy exch vpt sub exch vpt sub vpt2 vpt Rec fill
	2 copy vpt Square fill Bsquare} bind def
/S14 {BL [] 0 setdash 2 copy exch vpt sub exch vpt sub vpt2 vpt Rec fill
	2 copy exch vpt sub exch vpt Square fill Bsquare} bind def
/S15 {BL [] 0 setdash 2 copy Bsquare fill Bsquare} bind def
/D0 {gsave translate 45 rotate 0 0 S0 stroke grestore} bind def
/D1 {gsave translate 45 rotate 0 0 S1 stroke grestore} bind def
/D2 {gsave translate 45 rotate 0 0 S2 stroke grestore} bind def
/D3 {gsave translate 45 rotate 0 0 S3 stroke grestore} bind def
/D4 {gsave translate 45 rotate 0 0 S4 stroke grestore} bind def
/D5 {gsave translate 45 rotate 0 0 S5 stroke grestore} bind def
/D6 {gsave translate 45 rotate 0 0 S6 stroke grestore} bind def
/D7 {gsave translate 45 rotate 0 0 S7 stroke grestore} bind def
/D8 {gsave translate 45 rotate 0 0 S8 stroke grestore} bind def
/D9 {gsave translate 45 rotate 0 0 S9 stroke grestore} bind def
/D10 {gsave translate 45 rotate 0 0 S10 stroke grestore} bind def
/D11 {gsave translate 45 rotate 0 0 S11 stroke grestore} bind def
/D12 {gsave translate 45 rotate 0 0 S12 stroke grestore} bind def
/D13 {gsave translate 45 rotate 0 0 S13 stroke grestore} bind def
/D14 {gsave translate 45 rotate 0 0 S14 stroke grestore} bind def
/D15 {gsave translate 45 rotate 0 0 S15 stroke grestore} bind def
/DiaE {stroke [] 0 setdash vpt add M
  hpt neg vpt neg V hpt vpt neg V
  hpt vpt V hpt neg vpt V closepath stroke} def
/BoxE {stroke [] 0 setdash exch hpt sub exch vpt add M
  0 vpt2 neg V hpt2 0 V 0 vpt2 V
  hpt2 neg 0 V closepath stroke} def
/TriUE {stroke [] 0 setdash vpt 1.12 mul add M
  hpt neg vpt -1.62 mul V
  hpt 2 mul 0 V
  hpt neg vpt 1.62 mul V closepath stroke} def
/TriDE {stroke [] 0 setdash vpt 1.12 mul sub M
  hpt neg vpt 1.62 mul V
  hpt 2 mul 0 V
  hpt neg vpt -1.62 mul V closepath stroke} def
/PentE {stroke [] 0 setdash gsave
  translate 0 hpt M 4 {72 rotate 0 hpt L} repeat
  closepath stroke grestore} def
/CircE {stroke [] 0 setdash 
  hpt 0 360 arc stroke} def
/Opaque {gsave closepath 1 setgray fill grestore 0 setgray closepath} def
/DiaW {stroke [] 0 setdash vpt add M
  hpt neg vpt neg V hpt vpt neg V
  hpt vpt V hpt neg vpt V Opaque stroke} def
/BoxW {stroke [] 0 setdash exch hpt sub exch vpt add M
  0 vpt2 neg V hpt2 0 V 0 vpt2 V
  hpt2 neg 0 V Opaque stroke} def
/TriUW {stroke [] 0 setdash vpt 1.12 mul add M
  hpt neg vpt -1.62 mul V
  hpt 2 mul 0 V
  hpt neg vpt 1.62 mul V Opaque stroke} def
/TriDW {stroke [] 0 setdash vpt 1.12 mul sub M
  hpt neg vpt 1.62 mul V
  hpt 2 mul 0 V
  hpt neg vpt -1.62 mul V Opaque stroke} def
/PentW {stroke [] 0 setdash gsave
  translate 0 hpt M 4 {72 rotate 0 hpt L} repeat
  Opaque stroke grestore} def
/CircW {stroke [] 0 setdash 
  hpt 0 360 arc Opaque stroke} def
/BoxFill {gsave Rec 1 setgray fill grestore} def
/Density {
  /Fillden exch def
  currentrgbcolor
  /ColB exch def /ColG exch def /ColR exch def
  /ColR ColR Fillden mul Fillden sub 1 add def
  /ColG ColG Fillden mul Fillden sub 1 add def
  /ColB ColB Fillden mul Fillden sub 1 add def
  ColR ColG ColB setrgbcolor} def
/BoxColFill {gsave Rec PolyFill} def
/PolyFill {gsave Density fill grestore grestore} def
/h {rlineto rlineto rlineto gsave closepath fill grestore} bind def
%
% PostScript Level 1 Pattern Fill routine for rectangles
% Usage: x y w h s a XX PatternFill
%	x,y = lower left corner of box to be filled
%	w,h = width and height of box
%	  a = angle in degrees between lines and x-axis
%	 XX = 0/1 for no/yes cross-hatch
%
/PatternFill {gsave /PFa [ 9 2 roll ] def
  PFa 0 get PFa 2 get 2 div add PFa 1 get PFa 3 get 2 div add translate
  PFa 2 get -2 div PFa 3 get -2 div PFa 2 get PFa 3 get Rec
  TransparentPatterns {} {gsave 1 setgray fill grestore} ifelse
  clip
  currentlinewidth 0.5 mul setlinewidth
  /PFs PFa 2 get dup mul PFa 3 get dup mul add sqrt def
  0 0 M PFa 5 get rotate PFs -2 div dup translate
  0 1 PFs PFa 4 get div 1 add floor cvi
	{PFa 4 get mul 0 M 0 PFs V} for
  0 PFa 6 get ne {
	0 1 PFs PFa 4 get div 1 add floor cvi
	{PFa 4 get mul 0 2 1 roll M PFs 0 V} for
 } if
  stroke grestore} def
%
/languagelevel where
 {pop languagelevel} {1} ifelse
 2 lt
	{/InterpretLevel1 true def}
	{/InterpretLevel1 Level1 def}
 ifelse
%
% PostScript level 2 pattern fill definitions
%
/Level2PatternFill {
/Tile8x8 {/PaintType 2 /PatternType 1 /TilingType 1 /BBox [0 0 8 8] /XStep 8 /YStep 8}
	bind def
/KeepColor {currentrgbcolor [/Pattern /DeviceRGB] setcolorspace} bind def
<< Tile8x8
 /PaintProc {0.5 setlinewidth pop 0 0 M 8 8 L 0 8 M 8 0 L stroke} 
>> matrix makepattern
/Pat1 exch def
<< Tile8x8
 /PaintProc {0.5 setlinewidth pop 0 0 M 8 8 L 0 8 M 8 0 L stroke
	0 4 M 4 8 L 8 4 L 4 0 L 0 4 L stroke}
>> matrix makepattern
/Pat2 exch def
<< Tile8x8
 /PaintProc {0.5 setlinewidth pop 0 0 M 0 8 L
	8 8 L 8 0 L 0 0 L fill}
>> matrix makepattern
/Pat3 exch def
<< Tile8x8
 /PaintProc {0.5 setlinewidth pop -4 8 M 8 -4 L
	0 12 M 12 0 L stroke}
>> matrix makepattern
/Pat4 exch def
<< Tile8x8
 /PaintProc {0.5 setlinewidth pop -4 0 M 8 12 L
	0 -4 M 12 8 L stroke}
>> matrix makepattern
/Pat5 exch def
<< Tile8x8
 /PaintProc {0.5 setlinewidth pop -2 8 M 4 -4 L
	0 12 M 8 -4 L 4 12 M 10 0 L stroke}
>> matrix makepattern
/Pat6 exch def
<< Tile8x8
 /PaintProc {0.5 setlinewidth pop -2 0 M 4 12 L
	0 -4 M 8 12 L 4 -4 M 10 8 L stroke}
>> matrix makepattern
/Pat7 exch def
<< Tile8x8
 /PaintProc {0.5 setlinewidth pop 8 -2 M -4 4 L
	12 0 M -4 8 L 12 4 M 0 10 L stroke}
>> matrix makepattern
/Pat8 exch def
<< Tile8x8
 /PaintProc {0.5 setlinewidth pop 0 -2 M 12 4 L
	-4 0 M 12 8 L -4 4 M 8 10 L stroke}
>> matrix makepattern
/Pat9 exch def
/Pattern1 {PatternBgnd KeepColor Pat1 setpattern} bind def
/Pattern2 {PatternBgnd KeepColor Pat2 setpattern} bind def
/Pattern3 {PatternBgnd KeepColor Pat3 setpattern} bind def
/Pattern4 {PatternBgnd KeepColor Landscape {Pat5} {Pat4} ifelse setpattern} bind def
/Pattern5 {PatternBgnd KeepColor Landscape {Pat4} {Pat5} ifelse setpattern} bind def
/Pattern6 {PatternBgnd KeepColor Landscape {Pat9} {Pat6} ifelse setpattern} bind def
/Pattern7 {PatternBgnd KeepColor Landscape {Pat8} {Pat7} ifelse setpattern} bind def
} def
%
%
%End of PostScript Level 2 code
%
/PatternBgnd {
  TransparentPatterns {} {gsave 1 setgray fill grestore} ifelse
} def
%
% Substitute for Level 2 pattern fill codes with
% grayscale if Level 2 support is not selected.
%
/Level1PatternFill {
/Pattern1 {0.250 Density} bind def
/Pattern2 {0.500 Density} bind def
/Pattern3 {0.750 Density} bind def
/Pattern4 {0.125 Density} bind def
/Pattern5 {0.375 Density} bind def
/Pattern6 {0.625 Density} bind def
/Pattern7 {0.875 Density} bind def
} def
%
% Now test for support of Level 2 code
%
Level1 {Level1PatternFill} {Level2PatternFill} ifelse
%
/Symbol-Oblique /Symbol findfont [1 0 .167 1 0 0] makefont
dup length dict begin {1 index /FID eq {pop pop} {def} ifelse} forall
currentdict end definefont pop
/MFshow {
   { dup 5 get 3 ge
     { 5 get 3 eq {gsave} {grestore} ifelse }
     {dup dup 0 get findfont exch 1 get scalefont setfont
     [ currentpoint ] exch dup 2 get 0 exch R dup 5 get 2 ne {dup dup 6
     get exch 4 get {Gshow} {stringwidth pop 0 R} ifelse }if dup 5 get 0 eq
     {dup 3 get {2 get neg 0 exch R pop} {pop aload pop M} ifelse} {dup 5
     get 1 eq {dup 2 get exch dup 3 get exch 6 get stringwidth pop -2 div
     dup 0 R} {dup 6 get stringwidth pop -2 div 0 R 6 get
     show 2 index {aload pop M neg 3 -1 roll neg R pop pop} {pop pop pop
     pop aload pop M} ifelse }ifelse }ifelse }
     ifelse }
   forall} def
/Gswidth {dup type /stringtype eq {stringwidth} {pop (n) stringwidth} ifelse} def
/MFwidth {0 exch { dup 5 get 3 ge { 5 get 3 eq { 0 } { pop } ifelse }
 {dup 3 get{dup dup 0 get findfont exch 1 get scalefont setfont
     6 get Gswidth pop add} {pop} ifelse} ifelse} forall} def
/MLshow { currentpoint stroke M
  0 exch R
  Blacktext {gsave 0 setgray MFshow grestore} {MFshow} ifelse } bind def
/MRshow { currentpoint stroke M
  exch dup MFwidth neg 3 -1 roll R
  Blacktext {gsave 0 setgray MFshow grestore} {MFshow} ifelse } bind def
/MCshow { currentpoint stroke M
  exch dup MFwidth -2 div 3 -1 roll R
  Blacktext {gsave 0 setgray MFshow grestore} {MFshow} ifelse } bind def
/XYsave    { [( ) 1 2 true false 3 ()] } bind def
/XYrestore { [( ) 1 2 true false 4 ()] } bind def
Level1 SuppressPDFMark or 
{} {
/SDict 10 dict def
systemdict /pdfmark known not {
  userdict /pdfmark systemdict /cleartomark get put
} if
SDict begin [
  /Title (repeating_conn_3641455796_680001840.eps)
  /Subject (gnuplot plot)
  /Creator (gnuplot 4.6 patchlevel 2)
  /Author (olgabo)
%  /Producer (gnuplot)
%  /Keywords ()
  /CreationDate (Tue Apr  8 13:19:53 2014)
  /DOCINFO pdfmark
end
} ifelse
end
%%EndProlog
%%Page: 1 1
gnudict begin
gsave
doclip
50 50 translate
0.050 0.050 scale
0 setgray
newpath
(Times) findfont 200 scalefont setfont
BackgroundColor 0 lt 3 1 roll 0 lt exch 0 lt or or not {BackgroundColor C 1.000 0 0 14400.00 10080.00 BoxColFill} if
1.000 UL
LTb
LCb setrgbcolor
1.000 UL
LTa
LCa setrgbcolor
1200 3493 M
12598 0 V
stroke
LTb
LCb setrgbcolor
1200 3493 M
63 0 V
12535 0 R
-63 0 V
stroke
1080 3493 M
[ [(Times) 200.0 0.0 true true 0 ( 0)]
] -66.7 MRshow
1.000 UL
LTb
LCb setrgbcolor
1.000 UL
LTa
LCa setrgbcolor
1200 3849 M
12598 0 V
stroke
LTb
LCb setrgbcolor
1200 3849 M
63 0 V
12535 0 R
-63 0 V
stroke
1080 3849 M
[ [(Times) 200.0 0.0 true true 0 ( 2)]
] -66.7 MRshow
1.000 UL
LTb
LCb setrgbcolor
1.000 UL
LTa
LCa setrgbcolor
1200 4204 M
12598 0 V
stroke
LTb
LCb setrgbcolor
1200 4204 M
63 0 V
12535 0 R
-63 0 V
stroke
1080 4204 M
[ [(Times) 200.0 0.0 true true 0 ( 4)]
] -66.7 MRshow
1.000 UL
LTb
LCb setrgbcolor
1.000 UL
LTa
LCa setrgbcolor
1200 4560 M
12598 0 V
stroke
LTb
LCb setrgbcolor
1200 4560 M
63 0 V
12535 0 R
-63 0 V
stroke
1080 4560 M
[ [(Times) 200.0 0.0 true true 0 ( 6)]
] -66.7 MRshow
1.000 UL
LTb
LCb setrgbcolor
1.000 UL
LTa
LCa setrgbcolor
1200 4915 M
12598 0 V
stroke
LTb
LCb setrgbcolor
1200 4915 M
63 0 V
12535 0 R
-63 0 V
stroke
1080 4915 M
[ [(Times) 200.0 0.0 true true 0 ( 8)]
] -66.7 MRshow
1.000 UL
LTb
LCb setrgbcolor
1.000 UL
LTa
LCa setrgbcolor
1200 5271 M
12598 0 V
stroke
LTb
LCb setrgbcolor
1200 5271 M
63 0 V
12535 0 R
-63 0 V
stroke
1080 5271 M
[ [(Times) 200.0 0.0 true true 0 ( 10)]
] -66.7 MRshow
1.000 UL
LTb
LCb setrgbcolor
1.000 UL
LTa
LCa setrgbcolor
1200 5627 M
12598 0 V
stroke
LTb
LCb setrgbcolor
1200 5627 M
63 0 V
12535 0 R
-63 0 V
stroke
1080 5627 M
[ [(Times) 200.0 0.0 true true 0 ( 12)]
] -66.7 MRshow
1.000 UL
LTb
LCb setrgbcolor
1.000 UL
LTa
LCa setrgbcolor
1200 5982 M
12598 0 V
stroke
LTb
LCb setrgbcolor
1200 5982 M
63 0 V
12535 0 R
-63 0 V
stroke
1080 5982 M
[ [(Times) 200.0 0.0 true true 0 ( 14)]
] -66.7 MRshow
1.000 UL
LTb
LCb setrgbcolor
1.000 UL
LTa
LCa setrgbcolor
1200 6338 M
12598 0 V
stroke
LTb
LCb setrgbcolor
1200 6338 M
63 0 V
12535 0 R
-63 0 V
stroke
1080 6338 M
[ [(Times) 200.0 0.0 true true 0 ( 16)]
] -66.7 MRshow
1.000 UL
LTb
LCb setrgbcolor
1.000 UL
LTa
LCa setrgbcolor
1200 6693 M
12598 0 V
stroke
LTb
LCb setrgbcolor
1200 6693 M
63 0 V
12535 0 R
-63 0 V
stroke
1080 6693 M
[ [(Times) 200.0 0.0 true true 0 ( 18)]
] -66.7 MRshow
1.000 UL
LTb
LCb setrgbcolor
1.000 UL
LTa
LCa setrgbcolor
1200 7049 M
12598 0 V
stroke
LTb
LCb setrgbcolor
1200 7049 M
63 0 V
12535 0 R
-63 0 V
stroke
1080 7049 M
[ [(Times) 200.0 0.0 true true 0 ( 20)]
] -66.7 MRshow
1.000 UL
LTb
LCb setrgbcolor
1.000 UL
LTa
LCa setrgbcolor
1200 3493 M
0 3556 V
stroke
LTb
LCb setrgbcolor
1200 3493 M
0 63 V
0 3493 R
0 -63 V
stroke
1200 3373 M
currentpoint gsave translate -45 rotate 0 0 moveto
[ [(Times) 200.0 0.0 true true 0 ( 0)]
] -66.7 MLshow
grestore
1.000 UL
LTb
LCb setrgbcolor
1.000 UL
LTa
LCa setrgbcolor
2775 3493 M
0 3556 V
stroke
LTb
LCb setrgbcolor
2775 3493 M
0 63 V
0 3493 R
0 -63 V
stroke
2775 3373 M
currentpoint gsave translate -45 rotate 0 0 moveto
[ [(Times) 200.0 0.0 true true 0 ( 500)]
] -66.7 MLshow
grestore
1.000 UL
LTb
LCb setrgbcolor
1.000 UL
LTa
LCa setrgbcolor
4350 3493 M
0 3556 V
stroke
LTb
LCb setrgbcolor
4350 3493 M
0 63 V
0 3493 R
0 -63 V
stroke
4350 3373 M
currentpoint gsave translate -45 rotate 0 0 moveto
[ [(Times) 200.0 0.0 true true 0 ( 1000)]
] -66.7 MLshow
grestore
1.000 UL
LTb
LCb setrgbcolor
1.000 UL
LTa
LCa setrgbcolor
5924 3493 M
0 3556 V
stroke
LTb
LCb setrgbcolor
5924 3493 M
0 63 V
0 3493 R
0 -63 V
stroke
5924 3373 M
currentpoint gsave translate -45 rotate 0 0 moveto
[ [(Times) 200.0 0.0 true true 0 ( 1500)]
] -66.7 MLshow
grestore
1.000 UL
LTb
LCb setrgbcolor
1.000 UL
LTa
LCa setrgbcolor
7499 3493 M
0 3556 V
stroke
LTb
LCb setrgbcolor
7499 3493 M
0 63 V
0 3493 R
0 -63 V
stroke
7499 3373 M
currentpoint gsave translate -45 rotate 0 0 moveto
[ [(Times) 200.0 0.0 true true 0 ( 2000)]
] -66.7 MLshow
grestore
1.000 UL
LTb
LCb setrgbcolor
1.000 UL
LTa
LCa setrgbcolor
9074 3493 M
0 3556 V
stroke
LTb
LCb setrgbcolor
9074 3493 M
0 63 V
0 3493 R
0 -63 V
stroke
9074 3373 M
currentpoint gsave translate -45 rotate 0 0 moveto
[ [(Times) 200.0 0.0 true true 0 ( 2500)]
] -66.7 MLshow
grestore
1.000 UL
LTb
LCb setrgbcolor
1.000 UL
LTa
LCa setrgbcolor
10649 3493 M
0 3556 V
stroke
LTb
LCb setrgbcolor
10649 3493 M
0 63 V
0 3493 R
0 -63 V
stroke
10649 3373 M
currentpoint gsave translate -45 rotate 0 0 moveto
[ [(Times) 200.0 0.0 true true 0 ( 3000)]
] -66.7 MLshow
grestore
1.000 UL
LTb
LCb setrgbcolor
1.000 UL
LTa
LCa setrgbcolor
12223 3493 M
0 3556 V
stroke
LTb
LCb setrgbcolor
12223 3493 M
0 63 V
0 3493 R
0 -63 V
stroke
12223 3373 M
currentpoint gsave translate -45 rotate 0 0 moveto
[ [(Times) 200.0 0.0 true true 0 ( 3500)]
] -66.7 MLshow
grestore
1.000 UL
LTb
LCb setrgbcolor
1.000 UL
LTa
LCa setrgbcolor
13798 3493 M
0 3556 V
stroke
LTb
LCb setrgbcolor
13798 3493 M
0 63 V
0 3493 R
0 -63 V
stroke
13798 3373 M
currentpoint gsave translate -45 rotate 0 0 moveto
[ [(Times) 200.0 0.0 true true 0 ( 4000)]
] -66.7 MLshow
grestore
1.000 UL
LTb
LCb setrgbcolor
1.000 UL
LTb
LCb setrgbcolor
1200 7049 N
0 -3556 V
12598 0 V
0 3556 V
-12598 0 V
Z stroke
LCb setrgbcolor
500 5271 M
currentpoint gsave translate -270 rotate 0 0 moveto
[ [(Times) 200.0 0.0 true true 0 (Duration [sec])]
] -66.7 MCshow
grestore
LTb
LCb setrgbcolor
7499 2769 M
[ [(Times) 200.0 0.0 true true 0 (Time [sec])]
] -66.7 MCshow
LTb
7499 7349 M
[ [(Times) 200.0 0.0 true true 0 (src port 80, repeating connections sorted by start time)]
] -66.7 MCshow
1.000 UP
1.000 UL
LTb
LCb setrgbcolor
1.000 UL
LT8
LC8 setrgbcolor
7108 63 N
782 0 V
-782 0 V
Z stroke
% Begin plot #1
1.000 UP
1.000 UL
LT8
0.00 0.00 1.00 C 1200 3501 M
31 -3 V
13 381 V
19 -377 V
57 579 V
15 -490 V
0 -31 V
4 696 V
25 -757 V
22 617 V
12 -561 V
10 76 V
3 184 V
0 24 V
9 1393 V
4 -1653 V
12 478 V
35 -542 V
3 17 V
6 77 V
22 -66 V
13 56 V
479 31 V
63 -28 V
34 234 V
22 -330 V
19 62 V
32 92 V
28 -146 V
50 101 V
4 108 V
554 169 V
22 -392 V
0 543 V
9 94 V
45 945 V
3 -1584 V
53 612 V
114 -533 V
9 45 V
6 759 V
22 242 V
13 444 V
22 -1548 V
6 23 V
3 66 V
4 151 V
15 -111 V
7 -84 V
19 6 V
22 -36 V
56 -21 V
63 161 V
32 551 V
82 -685 V
3 -39 V
19 118 V
25 221 V
22 136 V
22 -195 V
47 340 V
10 -621 V
6 189 V
25 -144 V
10 29 V
3 1177 V
31 -985 V
13 2 V
3 -242 V
3 145 V
3 84 V
19 161 V
16 -150 V
0 53 V
28 -293 V
0 264 V
3 -257 V
10 21 V
3 64 V
0 28 V
38 279 V
3 -228 V
9 -148 V
114 233 V
9 -206 V
381 159 V
32 365 V
38 -78 V
0 1809 V
22 -895 V
44 -930 V
9 -171 V
7 -242 V
0 866 V
18 -958 V
63 58 V
38 128 V
41 22 V
13 -45 V
0 655 V
25 -592 V
6 49 V
82 -117 V
3 416 V
3 -367 V
stroke 4749 3708 M
13 -194 V
35 1033 V
25 -944 V
3 503 V
3 -572 V
3 -5 V
54 -16 V
41 414 V
22 -416 V
9 2 V
0 136 V
7 -128 V
50 298 V
13 35 V
22 -115 V
34 -123 V
7 315 V
28 -417 V
0 198 V
9 -204 V
38 258 V
16 -234 V
25 -1 V
54 -13 V
6 355 V
9 18 V
13 -308 V
9 1093 V
19 -1141 V
19 105 V
0 1 V
3 73 V
0 239 V
10 -226 V
28 234 V
16 112 V
22 -429 V
3 55 V
0 821 V
6 13 V
7 -1027 V
0 683 V
3 -544 V
3 1339 V
10 -1462 V
6 1401 V
16 -1071 V
6 526 V
12 -656 V
19 310 V
4 95 V
37 -590 V
0 -4 V
0 307 V
26 453 V
3 -785 V
19 208 V
34 445 V
22 -595 V
41 -61 V
16 376 V
28 -257 V
48 1226 V
25 -1019 V
41 -103 V
25 125 V
22 -215 V
25 574 V
16 -658 V
57 -56 V
44 755 V
6 2667 V
13 -2976 V
25 129 V
129 368 V
34 -776 V
23 1403 V
44 -838 V
15 1327 V
6526 4141 L
47 -644 V
135 2 V
70 72 V
19 2954 V
7250 3928 L
13 -424 V
72 9 V
110 1243 V
41 -358 V
4 -313 V
15 -351 V
35 301 V
214 -341 V
0 536 V
41 -729 V
13 -1 V
0 910 V
44 -83 V
15 -793 V
23 1661 V
28 -1651 V
12 901 V
67 -929 V
25 1117 V
34 -1108 V
10 519 V
38 -487 V
12 829 V
22 578 V
13 -690 V
16 -771 V
9 391 V
6 -317 V
16 60 V
0 119 V
6 2935 V
13 -3045 V
54 111 V
12 559 V
19 -716 V
0 -91 V
3 -11 V
10 1285 V
12 -749 V
16 122 V
3 -290 V
10 -54 V
0 20 V
15 -235 V
38 504 V
19 -576 V
0 693 V
16 13 V
690 -508 V
31 6 V
107 184 V
13 577 V
12 -869 V
67 12 V
18 432 V
48 489 V
28 -1025 V
0 767 V
16 -743 V
170 740 V
50 310 V
35 -395 V
25 -443 V
16 -266 V
22 543 V
19 -394 V
9 155 V
60 -239 V
0 350 V
397 -135 V
31 -72 V
133 -180 V
3 30 V
41 -34 V
19 220 V
9 -187 V
19 553 V
9 -19 V
7 -590 V
12 838 V
13 -76 V
9 -754 V
4 257 V
22 -142 V
6 -103 V
16 145 V
9 485 V
13 -382 V
9 -221 V
28 -48 V
16 384 V
38 -39 V
25 -236 V
10 331 V
0 1221 V
50 -1510 V
3 -86 V
35 69 V
16 808 V
18 -765 V
130 178 V
69 497 V
31 -810 V
35 7 V
stroke 11165 3548 M
0 678 V
69 -659 V
13 -20 V
16 -15 V
12 310 V
7 409 V
28 -614 V
16 -139 V
3 399 V
16 -307 V
31 -30 V
22 -51 V
781 321 V
66 182 V
29 -266 V
66 -65 V
16 720 V
18 -456 V
35 -79 V
19 -331 V
9 106 V
13 125 V
50 -239 V
16 -6 V
54 -4 V
47 55 V
19 63 V
28 -82 V
3 170 V
114 220 V
41 -444 V
0 297 V
31 -290 V
0 1928 V
3 -1134 V
1200 3501 TriUF
1231 3498 TriUF
1244 3879 TriUF
1263 3502 TriUF
1320 4081 TriUF
1335 3591 TriUF
1335 3560 TriUF
1339 4256 TriUF
1364 3499 TriUF
1386 4116 TriUF
1398 3555 TriUF
1408 3631 TriUF
1411 3815 TriUF
1411 3839 TriUF
1420 5232 TriUF
1424 3579 TriUF
1436 4057 TriUF
1471 3515 TriUF
1474 3532 TriUF
1480 3609 TriUF
1502 3543 TriUF
1515 3599 TriUF
1994 3630 TriUF
2057 3602 TriUF
2091 3836 TriUF
2113 3506 TriUF
2132 3568 TriUF
2164 3660 TriUF
2192 3514 TriUF
2242 3615 TriUF
2246 3723 TriUF
2800 3892 TriUF
2822 3500 TriUF
2822 4043 TriUF
2831 4137 TriUF
2876 5082 TriUF
2879 3498 TriUF
2932 4110 TriUF
3046 3577 TriUF
3055 3622 TriUF
3061 4381 TriUF
3083 4623 TriUF
3096 5067 TriUF
3118 3519 TriUF
3124 3542 TriUF
3127 3608 TriUF
3131 3759 TriUF
3146 3648 TriUF
3153 3564 TriUF
3172 3570 TriUF
3194 3534 TriUF
3250 3513 TriUF
3313 3674 TriUF
3345 4225 TriUF
3427 3540 TriUF
3430 3501 TriUF
3449 3619 TriUF
3474 3840 TriUF
3496 3976 TriUF
3518 3781 TriUF
3565 4121 TriUF
3575 3500 TriUF
3581 3689 TriUF
3606 3545 TriUF
3616 3574 TriUF
3619 4751 TriUF
3650 3766 TriUF
3663 3768 TriUF
3666 3526 TriUF
3669 3671 TriUF
3672 3755 TriUF
3691 3916 TriUF
3707 3766 TriUF
3707 3819 TriUF
3735 3526 TriUF
3735 3790 TriUF
3738 3533 TriUF
3748 3554 TriUF
3751 3618 TriUF
3751 3646 TriUF
3789 3925 TriUF
3792 3697 TriUF
3801 3549 TriUF
3915 3782 TriUF
3924 3576 TriUF
4305 3735 TriUF
4337 4100 TriUF
4375 4022 TriUF
4375 5831 TriUF
4397 4936 TriUF
4441 4006 TriUF
4450 3835 TriUF
4457 3593 TriUF
4457 4459 TriUF
4475 3501 TriUF
4538 3559 TriUF
4576 3687 TriUF
4617 3709 TriUF
4630 3664 TriUF
4630 4319 TriUF
4655 3727 TriUF
4661 3776 TriUF
4743 3659 TriUF
4746 4075 TriUF
4749 3708 TriUF
4762 3514 TriUF
4797 4547 TriUF
4822 3603 TriUF
4825 4106 TriUF
4828 3534 TriUF
4831 3529 TriUF
4885 3513 TriUF
4926 3927 TriUF
4948 3511 TriUF
4957 3513 TriUF
4957 3649 TriUF
4964 3521 TriUF
5014 3819 TriUF
5027 3854 TriUF
5049 3739 TriUF
5083 3616 TriUF
5090 3931 TriUF
5118 3514 TriUF
5118 3712 TriUF
5127 3508 TriUF
5165 3766 TriUF
5181 3532 TriUF
5206 3531 TriUF
5260 3518 TriUF
5266 3873 TriUF
5275 3891 TriUF
5288 3583 TriUF
5297 4676 TriUF
5316 3535 TriUF
5335 3640 TriUF
5335 3641 TriUF
5338 3714 TriUF
5338 3953 TriUF
5348 3727 TriUF
5376 3961 TriUF
5392 4073 TriUF
5414 3644 TriUF
5417 3699 TriUF
5417 4520 TriUF
5423 4533 TriUF
5430 3506 TriUF
5430 4189 TriUF
5433 3645 TriUF
5436 4984 TriUF
5446 3522 TriUF
5452 4923 TriUF
5468 3852 TriUF
5474 4378 TriUF
5486 3722 TriUF
5505 4032 TriUF
5509 4127 TriUF
5546 3537 TriUF
5546 3533 TriUF
5546 3840 TriUF
5572 4293 TriUF
5575 3508 TriUF
5594 3716 TriUF
5628 4161 TriUF
5650 3566 TriUF
5691 3505 TriUF
5707 3881 TriUF
5735 3624 TriUF
5783 4850 TriUF
5808 3831 TriUF
5849 3728 TriUF
5874 3853 TriUF
5896 3638 TriUF
5921 4212 TriUF
5937 3554 TriUF
5994 3498 TriUF
6038 4253 TriUF
6044 6920 TriUF
6057 3944 TriUF
6082 4073 TriUF
6211 4441 TriUF
6245 3665 TriUF
6268 5068 TriUF
6312 4230 TriUF
6327 5557 TriUF
6526 4141 TriUF
6573 3497 TriUF
6708 3499 TriUF
6778 3571 TriUF
6797 6525 TriUF
7250 3928 TriUF
7263 3504 TriUF
7335 3513 TriUF
7445 4756 TriUF
7486 4398 TriUF
7490 4085 TriUF
7505 3734 TriUF
7540 4035 TriUF
7754 3694 TriUF
7754 4230 TriUF
7795 3501 TriUF
7808 3500 TriUF
7808 4410 TriUF
7852 4327 TriUF
7867 3534 TriUF
7890 5195 TriUF
7918 3544 TriUF
7930 4445 TriUF
7997 3516 TriUF
8022 4633 TriUF
8056 3525 TriUF
8066 4044 TriUF
8104 3557 TriUF
8116 4386 TriUF
8138 4964 TriUF
8151 4274 TriUF
8167 3503 TriUF
8176 3894 TriUF
8182 3577 TriUF
8198 3637 TriUF
8198 3756 TriUF
8204 6691 TriUF
8217 3646 TriUF
8271 3757 TriUF
8283 4316 TriUF
8302 3600 TriUF
8302 3509 TriUF
8305 3498 TriUF
8315 4783 TriUF
8327 4034 TriUF
8343 4156 TriUF
8346 3866 TriUF
8356 3812 TriUF
8356 3832 TriUF
8371 3597 TriUF
8409 4101 TriUF
8428 3525 TriUF
8428 4218 TriUF
8444 4231 TriUF
9134 3723 TriUF
9165 3729 TriUF
9272 3913 TriUF
9285 4490 TriUF
9297 3621 TriUF
9364 3633 TriUF
9382 4065 TriUF
9430 4554 TriUF
9458 3529 TriUF
9458 4296 TriUF
9474 3553 TriUF
9644 4293 TriUF
9694 4603 TriUF
9729 4208 TriUF
9754 3765 TriUF
9770 3499 TriUF
9792 4042 TriUF
9811 3648 TriUF
9820 3803 TriUF
9880 3564 TriUF
9880 3914 TriUF
10277 3779 TriUF
10308 3707 TriUF
10441 3527 TriUF
10444 3557 TriUF
10485 3523 TriUF
10504 3743 TriUF
10513 3556 TriUF
10532 4109 TriUF
10541 4090 TriUF
10548 3500 TriUF
10560 4338 TriUF
10573 4262 TriUF
10582 3508 TriUF
10586 3765 TriUF
10608 3623 TriUF
10614 3520 TriUF
10630 3665 TriUF
10639 4150 TriUF
10652 3768 TriUF
10661 3547 TriUF
10689 3499 TriUF
10705 3883 TriUF
10743 3844 TriUF
10768 3608 TriUF
10778 3939 TriUF
10778 5160 TriUF
10828 3650 TriUF
10831 3564 TriUF
10866 3633 TriUF
10882 4441 TriUF
10900 3676 TriUF
11030 3854 TriUF
11099 4351 TriUF
11130 3541 TriUF
11165 3548 TriUF
11165 4226 TriUF
11234 3567 TriUF
11247 3547 TriUF
11263 3532 TriUF
11275 3842 TriUF
11282 4251 TriUF
11310 3637 TriUF
11326 3498 TriUF
11329 3897 TriUF
11345 3590 TriUF
11376 3560 TriUF
11398 3509 TriUF
12179 3830 TriUF
12245 4012 TriUF
12274 3746 TriUF
12340 3681 TriUF
12356 4401 TriUF
12374 3945 TriUF
12409 3866 TriUF
12428 3535 TriUF
12437 3641 TriUF
12450 3766 TriUF
12500 3527 TriUF
12516 3521 TriUF
12570 3517 TriUF
12617 3572 TriUF
12636 3635 TriUF
12664 3553 TriUF
12667 3723 TriUF
12781 3943 TriUF
12822 3499 TriUF
12822 3796 TriUF
12853 3506 TriUF
12853 5434 TriUF
12856 4300 TriUF
% End plot #1
1.000 UL
LTb
LCb setrgbcolor
1200 7049 N
0 -3556 V
12598 0 V
0 3556 V
-12598 0 V
Z stroke
1.000 UP
1.000 UL
LTb
LCb setrgbcolor
stroke
grestore
end
showpage
%%Page: 2 2
gnudict begin
gsave
doclip
50 50 translate
0.050 0.050 scale
0 setgray
newpath
(Times) findfont 200 scalefont setfont
BackgroundColor 0 lt 3 1 roll 0 lt exch 0 lt or or not {BackgroundColor C 1.000 0 0 14400.00 10080.00 BoxColFill} if
1.000 UL
LTb
LCb setrgbcolor
1.000 UL
LTa
LCa setrgbcolor
600 3323 M
12598 0 V
stroke
LTb
LCb setrgbcolor
600 3323 M
63 0 V
12535 0 R
-63 0 V
stroke
480 3323 M
[ [(Times) 200.0 0.0 true true 0 ( 0)]
] -66.7 MRshow
1.000 UL
LTb
LCb setrgbcolor
1.000 UL
LTa
LCa setrgbcolor
600 3789 M
12598 0 V
stroke
LTb
LCb setrgbcolor
600 3789 M
63 0 V
12535 0 R
-63 0 V
stroke
480 3789 M
[ [(Times) 200.0 0.0 true true 0 ( 50000)]
] -66.7 MRshow
1.000 UL
LTb
LCb setrgbcolor
1.000 UL
LTa
LCa setrgbcolor
600 4255 M
12598 0 V
stroke
LTb
LCb setrgbcolor
600 4255 M
63 0 V
12535 0 R
-63 0 V
stroke
480 4255 M
[ [(Times) 200.0 0.0 true true 0 ( 100000)]
] -66.7 MRshow
1.000 UL
LTb
LCb setrgbcolor
1.000 UL
LTa
LCa setrgbcolor
600 4720 M
12598 0 V
stroke
LTb
LCb setrgbcolor
600 4720 M
63 0 V
12535 0 R
-63 0 V
stroke
480 4720 M
[ [(Times) 200.0 0.0 true true 0 ( 150000)]
] -66.7 MRshow
1.000 UL
LTb
LCb setrgbcolor
1.000 UL
LTa
LCa setrgbcolor
600 5186 M
12598 0 V
stroke
LTb
LCb setrgbcolor
600 5186 M
63 0 V
12535 0 R
-63 0 V
stroke
480 5186 M
[ [(Times) 200.0 0.0 true true 0 ( 200000)]
] -66.7 MRshow
1.000 UL
LTb
LCb setrgbcolor
1.000 UL
LTa
LCa setrgbcolor
600 5652 M
12598 0 V
stroke
LTb
LCb setrgbcolor
600 5652 M
63 0 V
12535 0 R
-63 0 V
stroke
480 5652 M
[ [(Times) 200.0 0.0 true true 0 ( 250000)]
] -66.7 MRshow
1.000 UL
LTb
LCb setrgbcolor
1.000 UL
LTa
LCa setrgbcolor
600 6118 M
12598 0 V
stroke
LTb
LCb setrgbcolor
600 6118 M
63 0 V
12535 0 R
-63 0 V
stroke
480 6118 M
[ [(Times) 200.0 0.0 true true 0 ( 300000)]
] -66.7 MRshow
1.000 UL
LTb
LCb setrgbcolor
1.000 UL
LTa
LCa setrgbcolor
600 6583 M
12598 0 V
stroke
LTb
LCb setrgbcolor
600 6583 M
63 0 V
12535 0 R
-63 0 V
stroke
480 6583 M
[ [(Times) 200.0 0.0 true true 0 ( 350000)]
] -66.7 MRshow
1.000 UL
LTb
LCb setrgbcolor
1.000 UL
LTa
LCa setrgbcolor
600 7049 M
12598 0 V
stroke
LTb
LCb setrgbcolor
600 7049 M
63 0 V
12535 0 R
-63 0 V
stroke
480 7049 M
[ [(Times) 200.0 0.0 true true 0 ( 400000)]
] -66.7 MRshow
1.000 UL
LTb
LCb setrgbcolor
1.000 UL
LTa
LCa setrgbcolor
600 3323 M
0 3726 V
stroke
LTb
LCb setrgbcolor
600 3323 M
0 63 V
0 3663 R
0 -63 V
stroke
600 3203 M
currentpoint gsave translate -45 rotate 0 0 moveto
[ [(Times) 200.0 0.0 true true 0 ( 0)]
] -66.7 MLshow
grestore
1.000 UL
LTb
LCb setrgbcolor
1.000 UL
LTa
LCa setrgbcolor
1860 3323 M
0 3726 V
stroke
LTb
LCb setrgbcolor
1860 3323 M
0 63 V
0 3663 R
0 -63 V
stroke
1860 3203 M
currentpoint gsave translate -45 rotate 0 0 moveto
[ [(Times) 200.0 0.0 true true 0 ( 2)]
] -66.7 MLshow
grestore
1.000 UL
LTb
LCb setrgbcolor
1.000 UL
LTa
LCa setrgbcolor
3120 3323 M
0 3726 V
stroke
LTb
LCb setrgbcolor
3120 3323 M
0 63 V
0 3663 R
0 -63 V
stroke
3120 3203 M
currentpoint gsave translate -45 rotate 0 0 moveto
[ [(Times) 200.0 0.0 true true 0 ( 4)]
] -66.7 MLshow
grestore
1.000 UL
LTb
LCb setrgbcolor
1.000 UL
LTa
LCa setrgbcolor
4379 3323 M
0 3726 V
stroke
LTb
LCb setrgbcolor
4379 3323 M
0 63 V
0 3663 R
0 -63 V
stroke
4379 3203 M
currentpoint gsave translate -45 rotate 0 0 moveto
[ [(Times) 200.0 0.0 true true 0 ( 6)]
] -66.7 MLshow
grestore
1.000 UL
LTb
LCb setrgbcolor
1.000 UL
LTa
LCa setrgbcolor
5639 3323 M
0 3726 V
stroke
LTb
LCb setrgbcolor
5639 3323 M
0 63 V
0 3663 R
0 -63 V
stroke
5639 3203 M
currentpoint gsave translate -45 rotate 0 0 moveto
[ [(Times) 200.0 0.0 true true 0 ( 8)]
] -66.7 MLshow
grestore
1.000 UL
LTb
LCb setrgbcolor
1.000 UL
LTa
LCa setrgbcolor
6899 3323 M
0 3726 V
stroke
LTb
LCb setrgbcolor
6899 3323 M
0 63 V
0 3663 R
0 -63 V
stroke
6899 3203 M
currentpoint gsave translate -45 rotate 0 0 moveto
[ [(Times) 200.0 0.0 true true 0 ( 10)]
] -66.7 MLshow
grestore
1.000 UL
LTb
LCb setrgbcolor
1.000 UL
LTa
LCa setrgbcolor
8159 3323 M
0 3726 V
stroke
LTb
LCb setrgbcolor
8159 3323 M
0 63 V
0 3663 R
0 -63 V
stroke
8159 3203 M
currentpoint gsave translate -45 rotate 0 0 moveto
[ [(Times) 200.0 0.0 true true 0 ( 12)]
] -66.7 MLshow
grestore
1.000 UL
LTb
LCb setrgbcolor
1.000 UL
LTa
LCa setrgbcolor
9419 3323 M
0 3726 V
stroke
LTb
LCb setrgbcolor
9419 3323 M
0 63 V
0 3663 R
0 -63 V
stroke
9419 3203 M
currentpoint gsave translate -45 rotate 0 0 moveto
[ [(Times) 200.0 0.0 true true 0 ( 14)]
] -66.7 MLshow
grestore
1.000 UL
LTb
LCb setrgbcolor
1.000 UL
LTa
LCa setrgbcolor
10678 3323 M
0 3726 V
stroke
LTb
LCb setrgbcolor
10678 3323 M
0 63 V
0 3663 R
0 -63 V
stroke
10678 3203 M
currentpoint gsave translate -45 rotate 0 0 moveto
[ [(Times) 200.0 0.0 true true 0 ( 16)]
] -66.7 MLshow
grestore
1.000 UL
LTb
LCb setrgbcolor
1.000 UL
LTa
LCa setrgbcolor
11938 3323 M
0 3726 V
stroke
LTb
LCb setrgbcolor
11938 3323 M
0 63 V
0 3663 R
0 -63 V
stroke
11938 3203 M
currentpoint gsave translate -45 rotate 0 0 moveto
[ [(Times) 200.0 0.0 true true 0 ( 18)]
] -66.7 MLshow
grestore
1.000 UL
LTb
LCb setrgbcolor
1.000 UL
LTa
LCa setrgbcolor
13198 3323 M
0 3726 V
stroke
LTb
LCb setrgbcolor
13198 3323 M
0 63 V
0 3663 R
0 -63 V
stroke
13198 3203 M
currentpoint gsave translate -45 rotate 0 0 moveto
[ [(Times) 200.0 0.0 true true 0 ( 20)]
] -66.7 MLshow
grestore
1.000 UL
LTb
LCb setrgbcolor
1.000 UL
LTb
LCb setrgbcolor
600 7049 N
0 -3726 V
12598 0 V
0 3726 V
600 7049 L
Z stroke
LCb setrgbcolor
-580 5186 M
currentpoint gsave translate -270 rotate 0 0 moveto
[ [(Times) 200.0 0.0 true true 0 (Flow size [bytes])]
] -66.7 MCshow
grestore
LTb
LCb setrgbcolor
6899 2769 M
[ [(Times) 200.0 0.0 true true 0 (Duration [sec])]
] -66.7 MCshow
LTb
6899 7349 M
[ [(Times) 200.0 0.0 true true 0 (src port 80, repeating connections sorted by duration)]
] -66.7 MCshow
1.000 UP
1.000 UL
LTb
LCb setrgbcolor
1.000 UL
LT8
LC8 setrgbcolor
6508 63 N
782 0 V
-782 0 V
Z stroke
% Begin plot #1
1.000 UP
1.000 UL
LT8
1.00 0.00 0.00 C 615 3360 TriUF
616 3348 TriUF
616 3351 TriUF
617 3373 TriUF
618 3373 TriUF
619 3419 TriUF
620 3350 TriUF
620 3346 TriUF
622 3363 TriUF
622 3371 TriUF
622 3362 TriUF
623 3395 TriUF
625 3420 TriUF
625 3421 TriUF
626 3413 TriUF
627 3345 TriUF
628 3352 TriUF
628 3402 TriUF
630 3475 TriUF
632 3357 TriUF
635 3363 TriUF
639 3344 TriUF
641 3368 TriUF
646 3368 TriUF
647 3544 TriUF
647 3546 TriUF
653 3458 TriUF
654 3433 TriUF
655 3371 TriUF
655 3798 TriUF
657 3397 TriUF
665 3354 TriUF
671 3454 TriUF
671 3542 TriUF
672 3623 TriUF
672 3736 TriUF
673 3479 TriUF
674 3370 TriUF
676 3643 TriUF
678 3422 TriUF
680 3595 TriUF
684 3380 TriUF
687 3438 TriUF
693 3405 TriUF
695 3478 TriUF
698 3471 TriUF
700 3361 TriUF
701 3771 TriUF
705 3696 TriUF
713 3583 TriUF
714 3590 TriUF
715 3869 TriUF
717 3442 TriUF
720 3537 TriUF
720 3486 TriUF
727 3517 TriUF
729 3532 TriUF
735 3559 TriUF
737 3352 TriUF
738 3490 TriUF
739 3446 TriUF
742 3440 TriUF
743 4095 TriUF
744 3440 TriUF
745 3463 TriUF
746 3765 TriUF
748 3420 TriUF
751 3502 TriUF
756 3407 TriUF
765 3677 TriUF
771 3473 TriUF
774 3640 TriUF
777 3469 TriUF
780 3535 TriUF
784 4068 TriUF
792 3831 TriUF
793 3877 TriUF
794 3473 TriUF
798 3701 TriUF
812 3547 TriUF
812 3739 TriUF
816 3535 TriUF
816 3858 TriUF
818 3521 TriUF
824 3505 TriUF
826 3534 TriUF
827 3528 TriUF
835 4022 TriUF
838 3633 TriUF
838 3541 TriUF
850 3526 TriUF
851 3612 TriUF
851 3407 TriUF
858 3931 TriUF
863 4671 TriUF
864 3501 TriUF
873 3443 TriUF
875 3428 TriUF
880 3882 TriUF
887 3493 TriUF
895 3709 TriUF
899 3654 TriUF
899 4080 TriUF
906 3516 TriUF
918 3462 TriUF
945 3821 TriUF
948 3551 TriUF
955 3503 TriUF
967 3457 TriUF
977 3522 TriUF
979 3717 TriUF
987 3517 TriUF
990 3598 TriUF
1007 3482 TriUF
1008 3652 TriUF
1012 3706 TriUF
1034 3624 TriUF
1037 3541 TriUF
1041 3478 TriUF
1048 3589 TriUF
1052 3707 TriUF
1057 3524 TriUF
1060 3470 TriUF
1064 3457 TriUF
1086 3634 TriUF
1089 3637 TriUF
1096 4449 TriUF
1096 3784 TriUF
1102 3458 TriUF
1110 3605 TriUF
1111 3502 TriUF
1113 3468 TriUF
1121 4097 TriUF
1123 3804 TriUF
1126 3672 TriUF
1136 3941 TriUF
1140 3632 TriUF
1142 3501 TriUF
1142 3810 TriUF
1148 4126 TriUF
1149 3720 TriUF
1152 3908 TriUF
1156 4036 TriUF
1188 3508 TriUF
1191 4146 TriUF
1207 3622 TriUF
1209 3572 TriUF
1210 4182 TriUF
1232 3554 TriUF
1242 3744 TriUF
1248 3676 TriUF
1265 4388 TriUF
1286 4066 TriUF
1295 3851 TriUF
1311 4385 TriUF
1322 4082 TriUF
1329 4499 TriUF
1360 3505 TriUF
1363 3826 TriUF
1366 3873 TriUF
1377 3622 TriUF
1384 3776 TriUF
1390 3552 TriUF
1412 3628 TriUF
1413 3546 TriUF
1414 3465 TriUF
1416 3505 TriUF
1428 3758 TriUF
1429 3555 TriUF
1433 3686 TriUF
1435 3592 TriUF
1454 3551 TriUF
1456 3668 TriUF
1471 3617 TriUF
1486 3857 TriUF
1495 4942 TriUF
1529 3701 TriUF
1533 5043 TriUF
1535 4435 TriUF
1543 3866 TriUF
1563 3594 TriUF
1564 3537 TriUF
1566 3753 TriUF
1566 3584 TriUF
1567 4273 TriUF
1568 3621 TriUF
1574 3944 TriUF
1574 3980 TriUF
1601 3824 TriUF
1614 3471 TriUF
1621 4838 TriUF
1623 3737 TriUF
1653 3802 TriUF
1674 3710 TriUF
1700 4390 TriUF
1732 3445 TriUF
1740 4296 TriUF
1755 3523 TriUF
1756 3583 TriUF
1793 4270 TriUF
1797 3877 TriUF
1801 4093 TriUF
1812 3637 TriUF
1814 3930 TriUF
1827 3525 TriUF
1828 3520 TriUF
1829 3910 TriUF
1836 3743 TriUF
1842 3749 TriUF
1870 3822 TriUF
1876 3656 TriUF
1880 3611 TriUF
1881 4532 TriUF
1922 3690 TriUF
1922 3573 TriUF
1946 3818 TriUF
1968 4042 TriUF
1974 4837 TriUF
1981 4414 TriUF
2011 4841 TriUF
2014 4393 TriUF
2021 3868 TriUF
2032 3936 TriUF
2087 3473 TriUF
2090 4347 TriUF
2098 4348 TriUF
2130 4837 TriUF
2137 3639 TriUF
2141 3509 TriUF
2151 3786 TriUF
2180 3919 TriUF
2194 3634 TriUF
2199 3559 TriUF
2203 3932 TriUF
2231 4248 TriUF
2258 4304 TriUF
2312 3479 TriUF
2419 3912 TriUF
2437 3772 TriUF
2476 4612 TriUF
2508 3960 TriUF
2517 4452 TriUF
2522 4531 TriUF
2546 4649 TriUF
2550 3908 TriUF
2553 4578 TriUF
2597 3806 TriUF
2625 4900 TriUF
2655 3535 TriUF
2655 4807 TriUF
2660 4213 TriUF
2682 4323 TriUF
2698 3527 TriUF
2714 4863 TriUF
2751 3985 TriUF
2756 4969 TriUF
2770 3768 TriUF
2784 5451 TriUF
2784 4467 TriUF
2809 4216 TriUF
2824 4950 TriUF
2844 4925 TriUF
2880 4229 TriUF
2897 3736 TriUF
2928 4706 TriUF
2948 3987 TriUF
2968 4550 TriUF
3066 4706 TriUF
3133 5176 TriUF
3146 5671 TriUF
3168 6066 TriUF
3192 3750 TriUF
3198 4359 TriUF
3209 3878 TriUF
3211 4186 TriUF
3215 4777 TriUF
3285 3698 TriUF
3292 4411 TriUF
3302 4159 TriUF
3326 3590 TriUF
3367 4302 TriUF
3433 4019 TriUF
3434 4710 TriUF
3445 3823 TriUF
3459 4646 TriUF
3514 5088 TriUF
3526 4606 TriUF
3555 4824 TriUF
3593 4664 TriUF
3639 4262 TriUF
3736 4563 TriUF
3745 3774 TriUF
3763 3811 TriUF
3806 4147 TriUF
3815 3524 TriUF
3847 4369 TriUF
3958 5295 TriUF
3959 4896 TriUF
3973 3709 TriUF
4021 5311 TriUF
4131 4800 TriUF
4239 5639 TriUF
4283 4026 TriUF
4334 4657 TriUF
4359 3772 TriUF
4532 4746 TriUF
4604 4495 TriUF
4640 3682 TriUF
4790 4891 TriUF
5056 4919 TriUF
5073 3754 TriUF
5170 5075 TriUF
5407 4872 TriUF
5666 5489 TriUF
5712 4769 TriUF
5812 4418 TriUF
5881 5979 TriUF
6176 4949 TriUF
6181 4129 TriUF
6229 5824 TriUF
6504 6887 TriUF
6629 6443 TriUF
6760 5443 TriUF
7476 5944 TriUF
7911 4932 TriUF
8884 5846 TriUF
11340 4698 TriUF
11930 5960 TriUF
12742 6430 TriUF
% End plot #1
1.000 UL
LTb
LCb setrgbcolor
600 7049 N
0 -3726 V
12598 0 V
0 3726 V
600 7049 L
Z stroke
1.000 UP
1.000 UL
LTb
LCb setrgbcolor
stroke
grestore
end
showpage
%%Trailer
%%DocumentFonts: Times
