%!PS-Adobe-2.0 EPSF-2.0
%%Title: repeating_conn_3979900742_3222194610.eps
%%Creator: gnuplot 4.6 patchlevel 2
%%CreationDate: Tue Apr  8 13:23:42 2014
%%DocumentFonts: (atend)
%%BoundingBox: 50 50 770 554
%%EndComments
%%BeginProlog
/gnudict 256 dict def
gnudict begin
%
% The following true/false flags may be edited by hand if desired.
% The unit line width and grayscale image gamma correction may also be changed.
%
/Color true def
/Blacktext false def
/Solid false def
/Dashlength 1 def
/Landscape false def
/Level1 false def
/Rounded false def
/ClipToBoundingBox false def
/SuppressPDFMark false def
/TransparentPatterns false def
/gnulinewidth 5.000 def
/userlinewidth gnulinewidth def
/Gamma 1.0 def
/BackgroundColor {-1.000 -1.000 -1.000} def
%
/vshift -66 def
/dl1 {
  10.0 Dashlength mul mul
  Rounded { currentlinewidth 0.75 mul sub dup 0 le { pop 0.01 } if } if
} def
/dl2 {
  10.0 Dashlength mul mul
  Rounded { currentlinewidth 0.75 mul add } if
} def
/hpt_ 31.5 def
/vpt_ 31.5 def
/hpt hpt_ def
/vpt vpt_ def
/doclip {
  ClipToBoundingBox {
    newpath 50 50 moveto 770 50 lineto 770 554 lineto 50 554 lineto closepath
    clip
  } if
} def
%
% Gnuplot Prolog Version 4.6 (September 2012)
%
%/SuppressPDFMark true def
%
/M {moveto} bind def
/L {lineto} bind def
/R {rmoveto} bind def
/V {rlineto} bind def
/N {newpath moveto} bind def
/Z {closepath} bind def
/C {setrgbcolor} bind def
/f {rlineto fill} bind def
/g {setgray} bind def
/Gshow {show} def   % May be redefined later in the file to support UTF-8
/vpt2 vpt 2 mul def
/hpt2 hpt 2 mul def
/Lshow {currentpoint stroke M 0 vshift R 
	Blacktext {gsave 0 setgray show grestore} {show} ifelse} def
/Rshow {currentpoint stroke M dup stringwidth pop neg vshift R
	Blacktext {gsave 0 setgray show grestore} {show} ifelse} def
/Cshow {currentpoint stroke M dup stringwidth pop -2 div vshift R 
	Blacktext {gsave 0 setgray show grestore} {show} ifelse} def
/UP {dup vpt_ mul /vpt exch def hpt_ mul /hpt exch def
  /hpt2 hpt 2 mul def /vpt2 vpt 2 mul def} def
/DL {Color {setrgbcolor Solid {pop []} if 0 setdash}
 {pop pop pop 0 setgray Solid {pop []} if 0 setdash} ifelse} def
/BL {stroke userlinewidth 2 mul setlinewidth
	Rounded {1 setlinejoin 1 setlinecap} if} def
/AL {stroke userlinewidth 2 div setlinewidth
	Rounded {1 setlinejoin 1 setlinecap} if} def
/UL {dup gnulinewidth mul /userlinewidth exch def
	dup 1 lt {pop 1} if 10 mul /udl exch def} def
/PL {stroke userlinewidth setlinewidth
	Rounded {1 setlinejoin 1 setlinecap} if} def
3.8 setmiterlimit
% Default Line colors
/LCw {1 1 1} def
/LCb {0 0 0} def
/LCa {0 0 0} def
/LC0 {1 0 0} def
/LC1 {0 1 0} def
/LC2 {0 0 1} def
/LC3 {1 0 1} def
/LC4 {0 1 1} def
/LC5 {1 1 0} def
/LC6 {0 0 0} def
/LC7 {1 0.3 0} def
/LC8 {0.5 0.5 0.5} def
% Default Line Types
/LTw {PL [] 1 setgray} def
/LTb {BL [] LCb DL} def
/LTa {AL [1 udl mul 2 udl mul] 0 setdash LCa setrgbcolor} def
/LT0 {PL [] LC0 DL} def
/LT1 {PL [4 dl1 2 dl2] LC1 DL} def
/LT2 {PL [2 dl1 3 dl2] LC2 DL} def
/LT3 {PL [1 dl1 1.5 dl2] LC3 DL} def
/LT4 {PL [6 dl1 2 dl2 1 dl1 2 dl2] LC4 DL} def
/LT5 {PL [3 dl1 3 dl2 1 dl1 3 dl2] LC5 DL} def
/LT6 {PL [2 dl1 2 dl2 2 dl1 6 dl2] LC6 DL} def
/LT7 {PL [1 dl1 2 dl2 6 dl1 2 dl2 1 dl1 2 dl2] LC7 DL} def
/LT8 {PL [2 dl1 2 dl2 2 dl1 2 dl2 2 dl1 2 dl2 2 dl1 4 dl2] LC8 DL} def
/Pnt {stroke [] 0 setdash gsave 1 setlinecap M 0 0 V stroke grestore} def
/Dia {stroke [] 0 setdash 2 copy vpt add M
  hpt neg vpt neg V hpt vpt neg V
  hpt vpt V hpt neg vpt V closepath stroke
  Pnt} def
/Pls {stroke [] 0 setdash vpt sub M 0 vpt2 V
  currentpoint stroke M
  hpt neg vpt neg R hpt2 0 V stroke
 } def
/Box {stroke [] 0 setdash 2 copy exch hpt sub exch vpt add M
  0 vpt2 neg V hpt2 0 V 0 vpt2 V
  hpt2 neg 0 V closepath stroke
  Pnt} def
/Crs {stroke [] 0 setdash exch hpt sub exch vpt add M
  hpt2 vpt2 neg V currentpoint stroke M
  hpt2 neg 0 R hpt2 vpt2 V stroke} def
/TriU {stroke [] 0 setdash 2 copy vpt 1.12 mul add M
  hpt neg vpt -1.62 mul V
  hpt 2 mul 0 V
  hpt neg vpt 1.62 mul V closepath stroke
  Pnt} def
/Star {2 copy Pls Crs} def
/BoxF {stroke [] 0 setdash exch hpt sub exch vpt add M
  0 vpt2 neg V hpt2 0 V 0 vpt2 V
  hpt2 neg 0 V closepath fill} def
/TriUF {stroke [] 0 setdash vpt 1.12 mul add M
  hpt neg vpt -1.62 mul V
  hpt 2 mul 0 V
  hpt neg vpt 1.62 mul V closepath fill} def
/TriD {stroke [] 0 setdash 2 copy vpt 1.12 mul sub M
  hpt neg vpt 1.62 mul V
  hpt 2 mul 0 V
  hpt neg vpt -1.62 mul V closepath stroke
  Pnt} def
/TriDF {stroke [] 0 setdash vpt 1.12 mul sub M
  hpt neg vpt 1.62 mul V
  hpt 2 mul 0 V
  hpt neg vpt -1.62 mul V closepath fill} def
/DiaF {stroke [] 0 setdash vpt add M
  hpt neg vpt neg V hpt vpt neg V
  hpt vpt V hpt neg vpt V closepath fill} def
/Pent {stroke [] 0 setdash 2 copy gsave
  translate 0 hpt M 4 {72 rotate 0 hpt L} repeat
  closepath stroke grestore Pnt} def
/PentF {stroke [] 0 setdash gsave
  translate 0 hpt M 4 {72 rotate 0 hpt L} repeat
  closepath fill grestore} def
/Circle {stroke [] 0 setdash 2 copy
  hpt 0 360 arc stroke Pnt} def
/CircleF {stroke [] 0 setdash hpt 0 360 arc fill} def
/C0 {BL [] 0 setdash 2 copy moveto vpt 90 450 arc} bind def
/C1 {BL [] 0 setdash 2 copy moveto
	2 copy vpt 0 90 arc closepath fill
	vpt 0 360 arc closepath} bind def
/C2 {BL [] 0 setdash 2 copy moveto
	2 copy vpt 90 180 arc closepath fill
	vpt 0 360 arc closepath} bind def
/C3 {BL [] 0 setdash 2 copy moveto
	2 copy vpt 0 180 arc closepath fill
	vpt 0 360 arc closepath} bind def
/C4 {BL [] 0 setdash 2 copy moveto
	2 copy vpt 180 270 arc closepath fill
	vpt 0 360 arc closepath} bind def
/C5 {BL [] 0 setdash 2 copy moveto
	2 copy vpt 0 90 arc
	2 copy moveto
	2 copy vpt 180 270 arc closepath fill
	vpt 0 360 arc} bind def
/C6 {BL [] 0 setdash 2 copy moveto
	2 copy vpt 90 270 arc closepath fill
	vpt 0 360 arc closepath} bind def
/C7 {BL [] 0 setdash 2 copy moveto
	2 copy vpt 0 270 arc closepath fill
	vpt 0 360 arc closepath} bind def
/C8 {BL [] 0 setdash 2 copy moveto
	2 copy vpt 270 360 arc closepath fill
	vpt 0 360 arc closepath} bind def
/C9 {BL [] 0 setdash 2 copy moveto
	2 copy vpt 270 450 arc closepath fill
	vpt 0 360 arc closepath} bind def
/C10 {BL [] 0 setdash 2 copy 2 copy moveto vpt 270 360 arc closepath fill
	2 copy moveto
	2 copy vpt 90 180 arc closepath fill
	vpt 0 360 arc closepath} bind def
/C11 {BL [] 0 setdash 2 copy moveto
	2 copy vpt 0 180 arc closepath fill
	2 copy moveto
	2 copy vpt 270 360 arc closepath fill
	vpt 0 360 arc closepath} bind def
/C12 {BL [] 0 setdash 2 copy moveto
	2 copy vpt 180 360 arc closepath fill
	vpt 0 360 arc closepath} bind def
/C13 {BL [] 0 setdash 2 copy moveto
	2 copy vpt 0 90 arc closepath fill
	2 copy moveto
	2 copy vpt 180 360 arc closepath fill
	vpt 0 360 arc closepath} bind def
/C14 {BL [] 0 setdash 2 copy moveto
	2 copy vpt 90 360 arc closepath fill
	vpt 0 360 arc} bind def
/C15 {BL [] 0 setdash 2 copy vpt 0 360 arc closepath fill
	vpt 0 360 arc closepath} bind def
/Rec {newpath 4 2 roll moveto 1 index 0 rlineto 0 exch rlineto
	neg 0 rlineto closepath} bind def
/Square {dup Rec} bind def
/Bsquare {vpt sub exch vpt sub exch vpt2 Square} bind def
/S0 {BL [] 0 setdash 2 copy moveto 0 vpt rlineto BL Bsquare} bind def
/S1 {BL [] 0 setdash 2 copy vpt Square fill Bsquare} bind def
/S2 {BL [] 0 setdash 2 copy exch vpt sub exch vpt Square fill Bsquare} bind def
/S3 {BL [] 0 setdash 2 copy exch vpt sub exch vpt2 vpt Rec fill Bsquare} bind def
/S4 {BL [] 0 setdash 2 copy exch vpt sub exch vpt sub vpt Square fill Bsquare} bind def
/S5 {BL [] 0 setdash 2 copy 2 copy vpt Square fill
	exch vpt sub exch vpt sub vpt Square fill Bsquare} bind def
/S6 {BL [] 0 setdash 2 copy exch vpt sub exch vpt sub vpt vpt2 Rec fill Bsquare} bind def
/S7 {BL [] 0 setdash 2 copy exch vpt sub exch vpt sub vpt vpt2 Rec fill
	2 copy vpt Square fill Bsquare} bind def
/S8 {BL [] 0 setdash 2 copy vpt sub vpt Square fill Bsquare} bind def
/S9 {BL [] 0 setdash 2 copy vpt sub vpt vpt2 Rec fill Bsquare} bind def
/S10 {BL [] 0 setdash 2 copy vpt sub vpt Square fill 2 copy exch vpt sub exch vpt Square fill
	Bsquare} bind def
/S11 {BL [] 0 setdash 2 copy vpt sub vpt Square fill 2 copy exch vpt sub exch vpt2 vpt Rec fill
	Bsquare} bind def
/S12 {BL [] 0 setdash 2 copy exch vpt sub exch vpt sub vpt2 vpt Rec fill Bsquare} bind def
/S13 {BL [] 0 setdash 2 copy exch vpt sub exch vpt sub vpt2 vpt Rec fill
	2 copy vpt Square fill Bsquare} bind def
/S14 {BL [] 0 setdash 2 copy exch vpt sub exch vpt sub vpt2 vpt Rec fill
	2 copy exch vpt sub exch vpt Square fill Bsquare} bind def
/S15 {BL [] 0 setdash 2 copy Bsquare fill Bsquare} bind def
/D0 {gsave translate 45 rotate 0 0 S0 stroke grestore} bind def
/D1 {gsave translate 45 rotate 0 0 S1 stroke grestore} bind def
/D2 {gsave translate 45 rotate 0 0 S2 stroke grestore} bind def
/D3 {gsave translate 45 rotate 0 0 S3 stroke grestore} bind def
/D4 {gsave translate 45 rotate 0 0 S4 stroke grestore} bind def
/D5 {gsave translate 45 rotate 0 0 S5 stroke grestore} bind def
/D6 {gsave translate 45 rotate 0 0 S6 stroke grestore} bind def
/D7 {gsave translate 45 rotate 0 0 S7 stroke grestore} bind def
/D8 {gsave translate 45 rotate 0 0 S8 stroke grestore} bind def
/D9 {gsave translate 45 rotate 0 0 S9 stroke grestore} bind def
/D10 {gsave translate 45 rotate 0 0 S10 stroke grestore} bind def
/D11 {gsave translate 45 rotate 0 0 S11 stroke grestore} bind def
/D12 {gsave translate 45 rotate 0 0 S12 stroke grestore} bind def
/D13 {gsave translate 45 rotate 0 0 S13 stroke grestore} bind def
/D14 {gsave translate 45 rotate 0 0 S14 stroke grestore} bind def
/D15 {gsave translate 45 rotate 0 0 S15 stroke grestore} bind def
/DiaE {stroke [] 0 setdash vpt add M
  hpt neg vpt neg V hpt vpt neg V
  hpt vpt V hpt neg vpt V closepath stroke} def
/BoxE {stroke [] 0 setdash exch hpt sub exch vpt add M
  0 vpt2 neg V hpt2 0 V 0 vpt2 V
  hpt2 neg 0 V closepath stroke} def
/TriUE {stroke [] 0 setdash vpt 1.12 mul add M
  hpt neg vpt -1.62 mul V
  hpt 2 mul 0 V
  hpt neg vpt 1.62 mul V closepath stroke} def
/TriDE {stroke [] 0 setdash vpt 1.12 mul sub M
  hpt neg vpt 1.62 mul V
  hpt 2 mul 0 V
  hpt neg vpt -1.62 mul V closepath stroke} def
/PentE {stroke [] 0 setdash gsave
  translate 0 hpt M 4 {72 rotate 0 hpt L} repeat
  closepath stroke grestore} def
/CircE {stroke [] 0 setdash 
  hpt 0 360 arc stroke} def
/Opaque {gsave closepath 1 setgray fill grestore 0 setgray closepath} def
/DiaW {stroke [] 0 setdash vpt add M
  hpt neg vpt neg V hpt vpt neg V
  hpt vpt V hpt neg vpt V Opaque stroke} def
/BoxW {stroke [] 0 setdash exch hpt sub exch vpt add M
  0 vpt2 neg V hpt2 0 V 0 vpt2 V
  hpt2 neg 0 V Opaque stroke} def
/TriUW {stroke [] 0 setdash vpt 1.12 mul add M
  hpt neg vpt -1.62 mul V
  hpt 2 mul 0 V
  hpt neg vpt 1.62 mul V Opaque stroke} def
/TriDW {stroke [] 0 setdash vpt 1.12 mul sub M
  hpt neg vpt 1.62 mul V
  hpt 2 mul 0 V
  hpt neg vpt -1.62 mul V Opaque stroke} def
/PentW {stroke [] 0 setdash gsave
  translate 0 hpt M 4 {72 rotate 0 hpt L} repeat
  Opaque stroke grestore} def
/CircW {stroke [] 0 setdash 
  hpt 0 360 arc Opaque stroke} def
/BoxFill {gsave Rec 1 setgray fill grestore} def
/Density {
  /Fillden exch def
  currentrgbcolor
  /ColB exch def /ColG exch def /ColR exch def
  /ColR ColR Fillden mul Fillden sub 1 add def
  /ColG ColG Fillden mul Fillden sub 1 add def
  /ColB ColB Fillden mul Fillden sub 1 add def
  ColR ColG ColB setrgbcolor} def
/BoxColFill {gsave Rec PolyFill} def
/PolyFill {gsave Density fill grestore grestore} def
/h {rlineto rlineto rlineto gsave closepath fill grestore} bind def
%
% PostScript Level 1 Pattern Fill routine for rectangles
% Usage: x y w h s a XX PatternFill
%	x,y = lower left corner of box to be filled
%	w,h = width and height of box
%	  a = angle in degrees between lines and x-axis
%	 XX = 0/1 for no/yes cross-hatch
%
/PatternFill {gsave /PFa [ 9 2 roll ] def
  PFa 0 get PFa 2 get 2 div add PFa 1 get PFa 3 get 2 div add translate
  PFa 2 get -2 div PFa 3 get -2 div PFa 2 get PFa 3 get Rec
  TransparentPatterns {} {gsave 1 setgray fill grestore} ifelse
  clip
  currentlinewidth 0.5 mul setlinewidth
  /PFs PFa 2 get dup mul PFa 3 get dup mul add sqrt def
  0 0 M PFa 5 get rotate PFs -2 div dup translate
  0 1 PFs PFa 4 get div 1 add floor cvi
	{PFa 4 get mul 0 M 0 PFs V} for
  0 PFa 6 get ne {
	0 1 PFs PFa 4 get div 1 add floor cvi
	{PFa 4 get mul 0 2 1 roll M PFs 0 V} for
 } if
  stroke grestore} def
%
/languagelevel where
 {pop languagelevel} {1} ifelse
 2 lt
	{/InterpretLevel1 true def}
	{/InterpretLevel1 Level1 def}
 ifelse
%
% PostScript level 2 pattern fill definitions
%
/Level2PatternFill {
/Tile8x8 {/PaintType 2 /PatternType 1 /TilingType 1 /BBox [0 0 8 8] /XStep 8 /YStep 8}
	bind def
/KeepColor {currentrgbcolor [/Pattern /DeviceRGB] setcolorspace} bind def
<< Tile8x8
 /PaintProc {0.5 setlinewidth pop 0 0 M 8 8 L 0 8 M 8 0 L stroke} 
>> matrix makepattern
/Pat1 exch def
<< Tile8x8
 /PaintProc {0.5 setlinewidth pop 0 0 M 8 8 L 0 8 M 8 0 L stroke
	0 4 M 4 8 L 8 4 L 4 0 L 0 4 L stroke}
>> matrix makepattern
/Pat2 exch def
<< Tile8x8
 /PaintProc {0.5 setlinewidth pop 0 0 M 0 8 L
	8 8 L 8 0 L 0 0 L fill}
>> matrix makepattern
/Pat3 exch def
<< Tile8x8
 /PaintProc {0.5 setlinewidth pop -4 8 M 8 -4 L
	0 12 M 12 0 L stroke}
>> matrix makepattern
/Pat4 exch def
<< Tile8x8
 /PaintProc {0.5 setlinewidth pop -4 0 M 8 12 L
	0 -4 M 12 8 L stroke}
>> matrix makepattern
/Pat5 exch def
<< Tile8x8
 /PaintProc {0.5 setlinewidth pop -2 8 M 4 -4 L
	0 12 M 8 -4 L 4 12 M 10 0 L stroke}
>> matrix makepattern
/Pat6 exch def
<< Tile8x8
 /PaintProc {0.5 setlinewidth pop -2 0 M 4 12 L
	0 -4 M 8 12 L 4 -4 M 10 8 L stroke}
>> matrix makepattern
/Pat7 exch def
<< Tile8x8
 /PaintProc {0.5 setlinewidth pop 8 -2 M -4 4 L
	12 0 M -4 8 L 12 4 M 0 10 L stroke}
>> matrix makepattern
/Pat8 exch def
<< Tile8x8
 /PaintProc {0.5 setlinewidth pop 0 -2 M 12 4 L
	-4 0 M 12 8 L -4 4 M 8 10 L stroke}
>> matrix makepattern
/Pat9 exch def
/Pattern1 {PatternBgnd KeepColor Pat1 setpattern} bind def
/Pattern2 {PatternBgnd KeepColor Pat2 setpattern} bind def
/Pattern3 {PatternBgnd KeepColor Pat3 setpattern} bind def
/Pattern4 {PatternBgnd KeepColor Landscape {Pat5} {Pat4} ifelse setpattern} bind def
/Pattern5 {PatternBgnd KeepColor Landscape {Pat4} {Pat5} ifelse setpattern} bind def
/Pattern6 {PatternBgnd KeepColor Landscape {Pat9} {Pat6} ifelse setpattern} bind def
/Pattern7 {PatternBgnd KeepColor Landscape {Pat8} {Pat7} ifelse setpattern} bind def
} def
%
%
%End of PostScript Level 2 code
%
/PatternBgnd {
  TransparentPatterns {} {gsave 1 setgray fill grestore} ifelse
} def
%
% Substitute for Level 2 pattern fill codes with
% grayscale if Level 2 support is not selected.
%
/Level1PatternFill {
/Pattern1 {0.250 Density} bind def
/Pattern2 {0.500 Density} bind def
/Pattern3 {0.750 Density} bind def
/Pattern4 {0.125 Density} bind def
/Pattern5 {0.375 Density} bind def
/Pattern6 {0.625 Density} bind def
/Pattern7 {0.875 Density} bind def
} def
%
% Now test for support of Level 2 code
%
Level1 {Level1PatternFill} {Level2PatternFill} ifelse
%
/Symbol-Oblique /Symbol findfont [1 0 .167 1 0 0] makefont
dup length dict begin {1 index /FID eq {pop pop} {def} ifelse} forall
currentdict end definefont pop
/MFshow {
   { dup 5 get 3 ge
     { 5 get 3 eq {gsave} {grestore} ifelse }
     {dup dup 0 get findfont exch 1 get scalefont setfont
     [ currentpoint ] exch dup 2 get 0 exch R dup 5 get 2 ne {dup dup 6
     get exch 4 get {Gshow} {stringwidth pop 0 R} ifelse }if dup 5 get 0 eq
     {dup 3 get {2 get neg 0 exch R pop} {pop aload pop M} ifelse} {dup 5
     get 1 eq {dup 2 get exch dup 3 get exch 6 get stringwidth pop -2 div
     dup 0 R} {dup 6 get stringwidth pop -2 div 0 R 6 get
     show 2 index {aload pop M neg 3 -1 roll neg R pop pop} {pop pop pop
     pop aload pop M} ifelse }ifelse }ifelse }
     ifelse }
   forall} def
/Gswidth {dup type /stringtype eq {stringwidth} {pop (n) stringwidth} ifelse} def
/MFwidth {0 exch { dup 5 get 3 ge { 5 get 3 eq { 0 } { pop } ifelse }
 {dup 3 get{dup dup 0 get findfont exch 1 get scalefont setfont
     6 get Gswidth pop add} {pop} ifelse} ifelse} forall} def
/MLshow { currentpoint stroke M
  0 exch R
  Blacktext {gsave 0 setgray MFshow grestore} {MFshow} ifelse } bind def
/MRshow { currentpoint stroke M
  exch dup MFwidth neg 3 -1 roll R
  Blacktext {gsave 0 setgray MFshow grestore} {MFshow} ifelse } bind def
/MCshow { currentpoint stroke M
  exch dup MFwidth -2 div 3 -1 roll R
  Blacktext {gsave 0 setgray MFshow grestore} {MFshow} ifelse } bind def
/XYsave    { [( ) 1 2 true false 3 ()] } bind def
/XYrestore { [( ) 1 2 true false 4 ()] } bind def
Level1 SuppressPDFMark or 
{} {
/SDict 10 dict def
systemdict /pdfmark known not {
  userdict /pdfmark systemdict /cleartomark get put
} if
SDict begin [
  /Title (repeating_conn_3979900742_3222194610.eps)
  /Subject (gnuplot plot)
  /Creator (gnuplot 4.6 patchlevel 2)
  /Author (olgabo)
%  /Producer (gnuplot)
%  /Keywords ()
  /CreationDate (Tue Apr  8 13:23:42 2014)
  /DOCINFO pdfmark
end
} ifelse
end
%%EndProlog
%%Page: 1 1
gnudict begin
gsave
doclip
50 50 translate
0.050 0.050 scale
0 setgray
newpath
(Times) findfont 200 scalefont setfont
BackgroundColor 0 lt 3 1 roll 0 lt exch 0 lt or or not {BackgroundColor C 1.000 0 0 14400.00 10080.00 BoxColFill} if
1.000 UL
LTb
LCb setrgbcolor
1.000 UL
LTa
LCa setrgbcolor
1200 3493 M
12598 0 V
stroke
LTb
LCb setrgbcolor
1200 3493 M
63 0 V
12535 0 R
-63 0 V
stroke
1080 3493 M
[ [(Times) 200.0 0.0 true true 0 ( 0)]
] -66.7 MRshow
1.000 UL
LTb
LCb setrgbcolor
1.000 UL
LTa
LCa setrgbcolor
1200 3849 M
12598 0 V
stroke
LTb
LCb setrgbcolor
1200 3849 M
63 0 V
12535 0 R
-63 0 V
stroke
1080 3849 M
[ [(Times) 200.0 0.0 true true 0 ( 10)]
] -66.7 MRshow
1.000 UL
LTb
LCb setrgbcolor
1.000 UL
LTa
LCa setrgbcolor
1200 4204 M
12598 0 V
stroke
LTb
LCb setrgbcolor
1200 4204 M
63 0 V
12535 0 R
-63 0 V
stroke
1080 4204 M
[ [(Times) 200.0 0.0 true true 0 ( 20)]
] -66.7 MRshow
1.000 UL
LTb
LCb setrgbcolor
1.000 UL
LTa
LCa setrgbcolor
1200 4560 M
12598 0 V
stroke
LTb
LCb setrgbcolor
1200 4560 M
63 0 V
12535 0 R
-63 0 V
stroke
1080 4560 M
[ [(Times) 200.0 0.0 true true 0 ( 30)]
] -66.7 MRshow
1.000 UL
LTb
LCb setrgbcolor
1.000 UL
LTa
LCa setrgbcolor
1200 4915 M
12598 0 V
stroke
LTb
LCb setrgbcolor
1200 4915 M
63 0 V
12535 0 R
-63 0 V
stroke
1080 4915 M
[ [(Times) 200.0 0.0 true true 0 ( 40)]
] -66.7 MRshow
1.000 UL
LTb
LCb setrgbcolor
1.000 UL
LTa
LCa setrgbcolor
1200 5271 M
12598 0 V
stroke
LTb
LCb setrgbcolor
1200 5271 M
63 0 V
12535 0 R
-63 0 V
stroke
1080 5271 M
[ [(Times) 200.0 0.0 true true 0 ( 50)]
] -66.7 MRshow
1.000 UL
LTb
LCb setrgbcolor
1.000 UL
LTa
LCa setrgbcolor
1200 5627 M
12598 0 V
stroke
LTb
LCb setrgbcolor
1200 5627 M
63 0 V
12535 0 R
-63 0 V
stroke
1080 5627 M
[ [(Times) 200.0 0.0 true true 0 ( 60)]
] -66.7 MRshow
1.000 UL
LTb
LCb setrgbcolor
1.000 UL
LTa
LCa setrgbcolor
1200 5982 M
12598 0 V
stroke
LTb
LCb setrgbcolor
1200 5982 M
63 0 V
12535 0 R
-63 0 V
stroke
1080 5982 M
[ [(Times) 200.0 0.0 true true 0 ( 70)]
] -66.7 MRshow
1.000 UL
LTb
LCb setrgbcolor
1.000 UL
LTa
LCa setrgbcolor
1200 6338 M
12598 0 V
stroke
LTb
LCb setrgbcolor
1200 6338 M
63 0 V
12535 0 R
-63 0 V
stroke
1080 6338 M
[ [(Times) 200.0 0.0 true true 0 ( 80)]
] -66.7 MRshow
1.000 UL
LTb
LCb setrgbcolor
1.000 UL
LTa
LCa setrgbcolor
1200 6693 M
12598 0 V
stroke
LTb
LCb setrgbcolor
1200 6693 M
63 0 V
12535 0 R
-63 0 V
stroke
1080 6693 M
[ [(Times) 200.0 0.0 true true 0 ( 90)]
] -66.7 MRshow
1.000 UL
LTb
LCb setrgbcolor
1.000 UL
LTa
LCa setrgbcolor
1200 7049 M
12598 0 V
stroke
LTb
LCb setrgbcolor
1200 7049 M
63 0 V
12535 0 R
-63 0 V
stroke
1080 7049 M
[ [(Times) 200.0 0.0 true true 0 ( 100)]
] -66.7 MRshow
1.000 UL
LTb
LCb setrgbcolor
1.000 UL
LTa
LCa setrgbcolor
1200 3493 M
0 3556 V
stroke
LTb
LCb setrgbcolor
1200 3493 M
0 63 V
0 3493 R
0 -63 V
stroke
1200 3373 M
currentpoint gsave translate -45 rotate 0 0 moveto
[ [(Times) 200.0 0.0 true true 0 ( 0)]
] -66.7 MLshow
grestore
1.000 UL
LTb
LCb setrgbcolor
1.000 UL
LTa
LCa setrgbcolor
2775 3493 M
0 3556 V
stroke
LTb
LCb setrgbcolor
2775 3493 M
0 63 V
0 3493 R
0 -63 V
stroke
2775 3373 M
currentpoint gsave translate -45 rotate 0 0 moveto
[ [(Times) 200.0 0.0 true true 0 ( 500)]
] -66.7 MLshow
grestore
1.000 UL
LTb
LCb setrgbcolor
1.000 UL
LTa
LCa setrgbcolor
4350 3493 M
0 3556 V
stroke
LTb
LCb setrgbcolor
4350 3493 M
0 63 V
0 3493 R
0 -63 V
stroke
4350 3373 M
currentpoint gsave translate -45 rotate 0 0 moveto
[ [(Times) 200.0 0.0 true true 0 ( 1000)]
] -66.7 MLshow
grestore
1.000 UL
LTb
LCb setrgbcolor
1.000 UL
LTa
LCa setrgbcolor
5924 3493 M
0 3556 V
stroke
LTb
LCb setrgbcolor
5924 3493 M
0 63 V
0 3493 R
0 -63 V
stroke
5924 3373 M
currentpoint gsave translate -45 rotate 0 0 moveto
[ [(Times) 200.0 0.0 true true 0 ( 1500)]
] -66.7 MLshow
grestore
1.000 UL
LTb
LCb setrgbcolor
1.000 UL
LTa
LCa setrgbcolor
7499 3493 M
0 3556 V
stroke
LTb
LCb setrgbcolor
7499 3493 M
0 63 V
0 3493 R
0 -63 V
stroke
7499 3373 M
currentpoint gsave translate -45 rotate 0 0 moveto
[ [(Times) 200.0 0.0 true true 0 ( 2000)]
] -66.7 MLshow
grestore
1.000 UL
LTb
LCb setrgbcolor
1.000 UL
LTa
LCa setrgbcolor
9074 3493 M
0 3556 V
stroke
LTb
LCb setrgbcolor
9074 3493 M
0 63 V
0 3493 R
0 -63 V
stroke
9074 3373 M
currentpoint gsave translate -45 rotate 0 0 moveto
[ [(Times) 200.0 0.0 true true 0 ( 2500)]
] -66.7 MLshow
grestore
1.000 UL
LTb
LCb setrgbcolor
1.000 UL
LTa
LCa setrgbcolor
10649 3493 M
0 3556 V
stroke
LTb
LCb setrgbcolor
10649 3493 M
0 63 V
0 3493 R
0 -63 V
stroke
10649 3373 M
currentpoint gsave translate -45 rotate 0 0 moveto
[ [(Times) 200.0 0.0 true true 0 ( 3000)]
] -66.7 MLshow
grestore
1.000 UL
LTb
LCb setrgbcolor
1.000 UL
LTa
LCa setrgbcolor
12223 3493 M
0 3556 V
stroke
LTb
LCb setrgbcolor
12223 3493 M
0 63 V
0 3493 R
0 -63 V
stroke
12223 3373 M
currentpoint gsave translate -45 rotate 0 0 moveto
[ [(Times) 200.0 0.0 true true 0 ( 3500)]
] -66.7 MLshow
grestore
1.000 UL
LTb
LCb setrgbcolor
1.000 UL
LTa
LCa setrgbcolor
13798 3493 M
0 3556 V
stroke
LTb
LCb setrgbcolor
13798 3493 M
0 63 V
0 3493 R
0 -63 V
stroke
13798 3373 M
currentpoint gsave translate -45 rotate 0 0 moveto
[ [(Times) 200.0 0.0 true true 0 ( 4000)]
] -66.7 MLshow
grestore
1.000 UL
LTb
LCb setrgbcolor
1.000 UL
LTb
LCb setrgbcolor
1200 7049 N
0 -3556 V
12598 0 V
0 3556 V
-12598 0 V
Z stroke
LCb setrgbcolor
380 5271 M
currentpoint gsave translate -270 rotate 0 0 moveto
[ [(Times) 200.0 0.0 true true 0 (Duration [sec])]
] -66.7 MCshow
grestore
LTb
LCb setrgbcolor
7499 2769 M
[ [(Times) 200.0 0.0 true true 0 (Time [sec])]
] -66.7 MCshow
LTb
7499 7349 M
[ [(Times) 200.0 0.0 true true 0 (src port 80, repeating connections sorted by start time)]
] -66.7 MCshow
1.000 UP
1.000 UL
LTb
LCb setrgbcolor
1.000 UL
LT8
LC8 setrgbcolor
7108 63 N
782 0 V
-782 0 V
Z stroke
% Begin plot #1
1.000 UP
1.000 UL
LT8
0.00 0.00 1.00 C 1200 3749 M
31 -250 V
4 0 V
15 1 V
7 -1 V
0 1 V
69 -1 V
113 0 V
76 0 V
3 0 V
10 -1 V
252 12 V
18 -11 V
570 321 V
246 -316 V
76 -5 V
3 14 V
0 93 V
31 -107 V
0 107 V
4 -107 V
9 107 V
3 -107 V
44 0 V
16 0 V
3 0 V
3 0 V
19 106 V
10 -92 V
3 -14 V
6 0 V
3 0 V
6 0 V
10 0 V
13 0 V
12 321 V
3 -321 V
7 0 V
3 0 V
12 0 V
0 107 V
3 -107 V
16 0 V
3 1 V
19 -7 V
22 33 V
0 11 V
3 -38 V
0 36 V
4 -36 V
0 45 V
3 -45 V
0 18 V
0 -14 V
0 -4 V
6 0 V
0 14 V
0 5 V
3 -19 V
3 16 V
0 134 V
4 -150 V
0 1 V
0 -1 V
0 101 V
3 -96 V
3 -5 V
0 13 V
3 -13 V
6 0 V
0 7 V
0 -7 V
7 0 V
3 110 V
12 -52 V
7 -58 V
6 0 V
3 0 V
10 2 V
22 129 V
18 -131 V
0 24 V
4 -9 V
0 -15 V
6 0 V
0 14 V
3 -14 V
0 107 V
3 -107 V
3 0 V
3 0 V
19 1 V
7 33 V
19 -34 V
3 -1 V
0 20 V
25 13 V
9 -33 V
44 0 V
4 0 V
3 0 V
3 7 V
41 -7 V
6 0 V
3 0 V
stroke 3313 3498 M
3 0 V
120 1 V
47 0 V
70 2 V
15 -2 V
237 4 V
0 -5 V
6 0 V
57 -1 V
6 1 V
60 -1 V
41 21 V
3 -20 V
3 -1 V
44 0 V
41 0 V
3 3 V
10 -2 V
3 -1 V
6 22 V
3 -22 V
25 0 V
4 0 V
3 1 V
0 -1 V
0 1 V
15 1 V
10 -2 V
22 1 V
9 0 V
13 0 V
3 0 V
0 -1 V
0 1 V
3 0 V
0 -1 V
3 0 V
4 1 V
0 -1 V
0 1 V
0 -1 V
15 17 V
13 -17 V
13 2 V
28 13 V
3 -14 V
0 -1 V
10 0 V
44 1 V
3 0 V
3 -1 V
3 0 V
0 1 V
0 1 V
0 23 V
6 -24 V
7 -1 V
9 122 V
41 -113 V
3 8 V
6 -16 V
4 0 V
6 0 V
25 0 V
3 0 V
7 -1 V
3 0 V
19 0 V
34 0 V
3 0 V
7 1 V
3 0 V
6 50 V
10 -51 V
22 1 V
9 0 V
22 -1 V
3 2 V
7 -1 V
3 0 V
9 0 V
13 1 V
25 106 V
19 -78 V
3 -29 V
0 9 V
0 -10 V
9 2 V
10 -1 V
13 4 V
0 -3 V
9 -1 V
0 102 V
9 6 V
7 -108 V
0 3 V
19 11 V
6 19 V
9 -32 V
0 -1 V
0 6 V
0 -6 V
10 43 V
3 -43 V
stroke 4781 3498 M
6 0 V
0 2 V
0 -2 V
0 3 V
0 1 V
0 -4 V
7 0 V
6 0 V
12 0 V
0 106 V
4 -106 V
3 0 V
0 -1 V
3 1 V
3 0 V
10 3 V
0 -3 V
0 7 V
6 -5 V
3 -2 V
3 0 V
6 5 V
26 -5 V
0 2 V
12 104 V
3 -106 V
0 -1 V
4 1 V
0 107 V
6 -107 V
19 0 V
9 0 V
3 4 V
0 -5 V
10 0 V
3 108 V
3 -107 V
3 0 V
16 0 V
3 3 V
19 -2 V
9 78 V
10 -79 V
12 0 V
10 0 V
6 197 V
41 -152 V
3 -45 V
3 0 V
0 1 V
0 12 V
4 142 V
3 -154 V
3 24 V
0 82 V
3 55 V
3 -161 V
10 0 V
3 16 V
6 -13 V
6 -3 V
4 3 V
12 -4 V
0 5 V
6 -5 V
16 0 V
54 3 V
3 -2 V
9 87 V
7 -87 V
3 0 V
0 1 V
3 -2 V
0 4 V
0 -3 V
3 0 V
0 -1 V
6 0 V
4 0 V
0 36 V
9 -36 V
0 111 V
6 -110 V
7 -1 V
3 0 V
3 1 V
3 -1 V
0 1 V
0 70 V
3 -65 V
6 1 V
0 -6 V
0 1 V
0 -1 V
10 -1 V
6 0 V
7 1 V
6 6 V
0 -6 V
9 0 V
7 2 V
0 104 V
18 -106 V
29 2 V
stroke 5389 3501 M
0 104 V
3 -79 V
16 -8 V
3 17 V
3 -36 V
16 -1 V
0 1 V
6 0 V
10 0 V
6 0 V
0 108 V
3 -107 V
3 48 V
3 -48 V
25 1 V
60 -2 V
7 -1 V
28 1 V
44 -1 V
13 0 V
6 0 V
6 0 V
0 3 V
10 -3 V
3 8 V
0 -8 V
22 2 V
50 -1 V
7 2 V
3 -2 V
6 75 V
9 -75 V
4 0 V
44 0 V
0 106 V
28 -97 V
28 2 V
0 -11 V
32 106 V
31 -105 V
38 -1 V
10 18 V
6 -18 V
9 0 V
10 15 V
12 -15 V
19 1 V
0 4 V
0 10 V
10 -13 V
88 -2 V
16 0 V
28 0 V
22 17 V
0 92 V
0 6 V
13 -113 V
0 -1 V
3 -1 V
12 0 V
0 20 V
35 -6 V
10 -14 V
12 108 V
0 1 V
6 -109 V
4 2 V
3 -1 V
3 1 V
0 105 V
6 -107 V
3 20 V
3 -19 V
0 108 V
4 160 V
6 -162 V
3 -105 V
0 13 V
3 -12 V
7 -3 V
3 1 V
0 -1 V
3 1 V
9 13 V
0 -14 V
3 1 V
4 57 V
9 496 V
3 -553 V
10 17 V
3 -18 V
0 9 V
9 -9 V
3 0 V
4 0 V
18 121 V
4 -121 V
3 0 V
9 0 V
0 1 V
3 -1 V
3 0 V
4 325 V
3 -151 V
stroke 6441 3673 M
3 -172 V
3 -2 V
0 89 V
3 -89 V
7 0 V
9 0 V
6 0 V
7 0 V
3 0 V
0 26 V
3 -26 V
3 1 V
3 3 V
0 21 V
0 367 V
3 -392 V
0 107 V
3 -72 V
7 -35 V
3 1 V
0 168 V
3 -61 V
3 -108 V
0 5 V
3 8 V
0 -13 V
16 0 V
10 43 V
6 -43 V
9 1 V
10 172 V
6 -173 V
0 1 V
0 2 V
13 105 V
3 -105 V
6 -1 V
0 -2 V
0 282 V
10 -253 V
9 -28 V
6 106 V
13 -107 V
3 0 V
16 3 V
0 1 V
6 0 V
0 -1 V
6 14 V
0 -13 V
7 35 V
3 285 V
3 -320 V
3 0 V
6 0 V
0 107 V
7 -108 V
0 1 V
0 -1 V
3 1 V
6 0 V
3 64 V
3 -64 V
4 0 V
3 0 V
16 0 V
0 -3 V
0 3 V
6 -1 V
16 321 V
0 -325 V
3 5 V
6 20 V
32 -20 V
3 -1 V
3 1 V
0 1 V
0 12 V
0 -13 V
12 107 V
32 -107 V
9 0 V
4 1 V
0 14 V
3 -15 V
15 0 V
0 1 V
10 -1 V
0 106 V
9 -106 V
3 2 V
7 -2 V
0 9 V
15 -9 V
19 0 V
0 14 V
7 -14 V
0 107 V
12 -107 V
13 10 V
19 -14 V
16 0 V
3 11 V
6 -11 V
stroke 7014 3499 M
0 108 V
31 -108 V
4 11 V
12 -11 V
13 2 V
3 105 V
19 -107 V
12 6 V
7 -6 V
6 325 V
6 -324 V
7 255 V
3 -147 V
22 -86 V
12 -23 V
4 10 V
18 -9 V
7 -1 V
3 0 V
9 1 V
4 0 V
3 -1 V
0 108 V
6 -108 V
3 9 V
3 -7 V
3 -2 V
22 0 V
4 1 V
6 -1 V
0 107 V
13 -107 V
6 0 V
44 0 V
3 0 V
0 107 V
10 -107 V
72 107 V
41 -107 V
35 1 V
3 -1 V
3 -1 V
0 27 V
19 294 V
12 -319 V
26 -1 V
12 107 V
25 -106 V
13 0 V
6 -1 V
10 4 V
0 -5 V
0 1 V
19 12 V
3 -12 V
12 6 V
0 -6 V
10 0 V
19 0 V
9 0 V
16 110 V
22 -110 V
16 106 V
41 -95 V
12 -11 V
22 106 V
29 -106 V
41 0 V
0 103 V
141 -103 V
0 -1 V
54 1 V
3 106 V
41 2 V
6 -108 V
41 0 V
25 0 V
7 107 V
6 -99 V
3 -8 V
3 0 V
7 0 V
15 2 V
7 -2 V
69 30 V
16 50 V
41 -80 V
50 1 V
0 -1 V
0 53 V
0 268 V
19 -123 V
9 -159 V
10 -39 V
15 0 V
19 0 V
19 0 V
29 107 V
3 -106 V
12 106 V
7 -106 V
3 0 V
3 0 V
6 0 V
stroke 8579 3500 M
3 64 V
10 -64 V
12 0 V
7 112 V
12 -112 V
10 0 V
0 106 V
22 -106 V
9 1 V
16 10 V
3 -11 V
3 13 V
0 -13 V
4 0 V
9 3 V
0 104 V
3 -107 V
0 106 V
10 -106 V
3 0 V
0 1 V
0 1 V
0 -1 V
6 -1 V
9 2 V
4 -4 V
6 2 V
19 0 V
19 0 V
3 0 V
9 230 V
25 -229 V
7 17 V
6 271 V
16 3039 V
9 -3310 V
0 89 V
22 -107 V
13 1 V
0 1 V
13 -2 V
3 0 V
6 1 V
3 0 V
6 -1 V
16 0 V
3 0 V
0 107 V
10 -107 V
12 0 V
54 0 V
0 1 V
3 -1 V
123 107 V
3 -106 V
9 -1 V
10 1 V
19 -1 V
0 2 V
0 104 V
16 -105 V
0 107 V
9 -107 V
3 -1 V
6 9 V
13 -2 V
3 -7 V
10 0 V
0 15 V
0 93 V
6 -106 V
13 -2 V
9 1 V
3 4 V
29 39 V
3 -44 V
12 97 V
41 -97 V
0 1 V
0 106 V
10 -107 V
3 0 V
6 107 V
10 -106 V
28 -1 V
19 0 V
9 0 V
7 0 V
9 0 V
0 106 V
3 -106 V
28 0 V
13 0 V
19 1 V
9 1 V
4 106 V
6 -106 V
0 17 V
3 -17 V
13 6 V
3 -6 V
0 106 V
6 -106 V
10 516 V
stroke 9575 4018 M
9 -410 V
19 -106 V
0 320 V
16 -320 V
6 0 V
3 470 V
3 -470 V
0 107 V
29 -107 V
6 0 V
6 0 V
3 0 V
10 0 V
9 0 V
13 12 V
3 -12 V
13 0 V
6 0 V
6 0 V
16 1 V
3 -1 V
6 0 V
0 46 V
7 -46 V
3 0 V
3 0 V
6 2 V
0 1 V
3 -4 V
0 39 V
7 -38 V
3 0 V
3 0 V
0 -1 V
3 1 V
13 0 V
22 106 V
28 69 V
13 -175 V
9 106 V
10 -106 V
0 106 V
12 -106 V
54 0 V
19 291 V
37 -291 V
38 1 V
19 112 V
3 -113 V
41 15 V
3 -15 V
0 216 V
19 -216 V
10 0 V
3 0 V
6 0 V
16 2 V
6 -3 V
0 1 V
0 134 V
7 -133 V
6 106 V
6 -107 V
3 0 V
10 4 V
3 4 V
0 -12 V
3 3 V
3 1 V
3 1 V
0 -1 V
32 2 V
6 23 V
3 82 V
3 -107 V
0 6 V
0 -6 V
0 106 V
4 -106 V
6 0 V
6 106 V
13 0 V
9 -93 V
7 -13 V
6 0 V
0 106 V
9 -85 V
3 -21 V
10 212 V
6 -212 V
16 -1 V
44 1 V
6 1 V
57 -1 V
13 0 V
12 2 V
0 18 V
3 86 V
7 -106 V
3 -1 V
9 143 V
13 -142 V
22 0 V
50 0 V
stroke 10601 3502 M
107 -1 V
10 1 V
0 1 V
0 105 V
9 -107 V
0 110 V
32 -109 V
0 -1 V
204 1 V
54 -1 V
25 1 V
0 4 V
0 111 V
0 369 V
16 -482 V
41 99 V
19 -102 V
12 9 V
4 98 V
75 -107 V
16 1 V
9 0 V
13 0 V
38 305 V
60 -297 V
9 -8 V
3 110 V
19 -110 V
35 62 V
15 44 V
7 -106 V
6 -1 V
6 1 V
22 200 V
10 -201 V
25 108 V
9 -107 V
19 0 V
4 0 V
3 -1 V
22 -4 V
47 5 V
13 0 V
3 0 V
3 106 V
38 142 V
9 -249 V
0 1 V
10 0 V
12 1 V
6 3 V
4 -5 V
0 1 V
3 0 V
19 0 V
3 -1 V
3 0 V
0 2 V
6 -2 V
22 0 V
13 0 V
9 0 V
10 5 V
19 -5 V
9 0 V
19 4 V
0 -4 V
22 0 V
3 106 V
32 2 V
47 -108 V
9 0 V
35 0 V
28 0 V
4 0 V
0 106 V
22 -88 V
28 -18 V
9 6 V
4 -4 V
15 746 V
29 -747 V
6 -1 V
94 0 V
7 0 V
66 0 V
3 106 V
6 0 V
25 -106 V
48 0 V
12 248 V
22 -243 V
10 105 V
104 -106 V
9 75 V
19 242 V
19 -203 V
224 -113 V
69 -1 V
1200 3749 TriUF
1231 3499 TriUF
1235 3499 TriUF
1250 3500 TriUF
1257 3499 TriUF
1257 3500 TriUF
1326 3499 TriUF
1326 3499 TriUF
1439 3499 TriUF
1515 3499 TriUF
1518 3499 TriUF
1528 3498 TriUF
1780 3510 TriUF
1798 3499 TriUF
2368 3820 TriUF
2614 3504 TriUF
2690 3499 TriUF
2690 3499 TriUF
2693 3513 TriUF
2693 3606 TriUF
2724 3499 TriUF
2724 3499 TriUF
2724 3499 TriUF
2724 3606 TriUF
2728 3499 TriUF
2737 3606 TriUF
2740 3499 TriUF
2784 3499 TriUF
2800 3499 TriUF
2800 3499 TriUF
2803 3499 TriUF
2803 3499 TriUF
2806 3499 TriUF
2825 3605 TriUF
2835 3513 TriUF
2838 3499 TriUF
2844 3499 TriUF
2847 3499 TriUF
2853 3499 TriUF
2863 3499 TriUF
2876 3499 TriUF
2876 3499 TriUF
2888 3820 TriUF
2891 3499 TriUF
2898 3499 TriUF
2901 3499 TriUF
2913 3499 TriUF
2913 3606 TriUF
2916 3499 TriUF
2932 3499 TriUF
2935 3500 TriUF
2954 3493 TriUF
2976 3526 TriUF
2976 3537 TriUF
2979 3499 TriUF
2979 3535 TriUF
2983 3499 TriUF
2983 3544 TriUF
2986 3499 TriUF
2986 3517 TriUF
2986 3503 TriUF
2986 3499 TriUF
2986 3499 TriUF
2992 3499 TriUF
2992 3499 TriUF
2992 3513 TriUF
2992 3518 TriUF
2995 3499 TriUF
2998 3515 TriUF
2998 3649 TriUF
3002 3499 TriUF
3002 3500 TriUF
3002 3499 TriUF
3002 3600 TriUF
3005 3504 TriUF
3008 3499 TriUF
3008 3499 TriUF
3008 3512 TriUF
3011 3499 TriUF
3017 3499 TriUF
3017 3506 TriUF
3017 3499 TriUF
3017 3499 TriUF
3024 3499 TriUF
3024 3499 TriUF
3024 3499 TriUF
3024 3499 TriUF
3024 3499 TriUF
3027 3609 TriUF
3039 3557 TriUF
3046 3499 TriUF
3052 3499 TriUF
3055 3499 TriUF
3065 3501 TriUF
3087 3630 TriUF
3105 3499 TriUF
3105 3523 TriUF
3109 3514 TriUF
3109 3499 TriUF
3115 3499 TriUF
3115 3499 TriUF
3115 3513 TriUF
3118 3499 TriUF
3118 3499 TriUF
3118 3499 TriUF
3118 3606 TriUF
3121 3499 TriUF
3121 3499 TriUF
3121 3499 TriUF
3121 3499 TriUF
3121 3499 TriUF
3124 3499 TriUF
3124 3499 TriUF
3124 3499 TriUF
3127 3499 TriUF
3146 3500 TriUF
3153 3533 TriUF
3172 3499 TriUF
3175 3498 TriUF
3175 3518 TriUF
3200 3531 TriUF
3209 3498 TriUF
3253 3498 TriUF
3253 3498 TriUF
3253 3498 TriUF
3257 3498 TriUF
3257 3498 TriUF
3260 3498 TriUF
3263 3505 TriUF
3304 3498 TriUF
3310 3498 TriUF
3313 3498 TriUF
3313 3498 TriUF
3316 3498 TriUF
3436 3499 TriUF
3483 3499 TriUF
3553 3501 TriUF
3568 3499 TriUF
3805 3503 TriUF
3805 3498 TriUF
3811 3498 TriUF
3868 3497 TriUF
3874 3498 TriUF
3934 3497 TriUF
3975 3518 TriUF
3978 3498 TriUF
3981 3497 TriUF
4025 3497 TriUF
4066 3497 TriUF
4069 3500 TriUF
4079 3498 TriUF
4082 3497 TriUF
4088 3519 TriUF
4091 3497 TriUF
4116 3497 TriUF
4120 3497 TriUF
4120 3497 TriUF
4123 3498 TriUF
4123 3497 TriUF
4123 3497 TriUF
4123 3498 TriUF
4138 3499 TriUF
4148 3497 TriUF
4170 3498 TriUF
4179 3498 TriUF
4192 3498 TriUF
4195 3498 TriUF
4195 3497 TriUF
4195 3498 TriUF
4198 3498 TriUF
4198 3497 TriUF
4201 3497 TriUF
4205 3498 TriUF
4205 3497 TriUF
4205 3497 TriUF
4205 3498 TriUF
4205 3497 TriUF
4220 3514 TriUF
4233 3497 TriUF
4246 3499 TriUF
4274 3512 TriUF
4277 3498 TriUF
4277 3497 TriUF
4287 3497 TriUF
4287 3497 TriUF
4331 3498 TriUF
4334 3498 TriUF
4337 3497 TriUF
4340 3497 TriUF
4340 3498 TriUF
4340 3498 TriUF
4340 3499 TriUF
4340 3522 TriUF
4346 3498 TriUF
4346 3498 TriUF
4353 3497 TriUF
4362 3619 TriUF
4403 3506 TriUF
4406 3514 TriUF
4412 3498 TriUF
4412 3498 TriUF
4416 3498 TriUF
4422 3498 TriUF
4447 3498 TriUF
4450 3498 TriUF
4457 3497 TriUF
4457 3497 TriUF
4460 3497 TriUF
4479 3497 TriUF
4513 3497 TriUF
4516 3497 TriUF
4523 3498 TriUF
4526 3498 TriUF
4526 3498 TriUF
4532 3548 TriUF
4542 3497 TriUF
4564 3498 TriUF
4573 3498 TriUF
4595 3497 TriUF
4598 3499 TriUF
4605 3498 TriUF
4605 3498 TriUF
4608 3498 TriUF
4617 3498 TriUF
4630 3499 TriUF
4655 3605 TriUF
4674 3527 TriUF
4677 3498 TriUF
4677 3507 TriUF
4677 3497 TriUF
4686 3499 TriUF
4696 3498 TriUF
4696 3498 TriUF
4709 3502 TriUF
4709 3499 TriUF
4718 3498 TriUF
4718 3600 TriUF
4727 3606 TriUF
4734 3498 TriUF
4734 3501 TriUF
4753 3512 TriUF
4759 3531 TriUF
4768 3499 TriUF
4768 3498 TriUF
4768 3504 TriUF
4768 3498 TriUF
4778 3541 TriUF
4781 3498 TriUF
4787 3498 TriUF
4787 3500 TriUF
4787 3498 TriUF
4787 3501 TriUF
4787 3502 TriUF
4787 3498 TriUF
4794 3498 TriUF
4800 3498 TriUF
4800 3498 TriUF
4812 3498 TriUF
4812 3604 TriUF
4816 3498 TriUF
4819 3498 TriUF
4819 3497 TriUF
4822 3498 TriUF
4822 3498 TriUF
4825 3498 TriUF
4825 3498 TriUF
4835 3501 TriUF
4835 3498 TriUF
4835 3505 TriUF
4841 3500 TriUF
4844 3498 TriUF
4847 3498 TriUF
4847 3498 TriUF
4847 3498 TriUF
4853 3503 TriUF
4879 3498 TriUF
4879 3498 TriUF
4879 3500 TriUF
4891 3604 TriUF
4894 3498 TriUF
4894 3497 TriUF
4894 3497 TriUF
4898 3498 TriUF
4898 3605 TriUF
4904 3498 TriUF
4923 3498 TriUF
4932 3498 TriUF
4935 3502 TriUF
4935 3497 TriUF
4945 3497 TriUF
4948 3605 TriUF
4951 3498 TriUF
4954 3498 TriUF
4970 3498 TriUF
4970 3498 TriUF
4973 3501 TriUF
4992 3499 TriUF
5001 3577 TriUF
5011 3498 TriUF
5023 3498 TriUF
5033 3498 TriUF
5033 3498 TriUF
5039 3695 TriUF
5080 3543 TriUF
5083 3498 TriUF
5083 3498 TriUF
5083 3498 TriUF
5086 3498 TriUF
5086 3499 TriUF
5086 3511 TriUF
5090 3653 TriUF
5093 3499 TriUF
5096 3523 TriUF
5096 3605 TriUF
5099 3660 TriUF
5102 3499 TriUF
5112 3499 TriUF
5115 3515 TriUF
5121 3502 TriUF
5127 3499 TriUF
5127 3499 TriUF
5127 3499 TriUF
5127 3499 TriUF
5131 3502 TriUF
5143 3498 TriUF
5143 3498 TriUF
5143 3503 TriUF
5149 3498 TriUF
5165 3498 TriUF
5219 3501 TriUF
5222 3499 TriUF
5231 3586 TriUF
5238 3499 TriUF
5241 3499 TriUF
5241 3500 TriUF
5244 3498 TriUF
5244 3498 TriUF
5244 3502 TriUF
5244 3499 TriUF
5247 3499 TriUF
5247 3498 TriUF
5253 3498 TriUF
5257 3498 TriUF
5257 3534 TriUF
5266 3498 TriUF
5266 3609 TriUF
5272 3499 TriUF
5279 3498 TriUF
5282 3498 TriUF
5285 3499 TriUF
5288 3498 TriUF
5288 3499 TriUF
5288 3499 TriUF
5288 3499 TriUF
5288 3569 TriUF
5291 3504 TriUF
5297 3505 TriUF
5297 3499 TriUF
5297 3499 TriUF
5297 3499 TriUF
5297 3500 TriUF
5297 3499 TriUF
5307 3498 TriUF
5313 3498 TriUF
5320 3499 TriUF
5326 3505 TriUF
5326 3499 TriUF
5335 3499 TriUF
5342 3501 TriUF
5342 3605 TriUF
5360 3499 TriUF
5389 3501 TriUF
5389 3605 TriUF
5392 3526 TriUF
5408 3518 TriUF
5411 3535 TriUF
5414 3499 TriUF
5414 3499 TriUF
5430 3498 TriUF
5430 3499 TriUF
5436 3499 TriUF
5446 3499 TriUF
5452 3499 TriUF
5452 3607 TriUF
5455 3500 TriUF
5458 3548 TriUF
5461 3500 TriUF
5486 3501 TriUF
5546 3499 TriUF
5553 3498 TriUF
5581 3499 TriUF
5625 3498 TriUF
5638 3498 TriUF
5644 3498 TriUF
5644 3498 TriUF
5644 3498 TriUF
5650 3498 TriUF
5650 3501 TriUF
5660 3498 TriUF
5660 3498 TriUF
5663 3506 TriUF
5663 3498 TriUF
5685 3500 TriUF
5735 3499 TriUF
5742 3501 TriUF
5745 3499 TriUF
5745 3499 TriUF
5751 3574 TriUF
5760 3499 TriUF
5760 3499 TriUF
5764 3499 TriUF
5808 3499 TriUF
5808 3605 TriUF
5836 3508 TriUF
5864 3510 TriUF
5864 3499 TriUF
5896 3605 TriUF
5927 3500 TriUF
5965 3499 TriUF
5975 3517 TriUF
5981 3499 TriUF
5990 3499 TriUF
6000 3514 TriUF
6012 3499 TriUF
6031 3500 TriUF
6031 3504 TriUF
6031 3514 TriUF
6041 3501 TriUF
6129 3499 TriUF
6145 3499 TriUF
6173 3499 TriUF
6195 3516 TriUF
6195 3608 TriUF
6195 3614 TriUF
6208 3501 TriUF
6208 3500 TriUF
6211 3499 TriUF
6211 3499 TriUF
6223 3499 TriUF
6223 3519 TriUF
6258 3513 TriUF
6268 3499 TriUF
6280 3607 TriUF
6280 3608 TriUF
6286 3499 TriUF
6290 3501 TriUF
6293 3500 TriUF
6296 3501 TriUF
6296 3501 TriUF
6296 3606 TriUF
6302 3499 TriUF
6305 3519 TriUF
6308 3500 TriUF
6308 3608 TriUF
6312 3768 TriUF
6318 3606 TriUF
6321 3501 TriUF
6321 3514 TriUF
6324 3502 TriUF
6331 3499 TriUF
6334 3500 TriUF
6334 3499 TriUF
6337 3500 TriUF
6346 3513 TriUF
6346 3499 TriUF
6349 3500 TriUF
6353 3557 TriUF
6362 4053 TriUF
6365 3500 TriUF
6375 3517 TriUF
6378 3499 TriUF
6378 3508 TriUF
6387 3499 TriUF
6387 3499 TriUF
6390 3499 TriUF
6394 3499 TriUF
6412 3620 TriUF
6416 3499 TriUF
6419 3499 TriUF
6419 3499 TriUF
6428 3499 TriUF
6428 3500 TriUF
6431 3499 TriUF
6434 3499 TriUF
6434 3499 TriUF
6438 3824 TriUF
6441 3673 TriUF
6444 3501 TriUF
6447 3499 TriUF
6447 3588 TriUF
6450 3499 TriUF
6457 3499 TriUF
6466 3499 TriUF
6472 3499 TriUF
6479 3499 TriUF
6479 3499 TriUF
6482 3499 TriUF
6482 3525 TriUF
6485 3499 TriUF
6488 3500 TriUF
6491 3503 TriUF
6491 3524 TriUF
6491 3891 TriUF
6494 3499 TriUF
6494 3606 TriUF
6497 3534 TriUF
6504 3499 TriUF
6507 3500 TriUF
6507 3668 TriUF
6510 3607 TriUF
6513 3499 TriUF
6513 3504 TriUF
6516 3512 TriUF
6516 3499 TriUF
6532 3499 TriUF
6532 3499 TriUF
6542 3542 TriUF
6548 3499 TriUF
6557 3500 TriUF
6557 3500 TriUF
6567 3672 TriUF
6573 3499 TriUF
6573 3500 TriUF
6573 3502 TriUF
6586 3607 TriUF
6586 3607 TriUF
6589 3502 TriUF
6595 3501 TriUF
6595 3499 TriUF
6595 3781 TriUF
6605 3528 TriUF
6614 3500 TriUF
6620 3606 TriUF
6633 3499 TriUF
6636 3499 TriUF
6652 3502 TriUF
6652 3503 TriUF
6658 3503 TriUF
6658 3503 TriUF
6658 3502 TriUF
6664 3516 TriUF
6664 3503 TriUF
6671 3538 TriUF
6674 3823 TriUF
6677 3503 TriUF
6677 3503 TriUF
6680 3503 TriUF
6686 3503 TriUF
6686 3610 TriUF
6693 3502 TriUF
6693 3503 TriUF
6693 3502 TriUF
6696 3503 TriUF
6702 3503 TriUF
6705 3567 TriUF
6708 3503 TriUF
6708 3503 TriUF
6712 3503 TriUF
6715 3503 TriUF
6731 3503 TriUF
6731 3503 TriUF
6731 3500 TriUF
6731 3503 TriUF
6737 3502 TriUF
6753 3823 TriUF
6753 3498 TriUF
6756 3503 TriUF
6762 3523 TriUF
6794 3503 TriUF
6797 3502 TriUF
6800 3503 TriUF
6800 3503 TriUF
6800 3503 TriUF
6800 3503 TriUF
6800 3504 TriUF
6800 3516 TriUF
6800 3503 TriUF
6812 3610 TriUF
6844 3503 TriUF
6853 3503 TriUF
6857 3504 TriUF
6857 3518 TriUF
6860 3503 TriUF
6875 3503 TriUF
6875 3504 TriUF
6885 3503 TriUF
6885 3503 TriUF
6885 3609 TriUF
6894 3503 TriUF
6897 3505 TriUF
6904 3503 TriUF
6904 3512 TriUF
6919 3503 TriUF
6938 3503 TriUF
6938 3517 TriUF
6945 3503 TriUF
6945 3610 TriUF
6957 3503 TriUF
6970 3513 TriUF
6989 3499 TriUF
7005 3499 TriUF
7008 3510 TriUF
7014 3499 TriUF
7014 3607 TriUF
7045 3499 TriUF
7049 3510 TriUF
7061 3499 TriUF
7061 3499 TriUF
7074 3501 TriUF
7077 3606 TriUF
7096 3499 TriUF
7108 3505 TriUF
7115 3499 TriUF
7121 3824 TriUF
7127 3500 TriUF
7134 3755 TriUF
7137 3608 TriUF
7159 3522 TriUF
7171 3499 TriUF
7175 3509 TriUF
7193 3500 TriUF
7200 3499 TriUF
7200 3499 TriUF
7200 3499 TriUF
7203 3499 TriUF
7212 3500 TriUF
7216 3500 TriUF
7219 3499 TriUF
7219 3607 TriUF
7225 3499 TriUF
7225 3499 TriUF
7228 3508 TriUF
7231 3501 TriUF
7234 3499 TriUF
7256 3499 TriUF
7260 3500 TriUF
7266 3499 TriUF
7266 3606 TriUF
7279 3499 TriUF
7285 3499 TriUF
7285 3499 TriUF
7329 3499 TriUF
7332 3499 TriUF
7332 3606 TriUF
7342 3499 TriUF
7414 3606 TriUF
7455 3499 TriUF
7490 3500 TriUF
7493 3499 TriUF
7496 3498 TriUF
7496 3525 TriUF
7515 3819 TriUF
7527 3500 TriUF
7553 3499 TriUF
7553 3499 TriUF
7565 3606 TriUF
7590 3500 TriUF
7603 3500 TriUF
7609 3499 TriUF
7619 3503 TriUF
7619 3498 TriUF
7619 3499 TriUF
7638 3511 TriUF
7641 3499 TriUF
7653 3505 TriUF
7653 3499 TriUF
7663 3499 TriUF
7682 3499 TriUF
7691 3499 TriUF
7707 3609 TriUF
7729 3499 TriUF
7745 3605 TriUF
7786 3510 TriUF
7798 3499 TriUF
7798 3499 TriUF
7820 3605 TriUF
7849 3499 TriUF
7890 3499 TriUF
7890 3602 TriUF
8031 3499 TriUF
8031 3498 TriUF
8085 3499 TriUF
8088 3605 TriUF
8129 3607 TriUF
8135 3499 TriUF
8176 3499 TriUF
8201 3499 TriUF
8208 3606 TriUF
8214 3507 TriUF
8217 3499 TriUF
8217 3499 TriUF
8220 3499 TriUF
8227 3499 TriUF
8242 3501 TriUF
8249 3499 TriUF
8318 3529 TriUF
8334 3579 TriUF
8375 3499 TriUF
8425 3500 TriUF
8425 3499 TriUF
8425 3552 TriUF
8425 3820 TriUF
8444 3697 TriUF
8453 3538 TriUF
8463 3499 TriUF
8478 3499 TriUF
8497 3499 TriUF
8516 3499 TriUF
8545 3606 TriUF
8548 3500 TriUF
8560 3606 TriUF
8560 3606 TriUF
8567 3500 TriUF
8570 3500 TriUF
8573 3500 TriUF
8579 3500 TriUF
8582 3564 TriUF
8592 3500 TriUF
8604 3500 TriUF
8611 3612 TriUF
8623 3500 TriUF
8633 3500 TriUF
8633 3606 TriUF
8655 3500 TriUF
8664 3501 TriUF
8680 3511 TriUF
8683 3500 TriUF
8686 3513 TriUF
8686 3500 TriUF
8690 3500 TriUF
8699 3503 TriUF
8699 3607 TriUF
8702 3500 TriUF
8702 3606 TriUF
8712 3500 TriUF
8715 3500 TriUF
8715 3500 TriUF
8715 3501 TriUF
8715 3502 TriUF
8715 3501 TriUF
8721 3500 TriUF
8730 3502 TriUF
8734 3498 TriUF
8740 3500 TriUF
8759 3500 TriUF
8778 3500 TriUF
8781 3500 TriUF
8790 3730 TriUF
8815 3501 TriUF
8822 3518 TriUF
8828 3789 TriUF
8844 6828 TriUF
8853 3518 TriUF
8853 3607 TriUF
8875 3500 TriUF
8875 3500 TriUF
8888 3501 TriUF
8888 3502 TriUF
8901 3500 TriUF
8901 3500 TriUF
8904 3500 TriUF
8910 3501 TriUF
8913 3501 TriUF
8919 3500 TriUF
8935 3500 TriUF
8938 3500 TriUF
8938 3607 TriUF
8948 3500 TriUF
8960 3500 TriUF
9014 3500 TriUF
9014 3501 TriUF
9017 3500 TriUF
9140 3607 TriUF
9143 3501 TriUF
9143 3501 TriUF
9152 3500 TriUF
9162 3501 TriUF
9181 3500 TriUF
9181 3500 TriUF
9181 3502 TriUF
9181 3606 TriUF
9197 3501 TriUF
9197 3608 TriUF
9206 3501 TriUF
9209 3500 TriUF
9215 3509 TriUF
9228 3507 TriUF
9231 3500 TriUF
9241 3500 TriUF
9241 3515 TriUF
9241 3608 TriUF
9247 3502 TriUF
9260 3500 TriUF
9260 3500 TriUF
9269 3501 TriUF
9272 3505 TriUF
9301 3544 TriUF
9304 3500 TriUF
9316 3597 TriUF
9357 3500 TriUF
9357 3501 TriUF
9357 3607 TriUF
9367 3500 TriUF
9367 3500 TriUF
9370 3500 TriUF
9376 3607 TriUF
9386 3501 TriUF
9414 3500 TriUF
9433 3500 TriUF
9442 3500 TriUF
9442 3500 TriUF
9442 3500 TriUF
9449 3500 TriUF
9458 3500 TriUF
9458 3500 TriUF
9458 3606 TriUF
9461 3500 TriUF
9489 3500 TriUF
9502 3500 TriUF
9521 3501 TriUF
9530 3502 TriUF
9530 3502 TriUF
9534 3608 TriUF
9540 3502 TriUF
9540 3519 TriUF
9543 3502 TriUF
9556 3508 TriUF
9559 3502 TriUF
9559 3502 TriUF
9559 3608 TriUF
9565 3502 TriUF
9565 3502 TriUF
9575 4018 TriUF
9584 3608 TriUF
9603 3502 TriUF
9603 3822 TriUF
9619 3502 TriUF
9625 3502 TriUF
9628 3972 TriUF
9631 3502 TriUF
9631 3609 TriUF
9660 3502 TriUF
9666 3502 TriUF
9672 3502 TriUF
9675 3502 TriUF
9685 3502 TriUF
9694 3502 TriUF
9707 3514 TriUF
9710 3502 TriUF
9710 3502 TriUF
9723 3502 TriUF
9729 3502 TriUF
9729 3502 TriUF
9735 3502 TriUF
9751 3503 TriUF
9754 3502 TriUF
9760 3502 TriUF
9760 3548 TriUF
9767 3502 TriUF
9767 3502 TriUF
9770 3502 TriUF
9773 3502 TriUF
9779 3504 TriUF
9779 3505 TriUF
9782 3501 TriUF
9782 3540 TriUF
9789 3502 TriUF
9792 3502 TriUF
9795 3502 TriUF
9795 3501 TriUF
9798 3502 TriUF
9811 3502 TriUF
9833 3608 TriUF
9861 3677 TriUF
9874 3502 TriUF
9883 3608 TriUF
9893 3502 TriUF
9893 3502 TriUF
9893 3608 TriUF
9905 3502 TriUF
9959 3502 TriUF
9978 3793 TriUF
10015 3502 TriUF
10053 3503 TriUF
10072 3615 TriUF
10075 3502 TriUF
10116 3517 TriUF
10119 3502 TriUF
10119 3502 TriUF
10119 3718 TriUF
10138 3502 TriUF
10148 3502 TriUF
10151 3502 TriUF
10157 3502 TriUF
10173 3504 TriUF
10179 3501 TriUF
10179 3502 TriUF
10179 3502 TriUF
10179 3502 TriUF
10179 3636 TriUF
10186 3503 TriUF
10192 3609 TriUF
10198 3502 TriUF
10201 3502 TriUF
10211 3506 TriUF
10214 3510 TriUF
10214 3498 TriUF
10217 3501 TriUF
10220 3502 TriUF
10223 3503 TriUF
10223 3502 TriUF
10255 3504 TriUF
10261 3527 TriUF
10264 3609 TriUF
10267 3502 TriUF
10267 3508 TriUF
10267 3502 TriUF
10267 3608 TriUF
10271 3502 TriUF
10277 3502 TriUF
10283 3608 TriUF
10296 3608 TriUF
10305 3515 TriUF
10312 3502 TriUF
10318 3502 TriUF
10318 3502 TriUF
10318 3502 TriUF
10318 3608 TriUF
10327 3523 TriUF
10330 3502 TriUF
10340 3714 TriUF
10346 3502 TriUF
10362 3501 TriUF
10406 3502 TriUF
10412 3503 TriUF
10469 3502 TriUF
10482 3502 TriUF
10494 3504 TriUF
10494 3522 TriUF
10497 3608 TriUF
10504 3502 TriUF
10507 3501 TriUF
10516 3644 TriUF
10529 3502 TriUF
10551 3502 TriUF
10551 3502 TriUF
10601 3502 TriUF
10708 3501 TriUF
10718 3502 TriUF
10718 3503 TriUF
10718 3608 TriUF
10727 3501 TriUF
10727 3611 TriUF
10759 3502 TriUF
10759 3501 TriUF
10963 3502 TriUF
11017 3501 TriUF
11042 3502 TriUF
11042 3506 TriUF
11042 3617 TriUF
11042 3986 TriUF
11058 3504 TriUF
11099 3603 TriUF
11118 3501 TriUF
11130 3510 TriUF
11134 3608 TriUF
11209 3501 TriUF
11225 3502 TriUF
11234 3502 TriUF
11247 3502 TriUF
11285 3807 TriUF
11345 3510 TriUF
11354 3502 TriUF
11357 3612 TriUF
11376 3502 TriUF
11411 3564 TriUF
11426 3608 TriUF
11433 3502 TriUF
11439 3501 TriUF
11445 3502 TriUF
11467 3702 TriUF
11477 3501 TriUF
11502 3609 TriUF
11511 3502 TriUF
11530 3502 TriUF
11534 3502 TriUF
11537 3501 TriUF
11559 3497 TriUF
11606 3502 TriUF
11619 3502 TriUF
11622 3502 TriUF
11625 3608 TriUF
11663 3750 TriUF
11672 3501 TriUF
11672 3502 TriUF
11682 3502 TriUF
11694 3503 TriUF
11700 3506 TriUF
11704 3501 TriUF
11704 3502 TriUF
11707 3502 TriUF
11726 3502 TriUF
11729 3501 TriUF
11732 3501 TriUF
11732 3503 TriUF
11738 3501 TriUF
11760 3501 TriUF
11773 3501 TriUF
11782 3501 TriUF
11792 3506 TriUF
11811 3501 TriUF
11820 3501 TriUF
11839 3505 TriUF
11839 3501 TriUF
11861 3501 TriUF
11864 3607 TriUF
11896 3609 TriUF
11943 3501 TriUF
11952 3501 TriUF
11987 3501 TriUF
12015 3501 TriUF
12019 3501 TriUF
12019 3501 TriUF
12019 3607 TriUF
12041 3519 TriUF
12069 3501 TriUF
12078 3507 TriUF
12082 3503 TriUF
12097 4249 TriUF
12126 3502 TriUF
12132 3501 TriUF
12226 3501 TriUF
12233 3501 TriUF
12299 3501 TriUF
12302 3607 TriUF
12308 3607 TriUF
12333 3501 TriUF
12381 3501 TriUF
12393 3749 TriUF
12415 3506 TriUF
12425 3611 TriUF
12529 3505 TriUF
12538 3580 TriUF
12557 3822 TriUF
12576 3619 TriUF
12800 3506 TriUF
12869 3505 TriUF
% End plot #1
1.000 UL
LTb
LCb setrgbcolor
1200 7049 N
0 -3556 V
12598 0 V
0 3556 V
-12598 0 V
Z stroke
1.000 UP
1.000 UL
LTb
LCb setrgbcolor
stroke
grestore
end
showpage
%%Page: 2 2
gnudict begin
gsave
doclip
50 50 translate
0.050 0.050 scale
0 setgray
newpath
(Times) findfont 200 scalefont setfont
BackgroundColor 0 lt 3 1 roll 0 lt exch 0 lt or or not {BackgroundColor C 1.000 0 0 14400.00 10080.00 BoxColFill} if
1.000 UL
LTb
LCb setrgbcolor
1.000 UL
LTa
LCa setrgbcolor
600 3408 M
12598 0 V
stroke
LTb
LCb setrgbcolor
600 3408 M
63 0 V
12535 0 R
-63 0 V
stroke
480 3408 M
[ [(Times) 200.0 0.0 true true 0 ( 0)]
] -66.7 MRshow
1.000 UL
LTb
LCb setrgbcolor
1.000 UL
LTa
LCa setrgbcolor
600 3928 M
12598 0 V
stroke
LTb
LCb setrgbcolor
600 3928 M
63 0 V
12535 0 R
-63 0 V
stroke
480 3928 M
[ [(Times) 200.0 0.0 true true 0 ( 50000)]
] -66.7 MRshow
1.000 UL
LTb
LCb setrgbcolor
1.000 UL
LTa
LCa setrgbcolor
600 4448 M
12598 0 V
stroke
LTb
LCb setrgbcolor
600 4448 M
63 0 V
12535 0 R
-63 0 V
stroke
480 4448 M
[ [(Times) 200.0 0.0 true true 0 ( 100000)]
] -66.7 MRshow
1.000 UL
LTb
LCb setrgbcolor
1.000 UL
LTa
LCa setrgbcolor
600 4968 M
12598 0 V
stroke
LTb
LCb setrgbcolor
600 4968 M
63 0 V
12535 0 R
-63 0 V
stroke
480 4968 M
[ [(Times) 200.0 0.0 true true 0 ( 150000)]
] -66.7 MRshow
1.000 UL
LTb
LCb setrgbcolor
1.000 UL
LTa
LCa setrgbcolor
600 5489 M
12598 0 V
stroke
LTb
LCb setrgbcolor
600 5489 M
63 0 V
12535 0 R
-63 0 V
stroke
480 5489 M
[ [(Times) 200.0 0.0 true true 0 ( 200000)]
] -66.7 MRshow
1.000 UL
LTb
LCb setrgbcolor
1.000 UL
LTa
LCa setrgbcolor
600 6009 M
12598 0 V
stroke
LTb
LCb setrgbcolor
600 6009 M
63 0 V
12535 0 R
-63 0 V
stroke
480 6009 M
[ [(Times) 200.0 0.0 true true 0 ( 250000)]
] -66.7 MRshow
1.000 UL
LTb
LCb setrgbcolor
1.000 UL
LTa
LCa setrgbcolor
600 6529 M
12598 0 V
stroke
LTb
LCb setrgbcolor
600 6529 M
63 0 V
12535 0 R
-63 0 V
stroke
480 6529 M
[ [(Times) 200.0 0.0 true true 0 ( 300000)]
] -66.7 MRshow
1.000 UL
LTb
LCb setrgbcolor
1.000 UL
LTa
LCa setrgbcolor
600 7049 M
12598 0 V
stroke
LTb
LCb setrgbcolor
600 7049 M
63 0 V
12535 0 R
-63 0 V
stroke
480 7049 M
[ [(Times) 200.0 0.0 true true 0 ( 350000)]
] -66.7 MRshow
1.000 UL
LTb
LCb setrgbcolor
1.000 UL
LTa
LCa setrgbcolor
600 3408 M
0 3641 V
stroke
LTb
LCb setrgbcolor
600 3408 M
0 63 V
0 3578 R
0 -63 V
stroke
600 3288 M
currentpoint gsave translate -45 rotate 0 0 moveto
[ [(Times) 200.0 0.0 true true 0 ( 0)]
] -66.7 MLshow
grestore
1.000 UL
LTb
LCb setrgbcolor
1.000 UL
LTa
LCa setrgbcolor
1860 3408 M
0 3641 V
stroke
LTb
LCb setrgbcolor
1860 3408 M
0 63 V
0 3578 R
0 -63 V
stroke
1860 3288 M
currentpoint gsave translate -45 rotate 0 0 moveto
[ [(Times) 200.0 0.0 true true 0 ( 10)]
] -66.7 MLshow
grestore
1.000 UL
LTb
LCb setrgbcolor
1.000 UL
LTa
LCa setrgbcolor
3120 3408 M
0 3641 V
stroke
LTb
LCb setrgbcolor
3120 3408 M
0 63 V
0 3578 R
0 -63 V
stroke
3120 3288 M
currentpoint gsave translate -45 rotate 0 0 moveto
[ [(Times) 200.0 0.0 true true 0 ( 20)]
] -66.7 MLshow
grestore
1.000 UL
LTb
LCb setrgbcolor
1.000 UL
LTa
LCa setrgbcolor
4379 3408 M
0 3641 V
stroke
LTb
LCb setrgbcolor
4379 3408 M
0 63 V
0 3578 R
0 -63 V
stroke
4379 3288 M
currentpoint gsave translate -45 rotate 0 0 moveto
[ [(Times) 200.0 0.0 true true 0 ( 30)]
] -66.7 MLshow
grestore
1.000 UL
LTb
LCb setrgbcolor
1.000 UL
LTa
LCa setrgbcolor
5639 3408 M
0 3641 V
stroke
LTb
LCb setrgbcolor
5639 3408 M
0 63 V
0 3578 R
0 -63 V
stroke
5639 3288 M
currentpoint gsave translate -45 rotate 0 0 moveto
[ [(Times) 200.0 0.0 true true 0 ( 40)]
] -66.7 MLshow
grestore
1.000 UL
LTb
LCb setrgbcolor
1.000 UL
LTa
LCa setrgbcolor
6899 3408 M
0 3641 V
stroke
LTb
LCb setrgbcolor
6899 3408 M
0 63 V
0 3578 R
0 -63 V
stroke
6899 3288 M
currentpoint gsave translate -45 rotate 0 0 moveto
[ [(Times) 200.0 0.0 true true 0 ( 50)]
] -66.7 MLshow
grestore
1.000 UL
LTb
LCb setrgbcolor
1.000 UL
LTa
LCa setrgbcolor
8159 3408 M
0 3641 V
stroke
LTb
LCb setrgbcolor
8159 3408 M
0 63 V
0 3578 R
0 -63 V
stroke
8159 3288 M
currentpoint gsave translate -45 rotate 0 0 moveto
[ [(Times) 200.0 0.0 true true 0 ( 60)]
] -66.7 MLshow
grestore
1.000 UL
LTb
LCb setrgbcolor
1.000 UL
LTa
LCa setrgbcolor
9419 3408 M
0 3641 V
stroke
LTb
LCb setrgbcolor
9419 3408 M
0 63 V
0 3578 R
0 -63 V
stroke
9419 3288 M
currentpoint gsave translate -45 rotate 0 0 moveto
[ [(Times) 200.0 0.0 true true 0 ( 70)]
] -66.7 MLshow
grestore
1.000 UL
LTb
LCb setrgbcolor
1.000 UL
LTa
LCa setrgbcolor
10678 3408 M
0 3641 V
stroke
LTb
LCb setrgbcolor
10678 3408 M
0 63 V
0 3578 R
0 -63 V
stroke
10678 3288 M
currentpoint gsave translate -45 rotate 0 0 moveto
[ [(Times) 200.0 0.0 true true 0 ( 80)]
] -66.7 MLshow
grestore
1.000 UL
LTb
LCb setrgbcolor
1.000 UL
LTa
LCa setrgbcolor
11938 3408 M
0 3641 V
stroke
LTb
LCb setrgbcolor
11938 3408 M
0 63 V
0 3578 R
0 -63 V
stroke
11938 3288 M
currentpoint gsave translate -45 rotate 0 0 moveto
[ [(Times) 200.0 0.0 true true 0 ( 90)]
] -66.7 MLshow
grestore
1.000 UL
LTb
LCb setrgbcolor
1.000 UL
LTa
LCa setrgbcolor
13198 3408 M
0 3641 V
stroke
LTb
LCb setrgbcolor
13198 3408 M
0 63 V
0 3578 R
0 -63 V
stroke
13198 3288 M
currentpoint gsave translate -45 rotate 0 0 moveto
[ [(Times) 200.0 0.0 true true 0 ( 100)]
] -66.7 MLshow
grestore
1.000 UL
LTb
LCb setrgbcolor
1.000 UL
LTb
LCb setrgbcolor
600 7049 N
0 -3641 V
12598 0 V
0 3641 V
600 7049 L
Z stroke
LCb setrgbcolor
-580 5228 M
currentpoint gsave translate -270 rotate 0 0 moveto
[ [(Times) 200.0 0.0 true true 0 (Flow size [bytes])]
] -66.7 MCshow
grestore
LTb
LCb setrgbcolor
6899 2769 M
[ [(Times) 200.0 0.0 true true 0 (Duration [sec])]
] -66.7 MCshow
LTb
6899 7349 M
[ [(Times) 200.0 0.0 true true 0 (src port 80, repeating connections sorted by duration)]
] -66.7 MCshow
1.000 UP
1.000 UL
LTb
LCb setrgbcolor
1.000 UL
LT8
LC8 setrgbcolor
6508 63 N
782 0 V
-782 0 V
Z stroke
% Begin plot #1
1.000 UP
1.000 UL
LT8
1.00 0.00 0.00 C 600 3423 TriUF
613 3410 TriUF
613 3410 TriUF
613 3410 TriUF
614 3410 TriUF
614 3410 TriUF
614 3410 TriUF
614 3410 TriUF
614 3410 TriUF
614 3410 TriUF
614 3410 TriUF
614 3410 TriUF
614 3410 TriUF
614 3410 TriUF
614 3410 TriUF
614 3410 TriUF
614 3410 TriUF
614 3410 TriUF
614 3410 TriUF
614 3410 TriUF
614 3410 TriUF
615 3410 TriUF
615 3410 TriUF
615 3410 TriUF
615 3410 TriUF
615 3410 TriUF
615 3410 TriUF
615 3410 TriUF
615 3410 TriUF
615 3410 TriUF
615 3410 TriUF
615 3410 TriUF
615 3410 TriUF
615 3410 TriUF
615 3410 TriUF
616 3410 TriUF
616 3410 TriUF
616 3410 TriUF
616 3410 TriUF
616 3410 TriUF
616 3410 TriUF
616 3410 TriUF
616 3410 TriUF
616 3410 TriUF
616 3410 TriUF
616 3410 TriUF
616 3410 TriUF
616 3410 TriUF
616 3410 TriUF
616 3410 TriUF
616 3410 TriUF
616 3410 TriUF
616 3410 TriUF
616 3410 TriUF
616 3410 TriUF
617 3410 TriUF
617 3410 TriUF
617 3410 TriUF
617 3410 TriUF
617 3410 TriUF
617 3410 TriUF
617 3410 TriUF
617 3410 TriUF
617 3453 TriUF
617 3410 TriUF
617 3410 TriUF
617 3410 TriUF
617 3410 TriUF
617 3410 TriUF
617 3410 TriUF
617 3410 TriUF
617 3410 TriUF
617 3410 TriUF
617 3410 TriUF
617 3410 TriUF
617 3410 TriUF
617 3410 TriUF
617 3410 TriUF
617 3410 TriUF
617 3410 TriUF
617 3410 TriUF
618 3410 TriUF
618 3410 TriUF
618 3410 TriUF
618 3410 TriUF
618 3410 TriUF
618 3410 TriUF
618 3410 TriUF
618 3410 TriUF
618 3410 TriUF
618 3410 TriUF
618 3410 TriUF
618 3410 TriUF
618 3410 TriUF
618 3410 TriUF
618 3410 TriUF
618 3410 TriUF
618 3410 TriUF
618 3410 TriUF
618 3410 TriUF
618 3410 TriUF
618 3410 TriUF
618 3410 TriUF
618 3410 TriUF
618 3410 TriUF
618 3410 TriUF
618 3410 TriUF
618 3410 TriUF
618 3410 TriUF
618 3410 TriUF
618 3410 TriUF
618 3410 TriUF
618 3410 TriUF
618 3410 TriUF
618 3410 TriUF
618 3410 TriUF
618 3410 TriUF
618 3410 TriUF
618 3410 TriUF
618 3410 TriUF
618 3410 TriUF
618 3410 TriUF
618 3410 TriUF
618 3410 TriUF
618 3410 TriUF
618 3410 TriUF
618 3410 TriUF
618 3410 TriUF
618 3410 TriUF
619 3410 TriUF
619 3410 TriUF
619 3410 TriUF
619 3410 TriUF
619 3410 TriUF
619 3410 TriUF
619 3410 TriUF
619 3410 TriUF
619 3410 TriUF
619 3410 TriUF
619 3410 TriUF
619 3410 TriUF
619 3410 TriUF
619 3410 TriUF
619 3453 TriUF
619 3410 TriUF
619 3410 TriUF
619 3410 TriUF
619 3410 TriUF
619 3410 TriUF
619 3410 TriUF
619 3410 TriUF
619 3410 TriUF
619 3410 TriUF
619 3410 TriUF
619 3410 TriUF
619 3410 TriUF
619 3410 TriUF
619 3410 TriUF
619 3410 TriUF
619 3410 TriUF
619 3410 TriUF
619 3410 TriUF
619 3410 TriUF
619 3410 TriUF
619 3410 TriUF
619 3410 TriUF
619 3410 TriUF
619 3410 TriUF
619 3410 TriUF
619 3410 TriUF
620 3410 TriUF
620 3410 TriUF
620 3410 TriUF
620 3410 TriUF
620 3410 TriUF
620 3410 TriUF
620 3410 TriUF
620 3410 TriUF
620 3410 TriUF
620 3410 TriUF
620 3410 TriUF
620 3410 TriUF
620 3410 TriUF
620 3410 TriUF
620 3410 TriUF
620 3410 TriUF
620 3410 TriUF
620 3410 TriUF
620 3410 TriUF
620 3410 TriUF
620 3410 TriUF
620 3410 TriUF
620 3410 TriUF
620 3410 TriUF
620 3410 TriUF
620 3410 TriUF
620 3410 TriUF
620 3410 TriUF
620 3410 TriUF
620 3410 TriUF
620 3410 TriUF
620 3410 TriUF
620 3410 TriUF
620 3410 TriUF
620 3410 TriUF
620 3410 TriUF
620 3410 TriUF
620 3410 TriUF
620 3410 TriUF
620 3410 TriUF
620 3410 TriUF
620 3410 TriUF
620 3410 TriUF
620 3410 TriUF
620 3410 TriUF
620 3410 TriUF
620 3410 TriUF
620 3410 TriUF
620 3410 TriUF
620 3410 TriUF
620 3410 TriUF
620 3410 TriUF
620 3410 TriUF
620 3410 TriUF
620 3410 TriUF
620 3410 TriUF
620 3410 TriUF
620 3410 TriUF
620 3410 TriUF
620 3410 TriUF
620 3410 TriUF
620 3410 TriUF
620 3410 TriUF
620 3410 TriUF
620 3410 TriUF
620 3410 TriUF
620 3410 TriUF
621 3410 TriUF
621 3410 TriUF
621 3410 TriUF
621 3410 TriUF
621 3410 TriUF
621 3410 TriUF
621 3410 TriUF
621 3410 TriUF
621 3410 TriUF
621 3410 TriUF
621 3410 TriUF
621 3410 TriUF
621 3410 TriUF
621 3410 TriUF
621 3410 TriUF
621 3410 TriUF
621 3410 TriUF
621 3410 TriUF
621 3410 TriUF
621 3410 TriUF
621 3410 TriUF
621 3410 TriUF
621 3410 TriUF
621 3410 TriUF
621 3410 TriUF
621 3410 TriUF
621 3410 TriUF
621 3410 TriUF
621 3410 TriUF
621 3410 TriUF
621 3410 TriUF
621 3410 TriUF
621 3410 TriUF
621 3410 TriUF
621 3410 TriUF
621 3410 TriUF
621 3410 TriUF
621 3410 TriUF
621 3410 TriUF
621 3410 TriUF
621 3410 TriUF
621 3410 TriUF
621 3410 TriUF
621 3410 TriUF
621 3410 TriUF
621 3410 TriUF
621 3410 TriUF
621 3410 TriUF
621 3410 TriUF
621 3410 TriUF
621 3410 TriUF
621 3410 TriUF
621 3410 TriUF
621 3410 TriUF
621 3410 TriUF
621 3410 TriUF
621 3410 TriUF
621 3410 TriUF
621 3410 TriUF
621 3410 TriUF
621 3410 TriUF
621 3410 TriUF
621 3410 TriUF
621 3410 TriUF
621 3410 TriUF
621 3410 TriUF
621 3410 TriUF
621 3410 TriUF
621 3410 TriUF
621 3410 TriUF
621 3410 TriUF
621 3410 TriUF
621 3410 TriUF
621 3410 TriUF
621 3410 TriUF
621 3410 TriUF
621 3410 TriUF
621 3410 TriUF
621 3410 TriUF
621 3410 TriUF
621 3410 TriUF
621 3410 TriUF
621 3410 TriUF
621 3410 TriUF
621 3410 TriUF
621 3410 TriUF
621 3410 TriUF
621 3410 TriUF
621 3410 TriUF
621 3410 TriUF
621 3410 TriUF
621 3410 TriUF
621 3410 TriUF
621 3410 TriUF
621 3410 TriUF
621 3410 TriUF
621 3410 TriUF
621 3410 TriUF
621 3410 TriUF
621 3410 TriUF
621 3410 TriUF
621 3410 TriUF
622 3410 TriUF
622 3410 TriUF
622 3410 TriUF
622 3410 TriUF
622 3410 TriUF
622 3410 TriUF
622 3410 TriUF
622 3410 TriUF
622 3410 TriUF
622 3410 TriUF
622 3410 TriUF
622 3410 TriUF
622 3410 TriUF
622 3410 TriUF
622 3410 TriUF
622 3410 TriUF
622 3410 TriUF
622 3410 TriUF
622 3410 TriUF
622 3410 TriUF
622 3410 TriUF
622 3410 TriUF
622 3410 TriUF
622 3410 TriUF
622 3410 TriUF
622 3410 TriUF
622 3410 TriUF
622 3410 TriUF
622 3410 TriUF
622 3410 TriUF
622 3410 TriUF
622 3410 TriUF
622 3410 TriUF
622 3410 TriUF
622 3410 TriUF
622 3410 TriUF
622 3410 TriUF
622 3410 TriUF
622 3410 TriUF
622 3410 TriUF
622 3410 TriUF
622 3410 TriUF
622 3484 TriUF
622 3410 TriUF
622 3410 TriUF
622 3410 TriUF
622 3410 TriUF
622 3410 TriUF
622 3410 TriUF
622 3410 TriUF
623 3410 TriUF
623 3410 TriUF
623 3410 TriUF
623 3410 TriUF
623 3410 TriUF
623 3410 TriUF
623 3410 TriUF
623 3410 TriUF
623 3410 TriUF
623 3410 TriUF
623 3410 TriUF
623 3410 TriUF
623 3410 TriUF
623 3410 TriUF
623 3410 TriUF
623 3410 TriUF
623 3410 TriUF
623 3410 TriUF
623 3410 TriUF
623 3410 TriUF
623 3410 TriUF
623 3410 TriUF
623 3410 TriUF
623 3410 TriUF
623 3410 TriUF
623 3410 TriUF
623 3410 TriUF
623 3410 TriUF
623 3410 TriUF
624 3410 TriUF
624 3410 TriUF
624 3410 TriUF
624 3410 TriUF
624 3410 TriUF
624 3410 TriUF
624 3410 TriUF
624 3410 TriUF
624 3410 TriUF
624 3410 TriUF
624 3410 TriUF
624 3410 TriUF
624 3410 TriUF
624 3410 TriUF
624 3410 TriUF
624 3410 TriUF
624 3410 TriUF
624 3410 TriUF
624 3410 TriUF
624 3410 TriUF
624 3410 TriUF
624 3410 TriUF
624 3410 TriUF
624 3410 TriUF
624 3410 TriUF
624 3410 TriUF
624 3410 TriUF
624 3410 TriUF
624 3410 TriUF
624 3410 TriUF
624 3410 TriUF
624 3410 TriUF
624 3410 TriUF
624 3410 TriUF
624 3410 TriUF
624 3410 TriUF
624 3410 TriUF
624 3410 TriUF
624 3410 TriUF
625 3410 TriUF
625 3410 TriUF
625 3410 TriUF
625 3410 TriUF
625 3410 TriUF
625 3410 TriUF
625 3410 TriUF
625 3410 TriUF
625 3410 TriUF
625 3410 TriUF
625 3410 TriUF
625 3410 TriUF
625 3410 TriUF
625 3410 TriUF
625 3410 TriUF
625 3410 TriUF
625 3410 TriUF
625 3410 TriUF
625 3410 TriUF
625 3410 TriUF
625 3410 TriUF
625 3410 TriUF
625 3410 TriUF
625 3410 TriUF
625 3410 TriUF
625 3410 TriUF
625 3410 TriUF
625 3410 TriUF
625 3410 TriUF
625 3410 TriUF
625 3410 TriUF
626 3410 TriUF
626 3410 TriUF
626 3410 TriUF
626 3455 TriUF
626 3410 TriUF
626 3410 TriUF
626 3410 TriUF
626 3410 TriUF
626 3410 TriUF
626 3410 TriUF
626 3410 TriUF
626 3410 TriUF
626 3410 TriUF
626 3410 TriUF
626 3410 TriUF
626 3410 TriUF
627 3410 TriUF
627 3410 TriUF
627 3410 TriUF
627 3410 TriUF
627 3410 TriUF
627 3410 TriUF
627 3410 TriUF
627 3410 TriUF
627 3410 TriUF
627 3410 TriUF
627 3410 TriUF
627 3410 TriUF
627 3410 TriUF
627 3410 TriUF
627 3410 TriUF
627 3410 TriUF
627 3410 TriUF
627 3410 TriUF
627 3410 TriUF
627 3410 TriUF
627 3410 TriUF
628 3410 TriUF
628 3410 TriUF
628 3410 TriUF
628 3410 TriUF
628 3410 TriUF
628 3410 TriUF
628 3410 TriUF
628 3410 TriUF
628 3410 TriUF
628 3410 TriUF
628 3410 TriUF
628 3410 TriUF
628 3410 TriUF
629 3410 TriUF
629 3410 TriUF
629 3410 TriUF
629 3410 TriUF
629 3410 TriUF
629 3410 TriUF
629 3410 TriUF
629 3410 TriUF
629 3410 TriUF
629 3410 TriUF
629 3410 TriUF
629 3410 TriUF
629 3410 TriUF
629 3410 TriUF
629 3410 TriUF
629 3410 TriUF
629 3410 TriUF
629 3410 TriUF
629 3410 TriUF
630 3410 TriUF
630 3410 TriUF
630 3410 TriUF
630 3410 TriUF
630 3410 TriUF
630 3410 TriUF
630 3410 TriUF
630 3410 TriUF
630 3410 TriUF
630 3410 TriUF
630 3410 TriUF
630 3410 TriUF
630 3410 TriUF
630 3410 TriUF
630 3410 TriUF
630 3410 TriUF
630 3410 TriUF
630 3410 TriUF
630 3410 TriUF
630 3410 TriUF
630 3410 TriUF
630 3410 TriUF
630 3410 TriUF
630 3410 TriUF
630 3410 TriUF
630 3410 TriUF
630 3410 TriUF
630 3410 TriUF
630 3410 TriUF
630 3410 TriUF
630 3410 TriUF
630 3410 TriUF
630 3410 TriUF
630 3410 TriUF
630 3410 TriUF
630 3410 TriUF
630 3410 TriUF
630 3410 TriUF
630 3410 TriUF
630 3410 TriUF
630 3410 TriUF
630 3410 TriUF
630 3410 TriUF
630 3410 TriUF
630 3410 TriUF
630 3410 TriUF
630 3410 TriUF
630 3410 TriUF
630 3410 TriUF
630 3410 TriUF
630 3410 TriUF
630 3410 TriUF
630 3410 TriUF
630 3410 TriUF
630 3410 TriUF
630 3410 TriUF
630 3410 TriUF
630 3410 TriUF
630 3410 TriUF
630 3410 TriUF
631 3410 TriUF
631 3410 TriUF
631 3410 TriUF
631 3410 TriUF
631 3410 TriUF
631 3410 TriUF
631 3410 TriUF
631 3410 TriUF
631 3410 TriUF
631 3410 TriUF
631 3410 TriUF
631 3410 TriUF
631 3410 TriUF
631 3410 TriUF
631 3410 TriUF
631 3410 TriUF
631 3410 TriUF
631 3410 TriUF
631 3410 TriUF
631 3410 TriUF
631 3410 TriUF
631 3410 TriUF
631 3410 TriUF
631 3410 TriUF
631 3410 TriUF
631 3410 TriUF
631 3410 TriUF
631 3410 TriUF
631 3410 TriUF
631 3410 TriUF
631 3410 TriUF
631 3410 TriUF
631 3410 TriUF
631 3410 TriUF
631 3410 TriUF
631 3410 TriUF
631 3410 TriUF
631 3410 TriUF
631 3410 TriUF
631 3410 TriUF
631 3410 TriUF
631 3410 TriUF
631 3410 TriUF
631 3410 TriUF
631 3410 TriUF
632 3410 TriUF
632 3410 TriUF
632 3410 TriUF
632 3410 TriUF
632 3410 TriUF
632 3410 TriUF
632 3410 TriUF
632 3410 TriUF
632 3410 TriUF
632 3410 TriUF
632 3410 TriUF
632 3410 TriUF
632 3410 TriUF
632 3455 TriUF
632 3410 TriUF
632 3410 TriUF
632 3410 TriUF
632 3410 TriUF
632 3410 TriUF
632 3417 TriUF
632 3410 TriUF
632 3422 TriUF
632 3410 TriUF
633 3410 TriUF
633 3410 TriUF
633 3410 TriUF
633 3410 TriUF
633 3410 TriUF
633 3410 TriUF
633 3410 TriUF
633 3410 TriUF
633 3410 TriUF
633 3410 TriUF
634 3410 TriUF
634 3410 TriUF
634 3410 TriUF
634 3410 TriUF
634 3410 TriUF
634 3410 TriUF
634 3410 TriUF
634 3410 TriUF
634 3410 TriUF
634 3410 TriUF
634 3410 TriUF
634 3410 TriUF
634 3410 TriUF
634 3410 TriUF
634 3410 TriUF
634 3410 TriUF
634 3410 TriUF
634 3410 TriUF
634 3410 TriUF
634 3410 TriUF
634 3410 TriUF
634 3410 TriUF
634 3410 TriUF
634 3410 TriUF
635 3410 TriUF
635 3410 TriUF
635 3410 TriUF
635 3410 TriUF
635 3410 TriUF
635 3410 TriUF
635 3410 TriUF
635 3410 TriUF
635 3410 TriUF
635 3410 TriUF
635 3410 TriUF
635 3410 TriUF
635 3410 TriUF
635 3455 TriUF
635 3410 TriUF
635 3410 TriUF
635 3410 TriUF
635 3410 TriUF
635 3410 TriUF
635 3410 TriUF
635 3410 TriUF
636 3410 TriUF
636 3410 TriUF
636 3410 TriUF
636 3410 TriUF
636 3410 TriUF
636 3410 TriUF
636 3410 TriUF
636 3410 TriUF
636 3410 TriUF
637 3410 TriUF
637 3413 TriUF
637 3410 TriUF
637 3410 TriUF
637 3410 TriUF
637 3410 TriUF
637 3410 TriUF
637 3412 TriUF
638 3410 TriUF
638 3410 TriUF
638 3410 TriUF
638 3410 TriUF
638 3410 TriUF
638 3410 TriUF
638 3410 TriUF
639 3410 TriUF
639 3410 TriUF
639 3455 TriUF
641 3504 TriUF
641 3504 TriUF
641 3412 TriUF
642 3410 TriUF
642 3410 TriUF
642 3410 TriUF
642 3410 TriUF
642 3412 TriUF
643 3412 TriUF
643 3410 TriUF
644 3410 TriUF
644 3410 TriUF
644 3455 TriUF
644 3410 TriUF
645 3410 TriUF
646 3410 TriUF
646 3504 TriUF
646 3410 TriUF
647 3410 TriUF
647 3421 TriUF
648 3426 TriUF
649 3412 TriUF
649 3410 TriUF
651 3504 TriUF
651 3410 TriUF
652 3412 TriUF
652 3410 TriUF
653 3504 TriUF
654 3412 TriUF
654 3410 TriUF
658 3410 TriUF
658 3415 TriUF
659 3410 TriUF
659 3455 TriUF
659 3504 TriUF
660 3438 TriUF
660 3412 TriUF
661 3412 TriUF
661 3412 TriUF
662 3455 TriUF
663 3410 TriUF
664 3412 TriUF
664 3508 TriUF
666 3438 TriUF
667 3445 TriUF
667 3417 TriUF
668 3417 TriUF
669 3410 TriUF
670 3445 TriUF
671 3412 TriUF
671 3455 TriUF
671 3466 TriUF
672 3445 TriUF
672 3445 TriUF
672 3455 TriUF
672 3421 TriUF
673 3417 TriUF
673 3412 TriUF
674 3417 TriUF
675 3410 TriUF
675 3455 TriUF
675 3410 TriUF
675 3417 TriUF
677 3445 TriUF
679 3445 TriUF
680 3438 TriUF
680 3410 TriUF
681 3440 TriUF
681 3412 TriUF
683 3417 TriUF
685 3449 TriUF
685 3412 TriUF
686 3504 TriUF
686 3455 TriUF
686 3417 TriUF
687 3410 TriUF
688 3432 TriUF
689 3421 TriUF
689 3504 TriUF
689 3432 TriUF
689 3410 TriUF
690 3504 TriUF
691 3417 TriUF
691 4291 TriUF
692 3412 TriUF
692 3455 TriUF
693 3442 TriUF
702 3442 TriUF
702 3455 TriUF
703 4291 TriUF
705 3438 TriUF
707 3412 TriUF
707 3417 TriUF
708 3504 TriUF
710 3445 TriUF
713 3438 TriUF
714 3412 TriUF
718 3599 TriUF
718 3415 TriUF
720 3410 TriUF
720 3417 TriUF
723 3417 TriUF
726 3412 TriUF
735 3417 TriUF
736 3417 TriUF
743 3418 TriUF
744 3465 TriUF
746 4290 TriUF
747 3445 TriUF
748 3432 TriUF
756 3432 TriUF
760 3505 TriUF
760 3445 TriUF
765 3449 TriUF
769 4291 TriUF
773 3412 TriUF
776 3415 TriUF
780 3417 TriUF
781 3416 TriUF
794 4385 TriUF
794 3410 TriUF
795 3412 TriUF
808 3510 TriUF
825 3504 TriUF
826 4507 TriUF
852 3433 TriUF
852 3418 TriUF
861 3504 TriUF
868 4290 TriUF
886 4999 TriUF
899 3533 TriUF
903 3458 TriUF
909 3457 TriUF
931 4999 TriUF
937 4500 TriUF
969 3416 TriUF
979 4508 TriUF
980 4999 TriUF
988 3410 TriUF
989 3445 TriUF
994 3410 TriUF
994 3410 TriUF
995 3410 TriUF
996 3410 TriUF
996 3410 TriUF
997 3410 TriUF
998 3410 TriUF
998 3410 TriUF
998 3410 TriUF
998 3410 TriUF
998 3410 TriUF
998 3410 TriUF
999 3410 TriUF
999 3410 TriUF
999 3410 TriUF
999 3410 TriUF
999 3410 TriUF
999 3410 TriUF
999 3410 TriUF
999 3410 TriUF
999 3410 TriUF
1000 3410 TriUF
1000 3410 TriUF
1000 3410 TriUF
1000 3410 TriUF
1000 3410 TriUF
1000 3410 TriUF
1001 3410 TriUF
1001 3410 TriUF
1001 3410 TriUF
1002 3410 TriUF
1002 3410 TriUF
1002 3410 TriUF
1002 3410 TriUF
1002 3410 TriUF
1002 3410 TriUF
1002 3410 TriUF
1002 3410 TriUF
1002 3410 TriUF
1002 3410 TriUF
1003 3410 TriUF
1003 3410 TriUF
1003 3410 TriUF
1003 3410 TriUF
1004 3410 TriUF
1004 3410 TriUF
1004 3410 TriUF
1004 3410 TriUF
1004 3410 TriUF
1004 3410 TriUF
1005 3410 TriUF
1005 3410 TriUF
1005 3410 TriUF
1005 3410 TriUF
1005 3410 TriUF
1006 3410 TriUF
1006 3410 TriUF
1006 3410 TriUF
1007 3410 TriUF
1007 3410 TriUF
1008 3410 TriUF
1008 3410 TriUF
1008 3410 TriUF
1008 3410 TriUF
1008 3410 TriUF
1008 3410 TriUF
1008 3410 TriUF
1008 5042 TriUF
1008 3410 TriUF
1008 3410 TriUF
1009 3410 TriUF
1009 3410 TriUF
1009 3410 TriUF
1009 3410 TriUF
1009 3410 TriUF
1009 3410 TriUF
1009 3410 TriUF
1010 3410 TriUF
1010 3410 TriUF
1011 3410 TriUF
1011 3410 TriUF
1012 3410 TriUF
1012 3410 TriUF
1012 4999 TriUF
1012 3410 TriUF
1014 3410 TriUF
1015 3410 TriUF
1016 3410 TriUF
1017 3410 TriUF
1020 3410 TriUF
1021 3410 TriUF
1022 3412 TriUF
1028 3410 TriUF
1031 3410 TriUF
1039 3426 TriUF
1047 4507 TriUF
1047 3420 TriUF
1050 3445 TriUF
1087 3420 TriUF
1108 3440 TriUF
1136 4999 TriUF
1151 3417 TriUF
1167 3417 TriUF
1193 6541 TriUF
1220 5606 TriUF
1235 5475 TriUF
1237 4999 TriUF
1252 4683 TriUF
1316 3515 TriUF
1322 3542 TriUF
1341 4999 TriUF
1384 4999 TriUF
1396 3874 TriUF
1439 4999 TriUF
1507 3422 TriUF
1508 4999 TriUF
1511 3417 TriUF
1529 5903 TriUF
1574 6097 TriUF
1620 4999 TriUF
1647 3869 TriUF
1663 5564 TriUF
1711 3488 TriUF
1753 3436 TriUF
1757 3410 TriUF
1758 3453 TriUF
1759 3410 TriUF
1765 3410 TriUF
1765 4999 TriUF
1768 3410 TriUF
1768 3410 TriUF
1772 3412 TriUF
1773 6538 TriUF
2010 3461 TriUF
2296 3432 TriUF
2346 3430 TriUF
2459 4623 TriUF
2583 5692 TriUF
3279 3410 TriUF
12416 3605 TriUF
% End plot #1
1.000 UL
LTb
LCb setrgbcolor
600 7049 N
0 -3641 V
12598 0 V
0 3641 V
600 7049 L
Z stroke
1.000 UP
1.000 UL
LTb
LCb setrgbcolor
stroke
grestore
end
showpage
%%Trailer
%%DocumentFonts: Times
