%!PS-Adobe-2.0 EPSF-2.0
%%Title: repeating_conn_1023620276_2941547332.eps
%%Creator: gnuplot 4.6 patchlevel 2
%%CreationDate: Tue Apr  8 12:36:13 2014
%%DocumentFonts: (atend)
%%BoundingBox: 50 50 770 554
%%EndComments
%%BeginProlog
/gnudict 256 dict def
gnudict begin
%
% The following true/false flags may be edited by hand if desired.
% The unit line width and grayscale image gamma correction may also be changed.
%
/Color true def
/Blacktext false def
/Solid false def
/Dashlength 1 def
/Landscape false def
/Level1 false def
/Rounded false def
/ClipToBoundingBox false def
/SuppressPDFMark false def
/TransparentPatterns false def
/gnulinewidth 5.000 def
/userlinewidth gnulinewidth def
/Gamma 1.0 def
/BackgroundColor {-1.000 -1.000 -1.000} def
%
/vshift -66 def
/dl1 {
  10.0 Dashlength mul mul
  Rounded { currentlinewidth 0.75 mul sub dup 0 le { pop 0.01 } if } if
} def
/dl2 {
  10.0 Dashlength mul mul
  Rounded { currentlinewidth 0.75 mul add } if
} def
/hpt_ 31.5 def
/vpt_ 31.5 def
/hpt hpt_ def
/vpt vpt_ def
/doclip {
  ClipToBoundingBox {
    newpath 50 50 moveto 770 50 lineto 770 554 lineto 50 554 lineto closepath
    clip
  } if
} def
%
% Gnuplot Prolog Version 4.6 (September 2012)
%
%/SuppressPDFMark true def
%
/M {moveto} bind def
/L {lineto} bind def
/R {rmoveto} bind def
/V {rlineto} bind def
/N {newpath moveto} bind def
/Z {closepath} bind def
/C {setrgbcolor} bind def
/f {rlineto fill} bind def
/g {setgray} bind def
/Gshow {show} def   % May be redefined later in the file to support UTF-8
/vpt2 vpt 2 mul def
/hpt2 hpt 2 mul def
/Lshow {currentpoint stroke M 0 vshift R 
	Blacktext {gsave 0 setgray show grestore} {show} ifelse} def
/Rshow {currentpoint stroke M dup stringwidth pop neg vshift R
	Blacktext {gsave 0 setgray show grestore} {show} ifelse} def
/Cshow {currentpoint stroke M dup stringwidth pop -2 div vshift R 
	Blacktext {gsave 0 setgray show grestore} {show} ifelse} def
/UP {dup vpt_ mul /vpt exch def hpt_ mul /hpt exch def
  /hpt2 hpt 2 mul def /vpt2 vpt 2 mul def} def
/DL {Color {setrgbcolor Solid {pop []} if 0 setdash}
 {pop pop pop 0 setgray Solid {pop []} if 0 setdash} ifelse} def
/BL {stroke userlinewidth 2 mul setlinewidth
	Rounded {1 setlinejoin 1 setlinecap} if} def
/AL {stroke userlinewidth 2 div setlinewidth
	Rounded {1 setlinejoin 1 setlinecap} if} def
/UL {dup gnulinewidth mul /userlinewidth exch def
	dup 1 lt {pop 1} if 10 mul /udl exch def} def
/PL {stroke userlinewidth setlinewidth
	Rounded {1 setlinejoin 1 setlinecap} if} def
3.8 setmiterlimit
% Default Line colors
/LCw {1 1 1} def
/LCb {0 0 0} def
/LCa {0 0 0} def
/LC0 {1 0 0} def
/LC1 {0 1 0} def
/LC2 {0 0 1} def
/LC3 {1 0 1} def
/LC4 {0 1 1} def
/LC5 {1 1 0} def
/LC6 {0 0 0} def
/LC7 {1 0.3 0} def
/LC8 {0.5 0.5 0.5} def
% Default Line Types
/LTw {PL [] 1 setgray} def
/LTb {BL [] LCb DL} def
/LTa {AL [1 udl mul 2 udl mul] 0 setdash LCa setrgbcolor} def
/LT0 {PL [] LC0 DL} def
/LT1 {PL [4 dl1 2 dl2] LC1 DL} def
/LT2 {PL [2 dl1 3 dl2] LC2 DL} def
/LT3 {PL [1 dl1 1.5 dl2] LC3 DL} def
/LT4 {PL [6 dl1 2 dl2 1 dl1 2 dl2] LC4 DL} def
/LT5 {PL [3 dl1 3 dl2 1 dl1 3 dl2] LC5 DL} def
/LT6 {PL [2 dl1 2 dl2 2 dl1 6 dl2] LC6 DL} def
/LT7 {PL [1 dl1 2 dl2 6 dl1 2 dl2 1 dl1 2 dl2] LC7 DL} def
/LT8 {PL [2 dl1 2 dl2 2 dl1 2 dl2 2 dl1 2 dl2 2 dl1 4 dl2] LC8 DL} def
/Pnt {stroke [] 0 setdash gsave 1 setlinecap M 0 0 V stroke grestore} def
/Dia {stroke [] 0 setdash 2 copy vpt add M
  hpt neg vpt neg V hpt vpt neg V
  hpt vpt V hpt neg vpt V closepath stroke
  Pnt} def
/Pls {stroke [] 0 setdash vpt sub M 0 vpt2 V
  currentpoint stroke M
  hpt neg vpt neg R hpt2 0 V stroke
 } def
/Box {stroke [] 0 setdash 2 copy exch hpt sub exch vpt add M
  0 vpt2 neg V hpt2 0 V 0 vpt2 V
  hpt2 neg 0 V closepath stroke
  Pnt} def
/Crs {stroke [] 0 setdash exch hpt sub exch vpt add M
  hpt2 vpt2 neg V currentpoint stroke M
  hpt2 neg 0 R hpt2 vpt2 V stroke} def
/TriU {stroke [] 0 setdash 2 copy vpt 1.12 mul add M
  hpt neg vpt -1.62 mul V
  hpt 2 mul 0 V
  hpt neg vpt 1.62 mul V closepath stroke
  Pnt} def
/Star {2 copy Pls Crs} def
/BoxF {stroke [] 0 setdash exch hpt sub exch vpt add M
  0 vpt2 neg V hpt2 0 V 0 vpt2 V
  hpt2 neg 0 V closepath fill} def
/TriUF {stroke [] 0 setdash vpt 1.12 mul add M
  hpt neg vpt -1.62 mul V
  hpt 2 mul 0 V
  hpt neg vpt 1.62 mul V closepath fill} def
/TriD {stroke [] 0 setdash 2 copy vpt 1.12 mul sub M
  hpt neg vpt 1.62 mul V
  hpt 2 mul 0 V
  hpt neg vpt -1.62 mul V closepath stroke
  Pnt} def
/TriDF {stroke [] 0 setdash vpt 1.12 mul sub M
  hpt neg vpt 1.62 mul V
  hpt 2 mul 0 V
  hpt neg vpt -1.62 mul V closepath fill} def
/DiaF {stroke [] 0 setdash vpt add M
  hpt neg vpt neg V hpt vpt neg V
  hpt vpt V hpt neg vpt V closepath fill} def
/Pent {stroke [] 0 setdash 2 copy gsave
  translate 0 hpt M 4 {72 rotate 0 hpt L} repeat
  closepath stroke grestore Pnt} def
/PentF {stroke [] 0 setdash gsave
  translate 0 hpt M 4 {72 rotate 0 hpt L} repeat
  closepath fill grestore} def
/Circle {stroke [] 0 setdash 2 copy
  hpt 0 360 arc stroke Pnt} def
/CircleF {stroke [] 0 setdash hpt 0 360 arc fill} def
/C0 {BL [] 0 setdash 2 copy moveto vpt 90 450 arc} bind def
/C1 {BL [] 0 setdash 2 copy moveto
	2 copy vpt 0 90 arc closepath fill
	vpt 0 360 arc closepath} bind def
/C2 {BL [] 0 setdash 2 copy moveto
	2 copy vpt 90 180 arc closepath fill
	vpt 0 360 arc closepath} bind def
/C3 {BL [] 0 setdash 2 copy moveto
	2 copy vpt 0 180 arc closepath fill
	vpt 0 360 arc closepath} bind def
/C4 {BL [] 0 setdash 2 copy moveto
	2 copy vpt 180 270 arc closepath fill
	vpt 0 360 arc closepath} bind def
/C5 {BL [] 0 setdash 2 copy moveto
	2 copy vpt 0 90 arc
	2 copy moveto
	2 copy vpt 180 270 arc closepath fill
	vpt 0 360 arc} bind def
/C6 {BL [] 0 setdash 2 copy moveto
	2 copy vpt 90 270 arc closepath fill
	vpt 0 360 arc closepath} bind def
/C7 {BL [] 0 setdash 2 copy moveto
	2 copy vpt 0 270 arc closepath fill
	vpt 0 360 arc closepath} bind def
/C8 {BL [] 0 setdash 2 copy moveto
	2 copy vpt 270 360 arc closepath fill
	vpt 0 360 arc closepath} bind def
/C9 {BL [] 0 setdash 2 copy moveto
	2 copy vpt 270 450 arc closepath fill
	vpt 0 360 arc closepath} bind def
/C10 {BL [] 0 setdash 2 copy 2 copy moveto vpt 270 360 arc closepath fill
	2 copy moveto
	2 copy vpt 90 180 arc closepath fill
	vpt 0 360 arc closepath} bind def
/C11 {BL [] 0 setdash 2 copy moveto
	2 copy vpt 0 180 arc closepath fill
	2 copy moveto
	2 copy vpt 270 360 arc closepath fill
	vpt 0 360 arc closepath} bind def
/C12 {BL [] 0 setdash 2 copy moveto
	2 copy vpt 180 360 arc closepath fill
	vpt 0 360 arc closepath} bind def
/C13 {BL [] 0 setdash 2 copy moveto
	2 copy vpt 0 90 arc closepath fill
	2 copy moveto
	2 copy vpt 180 360 arc closepath fill
	vpt 0 360 arc closepath} bind def
/C14 {BL [] 0 setdash 2 copy moveto
	2 copy vpt 90 360 arc closepath fill
	vpt 0 360 arc} bind def
/C15 {BL [] 0 setdash 2 copy vpt 0 360 arc closepath fill
	vpt 0 360 arc closepath} bind def
/Rec {newpath 4 2 roll moveto 1 index 0 rlineto 0 exch rlineto
	neg 0 rlineto closepath} bind def
/Square {dup Rec} bind def
/Bsquare {vpt sub exch vpt sub exch vpt2 Square} bind def
/S0 {BL [] 0 setdash 2 copy moveto 0 vpt rlineto BL Bsquare} bind def
/S1 {BL [] 0 setdash 2 copy vpt Square fill Bsquare} bind def
/S2 {BL [] 0 setdash 2 copy exch vpt sub exch vpt Square fill Bsquare} bind def
/S3 {BL [] 0 setdash 2 copy exch vpt sub exch vpt2 vpt Rec fill Bsquare} bind def
/S4 {BL [] 0 setdash 2 copy exch vpt sub exch vpt sub vpt Square fill Bsquare} bind def
/S5 {BL [] 0 setdash 2 copy 2 copy vpt Square fill
	exch vpt sub exch vpt sub vpt Square fill Bsquare} bind def
/S6 {BL [] 0 setdash 2 copy exch vpt sub exch vpt sub vpt vpt2 Rec fill Bsquare} bind def
/S7 {BL [] 0 setdash 2 copy exch vpt sub exch vpt sub vpt vpt2 Rec fill
	2 copy vpt Square fill Bsquare} bind def
/S8 {BL [] 0 setdash 2 copy vpt sub vpt Square fill Bsquare} bind def
/S9 {BL [] 0 setdash 2 copy vpt sub vpt vpt2 Rec fill Bsquare} bind def
/S10 {BL [] 0 setdash 2 copy vpt sub vpt Square fill 2 copy exch vpt sub exch vpt Square fill
	Bsquare} bind def
/S11 {BL [] 0 setdash 2 copy vpt sub vpt Square fill 2 copy exch vpt sub exch vpt2 vpt Rec fill
	Bsquare} bind def
/S12 {BL [] 0 setdash 2 copy exch vpt sub exch vpt sub vpt2 vpt Rec fill Bsquare} bind def
/S13 {BL [] 0 setdash 2 copy exch vpt sub exch vpt sub vpt2 vpt Rec fill
	2 copy vpt Square fill Bsquare} bind def
/S14 {BL [] 0 setdash 2 copy exch vpt sub exch vpt sub vpt2 vpt Rec fill
	2 copy exch vpt sub exch vpt Square fill Bsquare} bind def
/S15 {BL [] 0 setdash 2 copy Bsquare fill Bsquare} bind def
/D0 {gsave translate 45 rotate 0 0 S0 stroke grestore} bind def
/D1 {gsave translate 45 rotate 0 0 S1 stroke grestore} bind def
/D2 {gsave translate 45 rotate 0 0 S2 stroke grestore} bind def
/D3 {gsave translate 45 rotate 0 0 S3 stroke grestore} bind def
/D4 {gsave translate 45 rotate 0 0 S4 stroke grestore} bind def
/D5 {gsave translate 45 rotate 0 0 S5 stroke grestore} bind def
/D6 {gsave translate 45 rotate 0 0 S6 stroke grestore} bind def
/D7 {gsave translate 45 rotate 0 0 S7 stroke grestore} bind def
/D8 {gsave translate 45 rotate 0 0 S8 stroke grestore} bind def
/D9 {gsave translate 45 rotate 0 0 S9 stroke grestore} bind def
/D10 {gsave translate 45 rotate 0 0 S10 stroke grestore} bind def
/D11 {gsave translate 45 rotate 0 0 S11 stroke grestore} bind def
/D12 {gsave translate 45 rotate 0 0 S12 stroke grestore} bind def
/D13 {gsave translate 45 rotate 0 0 S13 stroke grestore} bind def
/D14 {gsave translate 45 rotate 0 0 S14 stroke grestore} bind def
/D15 {gsave translate 45 rotate 0 0 S15 stroke grestore} bind def
/DiaE {stroke [] 0 setdash vpt add M
  hpt neg vpt neg V hpt vpt neg V
  hpt vpt V hpt neg vpt V closepath stroke} def
/BoxE {stroke [] 0 setdash exch hpt sub exch vpt add M
  0 vpt2 neg V hpt2 0 V 0 vpt2 V
  hpt2 neg 0 V closepath stroke} def
/TriUE {stroke [] 0 setdash vpt 1.12 mul add M
  hpt neg vpt -1.62 mul V
  hpt 2 mul 0 V
  hpt neg vpt 1.62 mul V closepath stroke} def
/TriDE {stroke [] 0 setdash vpt 1.12 mul sub M
  hpt neg vpt 1.62 mul V
  hpt 2 mul 0 V
  hpt neg vpt -1.62 mul V closepath stroke} def
/PentE {stroke [] 0 setdash gsave
  translate 0 hpt M 4 {72 rotate 0 hpt L} repeat
  closepath stroke grestore} def
/CircE {stroke [] 0 setdash 
  hpt 0 360 arc stroke} def
/Opaque {gsave closepath 1 setgray fill grestore 0 setgray closepath} def
/DiaW {stroke [] 0 setdash vpt add M
  hpt neg vpt neg V hpt vpt neg V
  hpt vpt V hpt neg vpt V Opaque stroke} def
/BoxW {stroke [] 0 setdash exch hpt sub exch vpt add M
  0 vpt2 neg V hpt2 0 V 0 vpt2 V
  hpt2 neg 0 V Opaque stroke} def
/TriUW {stroke [] 0 setdash vpt 1.12 mul add M
  hpt neg vpt -1.62 mul V
  hpt 2 mul 0 V
  hpt neg vpt 1.62 mul V Opaque stroke} def
/TriDW {stroke [] 0 setdash vpt 1.12 mul sub M
  hpt neg vpt 1.62 mul V
  hpt 2 mul 0 V
  hpt neg vpt -1.62 mul V Opaque stroke} def
/PentW {stroke [] 0 setdash gsave
  translate 0 hpt M 4 {72 rotate 0 hpt L} repeat
  Opaque stroke grestore} def
/CircW {stroke [] 0 setdash 
  hpt 0 360 arc Opaque stroke} def
/BoxFill {gsave Rec 1 setgray fill grestore} def
/Density {
  /Fillden exch def
  currentrgbcolor
  /ColB exch def /ColG exch def /ColR exch def
  /ColR ColR Fillden mul Fillden sub 1 add def
  /ColG ColG Fillden mul Fillden sub 1 add def
  /ColB ColB Fillden mul Fillden sub 1 add def
  ColR ColG ColB setrgbcolor} def
/BoxColFill {gsave Rec PolyFill} def
/PolyFill {gsave Density fill grestore grestore} def
/h {rlineto rlineto rlineto gsave closepath fill grestore} bind def
%
% PostScript Level 1 Pattern Fill routine for rectangles
% Usage: x y w h s a XX PatternFill
%	x,y = lower left corner of box to be filled
%	w,h = width and height of box
%	  a = angle in degrees between lines and x-axis
%	 XX = 0/1 for no/yes cross-hatch
%
/PatternFill {gsave /PFa [ 9 2 roll ] def
  PFa 0 get PFa 2 get 2 div add PFa 1 get PFa 3 get 2 div add translate
  PFa 2 get -2 div PFa 3 get -2 div PFa 2 get PFa 3 get Rec
  TransparentPatterns {} {gsave 1 setgray fill grestore} ifelse
  clip
  currentlinewidth 0.5 mul setlinewidth
  /PFs PFa 2 get dup mul PFa 3 get dup mul add sqrt def
  0 0 M PFa 5 get rotate PFs -2 div dup translate
  0 1 PFs PFa 4 get div 1 add floor cvi
	{PFa 4 get mul 0 M 0 PFs V} for
  0 PFa 6 get ne {
	0 1 PFs PFa 4 get div 1 add floor cvi
	{PFa 4 get mul 0 2 1 roll M PFs 0 V} for
 } if
  stroke grestore} def
%
/languagelevel where
 {pop languagelevel} {1} ifelse
 2 lt
	{/InterpretLevel1 true def}
	{/InterpretLevel1 Level1 def}
 ifelse
%
% PostScript level 2 pattern fill definitions
%
/Level2PatternFill {
/Tile8x8 {/PaintType 2 /PatternType 1 /TilingType 1 /BBox [0 0 8 8] /XStep 8 /YStep 8}
	bind def
/KeepColor {currentrgbcolor [/Pattern /DeviceRGB] setcolorspace} bind def
<< Tile8x8
 /PaintProc {0.5 setlinewidth pop 0 0 M 8 8 L 0 8 M 8 0 L stroke} 
>> matrix makepattern
/Pat1 exch def
<< Tile8x8
 /PaintProc {0.5 setlinewidth pop 0 0 M 8 8 L 0 8 M 8 0 L stroke
	0 4 M 4 8 L 8 4 L 4 0 L 0 4 L stroke}
>> matrix makepattern
/Pat2 exch def
<< Tile8x8
 /PaintProc {0.5 setlinewidth pop 0 0 M 0 8 L
	8 8 L 8 0 L 0 0 L fill}
>> matrix makepattern
/Pat3 exch def
<< Tile8x8
 /PaintProc {0.5 setlinewidth pop -4 8 M 8 -4 L
	0 12 M 12 0 L stroke}
>> matrix makepattern
/Pat4 exch def
<< Tile8x8
 /PaintProc {0.5 setlinewidth pop -4 0 M 8 12 L
	0 -4 M 12 8 L stroke}
>> matrix makepattern
/Pat5 exch def
<< Tile8x8
 /PaintProc {0.5 setlinewidth pop -2 8 M 4 -4 L
	0 12 M 8 -4 L 4 12 M 10 0 L stroke}
>> matrix makepattern
/Pat6 exch def
<< Tile8x8
 /PaintProc {0.5 setlinewidth pop -2 0 M 4 12 L
	0 -4 M 8 12 L 4 -4 M 10 8 L stroke}
>> matrix makepattern
/Pat7 exch def
<< Tile8x8
 /PaintProc {0.5 setlinewidth pop 8 -2 M -4 4 L
	12 0 M -4 8 L 12 4 M 0 10 L stroke}
>> matrix makepattern
/Pat8 exch def
<< Tile8x8
 /PaintProc {0.5 setlinewidth pop 0 -2 M 12 4 L
	-4 0 M 12 8 L -4 4 M 8 10 L stroke}
>> matrix makepattern
/Pat9 exch def
/Pattern1 {PatternBgnd KeepColor Pat1 setpattern} bind def
/Pattern2 {PatternBgnd KeepColor Pat2 setpattern} bind def
/Pattern3 {PatternBgnd KeepColor Pat3 setpattern} bind def
/Pattern4 {PatternBgnd KeepColor Landscape {Pat5} {Pat4} ifelse setpattern} bind def
/Pattern5 {PatternBgnd KeepColor Landscape {Pat4} {Pat5} ifelse setpattern} bind def
/Pattern6 {PatternBgnd KeepColor Landscape {Pat9} {Pat6} ifelse setpattern} bind def
/Pattern7 {PatternBgnd KeepColor Landscape {Pat8} {Pat7} ifelse setpattern} bind def
} def
%
%
%End of PostScript Level 2 code
%
/PatternBgnd {
  TransparentPatterns {} {gsave 1 setgray fill grestore} ifelse
} def
%
% Substitute for Level 2 pattern fill codes with
% grayscale if Level 2 support is not selected.
%
/Level1PatternFill {
/Pattern1 {0.250 Density} bind def
/Pattern2 {0.500 Density} bind def
/Pattern3 {0.750 Density} bind def
/Pattern4 {0.125 Density} bind def
/Pattern5 {0.375 Density} bind def
/Pattern6 {0.625 Density} bind def
/Pattern7 {0.875 Density} bind def
} def
%
% Now test for support of Level 2 code
%
Level1 {Level1PatternFill} {Level2PatternFill} ifelse
%
/Symbol-Oblique /Symbol findfont [1 0 .167 1 0 0] makefont
dup length dict begin {1 index /FID eq {pop pop} {def} ifelse} forall
currentdict end definefont pop
/MFshow {
   { dup 5 get 3 ge
     { 5 get 3 eq {gsave} {grestore} ifelse }
     {dup dup 0 get findfont exch 1 get scalefont setfont
     [ currentpoint ] exch dup 2 get 0 exch R dup 5 get 2 ne {dup dup 6
     get exch 4 get {Gshow} {stringwidth pop 0 R} ifelse }if dup 5 get 0 eq
     {dup 3 get {2 get neg 0 exch R pop} {pop aload pop M} ifelse} {dup 5
     get 1 eq {dup 2 get exch dup 3 get exch 6 get stringwidth pop -2 div
     dup 0 R} {dup 6 get stringwidth pop -2 div 0 R 6 get
     show 2 index {aload pop M neg 3 -1 roll neg R pop pop} {pop pop pop
     pop aload pop M} ifelse }ifelse }ifelse }
     ifelse }
   forall} def
/Gswidth {dup type /stringtype eq {stringwidth} {pop (n) stringwidth} ifelse} def
/MFwidth {0 exch { dup 5 get 3 ge { 5 get 3 eq { 0 } { pop } ifelse }
 {dup 3 get{dup dup 0 get findfont exch 1 get scalefont setfont
     6 get Gswidth pop add} {pop} ifelse} ifelse} forall} def
/MLshow { currentpoint stroke M
  0 exch R
  Blacktext {gsave 0 setgray MFshow grestore} {MFshow} ifelse } bind def
/MRshow { currentpoint stroke M
  exch dup MFwidth neg 3 -1 roll R
  Blacktext {gsave 0 setgray MFshow grestore} {MFshow} ifelse } bind def
/MCshow { currentpoint stroke M
  exch dup MFwidth -2 div 3 -1 roll R
  Blacktext {gsave 0 setgray MFshow grestore} {MFshow} ifelse } bind def
/XYsave    { [( ) 1 2 true false 3 ()] } bind def
/XYrestore { [( ) 1 2 true false 4 ()] } bind def
Level1 SuppressPDFMark or 
{} {
/SDict 10 dict def
systemdict /pdfmark known not {
  userdict /pdfmark systemdict /cleartomark get put
} if
SDict begin [
  /Title (repeating_conn_1023620276_2941547332.eps)
  /Subject (gnuplot plot)
  /Creator (gnuplot 4.6 patchlevel 2)
  /Author (olgabo)
%  /Producer (gnuplot)
%  /Keywords ()
  /CreationDate (Tue Apr  8 12:36:13 2014)
  /DOCINFO pdfmark
end
} ifelse
end
%%EndProlog
%%Page: 1 1
gnudict begin
gsave
doclip
50 50 translate
0.050 0.050 scale
0 setgray
newpath
(Times) findfont 200 scalefont setfont
BackgroundColor 0 lt 3 1 roll 0 lt exch 0 lt or or not {BackgroundColor C 1.000 0 0 14400.00 10080.00 BoxColFill} if
1.000 UL
LTb
LCb setrgbcolor
1.000 UL
LTa
LCa setrgbcolor
1200 3493 M
12598 0 V
stroke
LTb
LCb setrgbcolor
1200 3493 M
63 0 V
12535 0 R
-63 0 V
stroke
1080 3493 M
[ [(Times) 200.0 0.0 true true 0 ( 0)]
] -66.7 MRshow
1.000 UL
LTb
LCb setrgbcolor
1.000 UL
LTa
LCa setrgbcolor
1200 4204 M
12598 0 V
stroke
LTb
LCb setrgbcolor
1200 4204 M
63 0 V
12535 0 R
-63 0 V
stroke
1080 4204 M
[ [(Times) 200.0 0.0 true true 0 ( 500)]
] -66.7 MRshow
1.000 UL
LTb
LCb setrgbcolor
1.000 UL
LTa
LCa setrgbcolor
1200 4915 M
12598 0 V
stroke
LTb
LCb setrgbcolor
1200 4915 M
63 0 V
12535 0 R
-63 0 V
stroke
1080 4915 M
[ [(Times) 200.0 0.0 true true 0 ( 1000)]
] -66.7 MRshow
1.000 UL
LTb
LCb setrgbcolor
1.000 UL
LTa
LCa setrgbcolor
1200 5627 M
12598 0 V
stroke
LTb
LCb setrgbcolor
1200 5627 M
63 0 V
12535 0 R
-63 0 V
stroke
1080 5627 M
[ [(Times) 200.0 0.0 true true 0 ( 1500)]
] -66.7 MRshow
1.000 UL
LTb
LCb setrgbcolor
1.000 UL
LTa
LCa setrgbcolor
1200 6338 M
12598 0 V
stroke
LTb
LCb setrgbcolor
1200 6338 M
63 0 V
12535 0 R
-63 0 V
stroke
1080 6338 M
[ [(Times) 200.0 0.0 true true 0 ( 2000)]
] -66.7 MRshow
1.000 UL
LTb
LCb setrgbcolor
1.000 UL
LTa
LCa setrgbcolor
1200 7049 M
12598 0 V
stroke
LTb
LCb setrgbcolor
1200 7049 M
63 0 V
12535 0 R
-63 0 V
stroke
1080 7049 M
[ [(Times) 200.0 0.0 true true 0 ( 2500)]
] -66.7 MRshow
1.000 UL
LTb
LCb setrgbcolor
1.000 UL
LTa
LCa setrgbcolor
1200 3493 M
0 3556 V
stroke
LTb
LCb setrgbcolor
1200 3493 M
0 63 V
0 3493 R
0 -63 V
stroke
1200 3373 M
currentpoint gsave translate -45 rotate 0 0 moveto
[ [(Times) 200.0 0.0 true true 0 ( 0)]
] -66.7 MLshow
grestore
1.000 UL
LTb
LCb setrgbcolor
1.000 UL
LTa
LCa setrgbcolor
2775 3493 M
0 3556 V
stroke
LTb
LCb setrgbcolor
2775 3493 M
0 63 V
0 3493 R
0 -63 V
stroke
2775 3373 M
currentpoint gsave translate -45 rotate 0 0 moveto
[ [(Times) 200.0 0.0 true true 0 ( 500)]
] -66.7 MLshow
grestore
1.000 UL
LTb
LCb setrgbcolor
1.000 UL
LTa
LCa setrgbcolor
4350 3493 M
0 3556 V
stroke
LTb
LCb setrgbcolor
4350 3493 M
0 63 V
0 3493 R
0 -63 V
stroke
4350 3373 M
currentpoint gsave translate -45 rotate 0 0 moveto
[ [(Times) 200.0 0.0 true true 0 ( 1000)]
] -66.7 MLshow
grestore
1.000 UL
LTb
LCb setrgbcolor
1.000 UL
LTa
LCa setrgbcolor
5924 3493 M
0 3556 V
stroke
LTb
LCb setrgbcolor
5924 3493 M
0 63 V
0 3493 R
0 -63 V
stroke
5924 3373 M
currentpoint gsave translate -45 rotate 0 0 moveto
[ [(Times) 200.0 0.0 true true 0 ( 1500)]
] -66.7 MLshow
grestore
1.000 UL
LTb
LCb setrgbcolor
1.000 UL
LTa
LCa setrgbcolor
7499 3493 M
0 3556 V
stroke
LTb
LCb setrgbcolor
7499 3493 M
0 63 V
0 3493 R
0 -63 V
stroke
7499 3373 M
currentpoint gsave translate -45 rotate 0 0 moveto
[ [(Times) 200.0 0.0 true true 0 ( 2000)]
] -66.7 MLshow
grestore
1.000 UL
LTb
LCb setrgbcolor
1.000 UL
LTa
LCa setrgbcolor
9074 3493 M
0 3556 V
stroke
LTb
LCb setrgbcolor
9074 3493 M
0 63 V
0 3493 R
0 -63 V
stroke
9074 3373 M
currentpoint gsave translate -45 rotate 0 0 moveto
[ [(Times) 200.0 0.0 true true 0 ( 2500)]
] -66.7 MLshow
grestore
1.000 UL
LTb
LCb setrgbcolor
1.000 UL
LTa
LCa setrgbcolor
10649 3493 M
0 3556 V
stroke
LTb
LCb setrgbcolor
10649 3493 M
0 63 V
0 3493 R
0 -63 V
stroke
10649 3373 M
currentpoint gsave translate -45 rotate 0 0 moveto
[ [(Times) 200.0 0.0 true true 0 ( 3000)]
] -66.7 MLshow
grestore
1.000 UL
LTb
LCb setrgbcolor
1.000 UL
LTa
LCa setrgbcolor
12223 3493 M
0 3556 V
stroke
LTb
LCb setrgbcolor
12223 3493 M
0 63 V
0 3493 R
0 -63 V
stroke
12223 3373 M
currentpoint gsave translate -45 rotate 0 0 moveto
[ [(Times) 200.0 0.0 true true 0 ( 3500)]
] -66.7 MLshow
grestore
1.000 UL
LTb
LCb setrgbcolor
1.000 UL
LTa
LCa setrgbcolor
13798 3493 M
0 3556 V
stroke
LTb
LCb setrgbcolor
13798 3493 M
0 63 V
0 3493 R
0 -63 V
stroke
13798 3373 M
currentpoint gsave translate -45 rotate 0 0 moveto
[ [(Times) 200.0 0.0 true true 0 ( 4000)]
] -66.7 MLshow
grestore
1.000 UL
LTb
LCb setrgbcolor
1.000 UL
LTb
LCb setrgbcolor
1200 7049 N
0 -3556 V
12598 0 V
0 3556 V
-12598 0 V
Z stroke
LCb setrgbcolor
260 5271 M
currentpoint gsave translate -270 rotate 0 0 moveto
[ [(Times) 200.0 0.0 true true 0 (Duration [sec])]
] -66.7 MCshow
grestore
LTb
LCb setrgbcolor
7499 2769 M
[ [(Times) 200.0 0.0 true true 0 (Time [sec])]
] -66.7 MCshow
LTb
7499 7349 M
[ [(Times) 200.0 0.0 true true 0 (src port 80, repeating connections sorted by start time)]
] -66.7 MCshow
1.000 UP
1.000 UL
LTb
LCb setrgbcolor
1.000 UL
LT8
LC8 setrgbcolor
7108 63 N
782 0 V
-782 0 V
Z stroke
% Begin plot #1
1.000 UP
1.000 UL
LT8
0.00 0.00 1.00 C 1200 3675 M
0 381 V
6 -376 V
3 -10 V
4 -79 V
6 494 V
0 -262 V
3 2366 V
3 -2581 V
13 -112 V
6 271 V
0 132 V
3 -27 V
0 -347 V
25 260 V
0 1889 V
4 -2007 V
6 -174 V
0 174 V
3 395 V
0 -569 V
9 120 V
4 15 V
15 -135 V
35 101 V
6 270 V
0 -371 V
38 177 V
16 300 V
6 -346 V
82 -4 V
25 1 V
44 45 V
0 -171 V
51 171 V
31 0 V
32 -111 V
3 -60 V
104 1 V
31 81 V
10 -82 V
53 265 V
0 -3 V
76 -253 V
41 190 V
82 -29 V
9 1 V
180 -78 V
34 29 V
29 -6 V
28 113 V
25 -58 V
88 216 V
104 -357 V
152 139 V
81 -24 V
26 -48 V
44 90 V
47 -25 V
9 432 V
60 -424 V
3 -104 V
0 82 V
26 -146 V
6 13 V
16 7 V
25 193 V
12 -203 V
7 62 V
3 77 V
60 -54 V
50 -99 V
10 8 V
34 1850 V
0 -1858 V
6 173 V
35 -152 V
47 274 V
7 -292 V
9 19 V
57 -5 V
9 34 V
10 -49 V
12 96 V
0 136 V
3 -223 V
0 207 V
13 13 V
25 -16 V
10 15 V
3 -228 V
3 734 V
3 -647 V
3 -82 V
3 155 V
10 -88 V
0 71 V
3 -74 V
3 -66 V
0 16 V
3 -20 V
3 1 V
13 142 V
13 -36 V
3 -102 V
stroke 3556 3499 M
16 12 V
0 -18 V
3 15 V
3 73 V
6 -85 V
0 4 V
0 166 V
6 -145 V
4 143 V
3 -165 V
6 634 V
6 -346 V
4 -292 V
12 -1 V
10 1 V
3 191 V
3 -21 V
3 -167 V
3 -4 V
10 2 V
3 179 V
0 -181 V
6 10 V
10 155 V
0 47 V
3 -207 V
0 13 V
6 119 V
9 -37 V
13 -96 V
0 338 V
0 1656 V
3 -1871 V
0 213 V
3 -216 V
3 -123 V
0 171 V
7 -170 V
0 170 V
3 -74 V
6 197 V
3 -289 V
0 275 V
3 -110 V
10 -162 V
0 76 V
0 85 V
6 -164 V
0 2 V
3 -5 V
4 432 V
6 293 V
3 -725 V
3 101 V
0 67 V
19 -170 V
0 172 V
3 -172 V
0 8 V
6 16 V
13 85 V
0 1139 V
6 -1216 V
0 357 V
7 356 V
3 -736 V
6 -10 V
0 164 V
6 -164 V
0 172 V
4 -2 V
15 -162 V
0 921 V
3 -921 V
0 56 V
7 66 V
3 42 V
9 -170 V
0 168 V
7 -165 V
0 -4 V
6 -1 V
3 338 V
3 -295 V
3 -7 V
7 -22 V
0 1031 V
6 -1041 V
0 234 V
3 -237 V
3 -1 V
0 9 V
10 -8 V
0 206 V
9 28 V
3 -235 V
4 11 V
18 75 V
4 457 V
6 -525 V
3 370 V
9 -299 V
0 795 V
7 -884 V
stroke 3997 3494 M
6 168 V
3 -135 V
13 134 V
3 -126 V
6 -8 V
3 -30 V
7 -1 V
0 13 V
3 167 V
0 67 V
3 -248 V
3 13 V
3 85 V
0 10 V
7 -48 V
0 -62 V
3 375 V
9 -373 V
0 29 V
0 69 V
0 71 V
6 -169 V
0 11 V
4 0 V
3 3 V
6 24 V
3 12 V
0 615 V
3 -154 V
0 679 V
7 -1176 V
0 26 V
0 410 V
6 -9 V
9 -242 V
0 69 V
4 -263 V
0 347 V
3 -346 V
0 607 V
0 -613 V
3 -2 V
3 178 V
9 -178 V
7 1 V
3 185 V
0 102 V
6 -122 V
7 16 V
6 -173 V
0 199 V
3 -202 V
0 19 V
0 155 V
9 -162 V
0 78 V
4 121 V
0 591 V
0 -415 V
12 -376 V
3 -11 V
26 165 V
3 -169 V
3 5 V
0 -7 V
12 53 V
19 -11 V
0 1992 V
13 -2031 V
0 10 V
16 160 V
37 -162 V
0 89 V
4 80 V
6 -160 V
9 224 V
4 -244 V
34 87 V
3 84 V
13 -167 V
3 980 V
6 -974 V
16 306 V
3 -145 V
3 -72 V
48 30 V
12 -128 V
13 106 V
3 55 V
19 138 V
0 18 V
6 -317 V
6 301 V
4 -216 V
94 80 V
6 -102 V
10 135 V
0 -49 V
6 59 V
35 -208 V
0 1 V
25 103 V
9 81 V
35 -152 V
stroke 4762 3527 M
6 -30 V
10 235 V
22 54 V
31 -187 V
51 -4 V
6 -99 V
0 42 V
13 179 V
44 -143 V
0 215 V
3 -287 V
3 162 V
10 -79 V
3 80 V
6 -64 V
6 63 V
0 -171 V
3 174 V
19 -105 V
0 181 V
3 -246 V
16 15 V
0 40 V
10 116 V
0 -174 V
3 30 V
3 0 V
6 -21 V
0 162 V
0 3354 V
13 -3524 V
9 2 V
3 3 V
0 2 V
0 93 V
10 -98 V
3 19 V
0 -21 V
0 -1 V
22 133 V
0 170 V
3 -152 V
0 21 V
3 -154 V
0 1685 V
10 -1375 V
3 -274 V
3 38 V
0 1 V
3 425 V
3 -513 V
0 1 V
0 -7 V
10 9 V
3 -4 V
0 -3 V
3 -1 V
3 162 V
3 -161 V
0 -1 V
4 167 V
3 9 V
6 -70 V
6 -106 V
0 9 V
0 102 V
0 -110 V
4 29 V
0 143 V
0 151 V
3 -323 V
0 1 V
3 36 V
0 -35 V
6 169 V
3 -172 V
3 136 V
10 -119 V
6 370 V
3 -384 V
0 38 V
3 -41 V
0 171 V
0 126 V
0 -124 V
4 -75 V
0 223 V
3 -226 V
0 22 V
3 53 V
9 -161 V
4 -1 V
0 210 V
3 -94 V
3 -102 V
0 41 V
0 303 V
0 -339 V
3 29 V
0 114 V
0 145 V
0 25 V
3 -1 V
6 -337 V
stroke 5253 3496 M
10 167 V
3 3 V
6 -78 V
3 -94 V
4 272 V
3 -272 V
0 24 V
3 -19 V
0 174 V
3 35 V
3 -211 V
3 6 V
16 252 V
3 -207 V
0 33 V
3 -4 V
0 32 V
7 -114 V
3 3 V
19 -4 V
28 103 V
28 -102 V
16 56 V
29 61 V
6 128 V
9 -245 V
13 70 V
9 -72 V
22 151 V
22 -151 V
95 91 V
72 1 V
13 242 V
9 -161 V
60 -66 V
7 -58 V
44 -48 V
53 169 V
0 36 V
25 240 V
13 -240 V
22 -204 V
6 154 V
10 19 V
12 308 V
35 -127 V
9 -130 V
7 -223 V
9 -2 V
0 1 V
32 -2 V
19 142 V
12 -142 V
6 416 V
10 -414 V
22 101 V
16 76 V
25 -152 V
38 -26 V
12 101 V
10 69 V
78 -6 V
0 -165 V
32 171 V
3 -52 V
0 -119 V
10 1 V
12 454 V
22 -455 V
7 0 V
0 258 V
15 -153 V
0 303 V
54 -287 V
3 -2 V
19 -109 V
28 292 V
38 -294 V
9 50 V
4 -53 V
0 -3 V
28 72 V
6 -70 V
13 168 V
0 295 V
12 -441 V
4 36 V
56 171 V
3 -229 V
32 463 V
16 -377 V
37 -10 V
23 13 V
9 18 V
3 -84 V
3 2 V
25 203 V
19 -102 V
29 42 V
78 -172 V
19 806 V
10 -804 V
107 91 V
22 27 V
stroke 7118 3613 M
69 98 V
32 741 V
0 -856 V
3 -101 V
16 110 V
81 48 V
4 13 V
31 1 V
6 -75 V
16 -92 V
63 167 V
29 1728 V
22 -1902 V
25 111 V
0 -36 V
12 -75 V
32 184 V
63 -14 V
0 -168 V
110 156 V
19 -39 V
66 -117 V
3 0 V
13 115 V
91 -5 V
3 345 V
0 89 V
126 -513 V
16 78 V
25 -111 V
82 97 V
6 80 V
67 -67 V
6 15 V
75 206 V
7 -41 V
12 -290 V
29 1 V
15 1 V
35 14 V
73 -15 V
12 7 V
6 7 V
29 -14 V
19 0 V
25 127 V
22 -56 V
170 -72 V
41 129 V
161 -61 V
41 -16 V
9 99 V
3 -109 V
19 232 V
22 -230 V
57 60 V
19 1593 V
85 -1139 V
63 -402 V
47 58 V
25 -73 V
57 -14 V
25 90 V
148 87 V
0 -304 V
13 1 V
25 310 V
69 -211 V
110 -69 V
73 -16 V
0 136 V
41 170 V
3 282 V
53 -387 V
164 38 V
32 -196 V
299 229 V
66 -178 V
32 64 V
3 -168 V
0 -3 V
9 163 V
6 -132 V
16 -29 V
0 168 V
3 -171 V
7 1 V
0 921 V
0 -921 V
3 252 V
0 -253 V
3 477 V
3 -303 V
0 -168 V
3 12 V
0 56 V
0 125 V
0 117 V
7 -316 V
3 16 V
0 108 V
0 90 V
3 -200 V
6 199 V
stroke 10661 3707 M
6 -47 V
10 -32 V
3 546 V
3 -678 V
3 175 V
7 -6 V
3 -169 V
3 1 V
0 1 V
3 0 V
0 222 V
3 -22 V
6 -196 V
0 864 V
7 -872 V
3 79 V
3 -55 V
3 956 V
3 -980 V
0 1 V
0 172 V
0 18 V
0 53 V
0 -212 V
0 311 V
4 -202 V
0 44 V
3 -114 V
3 -67 V
0 18 V
3 -6 V
0 379 V
9 -190 V
10 -41 V
6 -162 V
0 12 V
0 127 V
6 -140 V
0 171 V
4 -106 V
0 51 V
0 25 V
0 68 V
3 -199 V
0 -11 V
6 7 V
0 64 V
6 -60 V
0 48 V
0 84 V
0 -48 V
4 -88 V
0 9 V
0 41 V
0 84 V
6 29 V
3 9 V
6 -166 V
13 67 V
6 100 V
3 -10 V
0 311 V
0 -402 V
7 116 V
0 -196 V
3 6 V
0 199 V
0 76 V
0 149 V
3 -428 V
0 146 V
0 731 V
6 -875 V
7 2 V
0 7 V
0 415 V
6 -422 V
3 132 V
3 -15 V
0 64 V
0 44 V
0 -229 V
3 15 V
3 -16 V
4 16 V
0 132 V
0 -146 V
3 105 V
3 -102 V
0 7 V
12 -8 V
0 92 V
4 -86 V
0 54 V
0 108 V
9 -80 V
3 82 V
13 -97 V
0 1 V
6 -73 V
3 176 V
7 -136 V
3 -45 V
3 0 V
stroke 10951 3494 M
0 42 V
0 35 V
0 22 V
3 73 V
6 -8 V
13 -160 V
9 124 V
0 45 V
32 -167 V
3 -4 V
16 9 V
3 84 V
3 -91 V
3 4 V
0 156 V
6 47 V
4 10 V
6 96 V
3 -318 V
10 2 V
3 0 V
3 3 V
3 30 V
3 -33 V
10 186 V
18 169 V
10 -357 V
9 3 V
0 19 V
7 201 V
3 -3 V
3 91 V
3 -308 V
10 63 V
22 -48 V
9 65 V
38 22 V
3 -92 V
9 509 V
35 -511 V
0 25 V
3 353 V
3 -329 V
16 -56 V
16 159 V
28 -163 V
22 58 V
3 -8 V
48 -32 V
6 97 V
35 -100 V
72 211 V
19 359 V
6 -520 V
10 227 V
12 -290 V
44 376 V
48 -376 V
41 91 V
6 -60 V
6 332 V
10 -338 V
85 435 V
41 -352 V
15 11 V
22 -104 V
0 -15 V
0 18 V
7 22 V
44 -42 V
25 4 V
9 73 V
13 21 V
0 191 V
35 -113 V
15 81 V
19 -225 V
7 22 V
44 36 V
19 -53 V
28 137 V
3 -2 V
10 -170 V
18 42 V
7 160 V
50 -30 V
66 -103 V
7 119 V
12 -185 V
0 18 V
0 231 V
29 -219 V
12 198 V
10 -210 V
15 174 V
26 -24 V
47 11 V
12 -172 V
13 68 V
3 -72 V
3 14 V
3 -21 V
4 172 V
3 -19 V
stroke 12507 3647 M
0 -6 V
12 -148 V
0 173 V
3 -82 V
4 82 V
3 -70 V
0 -101 V
6 0 V
16 33 V
3 -32 V
0 96 V
3 -92 V
3 -4 V
0 -3 V
0 1 V
3 0 V
0 12 V
0 109 V
0 -120 V
4 2 V
0 45 V
6 -33 V
3 135 V
6 -5 V
3 -129 V
4 83 V
0 -99 V
3 115 V
0 -114 V
0 -1 V
3 0 V
9 0 V
3 9 V
4 79 V
0 5 V
0 -28 V
0 -66 V
0 96 V
0 -96 V
3 11 V
3 -7 V
0 15 V
3 -17 V
3 46 V
3 -45 V
10 86 V
6 25 V
0 -114 V
0 2 V
3 0 V
0 9 V
0 74 V
7 -84 V
0 7 V
0 22 V
0 -27 V
3 -2 V
0 10 V
0 -6 V
3 1 V
3 0 V
0 84 V
3 -86 V
3 0 V
0 1 V
0 40 V
0 34 V
7 -74 V
3 8 V
0 72 V
0 -34 V
6 -37 V
0 81 V
0 -19 V
0 -18 V
3 -58 V
0 3 V
7 0 V
3 8 V
0 -11 V
6 7 V
0 22 V
3 -11 V
0 -18 V
3 70 V
3 -61 V
0 74 V
4 -43 V
3 -37 V
0 5 V
0 4 V
3 10 V
0 32 V
0 28 V
16 -75 V
3 -4 V
0 58 V
6 1 V
6 0 V
0 1 V
4 -51 V
0 -8 V
3 -3 V
6 1 V
stroke 12765 3495 M
0 40 V
0 15 V
0 -56 V
3 7 V
6 18 V
4 -18 V
3 25 V
3 -32 V
0 11 V
0 1 V
12 -12 V
0 45 V
4 -43 V
3 -2 V
6 3 V
3 11 V
0 -14 V
3 -1 V
0 11 V
4 4 V
0 -14 V
0 1 V
3 -1 V
0 17 V
0 -18 V
0 1 V
3 16 V
0 -15 V
6 9 V
10 -9 V
0 4 V
3 1 V
0 2 V
3 -8 V
0 8 V
0 -9 V
0 4 V
0 -3 V
3 6 V
6 1 V
0 -3 V
3 -4 V
4 -1 V
6 2 V
6 1 V
6 1 V
4 1 V
3 2 V
3 -4 V
3 5 V
3 -2 V
3 -3 V
0 -2 V
4 0 V
3 3 V
1200 3675 TriUF
1200 4056 TriUF
1206 3680 TriUF
1209 3670 TriUF
1213 3591 TriUF
1219 4085 TriUF
1219 3823 TriUF
1222 6189 TriUF
1225 3608 TriUF
1238 3496 TriUF
1244 3767 TriUF
1244 3899 TriUF
1247 3872 TriUF
1247 3525 TriUF
1272 3785 TriUF
1272 5674 TriUF
1276 3667 TriUF
1282 3493 TriUF
1282 3667 TriUF
1285 4062 TriUF
1285 3493 TriUF
1294 3613 TriUF
1298 3628 TriUF
1313 3493 TriUF
1348 3594 TriUF
1354 3864 TriUF
1354 3493 TriUF
1392 3670 TriUF
1408 3970 TriUF
1414 3624 TriUF
1496 3620 TriUF
1521 3621 TriUF
1565 3666 TriUF
1565 3495 TriUF
1616 3666 TriUF
1647 3666 TriUF
1679 3555 TriUF
1682 3495 TriUF
1786 3496 TriUF
1817 3577 TriUF
1827 3495 TriUF
1880 3760 TriUF
1880 3757 TriUF
1956 3504 TriUF
1997 3694 TriUF
2079 3665 TriUF
2088 3666 TriUF
2268 3588 TriUF
2302 3617 TriUF
2331 3611 TriUF
2359 3724 TriUF
2384 3666 TriUF
2472 3882 TriUF
2576 3525 TriUF
2728 3664 TriUF
2809 3640 TriUF
2835 3592 TriUF
2879 3682 TriUF
2926 3657 TriUF
2935 4089 TriUF
2995 3665 TriUF
2998 3561 TriUF
2998 3643 TriUF
3024 3497 TriUF
3030 3510 TriUF
3046 3517 TriUF
3071 3710 TriUF
3083 3507 TriUF
3090 3569 TriUF
3093 3646 TriUF
3153 3592 TriUF
3203 3493 TriUF
3213 3501 TriUF
3247 5351 TriUF
3247 3493 TriUF
3253 3666 TriUF
3288 3514 TriUF
3335 3788 TriUF
3342 3496 TriUF
3342 3496 TriUF
3351 3515 TriUF
3408 3510 TriUF
3408 3510 TriUF
3417 3544 TriUF
3427 3495 TriUF
3439 3591 TriUF
3439 3727 TriUF
3442 3504 TriUF
3442 3711 TriUF
3455 3724 TriUF
3480 3708 TriUF
3490 3723 TriUF
3493 3495 TriUF
3496 4229 TriUF
3499 3582 TriUF
3502 3500 TriUF
3505 3655 TriUF
3515 3567 TriUF
3515 3638 TriUF
3518 3564 TriUF
3521 3498 TriUF
3521 3514 TriUF
3524 3494 TriUF
3527 3495 TriUF
3540 3637 TriUF
3553 3601 TriUF
3556 3499 TriUF
3572 3511 TriUF
3572 3493 TriUF
3575 3508 TriUF
3578 3581 TriUF
3584 3496 TriUF
3584 3500 TriUF
3584 3666 TriUF
3590 3521 TriUF
3594 3664 TriUF
3597 3499 TriUF
3603 4133 TriUF
3609 3787 TriUF
3613 3495 TriUF
3625 3494 TriUF
3635 3495 TriUF
3638 3686 TriUF
3641 3665 TriUF
3644 3498 TriUF
3647 3494 TriUF
3657 3496 TriUF
3660 3675 TriUF
3660 3494 TriUF
3666 3504 TriUF
3676 3659 TriUF
3676 3706 TriUF
3679 3499 TriUF
3679 3512 TriUF
3685 3631 TriUF
3694 3594 TriUF
3707 3498 TriUF
3707 3836 TriUF
3707 5492 TriUF
3710 3621 TriUF
3710 3834 TriUF
3713 3618 TriUF
3716 3495 TriUF
3716 3666 TriUF
3723 3496 TriUF
3723 3666 TriUF
3726 3592 TriUF
3732 3789 TriUF
3735 3500 TriUF
3735 3500 TriUF
3735 3775 TriUF
3738 3665 TriUF
3748 3503 TriUF
3748 3579 TriUF
3748 3664 TriUF
3754 3500 TriUF
3754 3502 TriUF
3757 3497 TriUF
3761 3929 TriUF
3767 4222 TriUF
3770 3497 TriUF
3773 3598 TriUF
3773 3665 TriUF
3792 3495 TriUF
3792 3667 TriUF
3795 3495 TriUF
3795 3503 TriUF
3801 3519 TriUF
3814 3604 TriUF
3814 4743 TriUF
3820 3527 TriUF
3820 3884 TriUF
3827 4240 TriUF
3830 3504 TriUF
3836 3494 TriUF
3836 3658 TriUF
3842 3494 TriUF
3842 3666 TriUF
3846 3664 TriUF
3861 3502 TriUF
3861 4423 TriUF
3864 3502 TriUF
3864 3558 TriUF
3871 3624 TriUF
3874 3666 TriUF
3883 3496 TriUF
3883 3664 TriUF
3890 3499 TriUF
3890 3495 TriUF
3896 3494 TriUF
3899 3832 TriUF
3902 3537 TriUF
3905 3530 TriUF
3912 3508 TriUF
3912 4539 TriUF
3918 3498 TriUF
3918 3732 TriUF
3921 3495 TriUF
3924 3494 TriUF
3924 3503 TriUF
3934 3495 TriUF
3934 3701 TriUF
3943 3729 TriUF
3946 3494 TriUF
3950 3505 TriUF
3968 3580 TriUF
3972 4037 TriUF
3978 3512 TriUF
3981 3882 TriUF
3990 3583 TriUF
3990 4378 TriUF
3997 3494 TriUF
4003 3662 TriUF
4006 3527 TriUF
4019 3661 TriUF
4022 3535 TriUF
4028 3527 TriUF
4031 3497 TriUF
4038 3496 TriUF
4038 3509 TriUF
4041 3676 TriUF
4041 3743 TriUF
4044 3495 TriUF
4047 3508 TriUF
4050 3593 TriUF
4050 3603 TriUF
4057 3555 TriUF
4057 3493 TriUF
4060 3868 TriUF
4069 3495 TriUF
4069 3524 TriUF
4069 3593 TriUF
4069 3664 TriUF
4075 3495 TriUF
4075 3506 TriUF
4079 3506 TriUF
4082 3509 TriUF
4088 3533 TriUF
4091 3545 TriUF
4091 4160 TriUF
4094 4006 TriUF
4094 4685 TriUF
4101 3509 TriUF
4101 3535 TriUF
4101 3945 TriUF
4107 3936 TriUF
4116 3694 TriUF
4116 3763 TriUF
4120 3500 TriUF
4120 3847 TriUF
4123 3501 TriUF
4123 4108 TriUF
4123 3495 TriUF
4126 3493 TriUF
4129 3671 TriUF
4138 3493 TriUF
4145 3494 TriUF
4148 3679 TriUF
4148 3781 TriUF
4154 3659 TriUF
4161 3675 TriUF
4167 3502 TriUF
4167 3701 TriUF
4170 3499 TriUF
4170 3518 TriUF
4170 3673 TriUF
4179 3511 TriUF
4179 3589 TriUF
4183 3710 TriUF
4183 4301 TriUF
4183 3886 TriUF
4195 3510 TriUF
4198 3499 TriUF
4224 3664 TriUF
4227 3495 TriUF
4230 3500 TriUF
4230 3493 TriUF
4242 3546 TriUF
4261 3535 TriUF
4261 5527 TriUF
4274 3496 TriUF
4274 3506 TriUF
4290 3666 TriUF
4327 3504 TriUF
4327 3593 TriUF
4331 3673 TriUF
4337 3513 TriUF
4346 3737 TriUF
4350 3493 TriUF
4384 3580 TriUF
4387 3664 TriUF
4400 3497 TriUF
4403 4477 TriUF
4409 3503 TriUF
4425 3809 TriUF
4428 3664 TriUF
4431 3592 TriUF
4479 3622 TriUF
4491 3494 TriUF
4504 3600 TriUF
4507 3655 TriUF
4526 3793 TriUF
4526 3811 TriUF
4532 3494 TriUF
4538 3795 TriUF
4542 3579 TriUF
4636 3659 TriUF
4642 3557 TriUF
4652 3692 TriUF
4652 3643 TriUF
4658 3702 TriUF
4693 3494 TriUF
4693 3495 TriUF
4718 3598 TriUF
4727 3679 TriUF
4762 3527 TriUF
4768 3497 TriUF
4778 3732 TriUF
4800 3786 TriUF
4831 3599 TriUF
4882 3595 TriUF
4888 3496 TriUF
4888 3538 TriUF
4901 3717 TriUF
4945 3574 TriUF
4945 3789 TriUF
4948 3502 TriUF
4951 3664 TriUF
4961 3585 TriUF
4964 3665 TriUF
4970 3601 TriUF
4976 3664 TriUF
4976 3493 TriUF
4979 3667 TriUF
4998 3562 TriUF
4998 3743 TriUF
5001 3497 TriUF
5017 3512 TriUF
5017 3552 TriUF
5027 3668 TriUF
5027 3494 TriUF
5030 3524 TriUF
5033 3524 TriUF
5039 3503 TriUF
5039 3665 TriUF
5039 7019 TriUF
5052 3495 TriUF
5061 3497 TriUF
5064 3500 TriUF
5064 3502 TriUF
5064 3595 TriUF
5074 3497 TriUF
5077 3516 TriUF
5077 3495 TriUF
5077 3494 TriUF
5099 3627 TriUF
5099 3797 TriUF
5102 3645 TriUF
5102 3666 TriUF
5105 3512 TriUF
5105 5197 TriUF
5115 3822 TriUF
5118 3548 TriUF
5121 3586 TriUF
5121 3587 TriUF
5124 4012 TriUF
5127 3499 TriUF
5127 3500 TriUF
5127 3493 TriUF
5137 3502 TriUF
5140 3498 TriUF
5140 3495 TriUF
5143 3494 TriUF
5143 3494 TriUF
5146 3656 TriUF
5149 3495 TriUF
5149 3494 TriUF
5153 3661 TriUF
5156 3670 TriUF
5162 3600 TriUF
5168 3494 TriUF
5168 3503 TriUF
5168 3605 TriUF
5168 3495 TriUF
5172 3524 TriUF
5172 3667 TriUF
5172 3818 TriUF
5175 3495 TriUF
5175 3496 TriUF
5178 3532 TriUF
5178 3497 TriUF
5184 3666 TriUF
5187 3494 TriUF
5190 3630 TriUF
5200 3511 TriUF
5206 3881 TriUF
5209 3497 TriUF
5209 3535 TriUF
5212 3494 TriUF
5212 3665 TriUF
5212 3791 TriUF
5212 3667 TriUF
5216 3592 TriUF
5216 3815 TriUF
5219 3589 TriUF
5219 3611 TriUF
5222 3664 TriUF
5231 3503 TriUF
5235 3502 TriUF
5235 3712 TriUF
5238 3618 TriUF
5241 3516 TriUF
5241 3557 TriUF
5241 3860 TriUF
5241 3521 TriUF
5244 3550 TriUF
5244 3664 TriUF
5244 3809 TriUF
5244 3834 TriUF
5247 3833 TriUF
5253 3496 TriUF
5263 3663 TriUF
5266 3666 TriUF
5272 3588 TriUF
5275 3494 TriUF
5279 3766 TriUF
5282 3494 TriUF
5282 3518 TriUF
5285 3499 TriUF
5285 3673 TriUF
5288 3708 TriUF
5291 3497 TriUF
5294 3503 TriUF
5310 3755 TriUF
5313 3548 TriUF
5313 3581 TriUF
5316 3577 TriUF
5316 3609 TriUF
5323 3495 TriUF
5326 3498 TriUF
5345 3494 TriUF
5373 3597 TriUF
5401 3495 TriUF
5417 3551 TriUF
5446 3612 TriUF
5452 3740 TriUF
5461 3495 TriUF
5474 3565 TriUF
5483 3493 TriUF
5505 3644 TriUF
5527 3493 TriUF
5622 3584 TriUF
5694 3585 TriUF
5707 3827 TriUF
5716 3666 TriUF
5776 3600 TriUF
5783 3542 TriUF
5827 3494 TriUF
5880 3663 TriUF
5880 3699 TriUF
5905 3939 TriUF
5918 3699 TriUF
5940 3495 TriUF
5946 3649 TriUF
5956 3668 TriUF
5968 3976 TriUF
6003 3849 TriUF
6012 3719 TriUF
6019 3496 TriUF
6028 3494 TriUF
6028 3495 TriUF
6060 3493 TriUF
6079 3635 TriUF
6091 3493 TriUF
6097 3909 TriUF
6107 3495 TriUF
6129 3596 TriUF
6145 3672 TriUF
6170 3520 TriUF
6208 3494 TriUF
6220 3595 TriUF
6230 3664 TriUF
6230 3664 TriUF
6308 3658 TriUF
6308 3493 TriUF
6340 3664 TriUF
6343 3612 TriUF
6343 3493 TriUF
6353 3494 TriUF
6353 3494 TriUF
6365 3948 TriUF
6387 3493 TriUF
6394 3493 TriUF
6394 3751 TriUF
6409 3598 TriUF
6409 3901 TriUF
6463 3614 TriUF
6466 3612 TriUF
6485 3503 TriUF
6513 3795 TriUF
6551 3501 TriUF
6560 3551 TriUF
6564 3498 TriUF
6564 3495 TriUF
6592 3567 TriUF
6598 3497 TriUF
6611 3665 TriUF
6611 3960 TriUF
6623 3519 TriUF
6627 3555 TriUF
6683 3726 TriUF
6686 3497 TriUF
6718 3960 TriUF
6734 3583 TriUF
6771 3573 TriUF
6794 3586 TriUF
6803 3604 TriUF
6806 3520 TriUF
6809 3522 TriUF
6834 3725 TriUF
6853 3623 TriUF
6882 3665 TriUF
6960 3493 TriUF
6979 4299 TriUF
6989 3495 TriUF
7096 3586 TriUF
7118 3613 TriUF
7187 3711 TriUF
7219 4452 TriUF
7219 3596 TriUF
7222 3495 TriUF
7238 3605 TriUF
7319 3653 TriUF
7323 3666 TriUF
7354 3667 TriUF
7360 3592 TriUF
7376 3500 TriUF
7439 3667 TriUF
7468 5395 TriUF
7490 3493 TriUF
7515 3604 TriUF
7515 3568 TriUF
7527 3493 TriUF
7559 3677 TriUF
7622 3663 TriUF
7622 3495 TriUF
7732 3651 TriUF
7751 3612 TriUF
7817 3495 TriUF
7820 3495 TriUF
7833 3610 TriUF
7924 3605 TriUF
7927 3950 TriUF
7927 4039 TriUF
8053 3526 TriUF
8069 3604 TriUF
8094 3493 TriUF
8176 3590 TriUF
8182 3670 TriUF
8249 3603 TriUF
8255 3618 TriUF
8330 3824 TriUF
8337 3783 TriUF
8349 3493 TriUF
8378 3494 TriUF
8393 3495 TriUF
8428 3509 TriUF
8501 3494 TriUF
8513 3501 TriUF
8519 3508 TriUF
8548 3494 TriUF
8567 3494 TriUF
8592 3621 TriUF
8614 3565 TriUF
8784 3493 TriUF
8825 3622 TriUF
8986 3561 TriUF
9027 3545 TriUF
9036 3644 TriUF
9039 3535 TriUF
9058 3767 TriUF
9080 3537 TriUF
9137 3597 TriUF
9156 5190 TriUF
9241 4051 TriUF
9304 3649 TriUF
9351 3707 TriUF
9376 3634 TriUF
9433 3620 TriUF
9458 3710 TriUF
9606 3797 TriUF
9606 3493 TriUF
9619 3494 TriUF
9644 3804 TriUF
9713 3593 TriUF
9823 3524 TriUF
9896 3508 TriUF
9896 3644 TriUF
9937 3814 TriUF
9940 4096 TriUF
9993 3709 TriUF
10157 3747 TriUF
10189 3551 TriUF
10488 3780 TriUF
10554 3602 TriUF
10586 3666 TriUF
10589 3498 TriUF
10589 3495 TriUF
10598 3658 TriUF
10604 3526 TriUF
10620 3497 TriUF
10620 3665 TriUF
10623 3494 TriUF
10630 3495 TriUF
10630 4416 TriUF
10630 3495 TriUF
10633 3747 TriUF
10633 3494 TriUF
10636 3971 TriUF
10639 3668 TriUF
10639 3500 TriUF
10642 3512 TriUF
10642 3568 TriUF
10642 3693 TriUF
10642 3810 TriUF
10649 3494 TriUF
10652 3510 TriUF
10652 3618 TriUF
10652 3708 TriUF
10655 3508 TriUF
10661 3707 TriUF
10667 3660 TriUF
10677 3628 TriUF
10680 4174 TriUF
10683 3496 TriUF
10686 3671 TriUF
10693 3665 TriUF
10696 3496 TriUF
10699 3497 TriUF
10699 3498 TriUF
10702 3498 TriUF
10702 3720 TriUF
10705 3698 TriUF
10711 3502 TriUF
10711 4366 TriUF
10718 3494 TriUF
10721 3573 TriUF
10724 3518 TriUF
10727 4474 TriUF
10730 3494 TriUF
10730 3495 TriUF
10730 3667 TriUF
10730 3685 TriUF
10730 3738 TriUF
10730 3526 TriUF
10730 3837 TriUF
10734 3635 TriUF
10734 3679 TriUF
10737 3565 TriUF
10740 3498 TriUF
10740 3516 TriUF
10743 3510 TriUF
10743 3889 TriUF
10752 3699 TriUF
10762 3658 TriUF
10768 3496 TriUF
10768 3508 TriUF
10768 3635 TriUF
10774 3495 TriUF
10774 3666 TriUF
10778 3560 TriUF
10778 3611 TriUF
10778 3636 TriUF
10778 3704 TriUF
10781 3505 TriUF
10781 3494 TriUF
10787 3501 TriUF
10787 3565 TriUF
10793 3505 TriUF
10793 3553 TriUF
10793 3637 TriUF
10793 3589 TriUF
10797 3501 TriUF
10797 3510 TriUF
10797 3551 TriUF
10797 3635 TriUF
10803 3664 TriUF
10806 3673 TriUF
10812 3507 TriUF
10825 3574 TriUF
10831 3674 TriUF
10834 3664 TriUF
10834 3975 TriUF
10834 3573 TriUF
10841 3689 TriUF
10841 3493 TriUF
10844 3499 TriUF
10844 3698 TriUF
10844 3774 TriUF
10844 3923 TriUF
10847 3495 TriUF
10847 3641 TriUF
10847 4372 TriUF
10853 3497 TriUF
10860 3499 TriUF
10860 3506 TriUF
10860 3921 TriUF
10866 3499 TriUF
10869 3631 TriUF
10872 3616 TriUF
10872 3680 TriUF
10872 3724 TriUF
10872 3495 TriUF
10875 3510 TriUF
10878 3494 TriUF
10882 3510 TriUF
10882 3642 TriUF
10882 3496 TriUF
10885 3601 TriUF
10888 3499 TriUF
10888 3506 TriUF
10900 3498 TriUF
10900 3590 TriUF
10904 3504 TriUF
10904 3558 TriUF
10904 3666 TriUF
10913 3586 TriUF
10916 3668 TriUF
10929 3571 TriUF
10929 3572 TriUF
10935 3499 TriUF
10935 3499 TriUF
10938 3675 TriUF
10945 3539 TriUF
10948 3494 TriUF
10951 3494 TriUF
10951 3536 TriUF
10951 3571 TriUF
10951 3593 TriUF
10954 3666 TriUF
10960 3658 TriUF
10973 3498 TriUF
10982 3622 TriUF
10982 3667 TriUF
11014 3500 TriUF
11017 3496 TriUF
11033 3505 TriUF
11036 3589 TriUF
11039 3498 TriUF
11042 3502 TriUF
11042 3658 TriUF
11048 3705 TriUF
11052 3715 TriUF
11058 3811 TriUF
11061 3493 TriUF
11071 3495 TriUF
11074 3495 TriUF
11077 3498 TriUF
11080 3528 TriUF
11083 3495 TriUF
11093 3681 TriUF
11111 3850 TriUF
11121 3493 TriUF
11130 3496 TriUF
11130 3515 TriUF
11137 3716 TriUF
11140 3713 TriUF
11143 3804 TriUF
11146 3496 TriUF
11156 3559 TriUF
11178 3511 TriUF
11187 3576 TriUF
11225 3598 TriUF
11228 3506 TriUF
11237 4015 TriUF
11272 3504 TriUF
11272 3529 TriUF
11275 3882 TriUF
11278 3553 TriUF
11294 3497 TriUF
11310 3656 TriUF
11338 3493 TriUF
11360 3551 TriUF
11363 3543 TriUF
11411 3511 TriUF
11417 3608 TriUF
11452 3508 TriUF
11524 3719 TriUF
11543 4078 TriUF
11549 3558 TriUF
11559 3785 TriUF
11571 3495 TriUF
11615 3871 TriUF
11663 3495 TriUF
11704 3586 TriUF
11710 3526 TriUF
11716 3858 TriUF
11726 3520 TriUF
11811 3955 TriUF
11852 3603 TriUF
11867 3614 TriUF
11889 3510 TriUF
11889 3495 TriUF
11889 3513 TriUF
11896 3535 TriUF
11940 3493 TriUF
11965 3497 TriUF
11974 3570 TriUF
11987 3591 TriUF
11987 3782 TriUF
12022 3669 TriUF
12037 3750 TriUF
12056 3525 TriUF
12063 3547 TriUF
12107 3583 TriUF
12126 3530 TriUF
12154 3667 TriUF
12157 3665 TriUF
12167 3495 TriUF
12185 3537 TriUF
12192 3697 TriUF
12242 3667 TriUF
12308 3564 TriUF
12315 3683 TriUF
12327 3498 TriUF
12327 3516 TriUF
12327 3747 TriUF
12356 3528 TriUF
12368 3726 TriUF
12378 3516 TriUF
12393 3690 TriUF
12419 3666 TriUF
12466 3677 TriUF
12478 3505 TriUF
12491 3573 TriUF
12494 3501 TriUF
12497 3515 TriUF
12500 3494 TriUF
12504 3666 TriUF
12507 3647 TriUF
12507 3641 TriUF
12519 3493 TriUF
12519 3666 TriUF
12522 3584 TriUF
12526 3666 TriUF
12529 3596 TriUF
12529 3495 TriUF
12535 3495 TriUF
12551 3528 TriUF
12554 3496 TriUF
12554 3592 TriUF
12557 3500 TriUF
12560 3496 TriUF
12560 3493 TriUF
12560 3494 TriUF
12563 3494 TriUF
12563 3506 TriUF
12563 3615 TriUF
12563 3495 TriUF
12567 3497 TriUF
12567 3542 TriUF
12573 3509 TriUF
12576 3644 TriUF
12582 3639 TriUF
12585 3510 TriUF
12589 3593 TriUF
12589 3494 TriUF
12592 3609 TriUF
12592 3495 TriUF
12592 3494 TriUF
12595 3494 TriUF
12604 3494 TriUF
12607 3503 TriUF
12611 3582 TriUF
12611 3587 TriUF
12611 3559 TriUF
12611 3493 TriUF
12611 3589 TriUF
12611 3493 TriUF
12614 3504 TriUF
12617 3497 TriUF
12617 3497 TriUF
12617 3512 TriUF
12620 3495 TriUF
12623 3541 TriUF
12626 3496 TriUF
12636 3582 TriUF
12642 3607 TriUF
12642 3607 TriUF
12642 3493 TriUF
12642 3495 TriUF
12645 3495 TriUF
12645 3504 TriUF
12645 3578 TriUF
12652 3494 TriUF
12652 3501 TriUF
12652 3523 TriUF
12652 3496 TriUF
12655 3494 TriUF
12655 3504 TriUF
12655 3498 TriUF
12658 3499 TriUF
12661 3499 TriUF
12661 3499 TriUF
12661 3583 TriUF
12664 3497 TriUF
12667 3497 TriUF
12667 3498 TriUF
12667 3538 TriUF
12667 3572 TriUF
12674 3498 TriUF
12677 3506 TriUF
12677 3578 TriUF
12677 3544 TriUF
12683 3507 TriUF
12683 3588 TriUF
12683 3569 TriUF
12683 3551 TriUF
12686 3493 TriUF
12686 3496 TriUF
12693 3496 TriUF
12696 3504 TriUF
12696 3493 TriUF
12702 3500 TriUF
12702 3522 TriUF
12705 3511 TriUF
12705 3493 TriUF
12708 3563 TriUF
12711 3502 TriUF
12711 3576 TriUF
12715 3533 TriUF
12718 3496 TriUF
12718 3501 TriUF
12718 3505 TriUF
12721 3515 TriUF
12721 3547 TriUF
12721 3575 TriUF
12737 3500 TriUF
12740 3496 TriUF
12740 3554 TriUF
12746 3555 TriUF
12752 3555 TriUF
12752 3556 TriUF
12756 3505 TriUF
12756 3497 TriUF
12759 3494 TriUF
12765 3495 TriUF
12765 3535 TriUF
12765 3550 TriUF
12765 3494 TriUF
12768 3501 TriUF
12774 3519 TriUF
12778 3501 TriUF
12781 3526 TriUF
12784 3494 TriUF
12784 3505 TriUF
12784 3505 TriUF
12784 3506 TriUF
12796 3494 TriUF
12796 3539 TriUF
12800 3496 TriUF
12803 3494 TriUF
12809 3497 TriUF
12812 3508 TriUF
12812 3494 TriUF
12815 3493 TriUF
12815 3504 TriUF
12819 3508 TriUF
12819 3494 TriUF
12819 3495 TriUF
12822 3494 TriUF
12822 3511 TriUF
12822 3493 TriUF
12822 3494 TriUF
12825 3510 TriUF
12825 3495 TriUF
12831 3504 TriUF
12841 3495 TriUF
12841 3499 TriUF
12844 3500 TriUF
12844 3502 TriUF
12847 3494 TriUF
12847 3502 TriUF
12847 3493 TriUF
12847 3493 TriUF
12847 3497 TriUF
12847 3494 TriUF
12850 3500 TriUF
12856 3501 TriUF
12856 3498 TriUF
12859 3494 TriUF
12863 3493 TriUF
12869 3495 TriUF
12875 3496 TriUF
12881 3497 TriUF
12885 3498 TriUF
12888 3500 TriUF
12891 3496 TriUF
12894 3501 TriUF
12897 3499 TriUF
12900 3496 TriUF
12900 3494 TriUF
12904 3494 TriUF
12904 3494 TriUF
12907 3497 TriUF
% End plot #1
1.000 UL
LTb
LCb setrgbcolor
1200 7049 N
0 -3556 V
12598 0 V
0 3556 V
-12598 0 V
Z stroke
1.000 UP
1.000 UL
LTb
LCb setrgbcolor
stroke
grestore
end
showpage
%%Page: 2 2
gnudict begin
gsave
doclip
50 50 translate
0.050 0.050 scale
0 setgray
newpath
(Times) findfont 200 scalefont setfont
BackgroundColor 0 lt 3 1 roll 0 lt exch 0 lt or or not {BackgroundColor C 1.000 0 0 14400.00 10080.00 BoxColFill} if
1.000 UL
LTb
LCb setrgbcolor
1.000 UL
LTa
LCa setrgbcolor
600 3493 M
12598 0 V
stroke
LTb
LCb setrgbcolor
600 3493 M
63 0 V
12535 0 R
-63 0 V
stroke
480 3493 M
[ [(Times) 200.0 0.0 true true 0 ( 0)]
] -66.7 MRshow
1.000 UL
LTb
LCb setrgbcolor
1.000 UL
LTa
LCa setrgbcolor
600 3888 M
12598 0 V
stroke
LTb
LCb setrgbcolor
600 3888 M
63 0 V
12535 0 R
-63 0 V
stroke
480 3888 M
[ [(Times) 200.0 0.0 true true 0 ( 200000)]
] -66.7 MRshow
1.000 UL
LTb
LCb setrgbcolor
1.000 UL
LTa
LCa setrgbcolor
600 4283 M
12598 0 V
stroke
LTb
LCb setrgbcolor
600 4283 M
63 0 V
12535 0 R
-63 0 V
stroke
480 4283 M
[ [(Times) 200.0 0.0 true true 0 ( 400000)]
] -66.7 MRshow
1.000 UL
LTb
LCb setrgbcolor
1.000 UL
LTa
LCa setrgbcolor
600 4678 M
12598 0 V
stroke
LTb
LCb setrgbcolor
600 4678 M
63 0 V
12535 0 R
-63 0 V
stroke
480 4678 M
[ [(Times) 200.0 0.0 true true 0 ( 600000)]
] -66.7 MRshow
1.000 UL
LTb
LCb setrgbcolor
1.000 UL
LTa
LCa setrgbcolor
600 5073 M
12598 0 V
stroke
LTb
LCb setrgbcolor
600 5073 M
63 0 V
12535 0 R
-63 0 V
stroke
480 5073 M
[ [(Times) 200.0 0.0 true true 0 ( 800000)]
] -66.7 MRshow
1.000 UL
LTb
LCb setrgbcolor
1.000 UL
LTa
LCa setrgbcolor
600 5469 M
12598 0 V
stroke
LTb
LCb setrgbcolor
600 5469 M
63 0 V
12535 0 R
-63 0 V
stroke
480 5469 M
[ [(Times) 200.0 0.0 true true 0 ( 1e+06)]
] -66.7 MRshow
1.000 UL
LTb
LCb setrgbcolor
1.000 UL
LTa
LCa setrgbcolor
600 5864 M
12598 0 V
stroke
LTb
LCb setrgbcolor
600 5864 M
63 0 V
12535 0 R
-63 0 V
stroke
480 5864 M
[ [(Times) 200.0 0.0 true true 0 ( 1.2e+06)]
] -66.7 MRshow
1.000 UL
LTb
LCb setrgbcolor
1.000 UL
LTa
LCa setrgbcolor
600 6259 M
12598 0 V
stroke
LTb
LCb setrgbcolor
600 6259 M
63 0 V
12535 0 R
-63 0 V
stroke
480 6259 M
[ [(Times) 200.0 0.0 true true 0 ( 1.4e+06)]
] -66.7 MRshow
1.000 UL
LTb
LCb setrgbcolor
1.000 UL
LTa
LCa setrgbcolor
600 6654 M
12598 0 V
stroke
LTb
LCb setrgbcolor
600 6654 M
63 0 V
12535 0 R
-63 0 V
stroke
480 6654 M
[ [(Times) 200.0 0.0 true true 0 ( 1.6e+06)]
] -66.7 MRshow
1.000 UL
LTb
LCb setrgbcolor
1.000 UL
LTa
LCa setrgbcolor
600 7049 M
12598 0 V
stroke
LTb
LCb setrgbcolor
600 7049 M
63 0 V
12535 0 R
-63 0 V
stroke
480 7049 M
[ [(Times) 200.0 0.0 true true 0 ( 1.8e+06)]
] -66.7 MRshow
1.000 UL
LTb
LCb setrgbcolor
1.000 UL
LTa
LCa setrgbcolor
600 3493 M
0 3556 V
stroke
LTb
LCb setrgbcolor
600 3493 M
0 63 V
0 3493 R
0 -63 V
stroke
600 3373 M
currentpoint gsave translate -45 rotate 0 0 moveto
[ [(Times) 200.0 0.0 true true 0 ( 0)]
] -66.7 MLshow
grestore
1.000 UL
LTb
LCb setrgbcolor
1.000 UL
LTa
LCa setrgbcolor
3120 3493 M
0 3556 V
stroke
LTb
LCb setrgbcolor
3120 3493 M
0 63 V
0 3493 R
0 -63 V
stroke
3120 3373 M
currentpoint gsave translate -45 rotate 0 0 moveto
[ [(Times) 200.0 0.0 true true 0 ( 500)]
] -66.7 MLshow
grestore
1.000 UL
LTb
LCb setrgbcolor
1.000 UL
LTa
LCa setrgbcolor
5639 3493 M
0 3556 V
stroke
LTb
LCb setrgbcolor
5639 3493 M
0 63 V
0 3493 R
0 -63 V
stroke
5639 3373 M
currentpoint gsave translate -45 rotate 0 0 moveto
[ [(Times) 200.0 0.0 true true 0 ( 1000)]
] -66.7 MLshow
grestore
1.000 UL
LTb
LCb setrgbcolor
1.000 UL
LTa
LCa setrgbcolor
8159 3493 M
0 3556 V
stroke
LTb
LCb setrgbcolor
8159 3493 M
0 63 V
0 3493 R
0 -63 V
stroke
8159 3373 M
currentpoint gsave translate -45 rotate 0 0 moveto
[ [(Times) 200.0 0.0 true true 0 ( 1500)]
] -66.7 MLshow
grestore
1.000 UL
LTb
LCb setrgbcolor
1.000 UL
LTa
LCa setrgbcolor
10678 3493 M
0 3556 V
stroke
LTb
LCb setrgbcolor
10678 3493 M
0 63 V
0 3493 R
0 -63 V
stroke
10678 3373 M
currentpoint gsave translate -45 rotate 0 0 moveto
[ [(Times) 200.0 0.0 true true 0 ( 2000)]
] -66.7 MLshow
grestore
1.000 UL
LTb
LCb setrgbcolor
1.000 UL
LTa
LCa setrgbcolor
13198 3493 M
0 3556 V
stroke
LTb
LCb setrgbcolor
13198 3493 M
0 63 V
0 3493 R
0 -63 V
stroke
13198 3373 M
currentpoint gsave translate -45 rotate 0 0 moveto
[ [(Times) 200.0 0.0 true true 0 ( 2500)]
] -66.7 MLshow
grestore
1.000 UL
LTb
LCb setrgbcolor
1.000 UL
LTb
LCb setrgbcolor
600 7049 N
0 -3556 V
12598 0 V
0 3556 V
600 7049 L
Z stroke
LCb setrgbcolor
-700 5271 M
currentpoint gsave translate -270 rotate 0 0 moveto
[ [(Times) 200.0 0.0 true true 0 (Flow size [bytes])]
] -66.7 MCshow
grestore
LTb
LCb setrgbcolor
6899 2769 M
[ [(Times) 200.0 0.0 true true 0 (Duration [sec])]
] -66.7 MCshow
LTb
6899 7349 M
[ [(Times) 200.0 0.0 true true 0 (src port 80, repeating connections sorted by duration)]
] -66.7 MCshow
1.000 UP
1.000 UL
LTb
LCb setrgbcolor
1.000 UL
LT8
LC8 setrgbcolor
6508 63 N
782 0 V
-782 0 V
Z stroke
% Begin plot #1
1.000 UP
1.000 UL
LT8
1.00 0.00 0.00 C 600 3493 TriUF
600 3493 TriUF
600 3494 TriUF
600 3493 TriUF
600 3493 TriUF
600 3493 TriUF
600 3493 TriUF
600 3493 TriUF
600 3493 TriUF
600 3493 TriUF
600 3495 TriUF
600 3493 TriUF
600 3493 TriUF
600 3493 TriUF
600 3493 TriUF
600 3493 TriUF
600 3494 TriUF
600 3493 TriUF
600 3493 TriUF
600 3493 TriUF
600 3493 TriUF
600 3493 TriUF
600 3494 TriUF
601 3493 TriUF
601 3494 TriUF
601 3495 TriUF
601 3494 TriUF
601 3508 TriUF
601 3507 TriUF
601 3495 TriUF
601 3501 TriUF
601 3494 TriUF
601 3494 TriUF
601 3494 TriUF
601 3494 TriUF
601 3508 TriUF
601 3495 TriUF
601 3494 TriUF
601 3508 TriUF
602 3503 TriUF
602 3503 TriUF
602 3495 TriUF
602 3508 TriUF
602 3494 TriUF
602 3495 TriUF
602 3494 TriUF
602 3509 TriUF
602 3496 TriUF
602 3503 TriUF
602 3495 TriUF
602 3494 TriUF
602 3495 TriUF
602 3494 TriUF
602 3495 TriUF
602 3497 TriUF
602 3495 TriUF
602 3493 TriUF
602 3497 TriUF
602 3508 TriUF
602 3494 TriUF
603 3501 TriUF
603 3508 TriUF
603 3494 TriUF
603 3496 TriUF
603 3495 TriUF
603 3508 TriUF
603 3495 TriUF
603 3496 TriUF
603 3508 TriUF
603 3494 TriUF
603 3516 TriUF
603 3502 TriUF
604 3495 TriUF
604 3499 TriUF
604 3501 TriUF
604 3498 TriUF
604 3495 TriUF
604 3519 TriUF
604 3495 TriUF
604 3493 TriUF
604 3495 TriUF
604 3495 TriUF
604 3496 TriUF
604 3495 TriUF
604 3501 TriUF
604 3493 TriUF
604 3509 TriUF
604 3501 TriUF
604 3511 TriUF
604 3493 TriUF
604 3495 TriUF
604 3495 TriUF
604 3495 TriUF
604 3505 TriUF
604 3495 TriUF
604 3494 TriUF
604 3495 TriUF
604 3495 TriUF
604 3495 TriUF
604 3497 TriUF
605 3495 TriUF
605 3497 TriUF
605 3505 TriUF
605 3493 TriUF
605 3495 TriUF
605 3496 TriUF
605 3497 TriUF
605 3498 TriUF
605 3495 TriUF
605 3500 TriUF
605 3494 TriUF
605 3495 TriUF
605 3493 TriUF
605 3497 TriUF
605 3505 TriUF
605 3508 TriUF
605 3501 TriUF
605 3495 TriUF
605 3495 TriUF
605 3498 TriUF
605 3498 TriUF
606 3510 TriUF
606 3503 TriUF
606 3496 TriUF
606 3495 TriUF
606 3495 TriUF
606 3513 TriUF
606 3509 TriUF
606 3493 TriUF
606 3498 TriUF
606 3495 TriUF
606 3495 TriUF
606 3498 TriUF
606 3495 TriUF
606 3509 TriUF
606 3495 TriUF
606 3494 TriUF
606 3496 TriUF
606 3493 TriUF
606 3494 TriUF
606 3496 TriUF
606 3505 TriUF
606 3508 TriUF
606 3503 TriUF
606 3517 TriUF
606 3500 TriUF
606 3494 TriUF
606 3496 TriUF
606 3498 TriUF
606 3498 TriUF
606 3494 TriUF
606 3498 TriUF
606 3494 TriUF
607 3494 TriUF
607 3494 TriUF
607 3494 TriUF
607 3501 TriUF
607 3501 TriUF
607 3496 TriUF
607 3495 TriUF
607 3545 TriUF
607 3495 TriUF
607 3495 TriUF
607 3494 TriUF
608 3495 TriUF
608 3496 TriUF
608 3494 TriUF
608 3497 TriUF
608 3496 TriUF
608 3498 TriUF
608 3494 TriUF
608 3497 TriUF
608 3498 TriUF
608 3494 TriUF
608 3506 TriUF
608 3495 TriUF
608 3496 TriUF
609 3498 TriUF
609 3495 TriUF
609 3499 TriUF
609 3494 TriUF
609 3495 TriUF
609 3495 TriUF
609 3495 TriUF
610 3502 TriUF
610 3495 TriUF
610 3499 TriUF
610 3495 TriUF
610 3496 TriUF
610 3501 TriUF
610 3497 TriUF
610 3498 TriUF
610 3514 TriUF
611 3507 TriUF
611 3494 TriUF
611 3495 TriUF
611 3499 TriUF
611 3504 TriUF
611 3494 TriUF
611 3494 TriUF
611 3494 TriUF
611 3498 TriUF
611 3495 TriUF
611 3505 TriUF
611 3496 TriUF
611 3495 TriUF
612 3504 TriUF
612 3494 TriUF
612 3495 TriUF
612 3496 TriUF
612 3496 TriUF
612 3631 TriUF
612 3502 TriUF
613 3543 TriUF
613 3499 TriUF
613 3497 TriUF
613 3494 TriUF
613 3495 TriUF
613 3496 TriUF
613 3495 TriUF
613 3497 TriUF
613 3592 TriUF
613 3658 TriUF
613 3495 TriUF
613 3684 TriUF
613 3494 TriUF
614 3538 TriUF
614 3494 TriUF
614 3494 TriUF
614 3496 TriUF
614 3498 TriUF
614 3516 TriUF
614 3495 TriUF
614 3508 TriUF
615 3494 TriUF
615 3496 TriUF
615 3496 TriUF
615 3497 TriUF
616 3528 TriUF
616 3522 TriUF
616 3617 TriUF
616 3493 TriUF
616 3496 TriUF
616 3511 TriUF
616 3504 TriUF
616 3497 TriUF
617 3521 TriUF
617 3551 TriUF
617 3495 TriUF
617 3495 TriUF
617 3496 TriUF
617 3495 TriUF
617 3497 TriUF
618 3520 TriUF
618 3511 TriUF
618 3503 TriUF
618 3496 TriUF
618 3506 TriUF
618 3499 TriUF
618 3497 TriUF
619 3499 TriUF
619 3535 TriUF
619 3534 TriUF
620 3501 TriUF
620 3695 TriUF
620 3496 TriUF
620 3496 TriUF
621 3495 TriUF
621 3505 TriUF
621 3498 TriUF
621 3603 TriUF
621 3496 TriUF
622 3495 TriUF
622 3493 TriUF
622 3503 TriUF
622 3682 TriUF
622 3493 TriUF
622 3500 TriUF
623 3508 TriUF
623 3499 TriUF
623 3495 TriUF
623 3565 TriUF
623 3498 TriUF
623 3502 TriUF
623 3495 TriUF
624 3495 TriUF
624 3507 TriUF
624 3585 TriUF
624 3952 TriUF
624 3495 TriUF
624 3510 TriUF
624 3519 TriUF
624 3500 TriUF
625 3494 TriUF
626 3523 TriUF
626 3574 TriUF
626 3497 TriUF
626 3496 TriUF
626 3678 TriUF
627 3495 TriUF
627 3493 TriUF
627 3558 TriUF
627 3500 TriUF
627 3493 TriUF
627 3501 TriUF
628 3504 TriUF
628 3496 TriUF
628 3497 TriUF
628 3496 TriUF
629 3497 TriUF
629 3501 TriUF
629 3493 TriUF
630 3503 TriUF
630 3497 TriUF
630 3495 TriUF
631 3524 TriUF
631 3500 TriUF
631 3532 TriUF
632 3571 TriUF
632 3502 TriUF
633 3494 TriUF
633 3495 TriUF
633 3501 TriUF
633 3508 TriUF
633 3509 TriUF
634 3506 TriUF
634 3511 TriUF
634 3499 TriUF
634 3493 TriUF
635 3497 TriUF
635 3494 TriUF
636 3500 TriUF
636 3575 TriUF
636 3680 TriUF
637 3500 TriUF
637 3501 TriUF
637 3534 TriUF
638 3502 TriUF
638 3501 TriUF
638 3501 TriUF
638 3501 TriUF
639 3535 TriUF
639 3506 TriUF
640 3522 TriUF
640 3496 TriUF
640 3497 TriUF
640 3502 TriUF
640 3510 TriUF
641 3572 TriUF
642 3536 TriUF
643 3494 TriUF
643 3500 TriUF
643 3620 TriUF
643 3499 TriUF
643 3519 TriUF
643 3495 TriUF
644 3584 TriUF
644 3501 TriUF
645 3494 TriUF
645 3494 TriUF
645 3497 TriUF
646 3513 TriUF
646 3502 TriUF
647 3615 TriUF
648 3496 TriUF
648 3496 TriUF
648 3504 TriUF
648 3559 TriUF
650 3494 TriUF
651 3511 TriUF
652 3496 TriUF
652 3499 TriUF
652 3512 TriUF
652 3495 TriUF
653 3496 TriUF
653 3505 TriUF
653 3506 TriUF
653 3509 TriUF
653 3694 TriUF
654 3494 TriUF
656 3576 TriUF
657 3815 TriUF
658 3499 TriUF
658 3494 TriUF
658 3671 TriUF
659 3505 TriUF
659 3510 TriUF
660 3508 TriUF
660 3506 TriUF
660 3668 TriUF
660 3494 TriUF
661 3497 TriUF
661 3494 TriUF
661 3532 TriUF
661 3505 TriUF
661 3497 TriUF
662 3510 TriUF
663 3502 TriUF
663 3594 TriUF
663 3506 TriUF
663 3593 TriUF
665 3500 TriUF
665 3497 TriUF
665 3517 TriUF
667 3503 TriUF
667 3496 TriUF
667 3521 TriUF
668 3589 TriUF
669 3698 TriUF
669 3502 TriUF
671 3497 TriUF
672 3559 TriUF
674 3496 TriUF
675 3497 TriUF
676 3507 TriUF
678 3541 TriUF
679 3515 TriUF
680 3516 TriUF
680 3562 TriUF
682 3642 TriUF
682 3498 TriUF
683 3500 TriUF
683 3618 TriUF
685 3494 TriUF
687 3506 TriUF
689 3516 TriUF
690 3497 TriUF
691 3639 TriUF
692 3509 TriUF
693 3495 TriUF
694 3505 TriUF
695 3527 TriUF
696 3498 TriUF
699 3518 TriUF
701 3662 TriUF
704 3498 TriUF
704 3723 TriUF
706 3683 TriUF
709 3509 TriUF
710 3503 TriUF
710 3536 TriUF
710 3665 TriUF
711 3534 TriUF
713 3497 TriUF
714 3499 TriUF
715 3536 TriUF
715 3590 TriUF
716 3494 TriUF
717 4001 TriUF
718 3768 TriUF
718 3556 TriUF
719 3494 TriUF
721 3504 TriUF
721 3665 TriUF
721 3510 TriUF
723 3497 TriUF
723 3570 TriUF
724 3534 TriUF
727 3510 TriUF
730 3507 TriUF
732 3509 TriUF
739 3511 TriUF
740 3509 TriUF
741 3585 TriUF
747 3499 TriUF
748 3507 TriUF
748 3494 TriUF
749 3503 TriUF
749 3631 TriUF
750 3526 TriUF
750 3584 TriUF
754 3516 TriUF
756 3495 TriUF
757 3532 TriUF
758 3771 TriUF
760 3505 TriUF
761 3651 TriUF
763 3681 TriUF
763 3521 TriUF
770 3499 TriUF
773 3512 TriUF
775 3499 TriUF
775 3750 TriUF
779 3500 TriUF
781 3502 TriUF
784 3514 TriUF
784 3502 TriUF
788 3518 TriUF
791 3638 TriUF
792 3496 TriUF
793 3494 TriUF
793 3530 TriUF
800 3497 TriUF
801 3664 TriUF
804 3497 TriUF
805 3610 TriUF
805 3498 TriUF
805 3525 TriUF
806 3511 TriUF
807 3496 TriUF
809 3513 TriUF
812 3494 TriUF
813 3502 TriUF
816 3517 TriUF
820 3506 TriUF
820 3537 TriUF
820 3572 TriUF
820 3518 TriUF
820 3662 TriUF
824 3511 TriUF
825 3623 TriUF
826 3565 TriUF
830 3540 TriUF
830 3508 TriUF
831 3622 TriUF
832 3577 TriUF
835 3511 TriUF
836 3521 TriUF
843 3674 TriUF
843 3540 TriUF
846 3574 TriUF
850 3624 TriUF
850 3511 TriUF
853 3500 TriUF
854 3609 TriUF
855 3496 TriUF
856 3695 TriUF
857 3493 TriUF
860 3524 TriUF
861 3656 TriUF
865 3498 TriUF
865 3531 TriUF
868 3501 TriUF
870 3514 TriUF
874 3588 TriUF
875 3530 TriUF
878 3523 TriUF
878 3511 TriUF
879 3499 TriUF
882 3497 TriUF
883 3496 TriUF
884 3503 TriUF
885 3502 TriUF
885 3641 TriUF
886 3506 TriUF
891 3708 TriUF
895 3497 TriUF
896 3508 TriUF
897 3510 TriUF
899 3496 TriUF
900 3495 TriUF
902 3595 TriUF
904 3520 TriUF
905 3495 TriUF
907 3496 TriUF
908 3508 TriUF
911 3493 TriUF
912 3496 TriUF
915 3511 TriUF
915 3505 TriUF
916 3586 TriUF
918 3510 TriUF
919 3598 TriUF
920 3508 TriUF
920 3531 TriUF
921 3495 TriUF
924 3683 TriUF
926 3522 TriUF
926 3503 TriUF
929 3494 TriUF
929 3755 TriUF
930 3503 TriUF
931 3494 TriUF
931 3500 TriUF
932 3494 TriUF
932 3497 TriUF
936 3498 TriUF
936 3503 TriUF
937 3757 TriUF
938 3497 TriUF
939 3494 TriUF
939 3497 TriUF
940 3672 TriUF
941 3878 TriUF
944 3494 TriUF
945 3511 TriUF
946 3509 TriUF
947 3501 TriUF
948 3497 TriUF
949 3627 TriUF
949 3504 TriUF
950 3495 TriUF
951 3495 TriUF
951 3494 TriUF
951 3502 TriUF
952 3540 TriUF
953 3658 TriUF
953 3499 TriUF
955 3501 TriUF
956 3645 TriUF
956 3651 TriUF
956 3515 TriUF
959 3496 TriUF
959 3501 TriUF
960 3506 TriUF
961 3506 TriUF
961 3494 TriUF
963 3496 TriUF
963 3502 TriUF
965 3502 TriUF
968 3494 TriUF
969 3494 TriUF
971 3513 TriUF
973 3634 TriUF
973 3597 TriUF
973 3494 TriUF
975 3495 TriUF
977 3494 TriUF
978 3686 TriUF
979 3494 TriUF
981 3508 TriUF
983 3524 TriUF
984 3700 TriUF
987 3495 TriUF
990 3493 TriUF
990 3508 TriUF
991 3494 TriUF
992 3494 TriUF
993 3505 TriUF
994 3522 TriUF
994 3495 TriUF
995 3498 TriUF
996 3511 TriUF
996 3552 TriUF
1002 3508 TriUF
1002 3497 TriUF
1008 3523 TriUF
1008 3645 TriUF
1010 3500 TriUF
1012 3687 TriUF
1013 3603 TriUF
1016 3504 TriUF
1019 3658 TriUF
1019 3582 TriUF
1020 3496 TriUF
1021 3703 TriUF
1023 3495 TriUF
1023 3610 TriUF
1025 3494 TriUF
1026 3493 TriUF
1028 3494 TriUF
1029 3494 TriUF
1033 3494 TriUF
1034 3745 TriUF
1039 3572 TriUF
1041 3503 TriUF
1042 3591 TriUF
1043 3494 TriUF
1044 3522 TriUF
1051 3496 TriUF
1051 3494 TriUF
1052 3512 TriUF
1054 3494 TriUF
1055 3650 TriUF
1055 3515 TriUF
1057 3497 TriUF
1057 3552 TriUF
1061 3546 TriUF
1065 3497 TriUF
1066 3519 TriUF
1076 3513 TriUF
1078 3718 TriUF
1079 3669 TriUF
1084 3548 TriUF
1087 3520 TriUF
1088 3520 TriUF
1100 3537 TriUF
1103 3614 TriUF
1104 3521 TriUF
1104 3501 TriUF
1105 3507 TriUF
1105 3518 TriUF
1111 3648 TriUF
1111 3509 TriUF
1112 3500 TriUF
1117 3562 TriUF
1119 3494 TriUF
1125 3510 TriUF
1126 3542 TriUF
1127 3651 TriUF
1130 3508 TriUF
1132 3653 TriUF
1133 4027 TriUF
1134 3560 TriUF
1135 3501 TriUF
1136 3524 TriUF
1138 3504 TriUF
1141 3787 TriUF
1145 3555 TriUF
1152 3713 TriUF
1152 3691 TriUF
1158 3494 TriUF
1166 3594 TriUF
1174 3498 TriUF
1174 3526 TriUF
1179 3494 TriUF
1179 3502 TriUF
1183 3494 TriUF
1183 3494 TriUF
1183 3501 TriUF
1185 3501 TriUF
1186 3507 TriUF
1186 3495 TriUF
1186 3508 TriUF
1187 3496 TriUF
1189 3511 TriUF
1189 3494 TriUF
1192 3494 TriUF
1195 3559 TriUF
1195 3501 TriUF
1200 3493 TriUF
1201 3496 TriUF
1201 3619 TriUF
1203 3500 TriUF
1205 3499 TriUF
1205 3589 TriUF
1206 3544 TriUF
1206 3494 TriUF
1206 3494 TriUF
1206 3503 TriUF
1206 3494 TriUF
1206 3511 TriUF
1206 3503 TriUF
1206 3503 TriUF
1206 3507 TriUF
1207 3511 TriUF
1207 3494 TriUF
1207 3496 TriUF
1207 3495 TriUF
1207 3516 TriUF
1207 3496 TriUF
1207 3516 TriUF
1208 3494 TriUF
1208 3495 TriUF
1208 3494 TriUF
1208 3497 TriUF
1208 3493 TriUF
1208 3496 TriUF
1209 3493 TriUF
1209 3497 TriUF
1209 3503 TriUF
1211 3494 TriUF
1211 3500 TriUF
1211 3494 TriUF
1211 3560 TriUF
1211 3494 TriUF
1211 3495 TriUF
1212 3494 TriUF
1212 3494 TriUF
1212 3508 TriUF
1212 3508 TriUF
1212 3501 TriUF
1212 3499 TriUF
1212 3494 TriUF
1212 3494 TriUF
1213 3626 TriUF
1213 3495 TriUF
1213 3494 TriUF
1213 3509 TriUF
1213 3494 TriUF
1213 3502 TriUF
1213 3496 TriUF
1213 3497 TriUF
1213 3496 TriUF
1214 3494 TriUF
1214 3495 TriUF
1214 3509 TriUF
1214 3496 TriUF
1214 3494 TriUF
1215 3517 TriUF
1215 3721 TriUF
1215 3495 TriUF
1215 3494 TriUF
1216 3877 TriUF
1216 3494 TriUF
1216 3503 TriUF
1217 3504 TriUF
1217 3508 TriUF
1217 3514 TriUF
1217 3494 TriUF
1218 3493 TriUF
1218 3497 TriUF
1218 3494 TriUF
1220 3497 TriUF
1221 3494 TriUF
1221 3501 TriUF
1225 3524 TriUF
1225 3504 TriUF
1226 3819 TriUF
1227 3512 TriUF
1228 3496 TriUF
1229 3503 TriUF
1231 3512 TriUF
1234 3531 TriUF
1237 3497 TriUF
1238 3500 TriUF
1238 3531 TriUF
1239 3557 TriUF
1240 3500 TriUF
1243 3540 TriUF
1244 3582 TriUF
1244 3523 TriUF
1245 3501 TriUF
1249 3508 TriUF
1251 3718 TriUF
1253 3511 TriUF
1258 3494 TriUF
1259 3517 TriUF
1260 3502 TriUF
1262 3500 TriUF
1263 3731 TriUF
1266 3687 TriUF
1268 3622 TriUF
1273 3514 TriUF
1281 3549 TriUF
1284 3678 TriUF
1293 3608 TriUF
1297 3640 TriUF
1306 3659 TriUF
1308 3506 TriUF
1310 3675 TriUF
1310 3668 TriUF
1323 3657 TriUF
1326 3685 TriUF
1327 3508 TriUF
1328 3503 TriUF
1330 3495 TriUF
1330 3524 TriUF
1337 3547 TriUF
1338 3549 TriUF
1342 3549 TriUF
1346 3543 TriUF
1352 3497 TriUF
1356 3508 TriUF
1360 3514 TriUF
1360 3533 TriUF
1362 3721 TriUF
1363 3626 TriUF
1363 3532 TriUF
1366 3742 TriUF
1367 3830 TriUF
1368 3512 TriUF
1369 3749 TriUF
1372 3522 TriUF
1373 3632 TriUF
1377 3595 TriUF
1378 3534 TriUF
1386 4058 TriUF
1389 3585 TriUF
1394 3575 TriUF
1400 3538 TriUF
1400 3505 TriUF
1405 3664 TriUF
1414 3511 TriUF
1417 3603 TriUF
1418 3842 TriUF
1418 3939 TriUF
1421 3655 TriUF
1424 3670 TriUF
1427 3521 TriUF
1430 3562 TriUF
1437 3504 TriUF
1445 3527 TriUF
1448 3629 TriUF
1463 3575 TriUF
1468 3676 TriUF
1474 3527 TriUF
1484 3871 TriUF
1485 3567 TriUF
1499 3992 TriUF
1499 4126 TriUF
1499 3505 TriUF
1510 3504 TriUF
1515 3515 TriUF
1530 3832 TriUF
1536 3509 TriUF
1547 3639 TriUF
1557 3541 TriUF
1566 3520 TriUF
1572 3684 TriUF
1572 3520 TriUF
1595 3497 TriUF
1599 3517 TriUF
1617 3501 TriUF
1621 3700 TriUF
1624 3546 TriUF
1626 4014 TriUF
1633 3654 TriUF
1636 3497 TriUF
1639 3548 TriUF
1640 3641 TriUF
1644 3739 TriUF
1648 3580 TriUF
1649 3520 TriUF
1656 3495 TriUF
1662 4211 TriUF
1668 3665 TriUF
1670 3593 TriUF
1677 3797 TriUF
1678 3728 TriUF
1701 3568 TriUF
1702 3560 TriUF
1718 3773 TriUF
1720 3529 TriUF
1723 3498 TriUF
1726 3576 TriUF
1726 3918 TriUF
1738 3523 TriUF
1741 3949 TriUF
1750 3692 TriUF
1765 3521 TriUF
1770 3897 TriUF
1772 3629 TriUF
1783 3764 TriUF
1801 3738 TriUF
1805 3760 TriUF
1807 3501 TriUF
1809 3665 TriUF
1816 3531 TriUF
1817 4008 TriUF
1855 3525 TriUF
1862 3731 TriUF
1863 3526 TriUF
1894 3882 TriUF
1900 3577 TriUF
1916 3663 TriUF
1927 3712 TriUF
1941 3575 TriUF
1943 3576 TriUF
1975 3656 TriUF
1978 3498 TriUF
1978 3861 TriUF
1979 3896 TriUF
1986 3503 TriUF
1991 3809 TriUF
2003 3512 TriUF
2037 3907 TriUF
2045 3571 TriUF
2074 3989 TriUF
2116 3568 TriUF
2122 3538 TriUF
2143 3543 TriUF
2168 3857 TriUF
2181 3883 TriUF
2203 3602 TriUF
2213 3798 TriUF
2219 4043 TriUF
2237 4260 TriUF
2253 3496 TriUF
2256 4042 TriUF
2289 4184 TriUF
2292 3753 TriUF
2309 3695 TriUF
2311 3524 TriUF
2419 3511 TriUF
2439 3652 TriUF
2449 4968 TriUF
2527 3926 TriUF
2534 4257 TriUF
2578 3812 TriUF
2595 4360 TriUF
2615 3740 TriUF
2671 4086 TriUF
2698 3787 TriUF
2710 4638 TriUF
2735 3755 TriUF
2780 3725 TriUF
2867 3698 TriUF
2961 3629 TriUF
3014 3543 TriUF
3182 4286 TriUF
3207 3619 TriUF
3248 3783 TriUF
3457 3749 TriUF
3463 3691 TriUF
3692 3592 TriUF
3716 3726 TriUF
3736 3501 TriUF
3870 4101 TriUF
3896 4692 TriUF
3996 4198 TriUF
4074 4383 TriUF
4086 3764 TriUF
4307 4136 TriUF
4825 3885 TriUF
5029 4003 TriUF
6613 4483 TriUF
6638 3979 TriUF
7182 4179 TriUF
7338 4564 TriUF
7682 3685 TriUF
7807 5004 TriUF
8326 4703 TriUF
10150 3570 TriUF
13093 6902 TriUF
% End plot #1
1.000 UL
LTb
LCb setrgbcolor
600 7049 N
0 -3556 V
12598 0 V
0 3556 V
600 7049 L
Z stroke
1.000 UP
1.000 UL
LTb
LCb setrgbcolor
stroke
grestore
end
showpage
%%Trailer
%%DocumentFonts: Times
