%!PS-Adobe-2.0 EPSF-2.0
%%Title: repeating_conn_518263538_41166669.eps
%%Creator: gnuplot 4.6 patchlevel 2
%%CreationDate: Tue Apr  8 12:32:35 2014
%%DocumentFonts: (atend)
%%BoundingBox: 50 50 770 554
%%EndComments
%%BeginProlog
/gnudict 256 dict def
gnudict begin
%
% The following true/false flags may be edited by hand if desired.
% The unit line width and grayscale image gamma correction may also be changed.
%
/Color true def
/Blacktext false def
/Solid false def
/Dashlength 1 def
/Landscape false def
/Level1 false def
/Rounded false def
/ClipToBoundingBox false def
/SuppressPDFMark false def
/TransparentPatterns false def
/gnulinewidth 5.000 def
/userlinewidth gnulinewidth def
/Gamma 1.0 def
/BackgroundColor {-1.000 -1.000 -1.000} def
%
/vshift -66 def
/dl1 {
  10.0 Dashlength mul mul
  Rounded { currentlinewidth 0.75 mul sub dup 0 le { pop 0.01 } if } if
} def
/dl2 {
  10.0 Dashlength mul mul
  Rounded { currentlinewidth 0.75 mul add } if
} def
/hpt_ 31.5 def
/vpt_ 31.5 def
/hpt hpt_ def
/vpt vpt_ def
/doclip {
  ClipToBoundingBox {
    newpath 50 50 moveto 770 50 lineto 770 554 lineto 50 554 lineto closepath
    clip
  } if
} def
%
% Gnuplot Prolog Version 4.6 (September 2012)
%
%/SuppressPDFMark true def
%
/M {moveto} bind def
/L {lineto} bind def
/R {rmoveto} bind def
/V {rlineto} bind def
/N {newpath moveto} bind def
/Z {closepath} bind def
/C {setrgbcolor} bind def
/f {rlineto fill} bind def
/g {setgray} bind def
/Gshow {show} def   % May be redefined later in the file to support UTF-8
/vpt2 vpt 2 mul def
/hpt2 hpt 2 mul def
/Lshow {currentpoint stroke M 0 vshift R 
	Blacktext {gsave 0 setgray show grestore} {show} ifelse} def
/Rshow {currentpoint stroke M dup stringwidth pop neg vshift R
	Blacktext {gsave 0 setgray show grestore} {show} ifelse} def
/Cshow {currentpoint stroke M dup stringwidth pop -2 div vshift R 
	Blacktext {gsave 0 setgray show grestore} {show} ifelse} def
/UP {dup vpt_ mul /vpt exch def hpt_ mul /hpt exch def
  /hpt2 hpt 2 mul def /vpt2 vpt 2 mul def} def
/DL {Color {setrgbcolor Solid {pop []} if 0 setdash}
 {pop pop pop 0 setgray Solid {pop []} if 0 setdash} ifelse} def
/BL {stroke userlinewidth 2 mul setlinewidth
	Rounded {1 setlinejoin 1 setlinecap} if} def
/AL {stroke userlinewidth 2 div setlinewidth
	Rounded {1 setlinejoin 1 setlinecap} if} def
/UL {dup gnulinewidth mul /userlinewidth exch def
	dup 1 lt {pop 1} if 10 mul /udl exch def} def
/PL {stroke userlinewidth setlinewidth
	Rounded {1 setlinejoin 1 setlinecap} if} def
3.8 setmiterlimit
% Default Line colors
/LCw {1 1 1} def
/LCb {0 0 0} def
/LCa {0 0 0} def
/LC0 {1 0 0} def
/LC1 {0 1 0} def
/LC2 {0 0 1} def
/LC3 {1 0 1} def
/LC4 {0 1 1} def
/LC5 {1 1 0} def
/LC6 {0 0 0} def
/LC7 {1 0.3 0} def
/LC8 {0.5 0.5 0.5} def
% Default Line Types
/LTw {PL [] 1 setgray} def
/LTb {BL [] LCb DL} def
/LTa {AL [1 udl mul 2 udl mul] 0 setdash LCa setrgbcolor} def
/LT0 {PL [] LC0 DL} def
/LT1 {PL [4 dl1 2 dl2] LC1 DL} def
/LT2 {PL [2 dl1 3 dl2] LC2 DL} def
/LT3 {PL [1 dl1 1.5 dl2] LC3 DL} def
/LT4 {PL [6 dl1 2 dl2 1 dl1 2 dl2] LC4 DL} def
/LT5 {PL [3 dl1 3 dl2 1 dl1 3 dl2] LC5 DL} def
/LT6 {PL [2 dl1 2 dl2 2 dl1 6 dl2] LC6 DL} def
/LT7 {PL [1 dl1 2 dl2 6 dl1 2 dl2 1 dl1 2 dl2] LC7 DL} def
/LT8 {PL [2 dl1 2 dl2 2 dl1 2 dl2 2 dl1 2 dl2 2 dl1 4 dl2] LC8 DL} def
/Pnt {stroke [] 0 setdash gsave 1 setlinecap M 0 0 V stroke grestore} def
/Dia {stroke [] 0 setdash 2 copy vpt add M
  hpt neg vpt neg V hpt vpt neg V
  hpt vpt V hpt neg vpt V closepath stroke
  Pnt} def
/Pls {stroke [] 0 setdash vpt sub M 0 vpt2 V
  currentpoint stroke M
  hpt neg vpt neg R hpt2 0 V stroke
 } def
/Box {stroke [] 0 setdash 2 copy exch hpt sub exch vpt add M
  0 vpt2 neg V hpt2 0 V 0 vpt2 V
  hpt2 neg 0 V closepath stroke
  Pnt} def
/Crs {stroke [] 0 setdash exch hpt sub exch vpt add M
  hpt2 vpt2 neg V currentpoint stroke M
  hpt2 neg 0 R hpt2 vpt2 V stroke} def
/TriU {stroke [] 0 setdash 2 copy vpt 1.12 mul add M
  hpt neg vpt -1.62 mul V
  hpt 2 mul 0 V
  hpt neg vpt 1.62 mul V closepath stroke
  Pnt} def
/Star {2 copy Pls Crs} def
/BoxF {stroke [] 0 setdash exch hpt sub exch vpt add M
  0 vpt2 neg V hpt2 0 V 0 vpt2 V
  hpt2 neg 0 V closepath fill} def
/TriUF {stroke [] 0 setdash vpt 1.12 mul add M
  hpt neg vpt -1.62 mul V
  hpt 2 mul 0 V
  hpt neg vpt 1.62 mul V closepath fill} def
/TriD {stroke [] 0 setdash 2 copy vpt 1.12 mul sub M
  hpt neg vpt 1.62 mul V
  hpt 2 mul 0 V
  hpt neg vpt -1.62 mul V closepath stroke
  Pnt} def
/TriDF {stroke [] 0 setdash vpt 1.12 mul sub M
  hpt neg vpt 1.62 mul V
  hpt 2 mul 0 V
  hpt neg vpt -1.62 mul V closepath fill} def
/DiaF {stroke [] 0 setdash vpt add M
  hpt neg vpt neg V hpt vpt neg V
  hpt vpt V hpt neg vpt V closepath fill} def
/Pent {stroke [] 0 setdash 2 copy gsave
  translate 0 hpt M 4 {72 rotate 0 hpt L} repeat
  closepath stroke grestore Pnt} def
/PentF {stroke [] 0 setdash gsave
  translate 0 hpt M 4 {72 rotate 0 hpt L} repeat
  closepath fill grestore} def
/Circle {stroke [] 0 setdash 2 copy
  hpt 0 360 arc stroke Pnt} def
/CircleF {stroke [] 0 setdash hpt 0 360 arc fill} def
/C0 {BL [] 0 setdash 2 copy moveto vpt 90 450 arc} bind def
/C1 {BL [] 0 setdash 2 copy moveto
	2 copy vpt 0 90 arc closepath fill
	vpt 0 360 arc closepath} bind def
/C2 {BL [] 0 setdash 2 copy moveto
	2 copy vpt 90 180 arc closepath fill
	vpt 0 360 arc closepath} bind def
/C3 {BL [] 0 setdash 2 copy moveto
	2 copy vpt 0 180 arc closepath fill
	vpt 0 360 arc closepath} bind def
/C4 {BL [] 0 setdash 2 copy moveto
	2 copy vpt 180 270 arc closepath fill
	vpt 0 360 arc closepath} bind def
/C5 {BL [] 0 setdash 2 copy moveto
	2 copy vpt 0 90 arc
	2 copy moveto
	2 copy vpt 180 270 arc closepath fill
	vpt 0 360 arc} bind def
/C6 {BL [] 0 setdash 2 copy moveto
	2 copy vpt 90 270 arc closepath fill
	vpt 0 360 arc closepath} bind def
/C7 {BL [] 0 setdash 2 copy moveto
	2 copy vpt 0 270 arc closepath fill
	vpt 0 360 arc closepath} bind def
/C8 {BL [] 0 setdash 2 copy moveto
	2 copy vpt 270 360 arc closepath fill
	vpt 0 360 arc closepath} bind def
/C9 {BL [] 0 setdash 2 copy moveto
	2 copy vpt 270 450 arc closepath fill
	vpt 0 360 arc closepath} bind def
/C10 {BL [] 0 setdash 2 copy 2 copy moveto vpt 270 360 arc closepath fill
	2 copy moveto
	2 copy vpt 90 180 arc closepath fill
	vpt 0 360 arc closepath} bind def
/C11 {BL [] 0 setdash 2 copy moveto
	2 copy vpt 0 180 arc closepath fill
	2 copy moveto
	2 copy vpt 270 360 arc closepath fill
	vpt 0 360 arc closepath} bind def
/C12 {BL [] 0 setdash 2 copy moveto
	2 copy vpt 180 360 arc closepath fill
	vpt 0 360 arc closepath} bind def
/C13 {BL [] 0 setdash 2 copy moveto
	2 copy vpt 0 90 arc closepath fill
	2 copy moveto
	2 copy vpt 180 360 arc closepath fill
	vpt 0 360 arc closepath} bind def
/C14 {BL [] 0 setdash 2 copy moveto
	2 copy vpt 90 360 arc closepath fill
	vpt 0 360 arc} bind def
/C15 {BL [] 0 setdash 2 copy vpt 0 360 arc closepath fill
	vpt 0 360 arc closepath} bind def
/Rec {newpath 4 2 roll moveto 1 index 0 rlineto 0 exch rlineto
	neg 0 rlineto closepath} bind def
/Square {dup Rec} bind def
/Bsquare {vpt sub exch vpt sub exch vpt2 Square} bind def
/S0 {BL [] 0 setdash 2 copy moveto 0 vpt rlineto BL Bsquare} bind def
/S1 {BL [] 0 setdash 2 copy vpt Square fill Bsquare} bind def
/S2 {BL [] 0 setdash 2 copy exch vpt sub exch vpt Square fill Bsquare} bind def
/S3 {BL [] 0 setdash 2 copy exch vpt sub exch vpt2 vpt Rec fill Bsquare} bind def
/S4 {BL [] 0 setdash 2 copy exch vpt sub exch vpt sub vpt Square fill Bsquare} bind def
/S5 {BL [] 0 setdash 2 copy 2 copy vpt Square fill
	exch vpt sub exch vpt sub vpt Square fill Bsquare} bind def
/S6 {BL [] 0 setdash 2 copy exch vpt sub exch vpt sub vpt vpt2 Rec fill Bsquare} bind def
/S7 {BL [] 0 setdash 2 copy exch vpt sub exch vpt sub vpt vpt2 Rec fill
	2 copy vpt Square fill Bsquare} bind def
/S8 {BL [] 0 setdash 2 copy vpt sub vpt Square fill Bsquare} bind def
/S9 {BL [] 0 setdash 2 copy vpt sub vpt vpt2 Rec fill Bsquare} bind def
/S10 {BL [] 0 setdash 2 copy vpt sub vpt Square fill 2 copy exch vpt sub exch vpt Square fill
	Bsquare} bind def
/S11 {BL [] 0 setdash 2 copy vpt sub vpt Square fill 2 copy exch vpt sub exch vpt2 vpt Rec fill
	Bsquare} bind def
/S12 {BL [] 0 setdash 2 copy exch vpt sub exch vpt sub vpt2 vpt Rec fill Bsquare} bind def
/S13 {BL [] 0 setdash 2 copy exch vpt sub exch vpt sub vpt2 vpt Rec fill
	2 copy vpt Square fill Bsquare} bind def
/S14 {BL [] 0 setdash 2 copy exch vpt sub exch vpt sub vpt2 vpt Rec fill
	2 copy exch vpt sub exch vpt Square fill Bsquare} bind def
/S15 {BL [] 0 setdash 2 copy Bsquare fill Bsquare} bind def
/D0 {gsave translate 45 rotate 0 0 S0 stroke grestore} bind def
/D1 {gsave translate 45 rotate 0 0 S1 stroke grestore} bind def
/D2 {gsave translate 45 rotate 0 0 S2 stroke grestore} bind def
/D3 {gsave translate 45 rotate 0 0 S3 stroke grestore} bind def
/D4 {gsave translate 45 rotate 0 0 S4 stroke grestore} bind def
/D5 {gsave translate 45 rotate 0 0 S5 stroke grestore} bind def
/D6 {gsave translate 45 rotate 0 0 S6 stroke grestore} bind def
/D7 {gsave translate 45 rotate 0 0 S7 stroke grestore} bind def
/D8 {gsave translate 45 rotate 0 0 S8 stroke grestore} bind def
/D9 {gsave translate 45 rotate 0 0 S9 stroke grestore} bind def
/D10 {gsave translate 45 rotate 0 0 S10 stroke grestore} bind def
/D11 {gsave translate 45 rotate 0 0 S11 stroke grestore} bind def
/D12 {gsave translate 45 rotate 0 0 S12 stroke grestore} bind def
/D13 {gsave translate 45 rotate 0 0 S13 stroke grestore} bind def
/D14 {gsave translate 45 rotate 0 0 S14 stroke grestore} bind def
/D15 {gsave translate 45 rotate 0 0 S15 stroke grestore} bind def
/DiaE {stroke [] 0 setdash vpt add M
  hpt neg vpt neg V hpt vpt neg V
  hpt vpt V hpt neg vpt V closepath stroke} def
/BoxE {stroke [] 0 setdash exch hpt sub exch vpt add M
  0 vpt2 neg V hpt2 0 V 0 vpt2 V
  hpt2 neg 0 V closepath stroke} def
/TriUE {stroke [] 0 setdash vpt 1.12 mul add M
  hpt neg vpt -1.62 mul V
  hpt 2 mul 0 V
  hpt neg vpt 1.62 mul V closepath stroke} def
/TriDE {stroke [] 0 setdash vpt 1.12 mul sub M
  hpt neg vpt 1.62 mul V
  hpt 2 mul 0 V
  hpt neg vpt -1.62 mul V closepath stroke} def
/PentE {stroke [] 0 setdash gsave
  translate 0 hpt M 4 {72 rotate 0 hpt L} repeat
  closepath stroke grestore} def
/CircE {stroke [] 0 setdash 
  hpt 0 360 arc stroke} def
/Opaque {gsave closepath 1 setgray fill grestore 0 setgray closepath} def
/DiaW {stroke [] 0 setdash vpt add M
  hpt neg vpt neg V hpt vpt neg V
  hpt vpt V hpt neg vpt V Opaque stroke} def
/BoxW {stroke [] 0 setdash exch hpt sub exch vpt add M
  0 vpt2 neg V hpt2 0 V 0 vpt2 V
  hpt2 neg 0 V Opaque stroke} def
/TriUW {stroke [] 0 setdash vpt 1.12 mul add M
  hpt neg vpt -1.62 mul V
  hpt 2 mul 0 V
  hpt neg vpt 1.62 mul V Opaque stroke} def
/TriDW {stroke [] 0 setdash vpt 1.12 mul sub M
  hpt neg vpt 1.62 mul V
  hpt 2 mul 0 V
  hpt neg vpt -1.62 mul V Opaque stroke} def
/PentW {stroke [] 0 setdash gsave
  translate 0 hpt M 4 {72 rotate 0 hpt L} repeat
  Opaque stroke grestore} def
/CircW {stroke [] 0 setdash 
  hpt 0 360 arc Opaque stroke} def
/BoxFill {gsave Rec 1 setgray fill grestore} def
/Density {
  /Fillden exch def
  currentrgbcolor
  /ColB exch def /ColG exch def /ColR exch def
  /ColR ColR Fillden mul Fillden sub 1 add def
  /ColG ColG Fillden mul Fillden sub 1 add def
  /ColB ColB Fillden mul Fillden sub 1 add def
  ColR ColG ColB setrgbcolor} def
/BoxColFill {gsave Rec PolyFill} def
/PolyFill {gsave Density fill grestore grestore} def
/h {rlineto rlineto rlineto gsave closepath fill grestore} bind def
%
% PostScript Level 1 Pattern Fill routine for rectangles
% Usage: x y w h s a XX PatternFill
%	x,y = lower left corner of box to be filled
%	w,h = width and height of box
%	  a = angle in degrees between lines and x-axis
%	 XX = 0/1 for no/yes cross-hatch
%
/PatternFill {gsave /PFa [ 9 2 roll ] def
  PFa 0 get PFa 2 get 2 div add PFa 1 get PFa 3 get 2 div add translate
  PFa 2 get -2 div PFa 3 get -2 div PFa 2 get PFa 3 get Rec
  TransparentPatterns {} {gsave 1 setgray fill grestore} ifelse
  clip
  currentlinewidth 0.5 mul setlinewidth
  /PFs PFa 2 get dup mul PFa 3 get dup mul add sqrt def
  0 0 M PFa 5 get rotate PFs -2 div dup translate
  0 1 PFs PFa 4 get div 1 add floor cvi
	{PFa 4 get mul 0 M 0 PFs V} for
  0 PFa 6 get ne {
	0 1 PFs PFa 4 get div 1 add floor cvi
	{PFa 4 get mul 0 2 1 roll M PFs 0 V} for
 } if
  stroke grestore} def
%
/languagelevel where
 {pop languagelevel} {1} ifelse
 2 lt
	{/InterpretLevel1 true def}
	{/InterpretLevel1 Level1 def}
 ifelse
%
% PostScript level 2 pattern fill definitions
%
/Level2PatternFill {
/Tile8x8 {/PaintType 2 /PatternType 1 /TilingType 1 /BBox [0 0 8 8] /XStep 8 /YStep 8}
	bind def
/KeepColor {currentrgbcolor [/Pattern /DeviceRGB] setcolorspace} bind def
<< Tile8x8
 /PaintProc {0.5 setlinewidth pop 0 0 M 8 8 L 0 8 M 8 0 L stroke} 
>> matrix makepattern
/Pat1 exch def
<< Tile8x8
 /PaintProc {0.5 setlinewidth pop 0 0 M 8 8 L 0 8 M 8 0 L stroke
	0 4 M 4 8 L 8 4 L 4 0 L 0 4 L stroke}
>> matrix makepattern
/Pat2 exch def
<< Tile8x8
 /PaintProc {0.5 setlinewidth pop 0 0 M 0 8 L
	8 8 L 8 0 L 0 0 L fill}
>> matrix makepattern
/Pat3 exch def
<< Tile8x8
 /PaintProc {0.5 setlinewidth pop -4 8 M 8 -4 L
	0 12 M 12 0 L stroke}
>> matrix makepattern
/Pat4 exch def
<< Tile8x8
 /PaintProc {0.5 setlinewidth pop -4 0 M 8 12 L
	0 -4 M 12 8 L stroke}
>> matrix makepattern
/Pat5 exch def
<< Tile8x8
 /PaintProc {0.5 setlinewidth pop -2 8 M 4 -4 L
	0 12 M 8 -4 L 4 12 M 10 0 L stroke}
>> matrix makepattern
/Pat6 exch def
<< Tile8x8
 /PaintProc {0.5 setlinewidth pop -2 0 M 4 12 L
	0 -4 M 8 12 L 4 -4 M 10 8 L stroke}
>> matrix makepattern
/Pat7 exch def
<< Tile8x8
 /PaintProc {0.5 setlinewidth pop 8 -2 M -4 4 L
	12 0 M -4 8 L 12 4 M 0 10 L stroke}
>> matrix makepattern
/Pat8 exch def
<< Tile8x8
 /PaintProc {0.5 setlinewidth pop 0 -2 M 12 4 L
	-4 0 M 12 8 L -4 4 M 8 10 L stroke}
>> matrix makepattern
/Pat9 exch def
/Pattern1 {PatternBgnd KeepColor Pat1 setpattern} bind def
/Pattern2 {PatternBgnd KeepColor Pat2 setpattern} bind def
/Pattern3 {PatternBgnd KeepColor Pat3 setpattern} bind def
/Pattern4 {PatternBgnd KeepColor Landscape {Pat5} {Pat4} ifelse setpattern} bind def
/Pattern5 {PatternBgnd KeepColor Landscape {Pat4} {Pat5} ifelse setpattern} bind def
/Pattern6 {PatternBgnd KeepColor Landscape {Pat9} {Pat6} ifelse setpattern} bind def
/Pattern7 {PatternBgnd KeepColor Landscape {Pat8} {Pat7} ifelse setpattern} bind def
} def
%
%
%End of PostScript Level 2 code
%
/PatternBgnd {
  TransparentPatterns {} {gsave 1 setgray fill grestore} ifelse
} def
%
% Substitute for Level 2 pattern fill codes with
% grayscale if Level 2 support is not selected.
%
/Level1PatternFill {
/Pattern1 {0.250 Density} bind def
/Pattern2 {0.500 Density} bind def
/Pattern3 {0.750 Density} bind def
/Pattern4 {0.125 Density} bind def
/Pattern5 {0.375 Density} bind def
/Pattern6 {0.625 Density} bind def
/Pattern7 {0.875 Density} bind def
} def
%
% Now test for support of Level 2 code
%
Level1 {Level1PatternFill} {Level2PatternFill} ifelse
%
/Symbol-Oblique /Symbol findfont [1 0 .167 1 0 0] makefont
dup length dict begin {1 index /FID eq {pop pop} {def} ifelse} forall
currentdict end definefont pop
/MFshow {
   { dup 5 get 3 ge
     { 5 get 3 eq {gsave} {grestore} ifelse }
     {dup dup 0 get findfont exch 1 get scalefont setfont
     [ currentpoint ] exch dup 2 get 0 exch R dup 5 get 2 ne {dup dup 6
     get exch 4 get {Gshow} {stringwidth pop 0 R} ifelse }if dup 5 get 0 eq
     {dup 3 get {2 get neg 0 exch R pop} {pop aload pop M} ifelse} {dup 5
     get 1 eq {dup 2 get exch dup 3 get exch 6 get stringwidth pop -2 div
     dup 0 R} {dup 6 get stringwidth pop -2 div 0 R 6 get
     show 2 index {aload pop M neg 3 -1 roll neg R pop pop} {pop pop pop
     pop aload pop M} ifelse }ifelse }ifelse }
     ifelse }
   forall} def
/Gswidth {dup type /stringtype eq {stringwidth} {pop (n) stringwidth} ifelse} def
/MFwidth {0 exch { dup 5 get 3 ge { 5 get 3 eq { 0 } { pop } ifelse }
 {dup 3 get{dup dup 0 get findfont exch 1 get scalefont setfont
     6 get Gswidth pop add} {pop} ifelse} ifelse} forall} def
/MLshow { currentpoint stroke M
  0 exch R
  Blacktext {gsave 0 setgray MFshow grestore} {MFshow} ifelse } bind def
/MRshow { currentpoint stroke M
  exch dup MFwidth neg 3 -1 roll R
  Blacktext {gsave 0 setgray MFshow grestore} {MFshow} ifelse } bind def
/MCshow { currentpoint stroke M
  exch dup MFwidth -2 div 3 -1 roll R
  Blacktext {gsave 0 setgray MFshow grestore} {MFshow} ifelse } bind def
/XYsave    { [( ) 1 2 true false 3 ()] } bind def
/XYrestore { [( ) 1 2 true false 4 ()] } bind def
Level1 SuppressPDFMark or 
{} {
/SDict 10 dict def
systemdict /pdfmark known not {
  userdict /pdfmark systemdict /cleartomark get put
} if
SDict begin [
  /Title (repeating_conn_518263538_41166669.eps)
  /Subject (gnuplot plot)
  /Creator (gnuplot 4.6 patchlevel 2)
  /Author (olgabo)
%  /Producer (gnuplot)
%  /Keywords ()
  /CreationDate (Tue Apr  8 12:32:35 2014)
  /DOCINFO pdfmark
end
} ifelse
end
%%EndProlog
%%Page: 1 1
gnudict begin
gsave
doclip
50 50 translate
0.050 0.050 scale
0 setgray
newpath
(Times) findfont 200 scalefont setfont
BackgroundColor 0 lt 3 1 roll 0 lt exch 0 lt or or not {BackgroundColor C 1.000 0 0 14400.00 10080.00 BoxColFill} if
1.000 UL
LTb
LCb setrgbcolor
1.000 UL
LTa
LCa setrgbcolor
1200 3493 M
12598 0 V
stroke
LTb
LCb setrgbcolor
1200 3493 M
63 0 V
12535 0 R
-63 0 V
stroke
1080 3493 M
[ [(Times) 200.0 0.0 true true 0 ( 0)]
] -66.7 MRshow
1.000 UL
LTb
LCb setrgbcolor
1.000 UL
LTa
LCa setrgbcolor
1200 3888 M
12598 0 V
stroke
LTb
LCb setrgbcolor
1200 3888 M
63 0 V
12535 0 R
-63 0 V
stroke
1080 3888 M
[ [(Times) 200.0 0.0 true true 0 ( 50)]
] -66.7 MRshow
1.000 UL
LTb
LCb setrgbcolor
1.000 UL
LTa
LCa setrgbcolor
1200 4283 M
12598 0 V
stroke
LTb
LCb setrgbcolor
1200 4283 M
63 0 V
12535 0 R
-63 0 V
stroke
1080 4283 M
[ [(Times) 200.0 0.0 true true 0 ( 100)]
] -66.7 MRshow
1.000 UL
LTb
LCb setrgbcolor
1.000 UL
LTa
LCa setrgbcolor
1200 4678 M
12598 0 V
stroke
LTb
LCb setrgbcolor
1200 4678 M
63 0 V
12535 0 R
-63 0 V
stroke
1080 4678 M
[ [(Times) 200.0 0.0 true true 0 ( 150)]
] -66.7 MRshow
1.000 UL
LTb
LCb setrgbcolor
1.000 UL
LTa
LCa setrgbcolor
1200 5073 M
12598 0 V
stroke
LTb
LCb setrgbcolor
1200 5073 M
63 0 V
12535 0 R
-63 0 V
stroke
1080 5073 M
[ [(Times) 200.0 0.0 true true 0 ( 200)]
] -66.7 MRshow
1.000 UL
LTb
LCb setrgbcolor
1.000 UL
LTa
LCa setrgbcolor
1200 5469 M
12598 0 V
stroke
LTb
LCb setrgbcolor
1200 5469 M
63 0 V
12535 0 R
-63 0 V
stroke
1080 5469 M
[ [(Times) 200.0 0.0 true true 0 ( 250)]
] -66.7 MRshow
1.000 UL
LTb
LCb setrgbcolor
1.000 UL
LTa
LCa setrgbcolor
1200 5864 M
12598 0 V
stroke
LTb
LCb setrgbcolor
1200 5864 M
63 0 V
12535 0 R
-63 0 V
stroke
1080 5864 M
[ [(Times) 200.0 0.0 true true 0 ( 300)]
] -66.7 MRshow
1.000 UL
LTb
LCb setrgbcolor
1.000 UL
LTa
LCa setrgbcolor
1200 6259 M
12598 0 V
stroke
LTb
LCb setrgbcolor
1200 6259 M
63 0 V
12535 0 R
-63 0 V
stroke
1080 6259 M
[ [(Times) 200.0 0.0 true true 0 ( 350)]
] -66.7 MRshow
1.000 UL
LTb
LCb setrgbcolor
1.000 UL
LTa
LCa setrgbcolor
1200 6654 M
12598 0 V
stroke
LTb
LCb setrgbcolor
1200 6654 M
63 0 V
12535 0 R
-63 0 V
stroke
1080 6654 M
[ [(Times) 200.0 0.0 true true 0 ( 400)]
] -66.7 MRshow
1.000 UL
LTb
LCb setrgbcolor
1.000 UL
LTa
LCa setrgbcolor
1200 7049 M
12598 0 V
stroke
LTb
LCb setrgbcolor
1200 7049 M
63 0 V
12535 0 R
-63 0 V
stroke
1080 7049 M
[ [(Times) 200.0 0.0 true true 0 ( 450)]
] -66.7 MRshow
1.000 UL
LTb
LCb setrgbcolor
1.000 UL
LTa
LCa setrgbcolor
1200 3493 M
0 3556 V
stroke
LTb
LCb setrgbcolor
1200 3493 M
0 63 V
0 3493 R
0 -63 V
stroke
1200 3373 M
currentpoint gsave translate -45 rotate 0 0 moveto
[ [(Times) 200.0 0.0 true true 0 ( 0)]
] -66.7 MLshow
grestore
1.000 UL
LTb
LCb setrgbcolor
1.000 UL
LTa
LCa setrgbcolor
2775 3493 M
0 3556 V
stroke
LTb
LCb setrgbcolor
2775 3493 M
0 63 V
0 3493 R
0 -63 V
stroke
2775 3373 M
currentpoint gsave translate -45 rotate 0 0 moveto
[ [(Times) 200.0 0.0 true true 0 ( 500)]
] -66.7 MLshow
grestore
1.000 UL
LTb
LCb setrgbcolor
1.000 UL
LTa
LCa setrgbcolor
4350 3493 M
0 3556 V
stroke
LTb
LCb setrgbcolor
4350 3493 M
0 63 V
0 3493 R
0 -63 V
stroke
4350 3373 M
currentpoint gsave translate -45 rotate 0 0 moveto
[ [(Times) 200.0 0.0 true true 0 ( 1000)]
] -66.7 MLshow
grestore
1.000 UL
LTb
LCb setrgbcolor
1.000 UL
LTa
LCa setrgbcolor
5924 3493 M
0 3556 V
stroke
LTb
LCb setrgbcolor
5924 3493 M
0 63 V
0 3493 R
0 -63 V
stroke
5924 3373 M
currentpoint gsave translate -45 rotate 0 0 moveto
[ [(Times) 200.0 0.0 true true 0 ( 1500)]
] -66.7 MLshow
grestore
1.000 UL
LTb
LCb setrgbcolor
1.000 UL
LTa
LCa setrgbcolor
7499 3493 M
0 3556 V
stroke
LTb
LCb setrgbcolor
7499 3493 M
0 63 V
0 3493 R
0 -63 V
stroke
7499 3373 M
currentpoint gsave translate -45 rotate 0 0 moveto
[ [(Times) 200.0 0.0 true true 0 ( 2000)]
] -66.7 MLshow
grestore
1.000 UL
LTb
LCb setrgbcolor
1.000 UL
LTa
LCa setrgbcolor
9074 3493 M
0 3556 V
stroke
LTb
LCb setrgbcolor
9074 3493 M
0 63 V
0 3493 R
0 -63 V
stroke
9074 3373 M
currentpoint gsave translate -45 rotate 0 0 moveto
[ [(Times) 200.0 0.0 true true 0 ( 2500)]
] -66.7 MLshow
grestore
1.000 UL
LTb
LCb setrgbcolor
1.000 UL
LTa
LCa setrgbcolor
10649 3493 M
0 3556 V
stroke
LTb
LCb setrgbcolor
10649 3493 M
0 63 V
0 3493 R
0 -63 V
stroke
10649 3373 M
currentpoint gsave translate -45 rotate 0 0 moveto
[ [(Times) 200.0 0.0 true true 0 ( 3000)]
] -66.7 MLshow
grestore
1.000 UL
LTb
LCb setrgbcolor
1.000 UL
LTa
LCa setrgbcolor
12223 3493 M
0 3556 V
stroke
LTb
LCb setrgbcolor
12223 3493 M
0 63 V
0 3493 R
0 -63 V
stroke
12223 3373 M
currentpoint gsave translate -45 rotate 0 0 moveto
[ [(Times) 200.0 0.0 true true 0 ( 3500)]
] -66.7 MLshow
grestore
1.000 UL
LTb
LCb setrgbcolor
1.000 UL
LTa
LCa setrgbcolor
13798 3493 M
0 3556 V
stroke
LTb
LCb setrgbcolor
13798 3493 M
0 63 V
0 3493 R
0 -63 V
stroke
13798 3373 M
currentpoint gsave translate -45 rotate 0 0 moveto
[ [(Times) 200.0 0.0 true true 0 ( 4000)]
] -66.7 MLshow
grestore
1.000 UL
LTb
LCb setrgbcolor
1.000 UL
LTb
LCb setrgbcolor
1200 7049 N
0 -3556 V
12598 0 V
0 3556 V
-12598 0 V
Z stroke
LCb setrgbcolor
380 5271 M
currentpoint gsave translate -270 rotate 0 0 moveto
[ [(Times) 200.0 0.0 true true 0 (Duration [sec])]
] -66.7 MCshow
grestore
LTb
LCb setrgbcolor
7499 2769 M
[ [(Times) 200.0 0.0 true true 0 (Time [sec])]
] -66.7 MCshow
LTb
7499 7349 M
[ [(Times) 200.0 0.0 true true 0 (src port 80, repeating connections sorted by start time)]
] -66.7 MCshow
1.000 UP
1.000 UL
LTb
LCb setrgbcolor
1.000 UL
LT8
LC8 setrgbcolor
7108 63 N
782 0 V
-782 0 V
Z stroke
% Begin plot #1
1.000 UP
1.000 UL
LT8
0.00 0.00 1.00 C 1200 6671 M
3 -3040 V
441 162 V
10 57 V
3 517 V
211 -711 V
233 1374 V
2331 4012 L
34 740 V
51 -1102 V
226 218 V
16 -120 V
70 519 V
18 -287 V
152 85 V
9 231 V
54 136 V
88 -939 V
78 1934 V
51 -1087 V
25 140 V
123 -413 V
217 -470 V
29 1584 V
56 -1135 V
35 495 V
3 -562 V
10 820 V
157 -893 V
16 -413 V
167 471 V
72 138 V
63 -60 V
136 466 V
122 -208 V
123 -620 V
16 182 V
13 202 V
119 -495 V
32 -15 V
12 44 V
7 50 V
18 -56 V
35 955 V
10 -964 V
6 -90 V
31 396 V
41 -203 V
57 185 V
22 -367 V
79 -11 V
38 526 V
31 -21 V
32 -194 V
28 -276 V
88 36 V
44 275 V
0 -340 V
6 115 V
4 585 V
37 -490 V
13 -209 V
50 907 V
73 -784 V
53 -59 V
7 -71 V
19 822 V
3 60 V
22 -733 V
9 -30 V
22 -40 V
29 -79 V
3 0 V
34 640 V
4 -451 V
3 -119 V
9 105 V
57 210 V
9 -385 V
0 300 V
13 319 V
3 -344 V
3 219 V
25 -28 V
79 205 V
38 -598 V
0 431 V
9 -281 V
13 262 V
25 -480 V
6 120 V
0 303 V
48 -22 V
6 -406 V
41 572 V
113 -280 V
44 -254 V
0 812 V
16 -444 V
3 -406 V
48 277 V
0 455 V
50 -610 V
28 406 V
10 137 V
60 -661 V
12 313 V
132 -175 V
13 -92 V
142 297 V
34 -19 V
224 -323 V
stroke 6995 3498 M
10 108 V
40 990 V
95 552 V
41 -1283 V
79 366 V
78 -180 V
29 350 V
66 -685 V
50 383 V
25 188 V
126 -174 V
48 -311 V
63 224 V
226 135 V
7 -82 V
60 -435 V
53 335 V
98 267 V
15 -155 V
57 -116 V
47 178 V
79 4 V
6 -664 V
177 1236 V
113 -379 V
120 -657 V
104 917 V
3 -1046 V
0 3 V
0 2 V
16 646 V
31 -415 V
70 -307 V
15 303 V
66 -110 V
13 237 V
38 141 V
16 264 V
387 -835 V
920 68 V
255 247 V
47 72 V
9 308 V
252 -130 V
114 44 V
50 -121 V
51 -299 V
72 433 V
50 344 V
10 -922 V
88 55 V
6 -4 V
29 -95 V
41 277 V
40 16 V
0 15 V
92 322 V
0 -437 V
28 -74 V
132 784 V
4 -362 V
3 -77 V
28 21 V
63 -11 V
230 -258 V
41 2 V
28 510 V
19 284 V
29 -200 V
34 72 V
13 -141 V
56 -302 V
13 -233 V
38 199 V
3 -7 V
35 -91 V
37 -199 V
1200 6671 TriUF
1203 3631 TriUF
1644 3793 TriUF
1654 3850 TriUF
1657 4367 TriUF
1868 3656 TriUF
2101 5030 TriUF
2331 4012 TriUF
2365 4752 TriUF
2416 3650 TriUF
2642 3868 TriUF
2658 3748 TriUF
2728 4267 TriUF
2746 3980 TriUF
2898 4065 TriUF
2907 4296 TriUF
2961 4432 TriUF
3049 3493 TriUF
3127 5427 TriUF
3178 4340 TriUF
3203 4480 TriUF
3326 4067 TriUF
3543 3597 TriUF
3572 5181 TriUF
3628 4046 TriUF
3663 4541 TriUF
3666 3979 TriUF
3676 4799 TriUF
3833 3906 TriUF
3849 3493 TriUF
4016 3964 TriUF
4088 4102 TriUF
4151 4042 TriUF
4287 4508 TriUF
4409 4300 TriUF
4532 3680 TriUF
4548 3862 TriUF
4561 4064 TriUF
4680 3569 TriUF
4712 3554 TriUF
4724 3598 TriUF
4731 3648 TriUF
4749 3592 TriUF
4784 4547 TriUF
4794 3583 TriUF
4800 3493 TriUF
4831 3889 TriUF
4872 3686 TriUF
4929 3871 TriUF
4951 3504 TriUF
5030 3493 TriUF
5068 4019 TriUF
5099 3998 TriUF
5131 3804 TriUF
5159 3528 TriUF
5247 3564 TriUF
5291 3839 TriUF
5291 3499 TriUF
5297 3614 TriUF
5301 4199 TriUF
5338 3709 TriUF
5351 3500 TriUF
5401 4407 TriUF
5474 3623 TriUF
5527 3564 TriUF
5534 3493 TriUF
5553 4315 TriUF
5556 4375 TriUF
5578 3642 TriUF
5587 3612 TriUF
5609 3572 TriUF
5638 3493 TriUF
5641 3493 TriUF
5675 4133 TriUF
5679 3682 TriUF
5682 3563 TriUF
5691 3668 TriUF
5748 3878 TriUF
5757 3493 TriUF
5757 3793 TriUF
5770 4112 TriUF
5773 3768 TriUF
5776 3987 TriUF
5801 3959 TriUF
5880 4164 TriUF
5918 3566 TriUF
5918 3997 TriUF
5927 3716 TriUF
5940 3978 TriUF
5965 3498 TriUF
5971 3618 TriUF
5971 3921 TriUF
6019 3899 TriUF
6025 3493 TriUF
6066 4065 TriUF
6179 3785 TriUF
6223 3531 TriUF
6223 4343 TriUF
6239 3899 TriUF
6242 3493 TriUF
6290 3770 TriUF
6290 4225 TriUF
6340 3615 TriUF
6368 4021 TriUF
6378 4158 TriUF
6438 3497 TriUF
6450 3810 TriUF
6582 3635 TriUF
6595 3543 TriUF
6737 3840 TriUF
6771 3821 TriUF
6995 3498 TriUF
7005 3606 TriUF
7045 4596 TriUF
7140 5148 TriUF
7181 3865 TriUF
7260 4231 TriUF
7338 4051 TriUF
7367 4401 TriUF
7433 3716 TriUF
7483 4099 TriUF
7508 4287 TriUF
7634 4113 TriUF
7682 3802 TriUF
7745 4026 TriUF
7971 4161 TriUF
7978 4079 TriUF
8038 3644 TriUF
8091 3979 TriUF
8189 4246 TriUF
8204 4091 TriUF
8261 3975 TriUF
8308 4153 TriUF
8387 4157 TriUF
8393 3493 TriUF
8570 4729 TriUF
8683 4350 TriUF
8803 3693 TriUF
8907 4610 TriUF
8910 3564 TriUF
8910 3567 TriUF
8910 3569 TriUF
8926 4215 TriUF
8957 3800 TriUF
9027 3493 TriUF
9042 3796 TriUF
9108 3686 TriUF
9121 3923 TriUF
9159 4064 TriUF
9175 4328 TriUF
9562 3493 TriUF
10482 3561 TriUF
10737 3808 TriUF
10784 3880 TriUF
10793 4188 TriUF
11045 4058 TriUF
11159 4102 TriUF
11209 3981 TriUF
11260 3682 TriUF
11332 4115 TriUF
11382 4459 TriUF
11392 3537 TriUF
11480 3592 TriUF
11486 3588 TriUF
11515 3493 TriUF
11556 3770 TriUF
11596 3786 TriUF
11596 3801 TriUF
11688 4123 TriUF
11688 3686 TriUF
11716 3612 TriUF
11848 4396 TriUF
11852 4034 TriUF
11855 3957 TriUF
11883 3978 TriUF
11946 3967 TriUF
12176 3709 TriUF
12217 3711 TriUF
12245 4221 TriUF
12264 4505 TriUF
12293 4305 TriUF
12327 4377 TriUF
12340 4236 TriUF
12396 3934 TriUF
12409 3701 TriUF
12447 3900 TriUF
12450 3893 TriUF
12485 3802 TriUF
12522 3603 TriUF
% End plot #1
1.000 UL
LTb
LCb setrgbcolor
1200 7049 N
0 -3556 V
12598 0 V
0 3556 V
-12598 0 V
Z stroke
1.000 UP
1.000 UL
LTb
LCb setrgbcolor
stroke
grestore
end
showpage
%%Page: 2 2
gnudict begin
gsave
doclip
50 50 translate
0.050 0.050 scale
0 setgray
newpath
(Times) findfont 200 scalefont setfont
BackgroundColor 0 lt 3 1 roll 0 lt exch 0 lt or or not {BackgroundColor C 1.000 0 0 14400.00 10080.00 BoxColFill} if
1.000 UL
LTb
LCb setrgbcolor
1.000 UL
LTa
LCa setrgbcolor
600 3408 M
12598 0 V
stroke
LTb
LCb setrgbcolor
600 3408 M
63 0 V
12535 0 R
-63 0 V
stroke
480 3408 M
[ [(Times) 200.0 0.0 true true 0 ( 0)]
] -66.7 MRshow
1.000 UL
LTb
LCb setrgbcolor
1.000 UL
LTa
LCa setrgbcolor
600 4015 M
12598 0 V
stroke
LTb
LCb setrgbcolor
600 4015 M
63 0 V
12535 0 R
-63 0 V
stroke
480 4015 M
[ [(Times) 200.0 0.0 true true 0 ( 200000)]
] -66.7 MRshow
1.000 UL
LTb
LCb setrgbcolor
1.000 UL
LTa
LCa setrgbcolor
600 4622 M
12598 0 V
stroke
LTb
LCb setrgbcolor
600 4622 M
63 0 V
12535 0 R
-63 0 V
stroke
480 4622 M
[ [(Times) 200.0 0.0 true true 0 ( 400000)]
] -66.7 MRshow
1.000 UL
LTb
LCb setrgbcolor
1.000 UL
LTa
LCa setrgbcolor
600 5229 M
12598 0 V
stroke
LTb
LCb setrgbcolor
600 5229 M
63 0 V
12535 0 R
-63 0 V
stroke
480 5229 M
[ [(Times) 200.0 0.0 true true 0 ( 600000)]
] -66.7 MRshow
1.000 UL
LTb
LCb setrgbcolor
1.000 UL
LTa
LCa setrgbcolor
600 5835 M
12598 0 V
stroke
LTb
LCb setrgbcolor
600 5835 M
63 0 V
12535 0 R
-63 0 V
stroke
480 5835 M
[ [(Times) 200.0 0.0 true true 0 ( 800000)]
] -66.7 MRshow
1.000 UL
LTb
LCb setrgbcolor
1.000 UL
LTa
LCa setrgbcolor
600 6442 M
12598 0 V
stroke
LTb
LCb setrgbcolor
600 6442 M
63 0 V
12535 0 R
-63 0 V
stroke
480 6442 M
[ [(Times) 200.0 0.0 true true 0 ( 1e+06)]
] -66.7 MRshow
1.000 UL
LTb
LCb setrgbcolor
1.000 UL
LTa
LCa setrgbcolor
600 7049 M
12598 0 V
stroke
LTb
LCb setrgbcolor
600 7049 M
63 0 V
12535 0 R
-63 0 V
stroke
480 7049 M
[ [(Times) 200.0 0.0 true true 0 ( 1.2e+06)]
] -66.7 MRshow
1.000 UL
LTb
LCb setrgbcolor
1.000 UL
LTa
LCa setrgbcolor
600 3408 M
0 3641 V
stroke
LTb
LCb setrgbcolor
600 3408 M
0 63 V
0 3578 R
0 -63 V
stroke
600 3288 M
currentpoint gsave translate -45 rotate 0 0 moveto
[ [(Times) 200.0 0.0 true true 0 ( 0)]
] -66.7 MLshow
grestore
1.000 UL
LTb
LCb setrgbcolor
1.000 UL
LTa
LCa setrgbcolor
2000 3408 M
0 3641 V
stroke
LTb
LCb setrgbcolor
2000 3408 M
0 63 V
0 3578 R
0 -63 V
stroke
2000 3288 M
currentpoint gsave translate -45 rotate 0 0 moveto
[ [(Times) 200.0 0.0 true true 0 ( 50)]
] -66.7 MLshow
grestore
1.000 UL
LTb
LCb setrgbcolor
1.000 UL
LTa
LCa setrgbcolor
3400 3408 M
0 3641 V
stroke
LTb
LCb setrgbcolor
3400 3408 M
0 63 V
0 3578 R
0 -63 V
stroke
3400 3288 M
currentpoint gsave translate -45 rotate 0 0 moveto
[ [(Times) 200.0 0.0 true true 0 ( 100)]
] -66.7 MLshow
grestore
1.000 UL
LTb
LCb setrgbcolor
1.000 UL
LTa
LCa setrgbcolor
4799 3408 M
0 3641 V
stroke
LTb
LCb setrgbcolor
4799 3408 M
0 63 V
0 3578 R
0 -63 V
stroke
4799 3288 M
currentpoint gsave translate -45 rotate 0 0 moveto
[ [(Times) 200.0 0.0 true true 0 ( 150)]
] -66.7 MLshow
grestore
1.000 UL
LTb
LCb setrgbcolor
1.000 UL
LTa
LCa setrgbcolor
6199 3408 M
0 3641 V
stroke
LTb
LCb setrgbcolor
6199 3408 M
0 63 V
0 3578 R
0 -63 V
stroke
6199 3288 M
currentpoint gsave translate -45 rotate 0 0 moveto
[ [(Times) 200.0 0.0 true true 0 ( 200)]
] -66.7 MLshow
grestore
1.000 UL
LTb
LCb setrgbcolor
1.000 UL
LTa
LCa setrgbcolor
7599 3408 M
0 3641 V
stroke
LTb
LCb setrgbcolor
7599 3408 M
0 63 V
0 3578 R
0 -63 V
stroke
7599 3288 M
currentpoint gsave translate -45 rotate 0 0 moveto
[ [(Times) 200.0 0.0 true true 0 ( 250)]
] -66.7 MLshow
grestore
1.000 UL
LTb
LCb setrgbcolor
1.000 UL
LTa
LCa setrgbcolor
8999 3408 M
0 3641 V
stroke
LTb
LCb setrgbcolor
8999 3408 M
0 63 V
0 3578 R
0 -63 V
stroke
8999 3288 M
currentpoint gsave translate -45 rotate 0 0 moveto
[ [(Times) 200.0 0.0 true true 0 ( 300)]
] -66.7 MLshow
grestore
1.000 UL
LTb
LCb setrgbcolor
1.000 UL
LTa
LCa setrgbcolor
10398 3408 M
0 3641 V
stroke
LTb
LCb setrgbcolor
10398 3408 M
0 63 V
0 3578 R
0 -63 V
stroke
10398 3288 M
currentpoint gsave translate -45 rotate 0 0 moveto
[ [(Times) 200.0 0.0 true true 0 ( 350)]
] -66.7 MLshow
grestore
1.000 UL
LTb
LCb setrgbcolor
1.000 UL
LTa
LCa setrgbcolor
11798 3408 M
0 3641 V
stroke
LTb
LCb setrgbcolor
11798 3408 M
0 63 V
0 3578 R
0 -63 V
stroke
11798 3288 M
currentpoint gsave translate -45 rotate 0 0 moveto
[ [(Times) 200.0 0.0 true true 0 ( 400)]
] -66.7 MLshow
grestore
1.000 UL
LTb
LCb setrgbcolor
1.000 UL
LTa
LCa setrgbcolor
13198 3408 M
0 3641 V
stroke
LTb
LCb setrgbcolor
13198 3408 M
0 63 V
0 3578 R
0 -63 V
stroke
13198 3288 M
currentpoint gsave translate -45 rotate 0 0 moveto
[ [(Times) 200.0 0.0 true true 0 ( 450)]
] -66.7 MLshow
grestore
1.000 UL
LTb
LCb setrgbcolor
1.000 UL
LTb
LCb setrgbcolor
600 7049 N
0 -3641 V
12598 0 V
0 3641 V
600 7049 L
Z stroke
LCb setrgbcolor
-700 5228 M
currentpoint gsave translate -270 rotate 0 0 moveto
[ [(Times) 200.0 0.0 true true 0 (Flow size [bytes])]
] -66.7 MCshow
grestore
LTb
LCb setrgbcolor
6899 2769 M
[ [(Times) 200.0 0.0 true true 0 (Duration [sec])]
] -66.7 MCshow
LTb
6899 7349 M
[ [(Times) 200.0 0.0 true true 0 (src port 80, repeating connections sorted by duration)]
] -66.7 MCshow
1.000 UP
1.000 UL
LTb
LCb setrgbcolor
1.000 UL
LT8
LC8 setrgbcolor
6508 63 N
782 0 V
-782 0 V
Z stroke
% Begin plot #1
1.000 UP
1.000 UL
LT8
1.00 0.00 0.00 C 600 3412 TriUF
600 3412 TriUF
600 3412 TriUF
600 3412 TriUF
600 3412 TriUF
600 3412 TriUF
600 3412 TriUF
600 3412 TriUF
600 3412 TriUF
600 3422 TriUF
600 3441 TriUF
600 3428 TriUF
600 3419 TriUF
601 3430 TriUF
616 3417 TriUF
617 3412 TriUF
617 3417 TriUF
620 3417 TriUF
625 3417 TriUF
639 3434 TriUF
725 3425 TriUF
734 3430 TriUF
757 3460 TriUF
777 3464 TriUF
817 3426 TriUF
841 3509 TriUF
848 3433 TriUF
851 3419 TriUF
852 3458 TriUF
853 3430 TriUF
857 3453 TriUF
862 3418 TriUF
868 3456 TriUF
869 3478 TriUF
881 3454 TriUF
921 3425 TriUF
938 3439 TriUF
950 3504 TriUF
952 3451 TriUF
967 3447 TriUF
973 3548 TriUF
989 3456 TriUF
999 3465 TriUF
1021 3460 TriUF
1022 3452 TriUF
1028 3484 TriUF
1032 3539 TriUF
1043 3456 TriUF
1059 3508 TriUF
1089 3513 TriUF
1102 3448 TriUF
1127 3453 TriUF
1133 3530 TriUF
1149 3496 TriUF
1156 3466 TriUF
1178 3583 TriUF
1219 3425 TriUF
1263 3535 TriUF
1268 3453 TriUF
1268 3555 TriUF
1285 3525 TriUF
1285 3451 TriUF
1285 3452 TriUF
1308 3516 TriUF
1337 3517 TriUF
1365 3474 TriUF
1367 3575 TriUF
1372 3583 TriUF
1388 3488 TriUF
1389 3478 TriUF
1504 3475 TriUF
1575 3526 TriUF
1580 3512 TriUF
1580 3529 TriUF
1635 3500 TriUF
1640 3487 TriUF
1661 3655 TriUF
1662 3885 TriUF
1673 3688 TriUF
1689 3675 TriUF
1691 3562 TriUF
1693 3500 TriUF
1696 3507 TriUF
1702 3482 TriUF
1717 3644 TriUF
1722 3607 TriUF
1763 3495 TriUF
1827 3478 TriUF
1829 3601 TriUF
1863 3523 TriUF
1906 3592 TriUF
1918 3640 TriUF
1930 3547 TriUF
1938 3443 TriUF
1963 3439 TriUF
1971 3604 TriUF
2004 3557 TriUF
2017 3508 TriUF
2037 3661 TriUF
2037 3579 TriUF
2041 3478 TriUF
2064 3525 TriUF
2115 3512 TriUF
2124 3548 TriUF
2163 3510 TriUF
2244 3565 TriUF
2252 3549 TriUF
2268 3666 TriUF
2280 3666 TriUF
2308 3458 TriUF
2318 3458 TriUF
2319 3458 TriUF
2320 3458 TriUF
2321 3458 TriUF
2324 3458 TriUF
2328 3458 TriUF
2351 3694 TriUF
2386 3507 TriUF
2388 3549 TriUF
2438 3596 TriUF
2463 3549 TriUF
2469 3507 TriUF
2490 3599 TriUF
2516 3583 TriUF
2546 3583 TriUF
2558 3475 TriUF
2578 3644 TriUF
2603 3647 TriUF
2622 3656 TriUF
2624 3645 TriUF
2626 3507 TriUF
2626 3773 TriUF
2634 3507 TriUF
2677 3692 TriUF
2720 3607 TriUF
2748 3600 TriUF
2756 3773 TriUF
2757 3971 TriUF
2791 3715 TriUF
2796 3676 TriUF
2805 3535 TriUF
2833 3607 TriUF
2867 3465 TriUF
2937 3574 TriUF
2953 3966 TriUF
2957 3557 TriUF
2965 3683 TriUF
2978 3685 TriUF
3064 3609 TriUF
3100 3959 TriUF
3157 3574 TriUF
3181 3557 TriUF
3194 3782 TriUF
3213 3759 TriUF
3231 3657 TriUF
3268 3764 TriUF
3341 3985 TriUF
3414 4018 TriUF
3445 3931 TriUF
3460 3657 TriUF
3478 3962 TriUF
3513 3642 TriUF
3558 3706 TriUF
3601 4018 TriUF
3610 3670 TriUF
3636 3607 TriUF
3696 4014 TriUF
3723 3526 TriUF
3733 3914 TriUF
3800 3813 TriUF
3818 3965 TriUF
3837 3756 TriUF
3926 3977 TriUF
4022 3731 TriUF
4096 4044 TriUF
4184 3833 TriUF
4195 3901 TriUF
4311 3993 TriUF
4333 3880 TriUF
4507 3855 TriUF
4556 3884 TriUF
4978 4104 TriUF
5062 3741 TriUF
5226 4005 TriUF
6043 4428 TriUF
6463 4403 TriUF
6579 4230 TriUF
7453 4491 TriUF
11857 6639 TriUF
% End plot #1
1.000 UL
LTb
LCb setrgbcolor
600 7049 N
0 -3641 V
12598 0 V
0 3641 V
600 7049 L
Z stroke
1.000 UP
1.000 UL
LTb
LCb setrgbcolor
stroke
grestore
end
showpage
%%Trailer
%%DocumentFonts: Times
