%!PS-Adobe-2.0 EPSF-2.0
%%Title: repeating_conn_4192343250_2159076156.eps
%%Creator: gnuplot 4.6 patchlevel 2
%%CreationDate: Tue Apr  8 13:27:03 2014
%%DocumentFonts: (atend)
%%BoundingBox: 50 50 770 554
%%EndComments
%%BeginProlog
/gnudict 256 dict def
gnudict begin
%
% The following true/false flags may be edited by hand if desired.
% The unit line width and grayscale image gamma correction may also be changed.
%
/Color true def
/Blacktext false def
/Solid false def
/Dashlength 1 def
/Landscape false def
/Level1 false def
/Rounded false def
/ClipToBoundingBox false def
/SuppressPDFMark false def
/TransparentPatterns false def
/gnulinewidth 5.000 def
/userlinewidth gnulinewidth def
/Gamma 1.0 def
/BackgroundColor {-1.000 -1.000 -1.000} def
%
/vshift -66 def
/dl1 {
  10.0 Dashlength mul mul
  Rounded { currentlinewidth 0.75 mul sub dup 0 le { pop 0.01 } if } if
} def
/dl2 {
  10.0 Dashlength mul mul
  Rounded { currentlinewidth 0.75 mul add } if
} def
/hpt_ 31.5 def
/vpt_ 31.5 def
/hpt hpt_ def
/vpt vpt_ def
/doclip {
  ClipToBoundingBox {
    newpath 50 50 moveto 770 50 lineto 770 554 lineto 50 554 lineto closepath
    clip
  } if
} def
%
% Gnuplot Prolog Version 4.6 (September 2012)
%
%/SuppressPDFMark true def
%
/M {moveto} bind def
/L {lineto} bind def
/R {rmoveto} bind def
/V {rlineto} bind def
/N {newpath moveto} bind def
/Z {closepath} bind def
/C {setrgbcolor} bind def
/f {rlineto fill} bind def
/g {setgray} bind def
/Gshow {show} def   % May be redefined later in the file to support UTF-8
/vpt2 vpt 2 mul def
/hpt2 hpt 2 mul def
/Lshow {currentpoint stroke M 0 vshift R 
	Blacktext {gsave 0 setgray show grestore} {show} ifelse} def
/Rshow {currentpoint stroke M dup stringwidth pop neg vshift R
	Blacktext {gsave 0 setgray show grestore} {show} ifelse} def
/Cshow {currentpoint stroke M dup stringwidth pop -2 div vshift R 
	Blacktext {gsave 0 setgray show grestore} {show} ifelse} def
/UP {dup vpt_ mul /vpt exch def hpt_ mul /hpt exch def
  /hpt2 hpt 2 mul def /vpt2 vpt 2 mul def} def
/DL {Color {setrgbcolor Solid {pop []} if 0 setdash}
 {pop pop pop 0 setgray Solid {pop []} if 0 setdash} ifelse} def
/BL {stroke userlinewidth 2 mul setlinewidth
	Rounded {1 setlinejoin 1 setlinecap} if} def
/AL {stroke userlinewidth 2 div setlinewidth
	Rounded {1 setlinejoin 1 setlinecap} if} def
/UL {dup gnulinewidth mul /userlinewidth exch def
	dup 1 lt {pop 1} if 10 mul /udl exch def} def
/PL {stroke userlinewidth setlinewidth
	Rounded {1 setlinejoin 1 setlinecap} if} def
3.8 setmiterlimit
% Default Line colors
/LCw {1 1 1} def
/LCb {0 0 0} def
/LCa {0 0 0} def
/LC0 {1 0 0} def
/LC1 {0 1 0} def
/LC2 {0 0 1} def
/LC3 {1 0 1} def
/LC4 {0 1 1} def
/LC5 {1 1 0} def
/LC6 {0 0 0} def
/LC7 {1 0.3 0} def
/LC8 {0.5 0.5 0.5} def
% Default Line Types
/LTw {PL [] 1 setgray} def
/LTb {BL [] LCb DL} def
/LTa {AL [1 udl mul 2 udl mul] 0 setdash LCa setrgbcolor} def
/LT0 {PL [] LC0 DL} def
/LT1 {PL [4 dl1 2 dl2] LC1 DL} def
/LT2 {PL [2 dl1 3 dl2] LC2 DL} def
/LT3 {PL [1 dl1 1.5 dl2] LC3 DL} def
/LT4 {PL [6 dl1 2 dl2 1 dl1 2 dl2] LC4 DL} def
/LT5 {PL [3 dl1 3 dl2 1 dl1 3 dl2] LC5 DL} def
/LT6 {PL [2 dl1 2 dl2 2 dl1 6 dl2] LC6 DL} def
/LT7 {PL [1 dl1 2 dl2 6 dl1 2 dl2 1 dl1 2 dl2] LC7 DL} def
/LT8 {PL [2 dl1 2 dl2 2 dl1 2 dl2 2 dl1 2 dl2 2 dl1 4 dl2] LC8 DL} def
/Pnt {stroke [] 0 setdash gsave 1 setlinecap M 0 0 V stroke grestore} def
/Dia {stroke [] 0 setdash 2 copy vpt add M
  hpt neg vpt neg V hpt vpt neg V
  hpt vpt V hpt neg vpt V closepath stroke
  Pnt} def
/Pls {stroke [] 0 setdash vpt sub M 0 vpt2 V
  currentpoint stroke M
  hpt neg vpt neg R hpt2 0 V stroke
 } def
/Box {stroke [] 0 setdash 2 copy exch hpt sub exch vpt add M
  0 vpt2 neg V hpt2 0 V 0 vpt2 V
  hpt2 neg 0 V closepath stroke
  Pnt} def
/Crs {stroke [] 0 setdash exch hpt sub exch vpt add M
  hpt2 vpt2 neg V currentpoint stroke M
  hpt2 neg 0 R hpt2 vpt2 V stroke} def
/TriU {stroke [] 0 setdash 2 copy vpt 1.12 mul add M
  hpt neg vpt -1.62 mul V
  hpt 2 mul 0 V
  hpt neg vpt 1.62 mul V closepath stroke
  Pnt} def
/Star {2 copy Pls Crs} def
/BoxF {stroke [] 0 setdash exch hpt sub exch vpt add M
  0 vpt2 neg V hpt2 0 V 0 vpt2 V
  hpt2 neg 0 V closepath fill} def
/TriUF {stroke [] 0 setdash vpt 1.12 mul add M
  hpt neg vpt -1.62 mul V
  hpt 2 mul 0 V
  hpt neg vpt 1.62 mul V closepath fill} def
/TriD {stroke [] 0 setdash 2 copy vpt 1.12 mul sub M
  hpt neg vpt 1.62 mul V
  hpt 2 mul 0 V
  hpt neg vpt -1.62 mul V closepath stroke
  Pnt} def
/TriDF {stroke [] 0 setdash vpt 1.12 mul sub M
  hpt neg vpt 1.62 mul V
  hpt 2 mul 0 V
  hpt neg vpt -1.62 mul V closepath fill} def
/DiaF {stroke [] 0 setdash vpt add M
  hpt neg vpt neg V hpt vpt neg V
  hpt vpt V hpt neg vpt V closepath fill} def
/Pent {stroke [] 0 setdash 2 copy gsave
  translate 0 hpt M 4 {72 rotate 0 hpt L} repeat
  closepath stroke grestore Pnt} def
/PentF {stroke [] 0 setdash gsave
  translate 0 hpt M 4 {72 rotate 0 hpt L} repeat
  closepath fill grestore} def
/Circle {stroke [] 0 setdash 2 copy
  hpt 0 360 arc stroke Pnt} def
/CircleF {stroke [] 0 setdash hpt 0 360 arc fill} def
/C0 {BL [] 0 setdash 2 copy moveto vpt 90 450 arc} bind def
/C1 {BL [] 0 setdash 2 copy moveto
	2 copy vpt 0 90 arc closepath fill
	vpt 0 360 arc closepath} bind def
/C2 {BL [] 0 setdash 2 copy moveto
	2 copy vpt 90 180 arc closepath fill
	vpt 0 360 arc closepath} bind def
/C3 {BL [] 0 setdash 2 copy moveto
	2 copy vpt 0 180 arc closepath fill
	vpt 0 360 arc closepath} bind def
/C4 {BL [] 0 setdash 2 copy moveto
	2 copy vpt 180 270 arc closepath fill
	vpt 0 360 arc closepath} bind def
/C5 {BL [] 0 setdash 2 copy moveto
	2 copy vpt 0 90 arc
	2 copy moveto
	2 copy vpt 180 270 arc closepath fill
	vpt 0 360 arc} bind def
/C6 {BL [] 0 setdash 2 copy moveto
	2 copy vpt 90 270 arc closepath fill
	vpt 0 360 arc closepath} bind def
/C7 {BL [] 0 setdash 2 copy moveto
	2 copy vpt 0 270 arc closepath fill
	vpt 0 360 arc closepath} bind def
/C8 {BL [] 0 setdash 2 copy moveto
	2 copy vpt 270 360 arc closepath fill
	vpt 0 360 arc closepath} bind def
/C9 {BL [] 0 setdash 2 copy moveto
	2 copy vpt 270 450 arc closepath fill
	vpt 0 360 arc closepath} bind def
/C10 {BL [] 0 setdash 2 copy 2 copy moveto vpt 270 360 arc closepath fill
	2 copy moveto
	2 copy vpt 90 180 arc closepath fill
	vpt 0 360 arc closepath} bind def
/C11 {BL [] 0 setdash 2 copy moveto
	2 copy vpt 0 180 arc closepath fill
	2 copy moveto
	2 copy vpt 270 360 arc closepath fill
	vpt 0 360 arc closepath} bind def
/C12 {BL [] 0 setdash 2 copy moveto
	2 copy vpt 180 360 arc closepath fill
	vpt 0 360 arc closepath} bind def
/C13 {BL [] 0 setdash 2 copy moveto
	2 copy vpt 0 90 arc closepath fill
	2 copy moveto
	2 copy vpt 180 360 arc closepath fill
	vpt 0 360 arc closepath} bind def
/C14 {BL [] 0 setdash 2 copy moveto
	2 copy vpt 90 360 arc closepath fill
	vpt 0 360 arc} bind def
/C15 {BL [] 0 setdash 2 copy vpt 0 360 arc closepath fill
	vpt 0 360 arc closepath} bind def
/Rec {newpath 4 2 roll moveto 1 index 0 rlineto 0 exch rlineto
	neg 0 rlineto closepath} bind def
/Square {dup Rec} bind def
/Bsquare {vpt sub exch vpt sub exch vpt2 Square} bind def
/S0 {BL [] 0 setdash 2 copy moveto 0 vpt rlineto BL Bsquare} bind def
/S1 {BL [] 0 setdash 2 copy vpt Square fill Bsquare} bind def
/S2 {BL [] 0 setdash 2 copy exch vpt sub exch vpt Square fill Bsquare} bind def
/S3 {BL [] 0 setdash 2 copy exch vpt sub exch vpt2 vpt Rec fill Bsquare} bind def
/S4 {BL [] 0 setdash 2 copy exch vpt sub exch vpt sub vpt Square fill Bsquare} bind def
/S5 {BL [] 0 setdash 2 copy 2 copy vpt Square fill
	exch vpt sub exch vpt sub vpt Square fill Bsquare} bind def
/S6 {BL [] 0 setdash 2 copy exch vpt sub exch vpt sub vpt vpt2 Rec fill Bsquare} bind def
/S7 {BL [] 0 setdash 2 copy exch vpt sub exch vpt sub vpt vpt2 Rec fill
	2 copy vpt Square fill Bsquare} bind def
/S8 {BL [] 0 setdash 2 copy vpt sub vpt Square fill Bsquare} bind def
/S9 {BL [] 0 setdash 2 copy vpt sub vpt vpt2 Rec fill Bsquare} bind def
/S10 {BL [] 0 setdash 2 copy vpt sub vpt Square fill 2 copy exch vpt sub exch vpt Square fill
	Bsquare} bind def
/S11 {BL [] 0 setdash 2 copy vpt sub vpt Square fill 2 copy exch vpt sub exch vpt2 vpt Rec fill
	Bsquare} bind def
/S12 {BL [] 0 setdash 2 copy exch vpt sub exch vpt sub vpt2 vpt Rec fill Bsquare} bind def
/S13 {BL [] 0 setdash 2 copy exch vpt sub exch vpt sub vpt2 vpt Rec fill
	2 copy vpt Square fill Bsquare} bind def
/S14 {BL [] 0 setdash 2 copy exch vpt sub exch vpt sub vpt2 vpt Rec fill
	2 copy exch vpt sub exch vpt Square fill Bsquare} bind def
/S15 {BL [] 0 setdash 2 copy Bsquare fill Bsquare} bind def
/D0 {gsave translate 45 rotate 0 0 S0 stroke grestore} bind def
/D1 {gsave translate 45 rotate 0 0 S1 stroke grestore} bind def
/D2 {gsave translate 45 rotate 0 0 S2 stroke grestore} bind def
/D3 {gsave translate 45 rotate 0 0 S3 stroke grestore} bind def
/D4 {gsave translate 45 rotate 0 0 S4 stroke grestore} bind def
/D5 {gsave translate 45 rotate 0 0 S5 stroke grestore} bind def
/D6 {gsave translate 45 rotate 0 0 S6 stroke grestore} bind def
/D7 {gsave translate 45 rotate 0 0 S7 stroke grestore} bind def
/D8 {gsave translate 45 rotate 0 0 S8 stroke grestore} bind def
/D9 {gsave translate 45 rotate 0 0 S9 stroke grestore} bind def
/D10 {gsave translate 45 rotate 0 0 S10 stroke grestore} bind def
/D11 {gsave translate 45 rotate 0 0 S11 stroke grestore} bind def
/D12 {gsave translate 45 rotate 0 0 S12 stroke grestore} bind def
/D13 {gsave translate 45 rotate 0 0 S13 stroke grestore} bind def
/D14 {gsave translate 45 rotate 0 0 S14 stroke grestore} bind def
/D15 {gsave translate 45 rotate 0 0 S15 stroke grestore} bind def
/DiaE {stroke [] 0 setdash vpt add M
  hpt neg vpt neg V hpt vpt neg V
  hpt vpt V hpt neg vpt V closepath stroke} def
/BoxE {stroke [] 0 setdash exch hpt sub exch vpt add M
  0 vpt2 neg V hpt2 0 V 0 vpt2 V
  hpt2 neg 0 V closepath stroke} def
/TriUE {stroke [] 0 setdash vpt 1.12 mul add M
  hpt neg vpt -1.62 mul V
  hpt 2 mul 0 V
  hpt neg vpt 1.62 mul V closepath stroke} def
/TriDE {stroke [] 0 setdash vpt 1.12 mul sub M
  hpt neg vpt 1.62 mul V
  hpt 2 mul 0 V
  hpt neg vpt -1.62 mul V closepath stroke} def
/PentE {stroke [] 0 setdash gsave
  translate 0 hpt M 4 {72 rotate 0 hpt L} repeat
  closepath stroke grestore} def
/CircE {stroke [] 0 setdash 
  hpt 0 360 arc stroke} def
/Opaque {gsave closepath 1 setgray fill grestore 0 setgray closepath} def
/DiaW {stroke [] 0 setdash vpt add M
  hpt neg vpt neg V hpt vpt neg V
  hpt vpt V hpt neg vpt V Opaque stroke} def
/BoxW {stroke [] 0 setdash exch hpt sub exch vpt add M
  0 vpt2 neg V hpt2 0 V 0 vpt2 V
  hpt2 neg 0 V Opaque stroke} def
/TriUW {stroke [] 0 setdash vpt 1.12 mul add M
  hpt neg vpt -1.62 mul V
  hpt 2 mul 0 V
  hpt neg vpt 1.62 mul V Opaque stroke} def
/TriDW {stroke [] 0 setdash vpt 1.12 mul sub M
  hpt neg vpt 1.62 mul V
  hpt 2 mul 0 V
  hpt neg vpt -1.62 mul V Opaque stroke} def
/PentW {stroke [] 0 setdash gsave
  translate 0 hpt M 4 {72 rotate 0 hpt L} repeat
  Opaque stroke grestore} def
/CircW {stroke [] 0 setdash 
  hpt 0 360 arc Opaque stroke} def
/BoxFill {gsave Rec 1 setgray fill grestore} def
/Density {
  /Fillden exch def
  currentrgbcolor
  /ColB exch def /ColG exch def /ColR exch def
  /ColR ColR Fillden mul Fillden sub 1 add def
  /ColG ColG Fillden mul Fillden sub 1 add def
  /ColB ColB Fillden mul Fillden sub 1 add def
  ColR ColG ColB setrgbcolor} def
/BoxColFill {gsave Rec PolyFill} def
/PolyFill {gsave Density fill grestore grestore} def
/h {rlineto rlineto rlineto gsave closepath fill grestore} bind def
%
% PostScript Level 1 Pattern Fill routine for rectangles
% Usage: x y w h s a XX PatternFill
%	x,y = lower left corner of box to be filled
%	w,h = width and height of box
%	  a = angle in degrees between lines and x-axis
%	 XX = 0/1 for no/yes cross-hatch
%
/PatternFill {gsave /PFa [ 9 2 roll ] def
  PFa 0 get PFa 2 get 2 div add PFa 1 get PFa 3 get 2 div add translate
  PFa 2 get -2 div PFa 3 get -2 div PFa 2 get PFa 3 get Rec
  TransparentPatterns {} {gsave 1 setgray fill grestore} ifelse
  clip
  currentlinewidth 0.5 mul setlinewidth
  /PFs PFa 2 get dup mul PFa 3 get dup mul add sqrt def
  0 0 M PFa 5 get rotate PFs -2 div dup translate
  0 1 PFs PFa 4 get div 1 add floor cvi
	{PFa 4 get mul 0 M 0 PFs V} for
  0 PFa 6 get ne {
	0 1 PFs PFa 4 get div 1 add floor cvi
	{PFa 4 get mul 0 2 1 roll M PFs 0 V} for
 } if
  stroke grestore} def
%
/languagelevel where
 {pop languagelevel} {1} ifelse
 2 lt
	{/InterpretLevel1 true def}
	{/InterpretLevel1 Level1 def}
 ifelse
%
% PostScript level 2 pattern fill definitions
%
/Level2PatternFill {
/Tile8x8 {/PaintType 2 /PatternType 1 /TilingType 1 /BBox [0 0 8 8] /XStep 8 /YStep 8}
	bind def
/KeepColor {currentrgbcolor [/Pattern /DeviceRGB] setcolorspace} bind def
<< Tile8x8
 /PaintProc {0.5 setlinewidth pop 0 0 M 8 8 L 0 8 M 8 0 L stroke} 
>> matrix makepattern
/Pat1 exch def
<< Tile8x8
 /PaintProc {0.5 setlinewidth pop 0 0 M 8 8 L 0 8 M 8 0 L stroke
	0 4 M 4 8 L 8 4 L 4 0 L 0 4 L stroke}
>> matrix makepattern
/Pat2 exch def
<< Tile8x8
 /PaintProc {0.5 setlinewidth pop 0 0 M 0 8 L
	8 8 L 8 0 L 0 0 L fill}
>> matrix makepattern
/Pat3 exch def
<< Tile8x8
 /PaintProc {0.5 setlinewidth pop -4 8 M 8 -4 L
	0 12 M 12 0 L stroke}
>> matrix makepattern
/Pat4 exch def
<< Tile8x8
 /PaintProc {0.5 setlinewidth pop -4 0 M 8 12 L
	0 -4 M 12 8 L stroke}
>> matrix makepattern
/Pat5 exch def
<< Tile8x8
 /PaintProc {0.5 setlinewidth pop -2 8 M 4 -4 L
	0 12 M 8 -4 L 4 12 M 10 0 L stroke}
>> matrix makepattern
/Pat6 exch def
<< Tile8x8
 /PaintProc {0.5 setlinewidth pop -2 0 M 4 12 L
	0 -4 M 8 12 L 4 -4 M 10 8 L stroke}
>> matrix makepattern
/Pat7 exch def
<< Tile8x8
 /PaintProc {0.5 setlinewidth pop 8 -2 M -4 4 L
	12 0 M -4 8 L 12 4 M 0 10 L stroke}
>> matrix makepattern
/Pat8 exch def
<< Tile8x8
 /PaintProc {0.5 setlinewidth pop 0 -2 M 12 4 L
	-4 0 M 12 8 L -4 4 M 8 10 L stroke}
>> matrix makepattern
/Pat9 exch def
/Pattern1 {PatternBgnd KeepColor Pat1 setpattern} bind def
/Pattern2 {PatternBgnd KeepColor Pat2 setpattern} bind def
/Pattern3 {PatternBgnd KeepColor Pat3 setpattern} bind def
/Pattern4 {PatternBgnd KeepColor Landscape {Pat5} {Pat4} ifelse setpattern} bind def
/Pattern5 {PatternBgnd KeepColor Landscape {Pat4} {Pat5} ifelse setpattern} bind def
/Pattern6 {PatternBgnd KeepColor Landscape {Pat9} {Pat6} ifelse setpattern} bind def
/Pattern7 {PatternBgnd KeepColor Landscape {Pat8} {Pat7} ifelse setpattern} bind def
} def
%
%
%End of PostScript Level 2 code
%
/PatternBgnd {
  TransparentPatterns {} {gsave 1 setgray fill grestore} ifelse
} def
%
% Substitute for Level 2 pattern fill codes with
% grayscale if Level 2 support is not selected.
%
/Level1PatternFill {
/Pattern1 {0.250 Density} bind def
/Pattern2 {0.500 Density} bind def
/Pattern3 {0.750 Density} bind def
/Pattern4 {0.125 Density} bind def
/Pattern5 {0.375 Density} bind def
/Pattern6 {0.625 Density} bind def
/Pattern7 {0.875 Density} bind def
} def
%
% Now test for support of Level 2 code
%
Level1 {Level1PatternFill} {Level2PatternFill} ifelse
%
/Symbol-Oblique /Symbol findfont [1 0 .167 1 0 0] makefont
dup length dict begin {1 index /FID eq {pop pop} {def} ifelse} forall
currentdict end definefont pop
/MFshow {
   { dup 5 get 3 ge
     { 5 get 3 eq {gsave} {grestore} ifelse }
     {dup dup 0 get findfont exch 1 get scalefont setfont
     [ currentpoint ] exch dup 2 get 0 exch R dup 5 get 2 ne {dup dup 6
     get exch 4 get {Gshow} {stringwidth pop 0 R} ifelse }if dup 5 get 0 eq
     {dup 3 get {2 get neg 0 exch R pop} {pop aload pop M} ifelse} {dup 5
     get 1 eq {dup 2 get exch dup 3 get exch 6 get stringwidth pop -2 div
     dup 0 R} {dup 6 get stringwidth pop -2 div 0 R 6 get
     show 2 index {aload pop M neg 3 -1 roll neg R pop pop} {pop pop pop
     pop aload pop M} ifelse }ifelse }ifelse }
     ifelse }
   forall} def
/Gswidth {dup type /stringtype eq {stringwidth} {pop (n) stringwidth} ifelse} def
/MFwidth {0 exch { dup 5 get 3 ge { 5 get 3 eq { 0 } { pop } ifelse }
 {dup 3 get{dup dup 0 get findfont exch 1 get scalefont setfont
     6 get Gswidth pop add} {pop} ifelse} ifelse} forall} def
/MLshow { currentpoint stroke M
  0 exch R
  Blacktext {gsave 0 setgray MFshow grestore} {MFshow} ifelse } bind def
/MRshow { currentpoint stroke M
  exch dup MFwidth neg 3 -1 roll R
  Blacktext {gsave 0 setgray MFshow grestore} {MFshow} ifelse } bind def
/MCshow { currentpoint stroke M
  exch dup MFwidth -2 div 3 -1 roll R
  Blacktext {gsave 0 setgray MFshow grestore} {MFshow} ifelse } bind def
/XYsave    { [( ) 1 2 true false 3 ()] } bind def
/XYrestore { [( ) 1 2 true false 4 ()] } bind def
Level1 SuppressPDFMark or 
{} {
/SDict 10 dict def
systemdict /pdfmark known not {
  userdict /pdfmark systemdict /cleartomark get put
} if
SDict begin [
  /Title (repeating_conn_4192343250_2159076156.eps)
  /Subject (gnuplot plot)
  /Creator (gnuplot 4.6 patchlevel 2)
  /Author (olgabo)
%  /Producer (gnuplot)
%  /Keywords ()
  /CreationDate (Tue Apr  8 13:27:03 2014)
  /DOCINFO pdfmark
end
} ifelse
end
%%EndProlog
%%Page: 1 1
gnudict begin
gsave
doclip
50 50 translate
0.050 0.050 scale
0 setgray
newpath
(Times) findfont 200 scalefont setfont
BackgroundColor 0 lt 3 1 roll 0 lt exch 0 lt or or not {BackgroundColor C 1.000 0 0 14400.00 10080.00 BoxColFill} if
1.000 UL
LTb
LCb setrgbcolor
1.000 UL
LTa
LCa setrgbcolor
1200 3493 M
12598 0 V
stroke
LTb
LCb setrgbcolor
1200 3493 M
63 0 V
12535 0 R
-63 0 V
stroke
1080 3493 M
[ [(Times) 200.0 0.0 true true 0 ( 0)]
] -66.7 MRshow
1.000 UL
LTb
LCb setrgbcolor
1.000 UL
LTa
LCa setrgbcolor
1200 3849 M
12598 0 V
stroke
LTb
LCb setrgbcolor
1200 3849 M
63 0 V
12535 0 R
-63 0 V
stroke
1080 3849 M
[ [(Times) 200.0 0.0 true true 0 ( 5)]
] -66.7 MRshow
1.000 UL
LTb
LCb setrgbcolor
1.000 UL
LTa
LCa setrgbcolor
1200 4204 M
12598 0 V
stroke
LTb
LCb setrgbcolor
1200 4204 M
63 0 V
12535 0 R
-63 0 V
stroke
1080 4204 M
[ [(Times) 200.0 0.0 true true 0 ( 10)]
] -66.7 MRshow
1.000 UL
LTb
LCb setrgbcolor
1.000 UL
LTa
LCa setrgbcolor
1200 4560 M
12598 0 V
stroke
LTb
LCb setrgbcolor
1200 4560 M
63 0 V
12535 0 R
-63 0 V
stroke
1080 4560 M
[ [(Times) 200.0 0.0 true true 0 ( 15)]
] -66.7 MRshow
1.000 UL
LTb
LCb setrgbcolor
1.000 UL
LTa
LCa setrgbcolor
1200 4915 M
12598 0 V
stroke
LTb
LCb setrgbcolor
1200 4915 M
63 0 V
12535 0 R
-63 0 V
stroke
1080 4915 M
[ [(Times) 200.0 0.0 true true 0 ( 20)]
] -66.7 MRshow
1.000 UL
LTb
LCb setrgbcolor
1.000 UL
LTa
LCa setrgbcolor
1200 5271 M
12598 0 V
stroke
LTb
LCb setrgbcolor
1200 5271 M
63 0 V
12535 0 R
-63 0 V
stroke
1080 5271 M
[ [(Times) 200.0 0.0 true true 0 ( 25)]
] -66.7 MRshow
1.000 UL
LTb
LCb setrgbcolor
1.000 UL
LTa
LCa setrgbcolor
1200 5627 M
12598 0 V
stroke
LTb
LCb setrgbcolor
1200 5627 M
63 0 V
12535 0 R
-63 0 V
stroke
1080 5627 M
[ [(Times) 200.0 0.0 true true 0 ( 30)]
] -66.7 MRshow
1.000 UL
LTb
LCb setrgbcolor
1.000 UL
LTa
LCa setrgbcolor
1200 5982 M
12598 0 V
stroke
LTb
LCb setrgbcolor
1200 5982 M
63 0 V
12535 0 R
-63 0 V
stroke
1080 5982 M
[ [(Times) 200.0 0.0 true true 0 ( 35)]
] -66.7 MRshow
1.000 UL
LTb
LCb setrgbcolor
1.000 UL
LTa
LCa setrgbcolor
1200 6338 M
12598 0 V
stroke
LTb
LCb setrgbcolor
1200 6338 M
63 0 V
12535 0 R
-63 0 V
stroke
1080 6338 M
[ [(Times) 200.0 0.0 true true 0 ( 40)]
] -66.7 MRshow
1.000 UL
LTb
LCb setrgbcolor
1.000 UL
LTa
LCa setrgbcolor
1200 6693 M
12598 0 V
stroke
LTb
LCb setrgbcolor
1200 6693 M
63 0 V
12535 0 R
-63 0 V
stroke
1080 6693 M
[ [(Times) 200.0 0.0 true true 0 ( 45)]
] -66.7 MRshow
1.000 UL
LTb
LCb setrgbcolor
1.000 UL
LTa
LCa setrgbcolor
1200 7049 M
12598 0 V
stroke
LTb
LCb setrgbcolor
1200 7049 M
63 0 V
12535 0 R
-63 0 V
stroke
1080 7049 M
[ [(Times) 200.0 0.0 true true 0 ( 50)]
] -66.7 MRshow
1.000 UL
LTb
LCb setrgbcolor
1.000 UL
LTa
LCa setrgbcolor
1200 3493 M
0 3556 V
stroke
LTb
LCb setrgbcolor
1200 3493 M
0 63 V
0 3493 R
0 -63 V
stroke
1200 3373 M
currentpoint gsave translate -45 rotate 0 0 moveto
[ [(Times) 200.0 0.0 true true 0 ( 0)]
] -66.7 MLshow
grestore
1.000 UL
LTb
LCb setrgbcolor
1.000 UL
LTa
LCa setrgbcolor
2775 3493 M
0 3556 V
stroke
LTb
LCb setrgbcolor
2775 3493 M
0 63 V
0 3493 R
0 -63 V
stroke
2775 3373 M
currentpoint gsave translate -45 rotate 0 0 moveto
[ [(Times) 200.0 0.0 true true 0 ( 500)]
] -66.7 MLshow
grestore
1.000 UL
LTb
LCb setrgbcolor
1.000 UL
LTa
LCa setrgbcolor
4350 3493 M
0 3556 V
stroke
LTb
LCb setrgbcolor
4350 3493 M
0 63 V
0 3493 R
0 -63 V
stroke
4350 3373 M
currentpoint gsave translate -45 rotate 0 0 moveto
[ [(Times) 200.0 0.0 true true 0 ( 1000)]
] -66.7 MLshow
grestore
1.000 UL
LTb
LCb setrgbcolor
1.000 UL
LTa
LCa setrgbcolor
5924 3493 M
0 3556 V
stroke
LTb
LCb setrgbcolor
5924 3493 M
0 63 V
0 3493 R
0 -63 V
stroke
5924 3373 M
currentpoint gsave translate -45 rotate 0 0 moveto
[ [(Times) 200.0 0.0 true true 0 ( 1500)]
] -66.7 MLshow
grestore
1.000 UL
LTb
LCb setrgbcolor
1.000 UL
LTa
LCa setrgbcolor
7499 3493 M
0 3556 V
stroke
LTb
LCb setrgbcolor
7499 3493 M
0 63 V
0 3493 R
0 -63 V
stroke
7499 3373 M
currentpoint gsave translate -45 rotate 0 0 moveto
[ [(Times) 200.0 0.0 true true 0 ( 2000)]
] -66.7 MLshow
grestore
1.000 UL
LTb
LCb setrgbcolor
1.000 UL
LTa
LCa setrgbcolor
9074 3493 M
0 3556 V
stroke
LTb
LCb setrgbcolor
9074 3493 M
0 63 V
0 3493 R
0 -63 V
stroke
9074 3373 M
currentpoint gsave translate -45 rotate 0 0 moveto
[ [(Times) 200.0 0.0 true true 0 ( 2500)]
] -66.7 MLshow
grestore
1.000 UL
LTb
LCb setrgbcolor
1.000 UL
LTa
LCa setrgbcolor
10649 3493 M
0 3556 V
stroke
LTb
LCb setrgbcolor
10649 3493 M
0 63 V
0 3493 R
0 -63 V
stroke
10649 3373 M
currentpoint gsave translate -45 rotate 0 0 moveto
[ [(Times) 200.0 0.0 true true 0 ( 3000)]
] -66.7 MLshow
grestore
1.000 UL
LTb
LCb setrgbcolor
1.000 UL
LTa
LCa setrgbcolor
12223 3493 M
0 3556 V
stroke
LTb
LCb setrgbcolor
12223 3493 M
0 63 V
0 3493 R
0 -63 V
stroke
12223 3373 M
currentpoint gsave translate -45 rotate 0 0 moveto
[ [(Times) 200.0 0.0 true true 0 ( 3500)]
] -66.7 MLshow
grestore
1.000 UL
LTb
LCb setrgbcolor
1.000 UL
LTa
LCa setrgbcolor
13798 3493 M
0 3556 V
stroke
LTb
LCb setrgbcolor
13798 3493 M
0 63 V
0 3493 R
0 -63 V
stroke
13798 3373 M
currentpoint gsave translate -45 rotate 0 0 moveto
[ [(Times) 200.0 0.0 true true 0 ( 4000)]
] -66.7 MLshow
grestore
1.000 UL
LTb
LCb setrgbcolor
1.000 UL
LTb
LCb setrgbcolor
1200 7049 N
0 -3556 V
12598 0 V
0 3556 V
-12598 0 V
Z stroke
LCb setrgbcolor
500 5271 M
currentpoint gsave translate -270 rotate 0 0 moveto
[ [(Times) 200.0 0.0 true true 0 (Duration [sec])]
] -66.7 MCshow
grestore
LTb
LCb setrgbcolor
7499 2769 M
[ [(Times) 200.0 0.0 true true 0 (Time [sec])]
] -66.7 MCshow
LTb
7499 7349 M
[ [(Times) 200.0 0.0 true true 0 (src port 80, repeating connections sorted by start time)]
] -66.7 MCshow
1.000 UP
1.000 UL
LTb
LCb setrgbcolor
1.000 UL
LT8
LC8 setrgbcolor
7108 63 N
782 0 V
-782 0 V
Z stroke
% Begin plot #1
1.000 UP
1.000 UL
LT8
0.00 0.00 1.00 C 1200 4108 M
9 -385 V
0 1 V
4 -13 V
0 3 V
44 69 V
0 1 V
9 -76 V
47 -20 V
0 4 V
35 8 V
0 8 V
0 3 V
0 6 V
32 -55 V
188 57 V
0 19 V
0 1 V
0 -10 V
4 -25 V
6 -9 V
0 867 V
57 -779 V
41 17 V
3 626 V
9 -665 V
10 34 V
0 2 V
3 -35 V
0 17 V
0 23 V
0 5 V
6 -70 V
0 107 V
0 13 V
10 -94 V
6 -14 V
22 -12 V
3 -2 V
0 36 V
13 -1 V
53 510 V
16 -70 V
25 -448 V
0 5 V
0 63 V
13 3130 V
2076 3729 L
3 -1 V
15 -21 V
60 849 V
13 -903 V
0 6 V
0 3 V
72 816 V
35 -497 V
0 5 V
16 -189 V
9 208 V
3 -252 V
0 8 V
26 70 V
53 -46 V
6 348 V
0 147 V
4 -188 V
3 -338 V
6 20 V
9 -43 V
4 -3 V
34 -42 V
13 -23 V
9 106 V
3 -24 V
4 -21 V
3 -11 V
3 40 V
3 -15 V
0 -2 V
9 51 V
38 493 V
13 -555 V
0 2 V
31 907 V
32 -626 V
38 -276 V
22 1168 V
15 -1159 V
4 -56 V
0 14 V
12 0 V
0 1 V
0 4 V
3 -28 V
16 450 V
10 -417 V
0 5 V
6 -6 V
0 9 V
50 623 V
13 205 V
50 -810 V
3 25 V
7 -3 V
6 593 V
35 -597 V
18 562 V
4 -552 V
50 -79 V
22 23 V
0 15 V
0 13 V
3 -16 V
0 12 V
7 1 V
22 40 V
25 91 V
12 -159 V
0 -9 V
13 1068 V
35 -1169 V
6 11 V
0 -3 V
0 14 V
31 110 V
57 -16 V
0 13 V
0 1 V
0 1519 V
19 -1478 V
44 6 V
0 7 V
3 231 V
13 -258 V
0 2 V
0 2 V
0 -7 V
0 6 V
120 -23 V
0 68 V
72 -59 V
6 785 V
16 -437 V
13 -401 V
0 19 V
0 107 V
6 -120 V
12 656 V
10 -536 V
25 612 V
3 -693 V
10 42 V
stroke 3575 3774 M
0 8 V
0 11 V
6 -56 V
0 -33 V
3 -1 V
0 138 V
6 -147 V
89 157 V
15 139 V
4 -283 V
12 -10 V
19 -3 V
32 6 V
22 1 V
0 1 V
18 3 V
114 346 V
16 -299 V
0 10 V
0 -12 V
0 4 V
12 -69 V
13 719 V
3 -437 V
9 -261 V
0 6 V
70 9 V
53 15 V
0 16 V
0 46 V
10 -87 V
0 -23 V
0 14 V
0 -4 V
63 370 V
12 -355 V
19 -45 V
6 -10 V
0 -4 V
4 604 V
37 -300 V
16 -387 V
6 22 V
0 1 V
7 30 V
25 -16 V
9 -12 V
13 37 V
0 -29 V
32 115 V
3 -111 V
44 -57 V
60 442 V
3 -260 V
34 306 V
26 -318 V
0 -6 V
0 7 V
18 -19 V
54 650 V
110 -270 V
38 -488 V
3 -13 V
0 -10 V
10 208 V
53 218 V
13 -281 V
0 3 V
25 -8 V
0 107 V
9 -143 V
10 48 V
0 1 V
9 1764 V
10 -1766 V
6 -21 V
3 724 V
7 -726 V
6 45 V
0 5 V
6 -15 V
10 -58 V
0 2 V
0 91 V
9 -64 V
3 -22 V
10 8 V
0 5 V
6 12 V
22 5 V
9 45 V
19 221 V
0 64 V
10 -253 V
0 1 V
0 32 V
3 -51 V
12 340 V
23 -403 V
141 38 V
7 397 V
9 158 V
3 -505 V
3 173 V
stroke 5209 3971 M
13 -204 V
3 147 V
6 -161 V
0 3 V
44 247 V
13 -184 V
0 15 V
0 74 V
9 442 V
10 -260 V
9 -362 V
133 63 V
9 1279 V
3 -1286 V
0 1 V
0 110 V
19 -109 V
0 21 V
10 24 V
28 1043 V
0 -430 V
3 21 V
16 -775 V
16 42 V
9 -35 V
3 888 V
7 -886 V
9 410 V
13 -166 V
9 -197 V
13 248 V
18 -259 V
10 -14 V
13 948 V
3 -953 V
3 10 V
44 -34 V
3 616 V
0 -327 V
10 -257 V
0 3 V
0 32 V
50 -13 V
19 21 V
3 -1 V
0 2 V
0 17 V
126 1067 V
6 -545 V
38 1729 V
9 -819 V
23 -1542 V
85 115 V
9 -66 V
0 560 V
0 437 V
9 -951 V
0 17 V
4 147 V
0 2 V
3 -198 V
0 -26 V
9 -50 V
0 11 V
0 6 V
13 91 V
31 808 V
13 -705 V
25 419 V
6 -569 V
10 14 V
25 -9 V
25 222 V
0 385 V
10 -632 V
0 2 V
37 74 V
23 469 V
37 262 V
44 -765 V
0 19 V
0 3 V
0 -11 V
0 31 V
7 -62 V
22 277 V
9 301 V
16 330 V
19 -922 V
16 33 V
0 5 V
15 533 V
10 -543 V
3 988 V
6 -967 V
0 297 V
38 -350 V
0 180 V
28 -160 V
10 532 V
25 -583 V
22 323 V
13 -277 V
19 15 V
stroke 6690 3737 M
44 -17 V
3 6 V
0 204 V
3 194 V
3 -381 V
3 59 V
13 -75 V
6 -31 V
3 -10 V
3 2 V
16 602 V
79 -348 V
6 -156 V
3 98 V
7 -177 V
3 -4 V
6 -5 V
3 11 V
7 1111 V
6 -772 V
41 -28 V
6 -242 V
0 6 V
6 333 V
0 370 V
7 -728 V
47 -8 V
13 33 V
6 -13 V
9 -18 V
10 -28 V
0 48 V
12 91 V
44 -116 V
0 1 V
104 39 V
13 897 V
22 -964 V
0 34 V
35 967 V
22 -200 V
3 -825 V
0 10 V
6 909 V
3 -879 V
29 24 V
0 1 V
0 21 V
9 -68 V
0 2 V
6 11 V
0 -3 V
4 1585 V
81 -962 V
4 -524 V
41 658 V
12 -711 V
6 52 V
0 1 V
4 -97 V
0 2 V
9 -2 V
13 -15 V
0 1145 V
56 -1147 V
3 -9 V
7 38 V
3 -3 V
3 8 V
0 6 V
0 -13 V
3 10 V
7 -17 V
3 2 V
19 -28 V
0 -1 V
9 1335 V
57 -1154 V
9 236 V
6 -381 V
0 4 V
10 -68 V
0 767 V
47 -889 V
3 18 V
3 17 V
51 -53 V
0 1 V
0 -3 V
16 366 V
18 6 V
7 -288 V
3 16 V
0 5 V
0 5 V
66 370 V
3 -73 V
16 -174 V
3 -148 V
0 127 V
6 -178 V
7 -18 V
0 2 V
0 1 V
stroke 7978 3552 M
0 -12 V
3 23 V
72 209 V
10 -248 V
0 1 V
0 -1 V
0 1 V
47 -24 V
3 7 V
51 -7 V
0 8 V
40 300 V
19 -308 V
0 16 V
0 7 V
0 2 V
0 1 V
4 1 V
0 -2 V
0 5 V
0 1 V
6 102 V
6 -121 V
32 -13 V
9 -1 V
13 28 V
3 -2 V
3 -23 V
0 -4 V
0 2 V
25 9 V
0 10 V
3 -1 V
10 -10 V
6 -7 V
76 69 V
25 -58 V
22 120 V
0 18 V
19 2 V
9 -136 V
3 -6 V
7 -6 V
3 12 V
126 137 V
16 -151 V
12 53 V
13 -54 V
0 3 V
12 -4 V
0 6 V
29 -7 V
0 11 V
3 -3 V
28 -3 V
117 0 V
0 5 V
25 -1 V
3 161 V
6 -153 V
0 8 V
0 12 V
0 75 V
130 -92 V
0 1 V
0 1 V
3 46 V
19 -67 V
0 53 V
9 -52 V
0 1 V
0 1 V
76 184 V
9 -177 V
0 1 V
0 1 V
98 -10 V
0 3 V
25 -5 V
6 11 V
6 -9 V
0 2 V
51 196 V
3 -199 V
0 12 V
9 -11 V
4 31 V
25 -27 V
0 3 V
9 21 V
7 -29 V
0 5 V
0 1 V
9 15 V
31 -10 V
10 -11 V
0 3 V
0 -2 V
16 183 V
160 -107 V
10 -26 V
12 -40 V
0 4 V
0 7 V
stroke 9634 3523 M
19 199 V
51 118 V
28 -338 V
44 162 V
3 -151 V
3 1 V
0 1 V
0 5 V
4 3 V
154 56 V
3 20 V
3 -19 V
3 13 V
35 -60 V
0 7 V
9 -19 V
57 129 V
0 2 V
0 3 V
3 1 V
0 1 V
32 74 V
15 148 V
79 -262 V
0 3 V
66 -100 V
4 7 V
3 27 V
3 -45 V
0 1 V
0 -5 V
0 304 V
101 -165 V
0 10 V
53 1535 V
22 -784 V
13 -829 V
0 2 V
3 340 V
13 179 V
37 -548 V
0 5 V
3 6 V
0 -4 V
7 -5 V
0 -8 V
12 47 V
4 -7 V
0 3 V
15 4 V
7 -11 V
0 1 V
6 10 V
3 47 V
3 19 V
69 1 V
57 575 V
6 -671 V
7 -2 V
6 32 V
0 3 V
13 1092 V
44 -694 V
6 772 V
19 -1193 V
0 3 V
3 34 V
0 19 V
10 255 V
18 -184 V
0 4 V
57 -82 V
0 317 V
3 -261 V
0 17 V
3 34 V
4 -4 V
3 -31 V
0 3 V
9 90 V
0 21 V
16 -72 V
9 -33 V
0 4 V
0 79 V
16 -100 V
13 -18 V
0 3 V
0 1 V
94 -13 V
0 1 V
177 -155 V
22 -3 V
0 5 V
12 29 V
41 31 V
3 -14 V
13 -52 V
6 4 V
0 2 V
13 0 V
3 0 V
0 -3 V
0 65 V
stroke 11332 3567 M
3 -22 V
0 58 V
6 -98 V
0 -1 V
0 -2 V
0 1 V
4 32 V
12 -33 V
25 14 V
0 1 V
0 -2 V
0 7 V
13 163 V
3 -175 V
0 -8 V
0 8 V
16 13 V
3 -15 V
72 104 V
22 -3 V
10 -107 V
0 -2 V
0 3 V
0 2 V
6 26 V
10 -32 V
22 17 V
47 -18 V
25 1 V
28 172 V
7 -138 V
0 3 V
9 18 V
3 -10 V
16 23 V
6 -51 V
4 -11 V
0 4 V
3 13 V
0 2 V
0 11 V
19 41 V
12 -76 V
0 -1 V
13 -1 V
0 1 V
44 0 V
16 0 V
195 137 V
19 -118 V
3 14 V
6 -21 V
0 -8 V
16 10 V
6 17 V
3 10 V
0 8 V
23 28 V
72 -70 V
28 9 V
10 17 V
3 -34 V
0 1 V
0 4 V
0 -3 V
0 1 V
41 5 V
0 -4 V
6 3 V
0 -2 V
38 137 V
9 -132 V
0 4 V
41 168 V
7 -161 V
0 -1 V
15 -9 V
4 10 V
0 2 V
0 3 V
18 4 V
19 -14 V
7 -3 V
0 31 V
25 -25 V
3 322 V
35 145 V
25 -327 V
9 -113 V
0 9 V
0 1 V
0 6 V
13 -40 V
0 2 V
3 -9 V
0 5 V
0 1 V
60 53 V
9 -71 V
0 4 V
41 -4 V
13 1 V
0 1 V
0 8 V
stroke 12636 3511 M
0 79 V
9 -91 V
48 26 V
69 -19 V
3 -2 V
72 0 V
4 5 V
9 77 V
0 35 V
9 -118 V
0 -2 V
1200 4108 TriUF
1209 3723 TriUF
1209 3724 TriUF
1213 3711 TriUF
1213 3714 TriUF
1257 3783 TriUF
1257 3784 TriUF
1266 3708 TriUF
1313 3688 TriUF
1313 3692 TriUF
1348 3700 TriUF
1348 3708 TriUF
1348 3711 TriUF
1348 3717 TriUF
1380 3662 TriUF
1568 3719 TriUF
1568 3738 TriUF
1568 3739 TriUF
1568 3729 TriUF
1572 3704 TriUF
1578 3695 TriUF
1578 4562 TriUF
1635 3783 TriUF
1676 3800 TriUF
1679 4426 TriUF
1688 3761 TriUF
1698 3795 TriUF
1698 3797 TriUF
1701 3762 TriUF
1701 3779 TriUF
1701 3802 TriUF
1701 3807 TriUF
1707 3737 TriUF
1707 3844 TriUF
1707 3857 TriUF
1717 3763 TriUF
1723 3749 TriUF
1745 3737 TriUF
1748 3735 TriUF
1748 3771 TriUF
1761 3770 TriUF
1814 4280 TriUF
1830 4210 TriUF
1855 3762 TriUF
1855 3767 TriUF
1855 3830 TriUF
1868 6960 TriUF
2076 3729 TriUF
2079 3728 TriUF
2094 3707 TriUF
2154 4556 TriUF
2167 3653 TriUF
2167 3659 TriUF
2167 3662 TriUF
2239 4478 TriUF
2274 3981 TriUF
2274 3986 TriUF
2290 3797 TriUF
2299 4005 TriUF
2302 3753 TriUF
2302 3761 TriUF
2328 3831 TriUF
2381 3785 TriUF
2387 4133 TriUF
2387 4280 TriUF
2391 4092 TriUF
2394 3754 TriUF
2400 3774 TriUF
2409 3731 TriUF
2413 3728 TriUF
2447 3686 TriUF
2460 3663 TriUF
2469 3769 TriUF
2472 3745 TriUF
2476 3724 TriUF
2479 3713 TriUF
2482 3753 TriUF
2485 3738 TriUF
2485 3736 TriUF
2494 3787 TriUF
2532 4280 TriUF
2545 3725 TriUF
2545 3727 TriUF
2576 4634 TriUF
2608 4008 TriUF
2646 3732 TriUF
2646 3732 TriUF
2668 4900 TriUF
2683 3741 TriUF
2687 3685 TriUF
2687 3699 TriUF
2699 3699 TriUF
2699 3700 TriUF
2699 3704 TriUF
2702 3676 TriUF
2718 4126 TriUF
2728 3709 TriUF
2728 3709 TriUF
2728 3714 TriUF
2734 3708 TriUF
2734 3717 TriUF
2784 4340 TriUF
2797 4545 TriUF
2847 3735 TriUF
2850 3760 TriUF
2857 3757 TriUF
2863 4350 TriUF
2898 3753 TriUF
2916 4315 TriUF
2920 3763 TriUF
2970 3684 TriUF
2992 3707 TriUF
2992 3722 TriUF
2992 3735 TriUF
2995 3719 TriUF
2995 3731 TriUF
3002 3732 TriUF
3024 3772 TriUF
3049 3863 TriUF
3061 3704 TriUF
3061 3695 TriUF
3074 4763 TriUF
3109 3594 TriUF
3115 3605 TriUF
3115 3602 TriUF
3115 3616 TriUF
3146 3726 TriUF
3203 3710 TriUF
3203 3723 TriUF
3203 3724 TriUF
3203 5243 TriUF
3222 3765 TriUF
3266 3771 TriUF
3266 3778 TriUF
3269 4009 TriUF
3282 3751 TriUF
3282 3753 TriUF
3282 3755 TriUF
3282 3748 TriUF
3282 3754 TriUF
3402 3731 TriUF
3402 3799 TriUF
3474 3740 TriUF
3480 4525 TriUF
3496 4088 TriUF
3509 3687 TriUF
3509 3706 TriUF
3509 3813 TriUF
3515 3693 TriUF
3527 4349 TriUF
3537 3813 TriUF
3562 4425 TriUF
3565 3732 TriUF
3575 3774 TriUF
3575 3782 TriUF
3575 3793 TriUF
3581 3737 TriUF
3581 3704 TriUF
3584 3703 TriUF
3584 3841 TriUF
3590 3694 TriUF
3679 3851 TriUF
3694 3990 TriUF
3698 3707 TriUF
3710 3697 TriUF
3729 3694 TriUF
3761 3700 TriUF
3783 3701 TriUF
3783 3702 TriUF
3801 3705 TriUF
3915 4051 TriUF
3931 3752 TriUF
3931 3762 TriUF
3931 3750 TriUF
3931 3754 TriUF
3943 3685 TriUF
3956 4404 TriUF
3959 3967 TriUF
3968 3706 TriUF
3968 3712 TriUF
4038 3721 TriUF
4091 3736 TriUF
4091 3752 TriUF
4091 3798 TriUF
4101 3711 TriUF
4101 3688 TriUF
4101 3702 TriUF
4101 3698 TriUF
4164 4068 TriUF
4176 3713 TriUF
4195 3668 TriUF
4201 3658 TriUF
4201 3654 TriUF
4205 4258 TriUF
4242 3958 TriUF
4258 3571 TriUF
4264 3593 TriUF
4264 3594 TriUF
4271 3624 TriUF
4296 3608 TriUF
4305 3596 TriUF
4318 3633 TriUF
4318 3604 TriUF
4350 3719 TriUF
4353 3608 TriUF
4397 3551 TriUF
4457 3993 TriUF
4460 3733 TriUF
4494 4039 TriUF
4520 3721 TriUF
4520 3715 TriUF
4520 3722 TriUF
4538 3703 TriUF
4592 4353 TriUF
4702 4083 TriUF
4740 3595 TriUF
4743 3582 TriUF
4743 3572 TriUF
4753 3780 TriUF
4806 3998 TriUF
4819 3717 TriUF
4819 3720 TriUF
4844 3712 TriUF
4844 3819 TriUF
4844 3819 TriUF
4853 3676 TriUF
4863 3724 TriUF
4863 3725 TriUF
4872 5489 TriUF
4882 3723 TriUF
4888 3702 TriUF
4891 4426 TriUF
4898 3700 TriUF
4904 3745 TriUF
4904 3750 TriUF
4910 3735 TriUF
4920 3677 TriUF
4920 3679 TriUF
4920 3770 TriUF
4929 3706 TriUF
4932 3684 TriUF
4942 3692 TriUF
4942 3692 TriUF
4942 3697 TriUF
4948 3709 TriUF
4970 3714 TriUF
4979 3759 TriUF
4998 3980 TriUF
4998 4044 TriUF
5008 3791 TriUF
5008 3792 TriUF
5008 3824 TriUF
5011 3773 TriUF
5023 4113 TriUF
5046 3710 TriUF
5187 3748 TriUF
5194 4145 TriUF
5203 4303 TriUF
5206 3798 TriUF
5209 3971 TriUF
5222 3767 TriUF
5225 3914 TriUF
5231 3753 TriUF
5231 3756 TriUF
5275 4003 TriUF
5288 3819 TriUF
5288 3834 TriUF
5288 3908 TriUF
5297 4350 TriUF
5307 4090 TriUF
5316 3728 TriUF
5449 3791 TriUF
5458 5070 TriUF
5461 3784 TriUF
5461 3785 TriUF
5461 3895 TriUF
5480 3786 TriUF
5480 3807 TriUF
5490 3831 TriUF
5518 4874 TriUF
5518 4444 TriUF
5521 4465 TriUF
5537 3690 TriUF
5553 3732 TriUF
5562 3697 TriUF
5565 4585 TriUF
5572 3699 TriUF
5581 4109 TriUF
5594 3943 TriUF
5603 3746 TriUF
5616 3994 TriUF
5634 3735 TriUF
5644 3721 TriUF
5657 4669 TriUF
5660 3716 TriUF
5663 3726 TriUF
5707 3692 TriUF
5710 4308 TriUF
5710 3981 TriUF
5720 3724 TriUF
5720 3727 TriUF
5720 3759 TriUF
5770 3746 TriUF
5789 3767 TriUF
5792 3766 TriUF
5792 3768 TriUF
5792 3785 TriUF
5918 4852 TriUF
5924 4307 TriUF
5962 6036 TriUF
5971 5217 TriUF
5994 3675 TriUF
6079 3790 TriUF
6088 3724 TriUF
6088 4284 TriUF
6088 4721 TriUF
6097 3770 TriUF
6097 3787 TriUF
6101 3934 TriUF
6101 3936 TriUF
6104 3738 TriUF
6104 3712 TriUF
6113 3662 TriUF
6113 3673 TriUF
6113 3679 TriUF
6126 3770 TriUF
6157 4578 TriUF
6170 3873 TriUF
6195 4292 TriUF
6201 3723 TriUF
6211 3737 TriUF
6236 3728 TriUF
6261 3950 TriUF
6261 4335 TriUF
6271 3703 TriUF
6271 3705 TriUF
6308 3779 TriUF
6331 4248 TriUF
6368 4510 TriUF
6412 3745 TriUF
6412 3764 TriUF
6412 3767 TriUF
6412 3756 TriUF
6412 3787 TriUF
6419 3725 TriUF
6441 4002 TriUF
6450 4303 TriUF
6466 4633 TriUF
6485 3711 TriUF
6501 3744 TriUF
6501 3749 TriUF
6516 4282 TriUF
6526 3739 TriUF
6529 4727 TriUF
6535 3760 TriUF
6535 4057 TriUF
6573 3707 TriUF
6573 3887 TriUF
6601 3727 TriUF
6611 4259 TriUF
6636 3676 TriUF
6658 3999 TriUF
6671 3722 TriUF
6690 3737 TriUF
6734 3720 TriUF
6737 3726 TriUF
6737 3930 TriUF
6740 4124 TriUF
6743 3743 TriUF
6746 3802 TriUF
6759 3727 TriUF
6765 3696 TriUF
6768 3686 TriUF
6771 3688 TriUF
6787 4290 TriUF
6866 3942 TriUF
6872 3786 TriUF
6875 3884 TriUF
6882 3707 TriUF
6885 3703 TriUF
6891 3698 TriUF
6894 3709 TriUF
6901 4820 TriUF
6907 4048 TriUF
6948 4020 TriUF
6954 3778 TriUF
6954 3784 TriUF
6960 4117 TriUF
6960 4487 TriUF
6967 3759 TriUF
7014 3751 TriUF
7027 3784 TriUF
7033 3771 TriUF
7042 3753 TriUF
7052 3725 TriUF
7052 3773 TriUF
7064 3864 TriUF
7108 3748 TriUF
7108 3749 TriUF
7212 3788 TriUF
7225 4685 TriUF
7247 3721 TriUF
7247 3755 TriUF
7282 4722 TriUF
7304 4522 TriUF
7307 3697 TriUF
7307 3707 TriUF
7313 4616 TriUF
7316 3737 TriUF
7345 3761 TriUF
7345 3762 TriUF
7345 3783 TriUF
7354 3715 TriUF
7354 3717 TriUF
7360 3728 TriUF
7360 3725 TriUF
7364 5310 TriUF
7445 4348 TriUF
7449 3824 TriUF
7490 4482 TriUF
7502 3771 TriUF
7508 3823 TriUF
7508 3824 TriUF
7512 3727 TriUF
7512 3729 TriUF
7521 3727 TriUF
7534 3712 TriUF
7534 4857 TriUF
7590 3710 TriUF
7593 3701 TriUF
7600 3739 TriUF
7603 3736 TriUF
7606 3744 TriUF
7606 3750 TriUF
7606 3737 TriUF
7609 3747 TriUF
7616 3730 TriUF
7619 3732 TriUF
7638 3704 TriUF
7638 3703 TriUF
7647 5038 TriUF
7704 3884 TriUF
7713 4120 TriUF
7719 3739 TriUF
7719 3743 TriUF
7729 3675 TriUF
7729 4442 TriUF
7776 3553 TriUF
7779 3571 TriUF
7782 3588 TriUF
7833 3535 TriUF
7833 3536 TriUF
7833 3533 TriUF
7849 3899 TriUF
7867 3905 TriUF
7874 3617 TriUF
7877 3633 TriUF
7877 3638 TriUF
7877 3643 TriUF
7943 4013 TriUF
7946 3940 TriUF
7962 3766 TriUF
7965 3618 TriUF
7965 3745 TriUF
7971 3567 TriUF
7978 3549 TriUF
7978 3551 TriUF
7978 3552 TriUF
7978 3540 TriUF
7981 3563 TriUF
8053 3772 TriUF
8063 3524 TriUF
8063 3525 TriUF
8063 3524 TriUF
8063 3525 TriUF
8110 3501 TriUF
8113 3508 TriUF
8164 3501 TriUF
8164 3509 TriUF
8204 3809 TriUF
8223 3501 TriUF
8223 3517 TriUF
8223 3524 TriUF
8223 3526 TriUF
8223 3527 TriUF
8227 3528 TriUF
8227 3526 TriUF
8227 3531 TriUF
8227 3532 TriUF
8233 3634 TriUF
8239 3513 TriUF
8271 3500 TriUF
8280 3499 TriUF
8293 3527 TriUF
8296 3525 TriUF
8299 3502 TriUF
8299 3498 TriUF
8299 3500 TriUF
8324 3509 TriUF
8324 3519 TriUF
8327 3518 TriUF
8337 3508 TriUF
8343 3501 TriUF
8343 3501 TriUF
8419 3570 TriUF
8444 3512 TriUF
8466 3632 TriUF
8466 3650 TriUF
8485 3652 TriUF
8494 3516 TriUF
8497 3510 TriUF
8504 3504 TriUF
8507 3516 TriUF
8633 3653 TriUF
8649 3502 TriUF
8661 3555 TriUF
8674 3501 TriUF
8674 3504 TriUF
8686 3500 TriUF
8686 3506 TriUF
8715 3499 TriUF
8715 3510 TriUF
8718 3507 TriUF
8718 3507 TriUF
8746 3504 TriUF
8863 3504 TriUF
8863 3509 TriUF
8888 3508 TriUF
8891 3669 TriUF
8897 3516 TriUF
8897 3524 TriUF
8897 3536 TriUF
8897 3611 TriUF
9027 3519 TriUF
9027 3520 TriUF
9027 3521 TriUF
9030 3567 TriUF
9049 3500 TriUF
9049 3553 TriUF
9058 3501 TriUF
9058 3502 TriUF
9058 3503 TriUF
9134 3687 TriUF
9143 3510 TriUF
9143 3511 TriUF
9143 3512 TriUF
9241 3502 TriUF
9241 3505 TriUF
9266 3500 TriUF
9272 3511 TriUF
9278 3502 TriUF
9278 3504 TriUF
9329 3700 TriUF
9332 3501 TriUF
9332 3513 TriUF
9341 3502 TriUF
9345 3533 TriUF
9370 3506 TriUF
9370 3509 TriUF
9379 3530 TriUF
9386 3501 TriUF
9386 3506 TriUF
9386 3506 TriUF
9386 3507 TriUF
9395 3522 TriUF
9426 3512 TriUF
9436 3501 TriUF
9436 3504 TriUF
9436 3502 TriUF
9452 3685 TriUF
9612 3578 TriUF
9622 3552 TriUF
9634 3512 TriUF
9634 3516 TriUF
9634 3523 TriUF
9653 3722 TriUF
9704 3840 TriUF
9732 3502 TriUF
9776 3664 TriUF
9779 3513 TriUF
9782 3514 TriUF
9782 3515 TriUF
9782 3520 TriUF
9782 3520 TriUF
9786 3523 TriUF
9940 3579 TriUF
9943 3599 TriUF
9946 3580 TriUF
9949 3593 TriUF
9984 3533 TriUF
9984 3540 TriUF
9993 3521 TriUF
10050 3650 TriUF
10050 3652 TriUF
10050 3655 TriUF
10053 3656 TriUF
10053 3657 TriUF
10085 3731 TriUF
10100 3879 TriUF
10179 3617 TriUF
10179 3620 TriUF
10245 3520 TriUF
10249 3527 TriUF
10252 3554 TriUF
10255 3509 TriUF
10255 3510 TriUF
10255 3505 TriUF
10255 3809 TriUF
10356 3644 TriUF
10356 3654 TriUF
10409 5189 TriUF
10431 4405 TriUF
10444 3576 TriUF
10444 3578 TriUF
10447 3918 TriUF
10460 4097 TriUF
10497 3549 TriUF
10497 3554 TriUF
10500 3560 TriUF
10500 3556 TriUF
10507 3551 TriUF
10507 3543 TriUF
10519 3590 TriUF
10523 3583 TriUF
10523 3586 TriUF
10538 3590 TriUF
10545 3579 TriUF
10545 3580 TriUF
10551 3590 TriUF
10554 3637 TriUF
10557 3656 TriUF
10626 3657 TriUF
10683 4232 TriUF
10689 3561 TriUF
10696 3559 TriUF
10696 3559 TriUF
10702 3591 TriUF
10702 3594 TriUF
10715 4686 TriUF
10759 3992 TriUF
10765 4764 TriUF
10784 3571 TriUF
10784 3574 TriUF
10784 3574 TriUF
10787 3608 TriUF
10787 3627 TriUF
10797 3882 TriUF
10815 3698 TriUF
10815 3702 TriUF
10872 3620 TriUF
10872 3937 TriUF
10875 3676 TriUF
10875 3693 TriUF
10878 3727 TriUF
10882 3723 TriUF
10885 3692 TriUF
10885 3695 TriUF
10894 3785 TriUF
10894 3806 TriUF
10910 3734 TriUF
10919 3701 TriUF
10919 3705 TriUF
10919 3784 TriUF
10935 3684 TriUF
10948 3666 TriUF
10948 3669 TriUF
10948 3670 TriUF
11042 3657 TriUF
11042 3658 TriUF
11219 3503 TriUF
11241 3500 TriUF
11241 3505 TriUF
11253 3534 TriUF
11294 3565 TriUF
11297 3551 TriUF
11310 3499 TriUF
11316 3503 TriUF
11316 3505 TriUF
11329 3505 TriUF
11332 3505 TriUF
11332 3502 TriUF
11332 3567 TriUF
11335 3545 TriUF
11335 3603 TriUF
11341 3505 TriUF
11341 3504 TriUF
11341 3502 TriUF
11341 3503 TriUF
11345 3535 TriUF
11357 3502 TriUF
11382 3516 TriUF
11382 3517 TriUF
11382 3515 TriUF
11382 3522 TriUF
11395 3685 TriUF
11398 3510 TriUF
11398 3502 TriUF
11398 3510 TriUF
11414 3523 TriUF
11417 3508 TriUF
11489 3612 TriUF
11511 3609 TriUF
11521 3502 TriUF
11521 3500 TriUF
11521 3503 TriUF
11521 3505 TriUF
11527 3531 TriUF
11537 3499 TriUF
11559 3516 TriUF
11606 3498 TriUF
11631 3499 TriUF
11659 3671 TriUF
11666 3533 TriUF
11666 3536 TriUF
11675 3554 TriUF
11678 3544 TriUF
11694 3567 TriUF
11700 3516 TriUF
11704 3505 TriUF
11704 3509 TriUF
11707 3522 TriUF
11707 3524 TriUF
11707 3535 TriUF
11726 3576 TriUF
11738 3500 TriUF
11738 3499 TriUF
11751 3498 TriUF
11751 3499 TriUF
11751 3499 TriUF
11795 3499 TriUF
11811 3499 TriUF
12006 3636 TriUF
12025 3518 TriUF
12028 3532 TriUF
12034 3511 TriUF
12034 3503 TriUF
12050 3513 TriUF
12056 3530 TriUF
12059 3540 TriUF
12059 3548 TriUF
12082 3576 TriUF
12154 3506 TriUF
12182 3515 TriUF
12192 3532 TriUF
12195 3498 TriUF
12195 3499 TriUF
12195 3503 TriUF
12195 3500 TriUF
12195 3501 TriUF
12236 3506 TriUF
12236 3502 TriUF
12242 3505 TriUF
12242 3503 TriUF
12280 3640 TriUF
12289 3508 TriUF
12289 3512 TriUF
12330 3680 TriUF
12337 3519 TriUF
12337 3518 TriUF
12352 3509 TriUF
12356 3519 TriUF
12356 3521 TriUF
12356 3524 TriUF
12374 3528 TriUF
12393 3514 TriUF
12400 3511 TriUF
12400 3542 TriUF
12425 3517 TriUF
12428 3839 TriUF
12463 3984 TriUF
12488 3657 TriUF
12497 3544 TriUF
12497 3553 TriUF
12497 3553 TriUF
12497 3554 TriUF
12497 3560 TriUF
12510 3520 TriUF
12510 3522 TriUF
12513 3513 TriUF
12513 3518 TriUF
12513 3519 TriUF
12573 3572 TriUF
12582 3501 TriUF
12582 3505 TriUF
12582 3505 TriUF
12623 3501 TriUF
12636 3502 TriUF
12636 3503 TriUF
12636 3511 TriUF
12636 3590 TriUF
12645 3499 TriUF
12693 3525 TriUF
12762 3506 TriUF
12765 3504 TriUF
12837 3504 TriUF
12841 3509 TriUF
12841 3509 TriUF
12850 3586 TriUF
12850 3621 TriUF
12859 3503 TriUF
12859 3501 TriUF
% End plot #1
1.000 UL
LTb
LCb setrgbcolor
1200 7049 N
0 -3556 V
12598 0 V
0 3556 V
-12598 0 V
Z stroke
1.000 UP
1.000 UL
LTb
LCb setrgbcolor
stroke
grestore
end
showpage
%%Page: 2 2
gnudict begin
gsave
doclip
50 50 translate
0.050 0.050 scale
0 setgray
newpath
(Times) findfont 200 scalefont setfont
BackgroundColor 0 lt 3 1 roll 0 lt exch 0 lt or or not {BackgroundColor C 1.000 0 0 14400.00 10080.00 BoxColFill} if
1.000 UL
LTb
LCb setrgbcolor
1.000 UL
LTa
LCa setrgbcolor
600 3323 M
12598 0 V
stroke
LTb
LCb setrgbcolor
600 3323 M
63 0 V
12535 0 R
-63 0 V
stroke
480 3323 M
[ [(Times) 200.0 0.0 true true 0 ( 0)]
] -66.7 MRshow
1.000 UL
LTb
LCb setrgbcolor
1.000 UL
LTa
LCa setrgbcolor
600 3944 M
12598 0 V
stroke
LTb
LCb setrgbcolor
600 3944 M
63 0 V
12535 0 R
-63 0 V
stroke
480 3944 M
[ [(Times) 200.0 0.0 true true 0 ( 50000)]
] -66.7 MRshow
1.000 UL
LTb
LCb setrgbcolor
1.000 UL
LTa
LCa setrgbcolor
600 4565 M
12598 0 V
stroke
LTb
LCb setrgbcolor
600 4565 M
63 0 V
12535 0 R
-63 0 V
stroke
480 4565 M
[ [(Times) 200.0 0.0 true true 0 ( 100000)]
] -66.7 MRshow
1.000 UL
LTb
LCb setrgbcolor
1.000 UL
LTa
LCa setrgbcolor
600 5186 M
12598 0 V
stroke
LTb
LCb setrgbcolor
600 5186 M
63 0 V
12535 0 R
-63 0 V
stroke
480 5186 M
[ [(Times) 200.0 0.0 true true 0 ( 150000)]
] -66.7 MRshow
1.000 UL
LTb
LCb setrgbcolor
1.000 UL
LTa
LCa setrgbcolor
600 5807 M
12598 0 V
stroke
LTb
LCb setrgbcolor
600 5807 M
63 0 V
12535 0 R
-63 0 V
stroke
480 5807 M
[ [(Times) 200.0 0.0 true true 0 ( 200000)]
] -66.7 MRshow
1.000 UL
LTb
LCb setrgbcolor
1.000 UL
LTa
LCa setrgbcolor
600 6428 M
12598 0 V
stroke
LTb
LCb setrgbcolor
600 6428 M
63 0 V
12535 0 R
-63 0 V
stroke
480 6428 M
[ [(Times) 200.0 0.0 true true 0 ( 250000)]
] -66.7 MRshow
1.000 UL
LTb
LCb setrgbcolor
1.000 UL
LTa
LCa setrgbcolor
600 7049 M
12598 0 V
stroke
LTb
LCb setrgbcolor
600 7049 M
63 0 V
12535 0 R
-63 0 V
stroke
480 7049 M
[ [(Times) 200.0 0.0 true true 0 ( 300000)]
] -66.7 MRshow
1.000 UL
LTb
LCb setrgbcolor
1.000 UL
LTa
LCa setrgbcolor
600 3323 M
0 3726 V
stroke
LTb
LCb setrgbcolor
600 3323 M
0 63 V
0 3663 R
0 -63 V
stroke
600 3203 M
currentpoint gsave translate -45 rotate 0 0 moveto
[ [(Times) 200.0 0.0 true true 0 ( 0)]
] -66.7 MLshow
grestore
1.000 UL
LTb
LCb setrgbcolor
1.000 UL
LTa
LCa setrgbcolor
1860 3323 M
0 3726 V
stroke
LTb
LCb setrgbcolor
1860 3323 M
0 63 V
0 3663 R
0 -63 V
stroke
1860 3203 M
currentpoint gsave translate -45 rotate 0 0 moveto
[ [(Times) 200.0 0.0 true true 0 ( 5)]
] -66.7 MLshow
grestore
1.000 UL
LTb
LCb setrgbcolor
1.000 UL
LTa
LCa setrgbcolor
3120 3323 M
0 3726 V
stroke
LTb
LCb setrgbcolor
3120 3323 M
0 63 V
0 3663 R
0 -63 V
stroke
3120 3203 M
currentpoint gsave translate -45 rotate 0 0 moveto
[ [(Times) 200.0 0.0 true true 0 ( 10)]
] -66.7 MLshow
grestore
1.000 UL
LTb
LCb setrgbcolor
1.000 UL
LTa
LCa setrgbcolor
4379 3323 M
0 3726 V
stroke
LTb
LCb setrgbcolor
4379 3323 M
0 63 V
0 3663 R
0 -63 V
stroke
4379 3203 M
currentpoint gsave translate -45 rotate 0 0 moveto
[ [(Times) 200.0 0.0 true true 0 ( 15)]
] -66.7 MLshow
grestore
1.000 UL
LTb
LCb setrgbcolor
1.000 UL
LTa
LCa setrgbcolor
5639 3323 M
0 3726 V
stroke
LTb
LCb setrgbcolor
5639 3323 M
0 63 V
0 3663 R
0 -63 V
stroke
5639 3203 M
currentpoint gsave translate -45 rotate 0 0 moveto
[ [(Times) 200.0 0.0 true true 0 ( 20)]
] -66.7 MLshow
grestore
1.000 UL
LTb
LCb setrgbcolor
1.000 UL
LTa
LCa setrgbcolor
6899 3323 M
0 3726 V
stroke
LTb
LCb setrgbcolor
6899 3323 M
0 63 V
0 3663 R
0 -63 V
stroke
6899 3203 M
currentpoint gsave translate -45 rotate 0 0 moveto
[ [(Times) 200.0 0.0 true true 0 ( 25)]
] -66.7 MLshow
grestore
1.000 UL
LTb
LCb setrgbcolor
1.000 UL
LTa
LCa setrgbcolor
8159 3323 M
0 3726 V
stroke
LTb
LCb setrgbcolor
8159 3323 M
0 63 V
0 3663 R
0 -63 V
stroke
8159 3203 M
currentpoint gsave translate -45 rotate 0 0 moveto
[ [(Times) 200.0 0.0 true true 0 ( 30)]
] -66.7 MLshow
grestore
1.000 UL
LTb
LCb setrgbcolor
1.000 UL
LTa
LCa setrgbcolor
9419 3323 M
0 3726 V
stroke
LTb
LCb setrgbcolor
9419 3323 M
0 63 V
0 3663 R
0 -63 V
stroke
9419 3203 M
currentpoint gsave translate -45 rotate 0 0 moveto
[ [(Times) 200.0 0.0 true true 0 ( 35)]
] -66.7 MLshow
grestore
1.000 UL
LTb
LCb setrgbcolor
1.000 UL
LTa
LCa setrgbcolor
10678 3323 M
0 3726 V
stroke
LTb
LCb setrgbcolor
10678 3323 M
0 63 V
0 3663 R
0 -63 V
stroke
10678 3203 M
currentpoint gsave translate -45 rotate 0 0 moveto
[ [(Times) 200.0 0.0 true true 0 ( 40)]
] -66.7 MLshow
grestore
1.000 UL
LTb
LCb setrgbcolor
1.000 UL
LTa
LCa setrgbcolor
11938 3323 M
0 3726 V
stroke
LTb
LCb setrgbcolor
11938 3323 M
0 63 V
0 3663 R
0 -63 V
stroke
11938 3203 M
currentpoint gsave translate -45 rotate 0 0 moveto
[ [(Times) 200.0 0.0 true true 0 ( 45)]
] -66.7 MLshow
grestore
1.000 UL
LTb
LCb setrgbcolor
1.000 UL
LTa
LCa setrgbcolor
13198 3323 M
0 3726 V
stroke
LTb
LCb setrgbcolor
13198 3323 M
0 63 V
0 3663 R
0 -63 V
stroke
13198 3203 M
currentpoint gsave translate -45 rotate 0 0 moveto
[ [(Times) 200.0 0.0 true true 0 ( 50)]
] -66.7 MLshow
grestore
1.000 UL
LTb
LCb setrgbcolor
1.000 UL
LTb
LCb setrgbcolor
600 7049 N
0 -3726 V
12598 0 V
0 3726 V
600 7049 L
Z stroke
LCb setrgbcolor
-580 5186 M
currentpoint gsave translate -270 rotate 0 0 moveto
[ [(Times) 200.0 0.0 true true 0 (Flow size [bytes])]
] -66.7 MCshow
grestore
LTb
LCb setrgbcolor
6899 2769 M
[ [(Times) 200.0 0.0 true true 0 (Duration [sec])]
] -66.7 MCshow
LTb
6899 7349 M
[ [(Times) 200.0 0.0 true true 0 (src port 80, repeating connections sorted by duration)]
] -66.7 MCshow
1.000 UP
1.000 UL
LTb
LCb setrgbcolor
1.000 UL
LT8
LC8 setrgbcolor
6508 63 N
782 0 V
-782 0 V
Z stroke
% Begin plot #1
1.000 UP
1.000 UL
LT8
1.00 0.00 0.00 C 617 3328 TriUF
619 3360 TriUF
619 3351 TriUF
619 3370 TriUF
620 3367 TriUF
620 3349 TriUF
620 3369 TriUF
620 3367 TriUF
620 3367 TriUF
621 3357 TriUF
621 3326 TriUF
621 3371 TriUF
622 3357 TriUF
622 3356 TriUF
623 3371 TriUF
623 3357 TriUF
623 3357 TriUF
624 3351 TriUF
624 3356 TriUF
624 3326 TriUF
625 3326 TriUF
625 3351 TriUF
625 3357 TriUF
625 3349 TriUF
626 3349 TriUF
627 3360 TriUF
627 3354 TriUF
627 3357 TriUF
628 3360 TriUF
628 3357 TriUF
628 3326 TriUF
629 3357 TriUF
629 3370 TriUF
629 3370 TriUF
629 3370 TriUF
629 3326 TriUF
630 3385 TriUF
630 3352 TriUF
630 3326 TriUF
631 3365 TriUF
631 3356 TriUF
631 3371 TriUF
631 3420 TriUF
632 3370 TriUF
632 3370 TriUF
632 3351 TriUF
632 3356 TriUF
633 3357 TriUF
633 3357 TriUF
633 3351 TriUF
633 3365 TriUF
633 3357 TriUF
633 3352 TriUF
633 3413 TriUF
634 3370 TriUF
634 3369 TriUF
634 3356 TriUF
634 3356 TriUF
635 3357 TriUF
635 3351 TriUF
636 3360 TriUF
636 3360 TriUF
637 3357 TriUF
637 3420 TriUF
638 3326 TriUF
638 3351 TriUF
639 3351 TriUF
639 3367 TriUF
640 3354 TriUF
640 3420 TriUF
640 3360 TriUF
640 3367 TriUF
641 3326 TriUF
641 3357 TriUF
641 3357 TriUF
641 3357 TriUF
641 3357 TriUF
641 3370 TriUF
641 3365 TriUF
642 3357 TriUF
642 3420 TriUF
643 3413 TriUF
643 3371 TriUF
643 3490 TriUF
644 3349 TriUF
644 3326 TriUF
644 3420 TriUF
645 3394 TriUF
645 3365 TriUF
646 3357 TriUF
647 3326 TriUF
647 3367 TriUF
648 3349 TriUF
650 3357 TriUF
651 3360 TriUF
652 3738 TriUF
652 3356 TriUF
653 3354 TriUF
655 3365 TriUF
655 3360 TriUF
655 3420 TriUF
655 3481 TriUF
655 3326 TriUF
656 3326 TriUF
657 3371 TriUF
657 3420 TriUF
657 3351 TriUF
658 3365 TriUF
658 3357 TriUF
659 3349 TriUF
660 3326 TriUF
661 3369 TriUF
662 3351 TriUF
662 3356 TriUF
662 3360 TriUF
662 3349 TriUF
663 3569 TriUF
664 3392 TriUF
664 3357 TriUF
664 3369 TriUF
666 3351 TriUF
668 3356 TriUF
668 3369 TriUF
669 3365 TriUF
669 3349 TriUF
669 3351 TriUF
670 3774 TriUF
670 3486 TriUF
671 3806 TriUF
672 3356 TriUF
674 3420 TriUF
674 3710 TriUF
677 3357 TriUF
677 3356 TriUF
678 3708 TriUF
680 3326 TriUF
680 3365 TriUF
680 3863 TriUF
681 3349 TriUF
682 3863 TriUF
682 3371 TriUF
682 3431 TriUF
684 3418 TriUF
685 3393 TriUF
686 3360 TriUF
687 3357 TriUF
688 3329 TriUF
688 3356 TriUF
690 3357 TriUF
692 3351 TriUF
692 3351 TriUF
693 3360 TriUF
693 3370 TriUF
693 3357 TriUF
694 3365 TriUF
694 3357 TriUF
695 3357 TriUF
696 3431 TriUF
696 3487 TriUF
700 3371 TriUF
701 3355 TriUF
701 3351 TriUF
701 3357 TriUF
702 3370 TriUF
703 3508 TriUF
703 3357 TriUF
705 3360 TriUF
706 3349 TriUF
708 3435 TriUF
709 3396 TriUF
710 3326 TriUF
710 3357 TriUF
710 3420 TriUF
710 3369 TriUF
711 3367 TriUF
714 3349 TriUF
714 3857 TriUF
715 3357 TriUF
715 6558 TriUF
716 3393 TriUF
717 3375 TriUF
721 3710 TriUF
721 5739 TriUF
722 3406 TriUF
723 3396 TriUF
725 3351 TriUF
730 3551 TriUF
733 3770 TriUF
734 3330 TriUF
735 3390 TriUF
736 3352 TriUF
737 3399 TriUF
739 3327 TriUF
742 3481 TriUF
742 3349 TriUF
742 3369 TriUF
742 3369 TriUF
745 3327 TriUF
748 3399 TriUF
748 3327 TriUF
749 3356 TriUF
751 3326 TriUF
751 3479 TriUF
753 3379 TriUF
765 3369 TriUF
766 3357 TriUF
767 3370 TriUF
772 3357 TriUF
776 3410 TriUF
779 3424 TriUF
782 3349 TriUF
783 3327 TriUF
793 3420 TriUF
799 3367 TriUF
800 3375 TriUF
804 3407 TriUF
804 3370 TriUF
805 3369 TriUF
806 3329 TriUF
810 3357 TriUF
810 3354 TriUF
813 3356 TriUF
814 3357 TriUF
814 3328 TriUF
814 3739 TriUF
814 3371 TriUF
815 3360 TriUF
815 3401 TriUF
818 3349 TriUF
820 3478 TriUF
824 3397 TriUF
834 3356 TriUF
835 3352 TriUF
836 3416 TriUF
837 3365 TriUF
839 3351 TriUF
848 3360 TriUF
854 3329 TriUF
862 3738 TriUF
862 3327 TriUF
862 3329 TriUF
862 3329 TriUF
875 3331 TriUF
876 3487 TriUF
877 3403 TriUF
877 3326 TriUF
878 3352 TriUF
880 3396 TriUF
888 3420 TriUF
888 3394 TriUF
892 3328 TriUF
893 3351 TriUF
896 3395 TriUF
900 3355 TriUF
900 3360 TriUF
904 3355 TriUF
906 3349 TriUF
907 3352 TriUF
909 3357 TriUF
917 3341 TriUF
918 3357 TriUF
929 3328 TriUF
931 3365 TriUF
937 3357 TriUF
942 3569 TriUF
942 3367 TriUF
943 3826 TriUF
945 3329 TriUF
947 3435 TriUF
955 3354 TriUF
955 3351 TriUF
957 3365 TriUF
958 3394 TriUF
959 3357 TriUF
961 3354 TriUF
965 3371 TriUF
976 3354 TriUF
988 3326 TriUF
989 3396 TriUF
994 3356 TriUF
995 3326 TriUF
1007 3863 TriUF
1007 3738 TriUF
1009 3349 TriUF
1010 3396 TriUF
1018 3327 TriUF
1020 3394 TriUF
1036 3326 TriUF
1038 3863 TriUF
1038 3352 TriUF
1042 3329 TriUF
1049 3352 TriUF
1051 3357 TriUF
1055 3396 TriUF
1065 3326 TriUF
1074 3352 TriUF
1091 3329 TriUF
1094 3371 TriUF
1095 3351 TriUF
1101 3329 TriUF
1108 3439 TriUF
1111 3371 TriUF
1113 3356 TriUF
1119 3328 TriUF
1130 3351 TriUF
1133 3370 TriUF
1154 3369 TriUF
1158 3329 TriUF
1163 3396 TriUF
1164 3367 TriUF
1168 3478 TriUF
1168 3370 TriUF
1171 3357 TriUF
1171 3349 TriUF
1175 3420 TriUF
1176 3357 TriUF
1177 3349 TriUF
1181 3328 TriUF
1181 3369 TriUF
1182 3357 TriUF
1183 3360 TriUF
1184 3420 TriUF
1185 3351 TriUF
1190 3367 TriUF
1198 3371 TriUF
1199 3357 TriUF
1199 3356 TriUF
1204 3371 TriUF
1207 3396 TriUF
1212 3403 TriUF
1222 5739 TriUF
1222 3398 TriUF
1222 3394 TriUF
1226 3399 TriUF
1230 3396 TriUF
1238 3360 TriUF
1244 3360 TriUF
1245 3583 TriUF
1248 3503 TriUF
1249 3387 TriUF
1250 3326 TriUF
1250 3352 TriUF
1251 3486 TriUF
1258 3354 TriUF
1259 3354 TriUF
1263 3396 TriUF
1275 3355 TriUF
1278 3371 TriUF
1278 3367 TriUF
1279 3360 TriUF
1279 3371 TriUF
1280 3460 TriUF
1282 3404 TriUF
1285 3356 TriUF
1285 5065 TriUF
1286 3396 TriUF
1286 3360 TriUF
1290 3356 TriUF
1290 3326 TriUF
1292 3326 TriUF
1298 3420 TriUF
1304 3351 TriUF
1305 3349 TriUF
1305 3369 TriUF
1305 3326 TriUF
1306 3367 TriUF
1307 3360 TriUF
1309 3360 TriUF
1310 3357 TriUF
1314 3382 TriUF
1314 3365 TriUF
1315 3425 TriUF
1316 3360 TriUF
1319 3826 TriUF
1322 3369 TriUF
1323 3365 TriUF
1323 3420 TriUF
1324 3487 TriUF
1326 3326 TriUF
1326 3351 TriUF
1327 3356 TriUF
1329 3420 TriUF
1330 3397 TriUF
1331 3481 TriUF
1333 3357 TriUF
1333 3369 TriUF
1334 3593 TriUF
1334 3397 TriUF
1335 3478 TriUF
1335 3356 TriUF
1336 3403 TriUF
1337 3367 TriUF
1339 3357 TriUF
1339 3326 TriUF
1342 3326 TriUF
1342 3508 TriUF
1343 3357 TriUF
1344 3351 TriUF
1345 3351 TriUF
1345 3351 TriUF
1346 3371 TriUF
1346 3421 TriUF
1347 3349 TriUF
1347 3377 TriUF
1348 3355 TriUF
1349 3329 TriUF
1350 3370 TriUF
1351 3354 TriUF
1351 3390 TriUF
1353 3367 TriUF
1354 3371 TriUF
1355 3356 TriUF
1357 3420 TriUF
1357 3420 TriUF
1359 3371 TriUF
1359 3354 TriUF
1359 3370 TriUF
1360 3388 TriUF
1360 3431 TriUF
1362 3349 TriUF
1362 3357 TriUF
1364 3370 TriUF
1366 3371 TriUF
1366 3371 TriUF
1367 3357 TriUF
1368 3422 TriUF
1370 3356 TriUF
1370 3367 TriUF
1371 3863 TriUF
1372 3485 TriUF
1373 3351 TriUF
1374 3349 TriUF
1375 3369 TriUF
1376 3593 TriUF
1376 3357 TriUF
1377 3349 TriUF
1379 3357 TriUF
1380 3330 TriUF
1382 3356 TriUF
1384 3357 TriUF
1384 3420 TriUF
1385 3371 TriUF
1386 3349 TriUF
1389 3349 TriUF
1392 3357 TriUF
1393 3365 TriUF
1394 3367 TriUF
1395 3357 TriUF
1399 3479 TriUF
1400 3351 TriUF
1402 3330 TriUF
1404 3365 TriUF
1404 3356 TriUF
1407 3370 TriUF
1408 3365 TriUF
1409 3357 TriUF
1409 3369 TriUF
1410 3419 TriUF
1410 3357 TriUF
1410 3356 TriUF
1412 3410 TriUF
1413 3370 TriUF
1414 3351 TriUF
1414 3371 TriUF
1415 3351 TriUF
1416 3357 TriUF
1418 3349 TriUF
1418 3356 TriUF
1419 3369 TriUF
1419 3356 TriUF
1419 3486 TriUF
1419 3349 TriUF
1420 3351 TriUF
1421 3329 TriUF
1421 3504 TriUF
1422 3369 TriUF
1422 3371 TriUF
1426 3357 TriUF
1426 3360 TriUF
1426 3367 TriUF
1427 3356 TriUF
1428 3360 TriUF
1428 3738 TriUF
1428 3356 TriUF
1429 3357 TriUF
1429 3367 TriUF
1430 3357 TriUF
1431 3352 TriUF
1432 3349 TriUF
1432 3356 TriUF
1432 3423 TriUF
1434 3433 TriUF
1435 3357 TriUF
1435 3400 TriUF
1436 3420 TriUF
1441 3569 TriUF
1443 3420 TriUF
1443 3357 TriUF
1443 3331 TriUF
1443 3351 TriUF
1446 3349 TriUF
1446 3369 TriUF
1447 3845 TriUF
1448 3523 TriUF
1448 3371 TriUF
1448 3360 TriUF
1449 3357 TriUF
1454 3399 TriUF
1456 3430 TriUF
1456 3351 TriUF
1457 3369 TriUF
1459 3351 TriUF
1459 3349 TriUF
1459 3326 TriUF
1461 3357 TriUF
1461 3449 TriUF
1463 3326 TriUF
1463 3369 TriUF
1463 3349 TriUF
1464 3357 TriUF
1464 3351 TriUF
1464 3406 TriUF
1466 3357 TriUF
1469 3326 TriUF
1469 3487 TriUF
1470 3738 TriUF
1471 3593 TriUF
1471 3569 TriUF
1473 3365 TriUF
1473 3481 TriUF
1474 3371 TriUF
1479 3508 TriUF
1485 3734 TriUF
1486 3523 TriUF
1490 3351 TriUF
1491 3370 TriUF
1492 3357 TriUF
1492 3396 TriUF
1492 3371 TriUF
1493 3505 TriUF
1496 3357 TriUF
1497 3523 TriUF
1500 3356 TriUF
1503 3351 TriUF
1503 3360 TriUF
1504 3357 TriUF
1505 3460 TriUF
1507 3365 TriUF
1507 3360 TriUF
1509 3365 TriUF
1510 3357 TriUF
1512 3367 TriUF
1513 3370 TriUF
1515 3371 TriUF
1517 3492 TriUF
1519 3371 TriUF
1520 3370 TriUF
1522 3326 TriUF
1523 3370 TriUF
1523 3428 TriUF
1523 3367 TriUF
1523 3422 TriUF
1523 3349 TriUF
1524 3623 TriUF
1525 3367 TriUF
1527 3420 TriUF
1529 3369 TriUF
1530 3360 TriUF
1530 3326 TriUF
1536 3365 TriUF
1541 3369 TriUF
1543 3420 TriUF
1544 3357 TriUF
1544 3352 TriUF
1548 3367 TriUF
1549 3351 TriUF
1550 3357 TriUF
1551 3369 TriUF
1552 3365 TriUF
1553 3356 TriUF
1553 3420 TriUF
1555 3357 TriUF
1556 3423 TriUF
1558 3420 TriUF
1560 3370 TriUF
1562 3326 TriUF
1566 3351 TriUF
1568 3396 TriUF
1569 3370 TriUF
1570 3420 TriUF
1570 3326 TriUF
1572 3357 TriUF
1574 3349 TriUF
1576 3365 TriUF
1581 3420 TriUF
1582 3327 TriUF
1582 3365 TriUF
1582 3326 TriUF
1584 3357 TriUF
1585 3357 TriUF
1585 3326 TriUF
1586 3354 TriUF
1588 3326 TriUF
1588 3329 TriUF
1593 3397 TriUF
1593 3420 TriUF
1596 3369 TriUF
1597 3365 TriUF
1608 3360 TriUF
1609 3352 TriUF
1615 3326 TriUF
1615 3326 TriUF
1617 3327 TriUF
1625 3420 TriUF
1626 3357 TriUF
1626 3326 TriUF
1628 3365 TriUF
1630 3326 TriUF
1630 3365 TriUF
1631 3360 TriUF
1631 3400 TriUF
1632 3356 TriUF
1633 3357 TriUF
1634 3360 TriUF
1635 3326 TriUF
1636 3357 TriUF
1638 3326 TriUF
1638 3354 TriUF
1641 3360 TriUF
1641 3367 TriUF
1642 3326 TriUF
1644 3712 TriUF
1654 3503 TriUF
1656 3357 TriUF
1656 3434 TriUF
1658 3365 TriUF
1664 3357 TriUF
1669 3357 TriUF
1678 3357 TriUF
1678 3367 TriUF
1680 3377 TriUF
1680 3357 TriUF
1685 3357 TriUF
1687 3357 TriUF
1695 3351 TriUF
1696 3326 TriUF
1709 3351 TriUF
1713 3349 TriUF
1714 3355 TriUF
1719 3454 TriUF
1721 3327 TriUF
1735 3371 TriUF
1735 3326 TriUF
1755 3357 TriUF
1756 3357 TriUF
1756 3357 TriUF
1769 3369 TriUF
1773 3397 TriUF
1774 3371 TriUF
1774 3351 TriUF
1794 3369 TriUF
1797 3370 TriUF
1798 3406 TriUF
1809 3357 TriUF
1824 3498 TriUF
1830 3465 TriUF
1833 3327 TriUF
1844 3449 TriUF
1868 3326 TriUF
1891 3513 TriUF
1909 3400 TriUF
1915 3370 TriUF
1945 3329 TriUF
1967 3396 TriUF
1977 3410 TriUF
1984 3327 TriUF
1985 3327 TriUF
1996 3329 TriUF
2026 3349 TriUF
2040 3464 TriUF
2060 3329 TriUF
2070 3371 TriUF
2092 3327 TriUF
2107 3327 TriUF
2147 3329 TriUF
2163 3360 TriUF
2170 3365 TriUF
2173 3397 TriUF
2182 3506 TriUF
2190 3329 TriUF
2195 3327 TriUF
2220 3329 TriUF
2247 3479 TriUF
2281 3330 TriUF
2292 3327 TriUF
2327 3329 TriUF
2327 3329 TriUF
2330 3328 TriUF
2341 3502 TriUF
2345 3329 TriUF
2359 3394 TriUF
2368 3329 TriUF
2370 3361 TriUF
2375 3329 TriUF
2388 3330 TriUF
2391 3420 TriUF
2402 3329 TriUF
2408 3330 TriUF
2415 3327 TriUF
2425 3329 TriUF
2428 3330 TriUF
2443 3461 TriUF
2469 3327 TriUF
2533 3396 TriUF
2551 3329 TriUF
2567 3327 TriUF
2575 3396 TriUF
2597 3394 TriUF
2636 3329 TriUF
2689 3395 TriUF
2709 3396 TriUF
2713 3329 TriUF
2721 3395 TriUF
2740 3396 TriUF
2779 3329 TriUF
2782 3396 TriUF
2796 3329 TriUF
2812 3329 TriUF
2821 3396 TriUF
2836 3327 TriUF
2842 3329 TriUF
2867 3396 TriUF
2910 3396 TriUF
3140 3465 TriUF
3217 3329 TriUF
3273 3395 TriUF
3310 3327 TriUF
3313 3396 TriUF
3387 3450 TriUF
3389 3395 TriUF
3390 3329 TriUF
3394 3396 TriUF
3404 3329 TriUF
3422 3474 TriUF
3431 3402 TriUF
3469 3394 TriUF
3470 3329 TriUF
3485 3395 TriUF
3488 3394 TriUF
3511 3395 TriUF
3583 3396 TriUF
3600 3413 TriUF
3630 3396 TriUF
3634 3394 TriUF
3635 3377 TriUF
3638 3395 TriUF
3647 3395 TriUF
3827 3396 TriUF
3830 3396 TriUF
3902 3396 TriUF
3904 3396 TriUF
3905 3478 TriUF
3962 3438 TriUF
3970 3377 TriUF
4045 3439 TriUF
4090 3502 TriUF
4104 3396 TriUF
4122 3396 TriUF
4205 3395 TriUF
4244 3377 TriUF
4256 3469 TriUF
4327 3437 TriUF
4365 3396 TriUF
4388 3502 TriUF
4442 3395 TriUF
4469 3463 TriUF
4580 3377 TriUF
4640 3470 TriUF
4644 3330 TriUF
4766 3461 TriUF
4822 3460 TriUF
4827 3486 TriUF
4952 3396 TriUF
4955 3506 TriUF
4973 3463 TriUF
5098 3446 TriUF
5103 3461 TriUF
5303 3465 TriUF
5416 3475 TriUF
5432 3460 TriUF
5494 3451 TriUF
5583 3458 TriUF
6075 3431 TriUF
6186 3478 TriUF
6608 3456 TriUF
6709 3395 TriUF
6798 3506 TriUF
7036 3412 TriUF
7672 3377 TriUF
9610 3377 TriUF
12882 3340 TriUF
% End plot #1
1.000 UL
LTb
LCb setrgbcolor
600 7049 N
0 -3726 V
12598 0 V
0 3726 V
600 7049 L
Z stroke
1.000 UP
1.000 UL
LTb
LCb setrgbcolor
stroke
grestore
end
showpage
%%Trailer
%%DocumentFonts: Times
