%!PS-Adobe-2.0 EPSF-2.0
%%Title: repeating_conn_1177406385_2104447037.eps
%%Creator: gnuplot 4.6 patchlevel 2
%%CreationDate: Tue Apr  8 12:41:18 2014
%%DocumentFonts: (atend)
%%BoundingBox: 50 50 770 554
%%EndComments
%%BeginProlog
/gnudict 256 dict def
gnudict begin
%
% The following true/false flags may be edited by hand if desired.
% The unit line width and grayscale image gamma correction may also be changed.
%
/Color true def
/Blacktext false def
/Solid false def
/Dashlength 1 def
/Landscape false def
/Level1 false def
/Rounded false def
/ClipToBoundingBox false def
/SuppressPDFMark false def
/TransparentPatterns false def
/gnulinewidth 5.000 def
/userlinewidth gnulinewidth def
/Gamma 1.0 def
/BackgroundColor {-1.000 -1.000 -1.000} def
%
/vshift -66 def
/dl1 {
  10.0 Dashlength mul mul
  Rounded { currentlinewidth 0.75 mul sub dup 0 le { pop 0.01 } if } if
} def
/dl2 {
  10.0 Dashlength mul mul
  Rounded { currentlinewidth 0.75 mul add } if
} def
/hpt_ 31.5 def
/vpt_ 31.5 def
/hpt hpt_ def
/vpt vpt_ def
/doclip {
  ClipToBoundingBox {
    newpath 50 50 moveto 770 50 lineto 770 554 lineto 50 554 lineto closepath
    clip
  } if
} def
%
% Gnuplot Prolog Version 4.6 (September 2012)
%
%/SuppressPDFMark true def
%
/M {moveto} bind def
/L {lineto} bind def
/R {rmoveto} bind def
/V {rlineto} bind def
/N {newpath moveto} bind def
/Z {closepath} bind def
/C {setrgbcolor} bind def
/f {rlineto fill} bind def
/g {setgray} bind def
/Gshow {show} def   % May be redefined later in the file to support UTF-8
/vpt2 vpt 2 mul def
/hpt2 hpt 2 mul def
/Lshow {currentpoint stroke M 0 vshift R 
	Blacktext {gsave 0 setgray show grestore} {show} ifelse} def
/Rshow {currentpoint stroke M dup stringwidth pop neg vshift R
	Blacktext {gsave 0 setgray show grestore} {show} ifelse} def
/Cshow {currentpoint stroke M dup stringwidth pop -2 div vshift R 
	Blacktext {gsave 0 setgray show grestore} {show} ifelse} def
/UP {dup vpt_ mul /vpt exch def hpt_ mul /hpt exch def
  /hpt2 hpt 2 mul def /vpt2 vpt 2 mul def} def
/DL {Color {setrgbcolor Solid {pop []} if 0 setdash}
 {pop pop pop 0 setgray Solid {pop []} if 0 setdash} ifelse} def
/BL {stroke userlinewidth 2 mul setlinewidth
	Rounded {1 setlinejoin 1 setlinecap} if} def
/AL {stroke userlinewidth 2 div setlinewidth
	Rounded {1 setlinejoin 1 setlinecap} if} def
/UL {dup gnulinewidth mul /userlinewidth exch def
	dup 1 lt {pop 1} if 10 mul /udl exch def} def
/PL {stroke userlinewidth setlinewidth
	Rounded {1 setlinejoin 1 setlinecap} if} def
3.8 setmiterlimit
% Default Line colors
/LCw {1 1 1} def
/LCb {0 0 0} def
/LCa {0 0 0} def
/LC0 {1 0 0} def
/LC1 {0 1 0} def
/LC2 {0 0 1} def
/LC3 {1 0 1} def
/LC4 {0 1 1} def
/LC5 {1 1 0} def
/LC6 {0 0 0} def
/LC7 {1 0.3 0} def
/LC8 {0.5 0.5 0.5} def
% Default Line Types
/LTw {PL [] 1 setgray} def
/LTb {BL [] LCb DL} def
/LTa {AL [1 udl mul 2 udl mul] 0 setdash LCa setrgbcolor} def
/LT0 {PL [] LC0 DL} def
/LT1 {PL [4 dl1 2 dl2] LC1 DL} def
/LT2 {PL [2 dl1 3 dl2] LC2 DL} def
/LT3 {PL [1 dl1 1.5 dl2] LC3 DL} def
/LT4 {PL [6 dl1 2 dl2 1 dl1 2 dl2] LC4 DL} def
/LT5 {PL [3 dl1 3 dl2 1 dl1 3 dl2] LC5 DL} def
/LT6 {PL [2 dl1 2 dl2 2 dl1 6 dl2] LC6 DL} def
/LT7 {PL [1 dl1 2 dl2 6 dl1 2 dl2 1 dl1 2 dl2] LC7 DL} def
/LT8 {PL [2 dl1 2 dl2 2 dl1 2 dl2 2 dl1 2 dl2 2 dl1 4 dl2] LC8 DL} def
/Pnt {stroke [] 0 setdash gsave 1 setlinecap M 0 0 V stroke grestore} def
/Dia {stroke [] 0 setdash 2 copy vpt add M
  hpt neg vpt neg V hpt vpt neg V
  hpt vpt V hpt neg vpt V closepath stroke
  Pnt} def
/Pls {stroke [] 0 setdash vpt sub M 0 vpt2 V
  currentpoint stroke M
  hpt neg vpt neg R hpt2 0 V stroke
 } def
/Box {stroke [] 0 setdash 2 copy exch hpt sub exch vpt add M
  0 vpt2 neg V hpt2 0 V 0 vpt2 V
  hpt2 neg 0 V closepath stroke
  Pnt} def
/Crs {stroke [] 0 setdash exch hpt sub exch vpt add M
  hpt2 vpt2 neg V currentpoint stroke M
  hpt2 neg 0 R hpt2 vpt2 V stroke} def
/TriU {stroke [] 0 setdash 2 copy vpt 1.12 mul add M
  hpt neg vpt -1.62 mul V
  hpt 2 mul 0 V
  hpt neg vpt 1.62 mul V closepath stroke
  Pnt} def
/Star {2 copy Pls Crs} def
/BoxF {stroke [] 0 setdash exch hpt sub exch vpt add M
  0 vpt2 neg V hpt2 0 V 0 vpt2 V
  hpt2 neg 0 V closepath fill} def
/TriUF {stroke [] 0 setdash vpt 1.12 mul add M
  hpt neg vpt -1.62 mul V
  hpt 2 mul 0 V
  hpt neg vpt 1.62 mul V closepath fill} def
/TriD {stroke [] 0 setdash 2 copy vpt 1.12 mul sub M
  hpt neg vpt 1.62 mul V
  hpt 2 mul 0 V
  hpt neg vpt -1.62 mul V closepath stroke
  Pnt} def
/TriDF {stroke [] 0 setdash vpt 1.12 mul sub M
  hpt neg vpt 1.62 mul V
  hpt 2 mul 0 V
  hpt neg vpt -1.62 mul V closepath fill} def
/DiaF {stroke [] 0 setdash vpt add M
  hpt neg vpt neg V hpt vpt neg V
  hpt vpt V hpt neg vpt V closepath fill} def
/Pent {stroke [] 0 setdash 2 copy gsave
  translate 0 hpt M 4 {72 rotate 0 hpt L} repeat
  closepath stroke grestore Pnt} def
/PentF {stroke [] 0 setdash gsave
  translate 0 hpt M 4 {72 rotate 0 hpt L} repeat
  closepath fill grestore} def
/Circle {stroke [] 0 setdash 2 copy
  hpt 0 360 arc stroke Pnt} def
/CircleF {stroke [] 0 setdash hpt 0 360 arc fill} def
/C0 {BL [] 0 setdash 2 copy moveto vpt 90 450 arc} bind def
/C1 {BL [] 0 setdash 2 copy moveto
	2 copy vpt 0 90 arc closepath fill
	vpt 0 360 arc closepath} bind def
/C2 {BL [] 0 setdash 2 copy moveto
	2 copy vpt 90 180 arc closepath fill
	vpt 0 360 arc closepath} bind def
/C3 {BL [] 0 setdash 2 copy moveto
	2 copy vpt 0 180 arc closepath fill
	vpt 0 360 arc closepath} bind def
/C4 {BL [] 0 setdash 2 copy moveto
	2 copy vpt 180 270 arc closepath fill
	vpt 0 360 arc closepath} bind def
/C5 {BL [] 0 setdash 2 copy moveto
	2 copy vpt 0 90 arc
	2 copy moveto
	2 copy vpt 180 270 arc closepath fill
	vpt 0 360 arc} bind def
/C6 {BL [] 0 setdash 2 copy moveto
	2 copy vpt 90 270 arc closepath fill
	vpt 0 360 arc closepath} bind def
/C7 {BL [] 0 setdash 2 copy moveto
	2 copy vpt 0 270 arc closepath fill
	vpt 0 360 arc closepath} bind def
/C8 {BL [] 0 setdash 2 copy moveto
	2 copy vpt 270 360 arc closepath fill
	vpt 0 360 arc closepath} bind def
/C9 {BL [] 0 setdash 2 copy moveto
	2 copy vpt 270 450 arc closepath fill
	vpt 0 360 arc closepath} bind def
/C10 {BL [] 0 setdash 2 copy 2 copy moveto vpt 270 360 arc closepath fill
	2 copy moveto
	2 copy vpt 90 180 arc closepath fill
	vpt 0 360 arc closepath} bind def
/C11 {BL [] 0 setdash 2 copy moveto
	2 copy vpt 0 180 arc closepath fill
	2 copy moveto
	2 copy vpt 270 360 arc closepath fill
	vpt 0 360 arc closepath} bind def
/C12 {BL [] 0 setdash 2 copy moveto
	2 copy vpt 180 360 arc closepath fill
	vpt 0 360 arc closepath} bind def
/C13 {BL [] 0 setdash 2 copy moveto
	2 copy vpt 0 90 arc closepath fill
	2 copy moveto
	2 copy vpt 180 360 arc closepath fill
	vpt 0 360 arc closepath} bind def
/C14 {BL [] 0 setdash 2 copy moveto
	2 copy vpt 90 360 arc closepath fill
	vpt 0 360 arc} bind def
/C15 {BL [] 0 setdash 2 copy vpt 0 360 arc closepath fill
	vpt 0 360 arc closepath} bind def
/Rec {newpath 4 2 roll moveto 1 index 0 rlineto 0 exch rlineto
	neg 0 rlineto closepath} bind def
/Square {dup Rec} bind def
/Bsquare {vpt sub exch vpt sub exch vpt2 Square} bind def
/S0 {BL [] 0 setdash 2 copy moveto 0 vpt rlineto BL Bsquare} bind def
/S1 {BL [] 0 setdash 2 copy vpt Square fill Bsquare} bind def
/S2 {BL [] 0 setdash 2 copy exch vpt sub exch vpt Square fill Bsquare} bind def
/S3 {BL [] 0 setdash 2 copy exch vpt sub exch vpt2 vpt Rec fill Bsquare} bind def
/S4 {BL [] 0 setdash 2 copy exch vpt sub exch vpt sub vpt Square fill Bsquare} bind def
/S5 {BL [] 0 setdash 2 copy 2 copy vpt Square fill
	exch vpt sub exch vpt sub vpt Square fill Bsquare} bind def
/S6 {BL [] 0 setdash 2 copy exch vpt sub exch vpt sub vpt vpt2 Rec fill Bsquare} bind def
/S7 {BL [] 0 setdash 2 copy exch vpt sub exch vpt sub vpt vpt2 Rec fill
	2 copy vpt Square fill Bsquare} bind def
/S8 {BL [] 0 setdash 2 copy vpt sub vpt Square fill Bsquare} bind def
/S9 {BL [] 0 setdash 2 copy vpt sub vpt vpt2 Rec fill Bsquare} bind def
/S10 {BL [] 0 setdash 2 copy vpt sub vpt Square fill 2 copy exch vpt sub exch vpt Square fill
	Bsquare} bind def
/S11 {BL [] 0 setdash 2 copy vpt sub vpt Square fill 2 copy exch vpt sub exch vpt2 vpt Rec fill
	Bsquare} bind def
/S12 {BL [] 0 setdash 2 copy exch vpt sub exch vpt sub vpt2 vpt Rec fill Bsquare} bind def
/S13 {BL [] 0 setdash 2 copy exch vpt sub exch vpt sub vpt2 vpt Rec fill
	2 copy vpt Square fill Bsquare} bind def
/S14 {BL [] 0 setdash 2 copy exch vpt sub exch vpt sub vpt2 vpt Rec fill
	2 copy exch vpt sub exch vpt Square fill Bsquare} bind def
/S15 {BL [] 0 setdash 2 copy Bsquare fill Bsquare} bind def
/D0 {gsave translate 45 rotate 0 0 S0 stroke grestore} bind def
/D1 {gsave translate 45 rotate 0 0 S1 stroke grestore} bind def
/D2 {gsave translate 45 rotate 0 0 S2 stroke grestore} bind def
/D3 {gsave translate 45 rotate 0 0 S3 stroke grestore} bind def
/D4 {gsave translate 45 rotate 0 0 S4 stroke grestore} bind def
/D5 {gsave translate 45 rotate 0 0 S5 stroke grestore} bind def
/D6 {gsave translate 45 rotate 0 0 S6 stroke grestore} bind def
/D7 {gsave translate 45 rotate 0 0 S7 stroke grestore} bind def
/D8 {gsave translate 45 rotate 0 0 S8 stroke grestore} bind def
/D9 {gsave translate 45 rotate 0 0 S9 stroke grestore} bind def
/D10 {gsave translate 45 rotate 0 0 S10 stroke grestore} bind def
/D11 {gsave translate 45 rotate 0 0 S11 stroke grestore} bind def
/D12 {gsave translate 45 rotate 0 0 S12 stroke grestore} bind def
/D13 {gsave translate 45 rotate 0 0 S13 stroke grestore} bind def
/D14 {gsave translate 45 rotate 0 0 S14 stroke grestore} bind def
/D15 {gsave translate 45 rotate 0 0 S15 stroke grestore} bind def
/DiaE {stroke [] 0 setdash vpt add M
  hpt neg vpt neg V hpt vpt neg V
  hpt vpt V hpt neg vpt V closepath stroke} def
/BoxE {stroke [] 0 setdash exch hpt sub exch vpt add M
  0 vpt2 neg V hpt2 0 V 0 vpt2 V
  hpt2 neg 0 V closepath stroke} def
/TriUE {stroke [] 0 setdash vpt 1.12 mul add M
  hpt neg vpt -1.62 mul V
  hpt 2 mul 0 V
  hpt neg vpt 1.62 mul V closepath stroke} def
/TriDE {stroke [] 0 setdash vpt 1.12 mul sub M
  hpt neg vpt 1.62 mul V
  hpt 2 mul 0 V
  hpt neg vpt -1.62 mul V closepath stroke} def
/PentE {stroke [] 0 setdash gsave
  translate 0 hpt M 4 {72 rotate 0 hpt L} repeat
  closepath stroke grestore} def
/CircE {stroke [] 0 setdash 
  hpt 0 360 arc stroke} def
/Opaque {gsave closepath 1 setgray fill grestore 0 setgray closepath} def
/DiaW {stroke [] 0 setdash vpt add M
  hpt neg vpt neg V hpt vpt neg V
  hpt vpt V hpt neg vpt V Opaque stroke} def
/BoxW {stroke [] 0 setdash exch hpt sub exch vpt add M
  0 vpt2 neg V hpt2 0 V 0 vpt2 V
  hpt2 neg 0 V Opaque stroke} def
/TriUW {stroke [] 0 setdash vpt 1.12 mul add M
  hpt neg vpt -1.62 mul V
  hpt 2 mul 0 V
  hpt neg vpt 1.62 mul V Opaque stroke} def
/TriDW {stroke [] 0 setdash vpt 1.12 mul sub M
  hpt neg vpt 1.62 mul V
  hpt 2 mul 0 V
  hpt neg vpt -1.62 mul V Opaque stroke} def
/PentW {stroke [] 0 setdash gsave
  translate 0 hpt M 4 {72 rotate 0 hpt L} repeat
  Opaque stroke grestore} def
/CircW {stroke [] 0 setdash 
  hpt 0 360 arc Opaque stroke} def
/BoxFill {gsave Rec 1 setgray fill grestore} def
/Density {
  /Fillden exch def
  currentrgbcolor
  /ColB exch def /ColG exch def /ColR exch def
  /ColR ColR Fillden mul Fillden sub 1 add def
  /ColG ColG Fillden mul Fillden sub 1 add def
  /ColB ColB Fillden mul Fillden sub 1 add def
  ColR ColG ColB setrgbcolor} def
/BoxColFill {gsave Rec PolyFill} def
/PolyFill {gsave Density fill grestore grestore} def
/h {rlineto rlineto rlineto gsave closepath fill grestore} bind def
%
% PostScript Level 1 Pattern Fill routine for rectangles
% Usage: x y w h s a XX PatternFill
%	x,y = lower left corner of box to be filled
%	w,h = width and height of box
%	  a = angle in degrees between lines and x-axis
%	 XX = 0/1 for no/yes cross-hatch
%
/PatternFill {gsave /PFa [ 9 2 roll ] def
  PFa 0 get PFa 2 get 2 div add PFa 1 get PFa 3 get 2 div add translate
  PFa 2 get -2 div PFa 3 get -2 div PFa 2 get PFa 3 get Rec
  TransparentPatterns {} {gsave 1 setgray fill grestore} ifelse
  clip
  currentlinewidth 0.5 mul setlinewidth
  /PFs PFa 2 get dup mul PFa 3 get dup mul add sqrt def
  0 0 M PFa 5 get rotate PFs -2 div dup translate
  0 1 PFs PFa 4 get div 1 add floor cvi
	{PFa 4 get mul 0 M 0 PFs V} for
  0 PFa 6 get ne {
	0 1 PFs PFa 4 get div 1 add floor cvi
	{PFa 4 get mul 0 2 1 roll M PFs 0 V} for
 } if
  stroke grestore} def
%
/languagelevel where
 {pop languagelevel} {1} ifelse
 2 lt
	{/InterpretLevel1 true def}
	{/InterpretLevel1 Level1 def}
 ifelse
%
% PostScript level 2 pattern fill definitions
%
/Level2PatternFill {
/Tile8x8 {/PaintType 2 /PatternType 1 /TilingType 1 /BBox [0 0 8 8] /XStep 8 /YStep 8}
	bind def
/KeepColor {currentrgbcolor [/Pattern /DeviceRGB] setcolorspace} bind def
<< Tile8x8
 /PaintProc {0.5 setlinewidth pop 0 0 M 8 8 L 0 8 M 8 0 L stroke} 
>> matrix makepattern
/Pat1 exch def
<< Tile8x8
 /PaintProc {0.5 setlinewidth pop 0 0 M 8 8 L 0 8 M 8 0 L stroke
	0 4 M 4 8 L 8 4 L 4 0 L 0 4 L stroke}
>> matrix makepattern
/Pat2 exch def
<< Tile8x8
 /PaintProc {0.5 setlinewidth pop 0 0 M 0 8 L
	8 8 L 8 0 L 0 0 L fill}
>> matrix makepattern
/Pat3 exch def
<< Tile8x8
 /PaintProc {0.5 setlinewidth pop -4 8 M 8 -4 L
	0 12 M 12 0 L stroke}
>> matrix makepattern
/Pat4 exch def
<< Tile8x8
 /PaintProc {0.5 setlinewidth pop -4 0 M 8 12 L
	0 -4 M 12 8 L stroke}
>> matrix makepattern
/Pat5 exch def
<< Tile8x8
 /PaintProc {0.5 setlinewidth pop -2 8 M 4 -4 L
	0 12 M 8 -4 L 4 12 M 10 0 L stroke}
>> matrix makepattern
/Pat6 exch def
<< Tile8x8
 /PaintProc {0.5 setlinewidth pop -2 0 M 4 12 L
	0 -4 M 8 12 L 4 -4 M 10 8 L stroke}
>> matrix makepattern
/Pat7 exch def
<< Tile8x8
 /PaintProc {0.5 setlinewidth pop 8 -2 M -4 4 L
	12 0 M -4 8 L 12 4 M 0 10 L stroke}
>> matrix makepattern
/Pat8 exch def
<< Tile8x8
 /PaintProc {0.5 setlinewidth pop 0 -2 M 12 4 L
	-4 0 M 12 8 L -4 4 M 8 10 L stroke}
>> matrix makepattern
/Pat9 exch def
/Pattern1 {PatternBgnd KeepColor Pat1 setpattern} bind def
/Pattern2 {PatternBgnd KeepColor Pat2 setpattern} bind def
/Pattern3 {PatternBgnd KeepColor Pat3 setpattern} bind def
/Pattern4 {PatternBgnd KeepColor Landscape {Pat5} {Pat4} ifelse setpattern} bind def
/Pattern5 {PatternBgnd KeepColor Landscape {Pat4} {Pat5} ifelse setpattern} bind def
/Pattern6 {PatternBgnd KeepColor Landscape {Pat9} {Pat6} ifelse setpattern} bind def
/Pattern7 {PatternBgnd KeepColor Landscape {Pat8} {Pat7} ifelse setpattern} bind def
} def
%
%
%End of PostScript Level 2 code
%
/PatternBgnd {
  TransparentPatterns {} {gsave 1 setgray fill grestore} ifelse
} def
%
% Substitute for Level 2 pattern fill codes with
% grayscale if Level 2 support is not selected.
%
/Level1PatternFill {
/Pattern1 {0.250 Density} bind def
/Pattern2 {0.500 Density} bind def
/Pattern3 {0.750 Density} bind def
/Pattern4 {0.125 Density} bind def
/Pattern5 {0.375 Density} bind def
/Pattern6 {0.625 Density} bind def
/Pattern7 {0.875 Density} bind def
} def
%
% Now test for support of Level 2 code
%
Level1 {Level1PatternFill} {Level2PatternFill} ifelse
%
/Symbol-Oblique /Symbol findfont [1 0 .167 1 0 0] makefont
dup length dict begin {1 index /FID eq {pop pop} {def} ifelse} forall
currentdict end definefont pop
/MFshow {
   { dup 5 get 3 ge
     { 5 get 3 eq {gsave} {grestore} ifelse }
     {dup dup 0 get findfont exch 1 get scalefont setfont
     [ currentpoint ] exch dup 2 get 0 exch R dup 5 get 2 ne {dup dup 6
     get exch 4 get {Gshow} {stringwidth pop 0 R} ifelse }if dup 5 get 0 eq
     {dup 3 get {2 get neg 0 exch R pop} {pop aload pop M} ifelse} {dup 5
     get 1 eq {dup 2 get exch dup 3 get exch 6 get stringwidth pop -2 div
     dup 0 R} {dup 6 get stringwidth pop -2 div 0 R 6 get
     show 2 index {aload pop M neg 3 -1 roll neg R pop pop} {pop pop pop
     pop aload pop M} ifelse }ifelse }ifelse }
     ifelse }
   forall} def
/Gswidth {dup type /stringtype eq {stringwidth} {pop (n) stringwidth} ifelse} def
/MFwidth {0 exch { dup 5 get 3 ge { 5 get 3 eq { 0 } { pop } ifelse }
 {dup 3 get{dup dup 0 get findfont exch 1 get scalefont setfont
     6 get Gswidth pop add} {pop} ifelse} ifelse} forall} def
/MLshow { currentpoint stroke M
  0 exch R
  Blacktext {gsave 0 setgray MFshow grestore} {MFshow} ifelse } bind def
/MRshow { currentpoint stroke M
  exch dup MFwidth neg 3 -1 roll R
  Blacktext {gsave 0 setgray MFshow grestore} {MFshow} ifelse } bind def
/MCshow { currentpoint stroke M
  exch dup MFwidth -2 div 3 -1 roll R
  Blacktext {gsave 0 setgray MFshow grestore} {MFshow} ifelse } bind def
/XYsave    { [( ) 1 2 true false 3 ()] } bind def
/XYrestore { [( ) 1 2 true false 4 ()] } bind def
Level1 SuppressPDFMark or 
{} {
/SDict 10 dict def
systemdict /pdfmark known not {
  userdict /pdfmark systemdict /cleartomark get put
} if
SDict begin [
  /Title (repeating_conn_1177406385_2104447037.eps)
  /Subject (gnuplot plot)
  /Creator (gnuplot 4.6 patchlevel 2)
  /Author (olgabo)
%  /Producer (gnuplot)
%  /Keywords ()
  /CreationDate (Tue Apr  8 12:41:18 2014)
  /DOCINFO pdfmark
end
} ifelse
end
%%EndProlog
%%Page: 1 1
gnudict begin
gsave
doclip
50 50 translate
0.050 0.050 scale
0 setgray
newpath
(Times) findfont 200 scalefont setfont
BackgroundColor 0 lt 3 1 roll 0 lt exch 0 lt or or not {BackgroundColor C 1.000 0 0 14400.00 10080.00 BoxColFill} if
1.000 UL
LTb
LCb setrgbcolor
1.000 UL
LTa
LCa setrgbcolor
1200 3493 M
12598 0 V
stroke
LTb
LCb setrgbcolor
1200 3493 M
63 0 V
12535 0 R
-63 0 V
stroke
1080 3493 M
[ [(Times) 200.0 0.0 true true 0 ( 0)]
] -66.7 MRshow
1.000 UL
LTb
LCb setrgbcolor
1.000 UL
LTa
LCa setrgbcolor
1200 4001 M
12598 0 V
stroke
LTb
LCb setrgbcolor
1200 4001 M
63 0 V
12535 0 R
-63 0 V
stroke
1080 4001 M
[ [(Times) 200.0 0.0 true true 0 ( 20)]
] -66.7 MRshow
1.000 UL
LTb
LCb setrgbcolor
1.000 UL
LTa
LCa setrgbcolor
1200 4509 M
12598 0 V
stroke
LTb
LCb setrgbcolor
1200 4509 M
63 0 V
12535 0 R
-63 0 V
stroke
1080 4509 M
[ [(Times) 200.0 0.0 true true 0 ( 40)]
] -66.7 MRshow
1.000 UL
LTb
LCb setrgbcolor
1.000 UL
LTa
LCa setrgbcolor
1200 5017 M
12598 0 V
stroke
LTb
LCb setrgbcolor
1200 5017 M
63 0 V
12535 0 R
-63 0 V
stroke
1080 5017 M
[ [(Times) 200.0 0.0 true true 0 ( 60)]
] -66.7 MRshow
1.000 UL
LTb
LCb setrgbcolor
1.000 UL
LTa
LCa setrgbcolor
1200 5525 M
12598 0 V
stroke
LTb
LCb setrgbcolor
1200 5525 M
63 0 V
12535 0 R
-63 0 V
stroke
1080 5525 M
[ [(Times) 200.0 0.0 true true 0 ( 80)]
] -66.7 MRshow
1.000 UL
LTb
LCb setrgbcolor
1.000 UL
LTa
LCa setrgbcolor
1200 6033 M
12598 0 V
stroke
LTb
LCb setrgbcolor
1200 6033 M
63 0 V
12535 0 R
-63 0 V
stroke
1080 6033 M
[ [(Times) 200.0 0.0 true true 0 ( 100)]
] -66.7 MRshow
1.000 UL
LTb
LCb setrgbcolor
1.000 UL
LTa
LCa setrgbcolor
1200 6541 M
12598 0 V
stroke
LTb
LCb setrgbcolor
1200 6541 M
63 0 V
12535 0 R
-63 0 V
stroke
1080 6541 M
[ [(Times) 200.0 0.0 true true 0 ( 120)]
] -66.7 MRshow
1.000 UL
LTb
LCb setrgbcolor
1.000 UL
LTa
LCa setrgbcolor
1200 7049 M
12598 0 V
stroke
LTb
LCb setrgbcolor
1200 7049 M
63 0 V
12535 0 R
-63 0 V
stroke
1080 7049 M
[ [(Times) 200.0 0.0 true true 0 ( 140)]
] -66.7 MRshow
1.000 UL
LTb
LCb setrgbcolor
1.000 UL
LTa
LCa setrgbcolor
1200 3493 M
0 3556 V
stroke
LTb
LCb setrgbcolor
1200 3493 M
0 63 V
0 3493 R
0 -63 V
stroke
1200 3373 M
currentpoint gsave translate -45 rotate 0 0 moveto
[ [(Times) 200.0 0.0 true true 0 ( 0)]
] -66.7 MLshow
grestore
1.000 UL
LTb
LCb setrgbcolor
1.000 UL
LTa
LCa setrgbcolor
3720 3493 M
0 3556 V
stroke
LTb
LCb setrgbcolor
3720 3493 M
0 63 V
0 3493 R
0 -63 V
stroke
3720 3373 M
currentpoint gsave translate -45 rotate 0 0 moveto
[ [(Times) 200.0 0.0 true true 0 ( 500)]
] -66.7 MLshow
grestore
1.000 UL
LTb
LCb setrgbcolor
1.000 UL
LTa
LCa setrgbcolor
6239 3493 M
0 3556 V
stroke
LTb
LCb setrgbcolor
6239 3493 M
0 63 V
0 3493 R
0 -63 V
stroke
6239 3373 M
currentpoint gsave translate -45 rotate 0 0 moveto
[ [(Times) 200.0 0.0 true true 0 ( 1000)]
] -66.7 MLshow
grestore
1.000 UL
LTb
LCb setrgbcolor
1.000 UL
LTa
LCa setrgbcolor
8759 3493 M
0 3556 V
stroke
LTb
LCb setrgbcolor
8759 3493 M
0 63 V
0 3493 R
0 -63 V
stroke
8759 3373 M
currentpoint gsave translate -45 rotate 0 0 moveto
[ [(Times) 200.0 0.0 true true 0 ( 1500)]
] -66.7 MLshow
grestore
1.000 UL
LTb
LCb setrgbcolor
1.000 UL
LTa
LCa setrgbcolor
11278 3493 M
0 3556 V
stroke
LTb
LCb setrgbcolor
11278 3493 M
0 63 V
0 3493 R
0 -63 V
stroke
11278 3373 M
currentpoint gsave translate -45 rotate 0 0 moveto
[ [(Times) 200.0 0.0 true true 0 ( 2000)]
] -66.7 MLshow
grestore
1.000 UL
LTb
LCb setrgbcolor
1.000 UL
LTa
LCa setrgbcolor
13798 3493 M
0 3556 V
stroke
LTb
LCb setrgbcolor
13798 3493 M
0 63 V
0 3493 R
0 -63 V
stroke
13798 3373 M
currentpoint gsave translate -45 rotate 0 0 moveto
[ [(Times) 200.0 0.0 true true 0 ( 2500)]
] -66.7 MLshow
grestore
1.000 UL
LTb
LCb setrgbcolor
1.000 UL
LTb
LCb setrgbcolor
1200 7049 N
0 -3556 V
12598 0 V
0 3556 V
-12598 0 V
Z stroke
LCb setrgbcolor
380 5271 M
currentpoint gsave translate -270 rotate 0 0 moveto
[ [(Times) 200.0 0.0 true true 0 (Duration [sec])]
] -66.7 MCshow
grestore
LTb
LCb setrgbcolor
7499 2769 M
[ [(Times) 200.0 0.0 true true 0 (Time [sec])]
] -66.7 MCshow
LTb
7499 7349 M
[ [(Times) 200.0 0.0 true true 0 (src port 80, repeating connections sorted by start time)]
] -66.7 MCshow
1.000 UP
1.000 UL
LTb
LCb setrgbcolor
1.000 UL
LT8
LC8 setrgbcolor
7108 63 N
782 0 V
-782 0 V
Z stroke
% Begin plot #1
1.000 UP
1.000 UL
LT8
0.00 0.00 1.00 C 1200 3494 M
10 0 V
40 17 V
66 -17 V
25 0 V
141 0 V
30 0 V
31 1 V
20 -1 V
0 1 V
20 16 V
86 -17 V
30 0 V
91 0 V
40 1 V
81 -1 V
60 0 V
15 0 V
20 0 V
61 0 V
40 0 V
25 0 V
1648 0 V
131 0 V
56 0 V
196 0 V
55 0 V
132 16 V
141 -16 V
35 0 V
156 0 V
15 0 V
156 0 V
86 0 V
5 0 V
20 3 V
81 -3 V
5 0 V
20 0 V
20 0 V
10 17 V
10 -17 V
10 0 V
0 1 V
61 -1 V
0 1 V
0 -1 V
0 1 V
30 -1 V
0 17 V
15 -17 V
36 0 V
5 0 V
5 0 V
20 0 V
25 0 V
10 0 V
0 16 V
5 -16 V
5 2 V
15 -2 V
15 0 V
10 1 V
11 115 V
5 -116 V
5 0 V
0 17 V
5 -17 V
10 18 V
10 -18 V
10 0 V
5 18 V
0 -18 V
20 16 V
5 -16 V
10 0 V
10 0 V
10 0 V
10 0 V
0 19 V
6 -19 V
0 17 V
0 -1 V
0 1 V
5 1 V
15 -18 V
0 2202 V
10 -2202 V
5 17 V
20 0 V
10 -6 V
5 -11 V
10 17 V
10 0 V
5 -17 V
5 0 V
5 0 V
10 0 V
5 1 V
26 16 V
5 -17 V
10 0 V
5 17 V
15 -17 V
25 0 V
stroke 5715 3494 M
0 17 V
0 -17 V
0 16 V
10 -16 V
10 0 V
5 2512 V
10 -2512 V
16 2 V
10 -2 V
5 19 V
0 -1 V
0 614 V
15 -632 V
5 18 V
0 283 V
5 -284 V
10 -17 V
15 0 V
25 17 V
10 -17 V
5 0 V
5 0 V
10 0 V
5 17 V
21 0 V
20 -17 V
15 1 V
15 -1 V
5 0 V
5 0 V
5 0 V
10 0 V
0 18 V
36 -6 V
0 -12 V
50 17 V
5 -17 V
0 16 V
20 -16 V
10 0 V
15 0 V
0 16 V
10 -16 V
5 0 V
16 0 V
10 0 V
5 0 V
10 0 V
10 0 V
5 0 V
35 0 V
15 0 V
10 17 V
31 0 V
5 -17 V
25 0 V
15 0 V
35 0 V
5 0 V
10 0 V
15 0 V
0 24 V
5 -8 V
46 -16 V
10 0 V
30 0 V
5 0 V
0 142 V
15 -141 V
5 -1 V
15 0 V
21 17 V
5 -17 V
20 0 V
20 0 V
15 0 V
15 16 V
61 -16 V
25 0 V
15 16 V
40 -16 V
31 0 V
4555 0 V
0 1 V
5 -1 V
0 1 V
0 -1 V
5 0 V
10 0 V
5 17 V
30 -17 V
5 0 V
10 0 V
6 0 V
20 0 V
10 0 V
5 0 V
5 0 V
20 17 V
15 1 V
10 0 V
10 -18 V
36 0 V
5 0 V
stroke 11561 3494 M
20 0 V
5 1 V
10 -1 V
5 1 V
25 -1 V
15 16 V
15 -16 V
15 0 V
5 16 V
6 -15 V
0 16 V
20 -1 V
15 -16 V
20 0 V
20 0 V
15 1 V
5 -1 V
10 0 V
5 1 V
10 15 V
11 -16 V
5 0 V
5 0 V
5 0 V
20 0 V
0 1 V
15 -1 V
5 0 V
10 17 V
40 -17 V
26 16 V
15 -16 V
5 0 V
5 0 V
0 1 V
5 17 V
5 -18 V
0 18 V
10 5 V
5 -23 V
10 0 V
20 0 V
15 1 V
15 -1 V
16 0 V
5 0 V
25 17 V
5 -17 V
10 1 V
10 -1 V
5 0 V
5 0 V
0 24 V
10 -24 V
15 0 V
10 0 V
0 18 V
5 -18 V
10 0 V
0 18 V
5 -6 V
6 5 V
10 -17 V
0 18 V
5 -18 V
5 0 V
5 18 V
0 -2 V
5 -16 V
5 0 V
10 0 V
0 17 V
5 -17 V
5 0 V
0 17 V
5 -17 V
10 0 V
0 17 V
10 0 V
20 -17 V
10 0 V
21 0 V
20 0 V
5 0 V
5 0 V
10 1 V
5 -1 V
0 551 V
5 -551 V
5 0 V
5 0 V
15 0 V
10 17 V
15 -17 V
5 0 V
5 17 V
5 -16 V
11 -1 V
10 0 V
10 0 V
0 16 V
15 -16 V
0 1 V
0 -1 V
stroke 12488 3494 M
0 16 V
0 3339 V
15 -3355 V
15 18 V
25 -18 V
5 0 V
36 0 V
10 0 V
15 0 V
5 1 V
20 17 V
25 -17 V
5 15 V
5 1 V
10 -17 V
5 16 V
5 -16 V
5 0 V
0 1 V
5 -1 V
5 0 V
6 16 V
5 0 V
15 -16 V
5 0 V
10 0 V
10 0 V
5 16 V
5 -16 V
10 0 V
5 0 V
5 0 V
20 1 V
0 16 V
10 -17 V
10 0 V
5 0 V
6 0 V
5 0 V
5 0 V
10 0 V
1200 3494 TriUF
1210 3494 TriUF
1250 3511 TriUF
1316 3494 TriUF
1341 3494 TriUF
1341 3494 TriUF
1482 3494 TriUF
1512 3494 TriUF
1543 3495 TriUF
1563 3494 TriUF
1563 3495 TriUF
1583 3511 TriUF
1669 3494 TriUF
1699 3494 TriUF
1790 3494 TriUF
1830 3495 TriUF
1911 3494 TriUF
1971 3494 TriUF
1986 3494 TriUF
2006 3494 TriUF
2067 3494 TriUF
2107 3494 TriUF
2132 3494 TriUF
3780 3494 TriUF
3911 3494 TriUF
3967 3494 TriUF
4163 3494 TriUF
4218 3494 TriUF
4218 3494 TriUF
4350 3510 TriUF
4491 3494 TriUF
4526 3494 TriUF
4682 3494 TriUF
4697 3494 TriUF
4853 3494 TriUF
4939 3494 TriUF
4944 3494 TriUF
4964 3497 TriUF
5045 3494 TriUF
5050 3494 TriUF
5070 3494 TriUF
5070 3494 TriUF
5090 3494 TriUF
5100 3511 TriUF
5110 3494 TriUF
5120 3494 TriUF
5120 3495 TriUF
5181 3494 TriUF
5181 3495 TriUF
5181 3494 TriUF
5181 3495 TriUF
5211 3494 TriUF
5211 3511 TriUF
5226 3494 TriUF
5262 3494 TriUF
5267 3494 TriUF
5272 3494 TriUF
5272 3494 TriUF
5292 3494 TriUF
5317 3494 TriUF
5327 3494 TriUF
5327 3494 TriUF
5327 3510 TriUF
5332 3494 TriUF
5332 3494 TriUF
5337 3496 TriUF
5352 3494 TriUF
5352 3494 TriUF
5367 3494 TriUF
5367 3494 TriUF
5377 3495 TriUF
5388 3610 TriUF
5393 3494 TriUF
5398 3494 TriUF
5398 3511 TriUF
5403 3494 TriUF
5413 3512 TriUF
5423 3494 TriUF
5423 3494 TriUF
5433 3494 TriUF
5433 3494 TriUF
5438 3512 TriUF
5438 3494 TriUF
5458 3510 TriUF
5463 3494 TriUF
5473 3494 TriUF
5483 3494 TriUF
5493 3494 TriUF
5503 3494 TriUF
5503 3513 TriUF
5509 3494 TriUF
5509 3494 TriUF
5509 3511 TriUF
5509 3510 TriUF
5509 3511 TriUF
5514 3512 TriUF
5529 3494 TriUF
5529 5696 TriUF
5539 3494 TriUF
5544 3511 TriUF
5564 3511 TriUF
5574 3505 TriUF
5579 3494 TriUF
5589 3511 TriUF
5599 3511 TriUF
5604 3494 TriUF
5609 3494 TriUF
5614 3494 TriUF
5624 3494 TriUF
5629 3495 TriUF
5655 3511 TriUF
5660 3494 TriUF
5670 3494 TriUF
5675 3511 TriUF
5690 3494 TriUF
5690 3494 TriUF
5715 3494 TriUF
5715 3494 TriUF
5715 3494 TriUF
5715 3511 TriUF
5715 3494 TriUF
5715 3510 TriUF
5725 3494 TriUF
5735 3494 TriUF
5740 6006 TriUF
5750 3494 TriUF
5766 3496 TriUF
5776 3494 TriUF
5781 3513 TriUF
5781 3512 TriUF
5781 4126 TriUF
5796 3494 TriUF
5796 3494 TriUF
5801 3512 TriUF
5801 3795 TriUF
5806 3511 TriUF
5816 3494 TriUF
5831 3494 TriUF
5856 3511 TriUF
5866 3494 TriUF
5871 3494 TriUF
5876 3494 TriUF
5886 3494 TriUF
5891 3511 TriUF
5912 3511 TriUF
5932 3494 TriUF
5947 3495 TriUF
5962 3494 TriUF
5967 3494 TriUF
5972 3494 TriUF
5977 3494 TriUF
5977 3494 TriUF
5987 3494 TriUF
5987 3512 TriUF
6023 3506 TriUF
6023 3494 TriUF
6073 3511 TriUF
6078 3494 TriUF
6078 3510 TriUF
6098 3494 TriUF
6108 3494 TriUF
6123 3494 TriUF
6123 3494 TriUF
6123 3510 TriUF
6133 3494 TriUF
6138 3494 TriUF
6154 3494 TriUF
6164 3494 TriUF
6169 3494 TriUF
6179 3494 TriUF
6189 3494 TriUF
6194 3494 TriUF
6229 3494 TriUF
6244 3494 TriUF
6254 3511 TriUF
6285 3511 TriUF
6290 3494 TriUF
6315 3494 TriUF
6330 3494 TriUF
6330 3494 TriUF
6365 3494 TriUF
6370 3494 TriUF
6380 3494 TriUF
6395 3494 TriUF
6395 3518 TriUF
6400 3510 TriUF
6446 3494 TriUF
6456 3494 TriUF
6486 3494 TriUF
6491 3494 TriUF
6491 3636 TriUF
6506 3495 TriUF
6511 3494 TriUF
6526 3494 TriUF
6547 3511 TriUF
6552 3494 TriUF
6552 3494 TriUF
6552 3494 TriUF
6572 3494 TriUF
6592 3494 TriUF
6607 3494 TriUF
6622 3510 TriUF
6683 3494 TriUF
6708 3494 TriUF
6723 3510 TriUF
6763 3494 TriUF
6794 3494 TriUF
6794 3494 TriUF
11349 3494 TriUF
11349 3495 TriUF
11354 3494 TriUF
11354 3495 TriUF
11354 3494 TriUF
11354 3494 TriUF
11359 3494 TriUF
11369 3494 TriUF
11374 3511 TriUF
11404 3494 TriUF
11404 3494 TriUF
11409 3494 TriUF
11419 3494 TriUF
11425 3494 TriUF
11445 3494 TriUF
11455 3494 TriUF
11460 3494 TriUF
11465 3494 TriUF
11485 3511 TriUF
11500 3512 TriUF
11510 3512 TriUF
11520 3494 TriUF
11520 3494 TriUF
11556 3494 TriUF
11561 3494 TriUF
11561 3494 TriUF
11581 3494 TriUF
11586 3495 TriUF
11596 3494 TriUF
11601 3495 TriUF
11626 3494 TriUF
11641 3510 TriUF
11656 3494 TriUF
11671 3494 TriUF
11671 3494 TriUF
11676 3510 TriUF
11682 3495 TriUF
11682 3511 TriUF
11702 3510 TriUF
11717 3494 TriUF
11737 3494 TriUF
11737 3494 TriUF
11757 3494 TriUF
11772 3495 TriUF
11777 3494 TriUF
11787 3494 TriUF
11792 3495 TriUF
11802 3510 TriUF
11813 3494 TriUF
11818 3494 TriUF
11823 3494 TriUF
11828 3494 TriUF
11848 3494 TriUF
11848 3495 TriUF
11863 3494 TriUF
11868 3494 TriUF
11878 3511 TriUF
11918 3494 TriUF
11944 3510 TriUF
11959 3494 TriUF
11959 3494 TriUF
11964 3494 TriUF
11969 3494 TriUF
11969 3495 TriUF
11974 3512 TriUF
11979 3494 TriUF
11979 3512 TriUF
11989 3517 TriUF
11994 3494 TriUF
11994 3494 TriUF
12004 3494 TriUF
12024 3494 TriUF
12039 3495 TriUF
12054 3494 TriUF
12070 3494 TriUF
12075 3494 TriUF
12100 3511 TriUF
12105 3494 TriUF
12115 3495 TriUF
12125 3494 TriUF
12130 3494 TriUF
12135 3494 TriUF
12135 3518 TriUF
12145 3494 TriUF
12160 3494 TriUF
12160 3494 TriUF
12170 3494 TriUF
12170 3494 TriUF
12170 3512 TriUF
12175 3494 TriUF
12185 3494 TriUF
12185 3512 TriUF
12190 3506 TriUF
12196 3511 TriUF
12206 3494 TriUF
12206 3512 TriUF
12211 3494 TriUF
12216 3494 TriUF
12221 3512 TriUF
12221 3510 TriUF
12226 3494 TriUF
12231 3494 TriUF
12241 3494 TriUF
12241 3511 TriUF
12246 3494 TriUF
12251 3494 TriUF
12251 3494 TriUF
12251 3511 TriUF
12256 3494 TriUF
12266 3494 TriUF
12266 3511 TriUF
12276 3511 TriUF
12296 3494 TriUF
12306 3494 TriUF
12306 3494 TriUF
12327 3494 TriUF
12347 3494 TriUF
12352 3494 TriUF
12357 3494 TriUF
12367 3495 TriUF
12372 3494 TriUF
12372 4045 TriUF
12377 3494 TriUF
12377 3494 TriUF
12382 3494 TriUF
12387 3494 TriUF
12402 3494 TriUF
12412 3511 TriUF
12427 3494 TriUF
12432 3494 TriUF
12437 3511 TriUF
12442 3495 TriUF
12453 3494 TriUF
12463 3494 TriUF
12473 3494 TriUF
12473 3510 TriUF
12488 3494 TriUF
12488 3494 TriUF
12488 3494 TriUF
12488 3495 TriUF
12488 3494 TriUF
12488 3510 TriUF
12488 6849 TriUF
12503 3494 TriUF
12518 3512 TriUF
12543 3494 TriUF
12548 3494 TriUF
12548 3494 TriUF
12584 3494 TriUF
12584 3494 TriUF
12594 3494 TriUF
12609 3494 TriUF
12614 3495 TriUF
12634 3512 TriUF
12659 3495 TriUF
12664 3510 TriUF
12669 3511 TriUF
12679 3494 TriUF
12684 3510 TriUF
12689 3494 TriUF
12694 3494 TriUF
12694 3495 TriUF
12699 3494 TriUF
12704 3494 TriUF
12704 3494 TriUF
12704 3494 TriUF
12710 3510 TriUF
12715 3510 TriUF
12730 3494 TriUF
12730 3494 TriUF
12730 3494 TriUF
12735 3494 TriUF
12745 3494 TriUF
12755 3494 TriUF
12755 3494 TriUF
12760 3510 TriUF
12765 3494 TriUF
12765 3494 TriUF
12775 3494 TriUF
12780 3494 TriUF
12785 3494 TriUF
12805 3495 TriUF
12805 3511 TriUF
12815 3494 TriUF
12825 3494 TriUF
12825 3494 TriUF
12825 3494 TriUF
12830 3494 TriUF
12830 3494 TriUF
12836 3494 TriUF
12841 3494 TriUF
12846 3494 TriUF
12856 3494 TriUF
% End plot #1
1.000 UL
LTb
LCb setrgbcolor
1200 7049 N
0 -3556 V
12598 0 V
0 3556 V
-12598 0 V
Z stroke
1.000 UP
1.000 UL
LTb
LCb setrgbcolor
stroke
grestore
end
showpage
%%Page: 2 2
gnudict begin
gsave
doclip
50 50 translate
0.050 0.050 scale
0 setgray
newpath
(Times) findfont 200 scalefont setfont
BackgroundColor 0 lt 3 1 roll 0 lt exch 0 lt or or not {BackgroundColor C 1.000 0 0 14400.00 10080.00 BoxColFill} if
1.000 UL
LTb
LCb setrgbcolor
1.000 UL
LTa
LCa setrgbcolor
600 3408 M
12598 0 V
stroke
LTb
LCb setrgbcolor
600 3408 M
63 0 V
12535 0 R
-63 0 V
stroke
480 3408 M
[ [(Times) 200.0 0.0 true true 0 ( 0)]
] -66.7 MRshow
1.000 UL
LTb
LCb setrgbcolor
1.000 UL
LTa
LCa setrgbcolor
600 3772 M
12598 0 V
stroke
LTb
LCb setrgbcolor
600 3772 M
63 0 V
12535 0 R
-63 0 V
stroke
480 3772 M
[ [(Times) 200.0 0.0 true true 0 ( 2e+06)]
] -66.7 MRshow
1.000 UL
LTb
LCb setrgbcolor
1.000 UL
LTa
LCa setrgbcolor
600 4136 M
12598 0 V
stroke
LTb
LCb setrgbcolor
600 4136 M
63 0 V
12535 0 R
-63 0 V
stroke
480 4136 M
[ [(Times) 200.0 0.0 true true 0 ( 4e+06)]
] -66.7 MRshow
1.000 UL
LTb
LCb setrgbcolor
1.000 UL
LTa
LCa setrgbcolor
600 4500 M
12598 0 V
stroke
LTb
LCb setrgbcolor
600 4500 M
63 0 V
12535 0 R
-63 0 V
stroke
480 4500 M
[ [(Times) 200.0 0.0 true true 0 ( 6e+06)]
] -66.7 MRshow
1.000 UL
LTb
LCb setrgbcolor
1.000 UL
LTa
LCa setrgbcolor
600 4864 M
12598 0 V
stroke
LTb
LCb setrgbcolor
600 4864 M
63 0 V
12535 0 R
-63 0 V
stroke
480 4864 M
[ [(Times) 200.0 0.0 true true 0 ( 8e+06)]
] -66.7 MRshow
1.000 UL
LTb
LCb setrgbcolor
1.000 UL
LTa
LCa setrgbcolor
600 5229 M
12598 0 V
stroke
LTb
LCb setrgbcolor
600 5229 M
63 0 V
12535 0 R
-63 0 V
stroke
480 5229 M
[ [(Times) 200.0 0.0 true true 0 ( 1e+07)]
] -66.7 MRshow
1.000 UL
LTb
LCb setrgbcolor
1.000 UL
LTa
LCa setrgbcolor
600 5593 M
12598 0 V
stroke
LTb
LCb setrgbcolor
600 5593 M
63 0 V
12535 0 R
-63 0 V
stroke
480 5593 M
[ [(Times) 200.0 0.0 true true 0 ( 1.2e+07)]
] -66.7 MRshow
1.000 UL
LTb
LCb setrgbcolor
1.000 UL
LTa
LCa setrgbcolor
600 5957 M
12598 0 V
stroke
LTb
LCb setrgbcolor
600 5957 M
63 0 V
12535 0 R
-63 0 V
stroke
480 5957 M
[ [(Times) 200.0 0.0 true true 0 ( 1.4e+07)]
] -66.7 MRshow
1.000 UL
LTb
LCb setrgbcolor
1.000 UL
LTa
LCa setrgbcolor
600 6321 M
12598 0 V
stroke
LTb
LCb setrgbcolor
600 6321 M
63 0 V
12535 0 R
-63 0 V
stroke
480 6321 M
[ [(Times) 200.0 0.0 true true 0 ( 1.6e+07)]
] -66.7 MRshow
1.000 UL
LTb
LCb setrgbcolor
1.000 UL
LTa
LCa setrgbcolor
600 6685 M
12598 0 V
stroke
LTb
LCb setrgbcolor
600 6685 M
63 0 V
12535 0 R
-63 0 V
stroke
480 6685 M
[ [(Times) 200.0 0.0 true true 0 ( 1.8e+07)]
] -66.7 MRshow
1.000 UL
LTb
LCb setrgbcolor
1.000 UL
LTa
LCa setrgbcolor
600 7049 M
12598 0 V
stroke
LTb
LCb setrgbcolor
600 7049 M
63 0 V
12535 0 R
-63 0 V
stroke
480 7049 M
[ [(Times) 200.0 0.0 true true 0 ( 2e+07)]
] -66.7 MRshow
1.000 UL
LTb
LCb setrgbcolor
1.000 UL
LTa
LCa setrgbcolor
600 3408 M
0 3641 V
stroke
LTb
LCb setrgbcolor
600 3408 M
0 63 V
0 3578 R
0 -63 V
stroke
600 3288 M
currentpoint gsave translate -45 rotate 0 0 moveto
[ [(Times) 200.0 0.0 true true 0 ( 0)]
] -66.7 MLshow
grestore
1.000 UL
LTb
LCb setrgbcolor
1.000 UL
LTa
LCa setrgbcolor
2400 3408 M
0 3641 V
stroke
LTb
LCb setrgbcolor
2400 3408 M
0 63 V
0 3578 R
0 -63 V
stroke
2400 3288 M
currentpoint gsave translate -45 rotate 0 0 moveto
[ [(Times) 200.0 0.0 true true 0 ( 20)]
] -66.7 MLshow
grestore
1.000 UL
LTb
LCb setrgbcolor
1.000 UL
LTa
LCa setrgbcolor
4199 3408 M
0 3641 V
stroke
LTb
LCb setrgbcolor
4199 3408 M
0 63 V
0 3578 R
0 -63 V
stroke
4199 3288 M
currentpoint gsave translate -45 rotate 0 0 moveto
[ [(Times) 200.0 0.0 true true 0 ( 40)]
] -66.7 MLshow
grestore
1.000 UL
LTb
LCb setrgbcolor
1.000 UL
LTa
LCa setrgbcolor
5999 3408 M
0 3641 V
stroke
LTb
LCb setrgbcolor
5999 3408 M
0 63 V
0 3578 R
0 -63 V
stroke
5999 3288 M
currentpoint gsave translate -45 rotate 0 0 moveto
[ [(Times) 200.0 0.0 true true 0 ( 60)]
] -66.7 MLshow
grestore
1.000 UL
LTb
LCb setrgbcolor
1.000 UL
LTa
LCa setrgbcolor
7799 3408 M
0 3641 V
stroke
LTb
LCb setrgbcolor
7799 3408 M
0 63 V
0 3578 R
0 -63 V
stroke
7799 3288 M
currentpoint gsave translate -45 rotate 0 0 moveto
[ [(Times) 200.0 0.0 true true 0 ( 80)]
] -66.7 MLshow
grestore
1.000 UL
LTb
LCb setrgbcolor
1.000 UL
LTa
LCa setrgbcolor
9599 3408 M
0 3641 V
stroke
LTb
LCb setrgbcolor
9599 3408 M
0 63 V
0 3578 R
0 -63 V
stroke
9599 3288 M
currentpoint gsave translate -45 rotate 0 0 moveto
[ [(Times) 200.0 0.0 true true 0 ( 100)]
] -66.7 MLshow
grestore
1.000 UL
LTb
LCb setrgbcolor
1.000 UL
LTa
LCa setrgbcolor
11398 3408 M
0 3641 V
stroke
LTb
LCb setrgbcolor
11398 3408 M
0 63 V
0 3578 R
0 -63 V
stroke
11398 3288 M
currentpoint gsave translate -45 rotate 0 0 moveto
[ [(Times) 200.0 0.0 true true 0 ( 120)]
] -66.7 MLshow
grestore
1.000 UL
LTb
LCb setrgbcolor
1.000 UL
LTa
LCa setrgbcolor
13198 3408 M
0 3641 V
stroke
LTb
LCb setrgbcolor
13198 3408 M
0 63 V
0 3578 R
0 -63 V
stroke
13198 3288 M
currentpoint gsave translate -45 rotate 0 0 moveto
[ [(Times) 200.0 0.0 true true 0 ( 140)]
] -66.7 MLshow
grestore
1.000 UL
LTb
LCb setrgbcolor
1.000 UL
LTb
LCb setrgbcolor
600 7049 N
0 -3641 V
12598 0 V
0 3641 V
600 7049 L
Z stroke
LCb setrgbcolor
-700 5228 M
currentpoint gsave translate -270 rotate 0 0 moveto
[ [(Times) 200.0 0.0 true true 0 (Flow size [bytes])]
] -66.7 MCshow
grestore
LTb
LCb setrgbcolor
6899 2769 M
[ [(Times) 200.0 0.0 true true 0 (Duration [sec])]
] -66.7 MCshow
LTb
6899 7349 M
[ [(Times) 200.0 0.0 true true 0 (src port 80, repeating connections sorted by duration)]
] -66.7 MCshow
1.000 UP
1.000 UL
LTb
LCb setrgbcolor
1.000 UL
LT8
LC8 setrgbcolor
6508 63 N
782 0 V
-782 0 V
Z stroke
% Begin plot #1
1.000 UP
1.000 UL
LT8
1.00 0.00 0.00 C 603 3408 TriUF
603 3408 TriUF
603 3408 TriUF
603 3408 TriUF
603 3408 TriUF
603 3408 TriUF
603 3408 TriUF
603 3408 TriUF
603 3408 TriUF
603 3408 TriUF
603 3408 TriUF
603 3408 TriUF
603 3408 TriUF
603 3408 TriUF
603 3408 TriUF
603 3408 TriUF
603 3408 TriUF
603 3408 TriUF
603 3408 TriUF
603 3408 TriUF
603 3408 TriUF
603 3408 TriUF
603 3408 TriUF
603 3408 TriUF
603 3408 TriUF
603 3408 TriUF
603 3408 TriUF
603 3408 TriUF
603 3408 TriUF
603 3408 TriUF
603 3408 TriUF
603 3408 TriUF
603 3408 TriUF
603 3408 TriUF
603 3408 TriUF
603 3408 TriUF
603 3408 TriUF
603 3408 TriUF
603 3408 TriUF
603 3408 TriUF
603 3408 TriUF
603 3408 TriUF
603 3408 TriUF
603 3408 TriUF
603 3408 TriUF
603 3408 TriUF
603 3408 TriUF
603 3408 TriUF
603 3408 TriUF
603 3408 TriUF
603 3408 TriUF
603 3408 TriUF
603 3408 TriUF
603 3408 TriUF
603 3408 TriUF
603 3408 TriUF
603 3408 TriUF
603 3408 TriUF
603 3408 TriUF
603 3408 TriUF
603 3408 TriUF
603 3408 TriUF
603 3408 TriUF
603 3408 TriUF
603 3408 TriUF
603 3408 TriUF
603 3408 TriUF
603 3408 TriUF
603 3408 TriUF
603 3408 TriUF
603 3408 TriUF
603 3408 TriUF
603 3408 TriUF
603 3408 TriUF
603 3408 TriUF
603 3408 TriUF
603 3408 TriUF
603 3408 TriUF
603 3408 TriUF
603 3408 TriUF
603 3408 TriUF
603 3408 TriUF
603 3408 TriUF
603 3408 TriUF
603 3408 TriUF
603 3408 TriUF
603 3408 TriUF
603 3408 TriUF
603 3408 TriUF
603 3408 TriUF
603 3408 TriUF
603 3408 TriUF
603 3408 TriUF
603 3408 TriUF
603 3408 TriUF
603 3408 TriUF
603 3408 TriUF
603 3408 TriUF
603 3408 TriUF
603 3408 TriUF
603 3408 TriUF
603 3408 TriUF
603 3408 TriUF
603 3408 TriUF
603 3408 TriUF
603 3408 TriUF
603 3408 TriUF
603 3408 TriUF
603 3408 TriUF
603 3408 TriUF
603 3408 TriUF
603 3408 TriUF
603 3408 TriUF
603 3408 TriUF
603 3408 TriUF
603 3408 TriUF
603 3408 TriUF
603 3408 TriUF
603 3408 TriUF
603 3408 TriUF
603 3408 TriUF
603 3408 TriUF
603 3408 TriUF
603 3408 TriUF
603 3408 TriUF
603 3408 TriUF
603 3408 TriUF
603 3408 TriUF
603 3408 TriUF
603 3408 TriUF
603 3408 TriUF
603 3408 TriUF
603 3408 TriUF
603 3408 TriUF
603 3408 TriUF
603 3408 TriUF
603 3408 TriUF
603 3408 TriUF
603 3408 TriUF
603 3408 TriUF
603 3408 TriUF
603 3408 TriUF
603 3408 TriUF
603 3408 TriUF
603 3408 TriUF
603 3408 TriUF
603 3408 TriUF
603 3408 TriUF
603 3408 TriUF
603 3408 TriUF
603 3408 TriUF
603 3408 TriUF
603 3408 TriUF
603 3408 TriUF
603 3408 TriUF
603 3408 TriUF
603 3408 TriUF
603 3408 TriUF
603 3408 TriUF
603 3408 TriUF
603 3408 TriUF
603 3408 TriUF
603 3408 TriUF
603 3408 TriUF
603 3408 TriUF
603 3408 TriUF
603 3408 TriUF
603 3408 TriUF
603 3408 TriUF
603 3408 TriUF
604 3408 TriUF
604 3408 TriUF
604 3408 TriUF
604 3408 TriUF
604 3408 TriUF
604 3408 TriUF
604 3408 TriUF
604 3408 TriUF
604 3408 TriUF
604 3408 TriUF
604 3408 TriUF
604 3408 TriUF
604 3408 TriUF
604 3408 TriUF
604 3408 TriUF
604 3408 TriUF
604 3408 TriUF
604 3408 TriUF
604 3408 TriUF
604 3408 TriUF
604 3408 TriUF
604 3408 TriUF
604 3408 TriUF
604 3408 TriUF
604 3408 TriUF
604 3408 TriUF
604 3408 TriUF
604 3408 TriUF
604 3408 TriUF
604 3408 TriUF
604 3408 TriUF
604 3408 TriUF
604 3408 TriUF
604 3408 TriUF
604 3408 TriUF
604 3408 TriUF
604 3408 TriUF
604 3408 TriUF
604 3408 TriUF
604 3408 TriUF
604 3408 TriUF
604 3408 TriUF
604 3408 TriUF
604 3408 TriUF
604 3408 TriUF
604 3408 TriUF
604 3408 TriUF
604 3408 TriUF
604 3408 TriUF
604 3408 TriUF
604 3408 TriUF
604 3408 TriUF
604 3408 TriUF
604 3408 TriUF
604 3408 TriUF
604 3408 TriUF
604 3408 TriUF
604 3408 TriUF
604 3408 TriUF
604 3408 TriUF
604 3408 TriUF
604 3408 TriUF
604 3408 TriUF
605 3408 TriUF
605 3408 TriUF
605 3408 TriUF
605 3408 TriUF
605 3408 TriUF
605 3408 TriUF
605 3408 TriUF
605 3408 TriUF
605 3408 TriUF
605 3408 TriUF
605 3408 TriUF
605 3408 TriUF
605 3408 TriUF
605 3408 TriUF
605 3408 TriUF
605 3408 TriUF
605 3408 TriUF
605 3408 TriUF
605 3408 TriUF
605 3408 TriUF
605 3408 TriUF
605 3408 TriUF
605 3408 TriUF
605 3408 TriUF
605 3408 TriUF
605 3408 TriUF
605 3408 TriUF
605 3408 TriUF
605 3408 TriUF
605 3408 TriUF
605 3408 TriUF
605 3408 TriUF
605 3408 TriUF
605 3408 TriUF
605 3408 TriUF
605 3408 TriUF
605 3408 TriUF
605 3408 TriUF
605 3408 TriUF
605 3408 TriUF
605 3408 TriUF
605 3408 TriUF
605 3408 TriUF
605 3408 TriUF
605 3408 TriUF
605 3408 TriUF
605 3408 TriUF
605 3408 TriUF
605 3408 TriUF
606 3408 TriUF
606 3408 TriUF
606 3408 TriUF
606 3408 TriUF
606 3408 TriUF
606 3408 TriUF
606 3408 TriUF
606 3408 TriUF
606 3408 TriUF
606 3408 TriUF
606 3408 TriUF
606 3408 TriUF
606 3408 TriUF
606 3408 TriUF
606 3408 TriUF
606 3408 TriUF
606 3408 TriUF
607 3408 TriUF
607 3408 TriUF
607 3408 TriUF
607 3408 TriUF
607 3408 TriUF
608 3408 TriUF
608 3408 TriUF
608 3408 TriUF
609 3408 TriUF
610 3408 TriUF
615 3408 TriUF
643 3523 TriUF
644 3528 TriUF
645 3512 TriUF
659 3599 TriUF
659 3599 TriUF
659 3599 TriUF
661 3599 TriUF
661 3599 TriUF
661 3599 TriUF
661 3599 TriUF
661 3599 TriUF
661 3599 TriUF
661 3599 TriUF
661 3599 TriUF
661 3599 TriUF
661 3599 TriUF
661 3599 TriUF
662 3599 TriUF
662 3599 TriUF
662 3599 TriUF
662 3599 TriUF
662 3599 TriUF
662 3599 TriUF
662 3599 TriUF
662 3599 TriUF
662 3599 TriUF
662 3599 TriUF
662 3599 TriUF
662 3599 TriUF
662 3599 TriUF
662 3599 TriUF
662 3599 TriUF
662 3599 TriUF
662 3599 TriUF
662 3599 TriUF
663 3599 TriUF
663 3599 TriUF
663 3599 TriUF
663 3599 TriUF
663 3599 TriUF
663 3599 TriUF
663 3599 TriUF
663 3599 TriUF
663 3599 TriUF
663 3599 TriUF
663 3599 TriUF
663 3599 TriUF
663 3599 TriUF
663 3599 TriUF
663 3599 TriUF
664 3599 TriUF
664 3599 TriUF
664 3599 TriUF
664 3599 TriUF
664 3599 TriUF
664 3599 TriUF
665 3599 TriUF
665 3599 TriUF
665 3599 TriUF
665 3599 TriUF
665 3599 TriUF
665 3599 TriUF
666 3599 TriUF
666 3599 TriUF
666 3599 TriUF
666 3599 TriUF
666 3599 TriUF
666 3599 TriUF
666 3599 TriUF
667 3599 TriUF
667 3599 TriUF
667 3599 TriUF
667 3599 TriUF
667 3599 TriUF
667 3599 TriUF
668 3599 TriUF
668 3599 TriUF
668 3599 TriUF
669 3599 TriUF
672 3599 TriUF
683 3599 TriUF
687 3599 TriUF
689 3687 TriUF
1015 4902 TriUF
1105 5288 TriUF
1669 3570 TriUF
2557 3707 TriUF
2843 3585 TriUF
8405 5317 TriUF
9503 3686 TriUF
12488 6820 TriUF
% End plot #1
1.000 UL
LTb
LCb setrgbcolor
600 7049 N
0 -3641 V
12598 0 V
0 3641 V
600 7049 L
Z stroke
1.000 UP
1.000 UL
LTb
LCb setrgbcolor
stroke
grestore
end
showpage
%%Trailer
%%DocumentFonts: Times
