%!PS-Adobe-2.0 EPSF-2.0
%%Title: repeating_conn_2572676247_3608335001.eps
%%Creator: gnuplot 4.6 patchlevel 2
%%CreationDate: Tue Apr  8 13:00:48 2014
%%DocumentFonts: (atend)
%%BoundingBox: 50 50 770 554
%%EndComments
%%BeginProlog
/gnudict 256 dict def
gnudict begin
%
% The following true/false flags may be edited by hand if desired.
% The unit line width and grayscale image gamma correction may also be changed.
%
/Color true def
/Blacktext false def
/Solid false def
/Dashlength 1 def
/Landscape false def
/Level1 false def
/Rounded false def
/ClipToBoundingBox false def
/SuppressPDFMark false def
/TransparentPatterns false def
/gnulinewidth 5.000 def
/userlinewidth gnulinewidth def
/Gamma 1.0 def
/BackgroundColor {-1.000 -1.000 -1.000} def
%
/vshift -66 def
/dl1 {
  10.0 Dashlength mul mul
  Rounded { currentlinewidth 0.75 mul sub dup 0 le { pop 0.01 } if } if
} def
/dl2 {
  10.0 Dashlength mul mul
  Rounded { currentlinewidth 0.75 mul add } if
} def
/hpt_ 31.5 def
/vpt_ 31.5 def
/hpt hpt_ def
/vpt vpt_ def
/doclip {
  ClipToBoundingBox {
    newpath 50 50 moveto 770 50 lineto 770 554 lineto 50 554 lineto closepath
    clip
  } if
} def
%
% Gnuplot Prolog Version 4.6 (September 2012)
%
%/SuppressPDFMark true def
%
/M {moveto} bind def
/L {lineto} bind def
/R {rmoveto} bind def
/V {rlineto} bind def
/N {newpath moveto} bind def
/Z {closepath} bind def
/C {setrgbcolor} bind def
/f {rlineto fill} bind def
/g {setgray} bind def
/Gshow {show} def   % May be redefined later in the file to support UTF-8
/vpt2 vpt 2 mul def
/hpt2 hpt 2 mul def
/Lshow {currentpoint stroke M 0 vshift R 
	Blacktext {gsave 0 setgray show grestore} {show} ifelse} def
/Rshow {currentpoint stroke M dup stringwidth pop neg vshift R
	Blacktext {gsave 0 setgray show grestore} {show} ifelse} def
/Cshow {currentpoint stroke M dup stringwidth pop -2 div vshift R 
	Blacktext {gsave 0 setgray show grestore} {show} ifelse} def
/UP {dup vpt_ mul /vpt exch def hpt_ mul /hpt exch def
  /hpt2 hpt 2 mul def /vpt2 vpt 2 mul def} def
/DL {Color {setrgbcolor Solid {pop []} if 0 setdash}
 {pop pop pop 0 setgray Solid {pop []} if 0 setdash} ifelse} def
/BL {stroke userlinewidth 2 mul setlinewidth
	Rounded {1 setlinejoin 1 setlinecap} if} def
/AL {stroke userlinewidth 2 div setlinewidth
	Rounded {1 setlinejoin 1 setlinecap} if} def
/UL {dup gnulinewidth mul /userlinewidth exch def
	dup 1 lt {pop 1} if 10 mul /udl exch def} def
/PL {stroke userlinewidth setlinewidth
	Rounded {1 setlinejoin 1 setlinecap} if} def
3.8 setmiterlimit
% Default Line colors
/LCw {1 1 1} def
/LCb {0 0 0} def
/LCa {0 0 0} def
/LC0 {1 0 0} def
/LC1 {0 1 0} def
/LC2 {0 0 1} def
/LC3 {1 0 1} def
/LC4 {0 1 1} def
/LC5 {1 1 0} def
/LC6 {0 0 0} def
/LC7 {1 0.3 0} def
/LC8 {0.5 0.5 0.5} def
% Default Line Types
/LTw {PL [] 1 setgray} def
/LTb {BL [] LCb DL} def
/LTa {AL [1 udl mul 2 udl mul] 0 setdash LCa setrgbcolor} def
/LT0 {PL [] LC0 DL} def
/LT1 {PL [4 dl1 2 dl2] LC1 DL} def
/LT2 {PL [2 dl1 3 dl2] LC2 DL} def
/LT3 {PL [1 dl1 1.5 dl2] LC3 DL} def
/LT4 {PL [6 dl1 2 dl2 1 dl1 2 dl2] LC4 DL} def
/LT5 {PL [3 dl1 3 dl2 1 dl1 3 dl2] LC5 DL} def
/LT6 {PL [2 dl1 2 dl2 2 dl1 6 dl2] LC6 DL} def
/LT7 {PL [1 dl1 2 dl2 6 dl1 2 dl2 1 dl1 2 dl2] LC7 DL} def
/LT8 {PL [2 dl1 2 dl2 2 dl1 2 dl2 2 dl1 2 dl2 2 dl1 4 dl2] LC8 DL} def
/Pnt {stroke [] 0 setdash gsave 1 setlinecap M 0 0 V stroke grestore} def
/Dia {stroke [] 0 setdash 2 copy vpt add M
  hpt neg vpt neg V hpt vpt neg V
  hpt vpt V hpt neg vpt V closepath stroke
  Pnt} def
/Pls {stroke [] 0 setdash vpt sub M 0 vpt2 V
  currentpoint stroke M
  hpt neg vpt neg R hpt2 0 V stroke
 } def
/Box {stroke [] 0 setdash 2 copy exch hpt sub exch vpt add M
  0 vpt2 neg V hpt2 0 V 0 vpt2 V
  hpt2 neg 0 V closepath stroke
  Pnt} def
/Crs {stroke [] 0 setdash exch hpt sub exch vpt add M
  hpt2 vpt2 neg V currentpoint stroke M
  hpt2 neg 0 R hpt2 vpt2 V stroke} def
/TriU {stroke [] 0 setdash 2 copy vpt 1.12 mul add M
  hpt neg vpt -1.62 mul V
  hpt 2 mul 0 V
  hpt neg vpt 1.62 mul V closepath stroke
  Pnt} def
/Star {2 copy Pls Crs} def
/BoxF {stroke [] 0 setdash exch hpt sub exch vpt add M
  0 vpt2 neg V hpt2 0 V 0 vpt2 V
  hpt2 neg 0 V closepath fill} def
/TriUF {stroke [] 0 setdash vpt 1.12 mul add M
  hpt neg vpt -1.62 mul V
  hpt 2 mul 0 V
  hpt neg vpt 1.62 mul V closepath fill} def
/TriD {stroke [] 0 setdash 2 copy vpt 1.12 mul sub M
  hpt neg vpt 1.62 mul V
  hpt 2 mul 0 V
  hpt neg vpt -1.62 mul V closepath stroke
  Pnt} def
/TriDF {stroke [] 0 setdash vpt 1.12 mul sub M
  hpt neg vpt 1.62 mul V
  hpt 2 mul 0 V
  hpt neg vpt -1.62 mul V closepath fill} def
/DiaF {stroke [] 0 setdash vpt add M
  hpt neg vpt neg V hpt vpt neg V
  hpt vpt V hpt neg vpt V closepath fill} def
/Pent {stroke [] 0 setdash 2 copy gsave
  translate 0 hpt M 4 {72 rotate 0 hpt L} repeat
  closepath stroke grestore Pnt} def
/PentF {stroke [] 0 setdash gsave
  translate 0 hpt M 4 {72 rotate 0 hpt L} repeat
  closepath fill grestore} def
/Circle {stroke [] 0 setdash 2 copy
  hpt 0 360 arc stroke Pnt} def
/CircleF {stroke [] 0 setdash hpt 0 360 arc fill} def
/C0 {BL [] 0 setdash 2 copy moveto vpt 90 450 arc} bind def
/C1 {BL [] 0 setdash 2 copy moveto
	2 copy vpt 0 90 arc closepath fill
	vpt 0 360 arc closepath} bind def
/C2 {BL [] 0 setdash 2 copy moveto
	2 copy vpt 90 180 arc closepath fill
	vpt 0 360 arc closepath} bind def
/C3 {BL [] 0 setdash 2 copy moveto
	2 copy vpt 0 180 arc closepath fill
	vpt 0 360 arc closepath} bind def
/C4 {BL [] 0 setdash 2 copy moveto
	2 copy vpt 180 270 arc closepath fill
	vpt 0 360 arc closepath} bind def
/C5 {BL [] 0 setdash 2 copy moveto
	2 copy vpt 0 90 arc
	2 copy moveto
	2 copy vpt 180 270 arc closepath fill
	vpt 0 360 arc} bind def
/C6 {BL [] 0 setdash 2 copy moveto
	2 copy vpt 90 270 arc closepath fill
	vpt 0 360 arc closepath} bind def
/C7 {BL [] 0 setdash 2 copy moveto
	2 copy vpt 0 270 arc closepath fill
	vpt 0 360 arc closepath} bind def
/C8 {BL [] 0 setdash 2 copy moveto
	2 copy vpt 270 360 arc closepath fill
	vpt 0 360 arc closepath} bind def
/C9 {BL [] 0 setdash 2 copy moveto
	2 copy vpt 270 450 arc closepath fill
	vpt 0 360 arc closepath} bind def
/C10 {BL [] 0 setdash 2 copy 2 copy moveto vpt 270 360 arc closepath fill
	2 copy moveto
	2 copy vpt 90 180 arc closepath fill
	vpt 0 360 arc closepath} bind def
/C11 {BL [] 0 setdash 2 copy moveto
	2 copy vpt 0 180 arc closepath fill
	2 copy moveto
	2 copy vpt 270 360 arc closepath fill
	vpt 0 360 arc closepath} bind def
/C12 {BL [] 0 setdash 2 copy moveto
	2 copy vpt 180 360 arc closepath fill
	vpt 0 360 arc closepath} bind def
/C13 {BL [] 0 setdash 2 copy moveto
	2 copy vpt 0 90 arc closepath fill
	2 copy moveto
	2 copy vpt 180 360 arc closepath fill
	vpt 0 360 arc closepath} bind def
/C14 {BL [] 0 setdash 2 copy moveto
	2 copy vpt 90 360 arc closepath fill
	vpt 0 360 arc} bind def
/C15 {BL [] 0 setdash 2 copy vpt 0 360 arc closepath fill
	vpt 0 360 arc closepath} bind def
/Rec {newpath 4 2 roll moveto 1 index 0 rlineto 0 exch rlineto
	neg 0 rlineto closepath} bind def
/Square {dup Rec} bind def
/Bsquare {vpt sub exch vpt sub exch vpt2 Square} bind def
/S0 {BL [] 0 setdash 2 copy moveto 0 vpt rlineto BL Bsquare} bind def
/S1 {BL [] 0 setdash 2 copy vpt Square fill Bsquare} bind def
/S2 {BL [] 0 setdash 2 copy exch vpt sub exch vpt Square fill Bsquare} bind def
/S3 {BL [] 0 setdash 2 copy exch vpt sub exch vpt2 vpt Rec fill Bsquare} bind def
/S4 {BL [] 0 setdash 2 copy exch vpt sub exch vpt sub vpt Square fill Bsquare} bind def
/S5 {BL [] 0 setdash 2 copy 2 copy vpt Square fill
	exch vpt sub exch vpt sub vpt Square fill Bsquare} bind def
/S6 {BL [] 0 setdash 2 copy exch vpt sub exch vpt sub vpt vpt2 Rec fill Bsquare} bind def
/S7 {BL [] 0 setdash 2 copy exch vpt sub exch vpt sub vpt vpt2 Rec fill
	2 copy vpt Square fill Bsquare} bind def
/S8 {BL [] 0 setdash 2 copy vpt sub vpt Square fill Bsquare} bind def
/S9 {BL [] 0 setdash 2 copy vpt sub vpt vpt2 Rec fill Bsquare} bind def
/S10 {BL [] 0 setdash 2 copy vpt sub vpt Square fill 2 copy exch vpt sub exch vpt Square fill
	Bsquare} bind def
/S11 {BL [] 0 setdash 2 copy vpt sub vpt Square fill 2 copy exch vpt sub exch vpt2 vpt Rec fill
	Bsquare} bind def
/S12 {BL [] 0 setdash 2 copy exch vpt sub exch vpt sub vpt2 vpt Rec fill Bsquare} bind def
/S13 {BL [] 0 setdash 2 copy exch vpt sub exch vpt sub vpt2 vpt Rec fill
	2 copy vpt Square fill Bsquare} bind def
/S14 {BL [] 0 setdash 2 copy exch vpt sub exch vpt sub vpt2 vpt Rec fill
	2 copy exch vpt sub exch vpt Square fill Bsquare} bind def
/S15 {BL [] 0 setdash 2 copy Bsquare fill Bsquare} bind def
/D0 {gsave translate 45 rotate 0 0 S0 stroke grestore} bind def
/D1 {gsave translate 45 rotate 0 0 S1 stroke grestore} bind def
/D2 {gsave translate 45 rotate 0 0 S2 stroke grestore} bind def
/D3 {gsave translate 45 rotate 0 0 S3 stroke grestore} bind def
/D4 {gsave translate 45 rotate 0 0 S4 stroke grestore} bind def
/D5 {gsave translate 45 rotate 0 0 S5 stroke grestore} bind def
/D6 {gsave translate 45 rotate 0 0 S6 stroke grestore} bind def
/D7 {gsave translate 45 rotate 0 0 S7 stroke grestore} bind def
/D8 {gsave translate 45 rotate 0 0 S8 stroke grestore} bind def
/D9 {gsave translate 45 rotate 0 0 S9 stroke grestore} bind def
/D10 {gsave translate 45 rotate 0 0 S10 stroke grestore} bind def
/D11 {gsave translate 45 rotate 0 0 S11 stroke grestore} bind def
/D12 {gsave translate 45 rotate 0 0 S12 stroke grestore} bind def
/D13 {gsave translate 45 rotate 0 0 S13 stroke grestore} bind def
/D14 {gsave translate 45 rotate 0 0 S14 stroke grestore} bind def
/D15 {gsave translate 45 rotate 0 0 S15 stroke grestore} bind def
/DiaE {stroke [] 0 setdash vpt add M
  hpt neg vpt neg V hpt vpt neg V
  hpt vpt V hpt neg vpt V closepath stroke} def
/BoxE {stroke [] 0 setdash exch hpt sub exch vpt add M
  0 vpt2 neg V hpt2 0 V 0 vpt2 V
  hpt2 neg 0 V closepath stroke} def
/TriUE {stroke [] 0 setdash vpt 1.12 mul add M
  hpt neg vpt -1.62 mul V
  hpt 2 mul 0 V
  hpt neg vpt 1.62 mul V closepath stroke} def
/TriDE {stroke [] 0 setdash vpt 1.12 mul sub M
  hpt neg vpt 1.62 mul V
  hpt 2 mul 0 V
  hpt neg vpt -1.62 mul V closepath stroke} def
/PentE {stroke [] 0 setdash gsave
  translate 0 hpt M 4 {72 rotate 0 hpt L} repeat
  closepath stroke grestore} def
/CircE {stroke [] 0 setdash 
  hpt 0 360 arc stroke} def
/Opaque {gsave closepath 1 setgray fill grestore 0 setgray closepath} def
/DiaW {stroke [] 0 setdash vpt add M
  hpt neg vpt neg V hpt vpt neg V
  hpt vpt V hpt neg vpt V Opaque stroke} def
/BoxW {stroke [] 0 setdash exch hpt sub exch vpt add M
  0 vpt2 neg V hpt2 0 V 0 vpt2 V
  hpt2 neg 0 V Opaque stroke} def
/TriUW {stroke [] 0 setdash vpt 1.12 mul add M
  hpt neg vpt -1.62 mul V
  hpt 2 mul 0 V
  hpt neg vpt 1.62 mul V Opaque stroke} def
/TriDW {stroke [] 0 setdash vpt 1.12 mul sub M
  hpt neg vpt 1.62 mul V
  hpt 2 mul 0 V
  hpt neg vpt -1.62 mul V Opaque stroke} def
/PentW {stroke [] 0 setdash gsave
  translate 0 hpt M 4 {72 rotate 0 hpt L} repeat
  Opaque stroke grestore} def
/CircW {stroke [] 0 setdash 
  hpt 0 360 arc Opaque stroke} def
/BoxFill {gsave Rec 1 setgray fill grestore} def
/Density {
  /Fillden exch def
  currentrgbcolor
  /ColB exch def /ColG exch def /ColR exch def
  /ColR ColR Fillden mul Fillden sub 1 add def
  /ColG ColG Fillden mul Fillden sub 1 add def
  /ColB ColB Fillden mul Fillden sub 1 add def
  ColR ColG ColB setrgbcolor} def
/BoxColFill {gsave Rec PolyFill} def
/PolyFill {gsave Density fill grestore grestore} def
/h {rlineto rlineto rlineto gsave closepath fill grestore} bind def
%
% PostScript Level 1 Pattern Fill routine for rectangles
% Usage: x y w h s a XX PatternFill
%	x,y = lower left corner of box to be filled
%	w,h = width and height of box
%	  a = angle in degrees between lines and x-axis
%	 XX = 0/1 for no/yes cross-hatch
%
/PatternFill {gsave /PFa [ 9 2 roll ] def
  PFa 0 get PFa 2 get 2 div add PFa 1 get PFa 3 get 2 div add translate
  PFa 2 get -2 div PFa 3 get -2 div PFa 2 get PFa 3 get Rec
  TransparentPatterns {} {gsave 1 setgray fill grestore} ifelse
  clip
  currentlinewidth 0.5 mul setlinewidth
  /PFs PFa 2 get dup mul PFa 3 get dup mul add sqrt def
  0 0 M PFa 5 get rotate PFs -2 div dup translate
  0 1 PFs PFa 4 get div 1 add floor cvi
	{PFa 4 get mul 0 M 0 PFs V} for
  0 PFa 6 get ne {
	0 1 PFs PFa 4 get div 1 add floor cvi
	{PFa 4 get mul 0 2 1 roll M PFs 0 V} for
 } if
  stroke grestore} def
%
/languagelevel where
 {pop languagelevel} {1} ifelse
 2 lt
	{/InterpretLevel1 true def}
	{/InterpretLevel1 Level1 def}
 ifelse
%
% PostScript level 2 pattern fill definitions
%
/Level2PatternFill {
/Tile8x8 {/PaintType 2 /PatternType 1 /TilingType 1 /BBox [0 0 8 8] /XStep 8 /YStep 8}
	bind def
/KeepColor {currentrgbcolor [/Pattern /DeviceRGB] setcolorspace} bind def
<< Tile8x8
 /PaintProc {0.5 setlinewidth pop 0 0 M 8 8 L 0 8 M 8 0 L stroke} 
>> matrix makepattern
/Pat1 exch def
<< Tile8x8
 /PaintProc {0.5 setlinewidth pop 0 0 M 8 8 L 0 8 M 8 0 L stroke
	0 4 M 4 8 L 8 4 L 4 0 L 0 4 L stroke}
>> matrix makepattern
/Pat2 exch def
<< Tile8x8
 /PaintProc {0.5 setlinewidth pop 0 0 M 0 8 L
	8 8 L 8 0 L 0 0 L fill}
>> matrix makepattern
/Pat3 exch def
<< Tile8x8
 /PaintProc {0.5 setlinewidth pop -4 8 M 8 -4 L
	0 12 M 12 0 L stroke}
>> matrix makepattern
/Pat4 exch def
<< Tile8x8
 /PaintProc {0.5 setlinewidth pop -4 0 M 8 12 L
	0 -4 M 12 8 L stroke}
>> matrix makepattern
/Pat5 exch def
<< Tile8x8
 /PaintProc {0.5 setlinewidth pop -2 8 M 4 -4 L
	0 12 M 8 -4 L 4 12 M 10 0 L stroke}
>> matrix makepattern
/Pat6 exch def
<< Tile8x8
 /PaintProc {0.5 setlinewidth pop -2 0 M 4 12 L
	0 -4 M 8 12 L 4 -4 M 10 8 L stroke}
>> matrix makepattern
/Pat7 exch def
<< Tile8x8
 /PaintProc {0.5 setlinewidth pop 8 -2 M -4 4 L
	12 0 M -4 8 L 12 4 M 0 10 L stroke}
>> matrix makepattern
/Pat8 exch def
<< Tile8x8
 /PaintProc {0.5 setlinewidth pop 0 -2 M 12 4 L
	-4 0 M 12 8 L -4 4 M 8 10 L stroke}
>> matrix makepattern
/Pat9 exch def
/Pattern1 {PatternBgnd KeepColor Pat1 setpattern} bind def
/Pattern2 {PatternBgnd KeepColor Pat2 setpattern} bind def
/Pattern3 {PatternBgnd KeepColor Pat3 setpattern} bind def
/Pattern4 {PatternBgnd KeepColor Landscape {Pat5} {Pat4} ifelse setpattern} bind def
/Pattern5 {PatternBgnd KeepColor Landscape {Pat4} {Pat5} ifelse setpattern} bind def
/Pattern6 {PatternBgnd KeepColor Landscape {Pat9} {Pat6} ifelse setpattern} bind def
/Pattern7 {PatternBgnd KeepColor Landscape {Pat8} {Pat7} ifelse setpattern} bind def
} def
%
%
%End of PostScript Level 2 code
%
/PatternBgnd {
  TransparentPatterns {} {gsave 1 setgray fill grestore} ifelse
} def
%
% Substitute for Level 2 pattern fill codes with
% grayscale if Level 2 support is not selected.
%
/Level1PatternFill {
/Pattern1 {0.250 Density} bind def
/Pattern2 {0.500 Density} bind def
/Pattern3 {0.750 Density} bind def
/Pattern4 {0.125 Density} bind def
/Pattern5 {0.375 Density} bind def
/Pattern6 {0.625 Density} bind def
/Pattern7 {0.875 Density} bind def
} def
%
% Now test for support of Level 2 code
%
Level1 {Level1PatternFill} {Level2PatternFill} ifelse
%
/Symbol-Oblique /Symbol findfont [1 0 .167 1 0 0] makefont
dup length dict begin {1 index /FID eq {pop pop} {def} ifelse} forall
currentdict end definefont pop
/MFshow {
   { dup 5 get 3 ge
     { 5 get 3 eq {gsave} {grestore} ifelse }
     {dup dup 0 get findfont exch 1 get scalefont setfont
     [ currentpoint ] exch dup 2 get 0 exch R dup 5 get 2 ne {dup dup 6
     get exch 4 get {Gshow} {stringwidth pop 0 R} ifelse }if dup 5 get 0 eq
     {dup 3 get {2 get neg 0 exch R pop} {pop aload pop M} ifelse} {dup 5
     get 1 eq {dup 2 get exch dup 3 get exch 6 get stringwidth pop -2 div
     dup 0 R} {dup 6 get stringwidth pop -2 div 0 R 6 get
     show 2 index {aload pop M neg 3 -1 roll neg R pop pop} {pop pop pop
     pop aload pop M} ifelse }ifelse }ifelse }
     ifelse }
   forall} def
/Gswidth {dup type /stringtype eq {stringwidth} {pop (n) stringwidth} ifelse} def
/MFwidth {0 exch { dup 5 get 3 ge { 5 get 3 eq { 0 } { pop } ifelse }
 {dup 3 get{dup dup 0 get findfont exch 1 get scalefont setfont
     6 get Gswidth pop add} {pop} ifelse} ifelse} forall} def
/MLshow { currentpoint stroke M
  0 exch R
  Blacktext {gsave 0 setgray MFshow grestore} {MFshow} ifelse } bind def
/MRshow { currentpoint stroke M
  exch dup MFwidth neg 3 -1 roll R
  Blacktext {gsave 0 setgray MFshow grestore} {MFshow} ifelse } bind def
/MCshow { currentpoint stroke M
  exch dup MFwidth -2 div 3 -1 roll R
  Blacktext {gsave 0 setgray MFshow grestore} {MFshow} ifelse } bind def
/XYsave    { [( ) 1 2 true false 3 ()] } bind def
/XYrestore { [( ) 1 2 true false 4 ()] } bind def
Level1 SuppressPDFMark or 
{} {
/SDict 10 dict def
systemdict /pdfmark known not {
  userdict /pdfmark systemdict /cleartomark get put
} if
SDict begin [
  /Title (repeating_conn_2572676247_3608335001.eps)
  /Subject (gnuplot plot)
  /Creator (gnuplot 4.6 patchlevel 2)
  /Author (olgabo)
%  /Producer (gnuplot)
%  /Keywords ()
  /CreationDate (Tue Apr  8 13:00:48 2014)
  /DOCINFO pdfmark
end
} ifelse
end
%%EndProlog
%%Page: 1 1
gnudict begin
gsave
doclip
50 50 translate
0.050 0.050 scale
0 setgray
newpath
(Times) findfont 200 scalefont setfont
BackgroundColor 0 lt 3 1 roll 0 lt exch 0 lt or or not {BackgroundColor C 1.000 0 0 14400.00 10080.00 BoxColFill} if
1.000 UL
LTb
LCb setrgbcolor
1.000 UL
LTa
LCa setrgbcolor
1200 3493 M
12598 0 V
stroke
LTb
LCb setrgbcolor
1200 3493 M
63 0 V
12535 0 R
-63 0 V
stroke
1080 3493 M
[ [(Times) 200.0 0.0 true true 0 ( 0)]
] -66.7 MRshow
1.000 UL
LTb
LCb setrgbcolor
1.000 UL
LTa
LCa setrgbcolor
1200 3849 M
12598 0 V
stroke
LTb
LCb setrgbcolor
1200 3849 M
63 0 V
12535 0 R
-63 0 V
stroke
1080 3849 M
[ [(Times) 200.0 0.0 true true 0 ( 5)]
] -66.7 MRshow
1.000 UL
LTb
LCb setrgbcolor
1.000 UL
LTa
LCa setrgbcolor
1200 4204 M
12598 0 V
stroke
LTb
LCb setrgbcolor
1200 4204 M
63 0 V
12535 0 R
-63 0 V
stroke
1080 4204 M
[ [(Times) 200.0 0.0 true true 0 ( 10)]
] -66.7 MRshow
1.000 UL
LTb
LCb setrgbcolor
1.000 UL
LTa
LCa setrgbcolor
1200 4560 M
12598 0 V
stroke
LTb
LCb setrgbcolor
1200 4560 M
63 0 V
12535 0 R
-63 0 V
stroke
1080 4560 M
[ [(Times) 200.0 0.0 true true 0 ( 15)]
] -66.7 MRshow
1.000 UL
LTb
LCb setrgbcolor
1.000 UL
LTa
LCa setrgbcolor
1200 4915 M
12598 0 V
stroke
LTb
LCb setrgbcolor
1200 4915 M
63 0 V
12535 0 R
-63 0 V
stroke
1080 4915 M
[ [(Times) 200.0 0.0 true true 0 ( 20)]
] -66.7 MRshow
1.000 UL
LTb
LCb setrgbcolor
1.000 UL
LTa
LCa setrgbcolor
1200 5271 M
12598 0 V
stroke
LTb
LCb setrgbcolor
1200 5271 M
63 0 V
12535 0 R
-63 0 V
stroke
1080 5271 M
[ [(Times) 200.0 0.0 true true 0 ( 25)]
] -66.7 MRshow
1.000 UL
LTb
LCb setrgbcolor
1.000 UL
LTa
LCa setrgbcolor
1200 5627 M
12598 0 V
stroke
LTb
LCb setrgbcolor
1200 5627 M
63 0 V
12535 0 R
-63 0 V
stroke
1080 5627 M
[ [(Times) 200.0 0.0 true true 0 ( 30)]
] -66.7 MRshow
1.000 UL
LTb
LCb setrgbcolor
1.000 UL
LTa
LCa setrgbcolor
1200 5982 M
12598 0 V
stroke
LTb
LCb setrgbcolor
1200 5982 M
63 0 V
12535 0 R
-63 0 V
stroke
1080 5982 M
[ [(Times) 200.0 0.0 true true 0 ( 35)]
] -66.7 MRshow
1.000 UL
LTb
LCb setrgbcolor
1.000 UL
LTa
LCa setrgbcolor
1200 6338 M
12598 0 V
stroke
LTb
LCb setrgbcolor
1200 6338 M
63 0 V
12535 0 R
-63 0 V
stroke
1080 6338 M
[ [(Times) 200.0 0.0 true true 0 ( 40)]
] -66.7 MRshow
1.000 UL
LTb
LCb setrgbcolor
1.000 UL
LTa
LCa setrgbcolor
1200 6693 M
12598 0 V
stroke
LTb
LCb setrgbcolor
1200 6693 M
63 0 V
12535 0 R
-63 0 V
stroke
1080 6693 M
[ [(Times) 200.0 0.0 true true 0 ( 45)]
] -66.7 MRshow
1.000 UL
LTb
LCb setrgbcolor
1.000 UL
LTa
LCa setrgbcolor
1200 7049 M
12598 0 V
stroke
LTb
LCb setrgbcolor
1200 7049 M
63 0 V
12535 0 R
-63 0 V
stroke
1080 7049 M
[ [(Times) 200.0 0.0 true true 0 ( 50)]
] -66.7 MRshow
1.000 UL
LTb
LCb setrgbcolor
1.000 UL
LTa
LCa setrgbcolor
1200 3493 M
0 3556 V
stroke
LTb
LCb setrgbcolor
1200 3493 M
0 63 V
0 3493 R
0 -63 V
stroke
1200 3373 M
currentpoint gsave translate -45 rotate 0 0 moveto
[ [(Times) 200.0 0.0 true true 0 ( 0)]
] -66.7 MLshow
grestore
1.000 UL
LTb
LCb setrgbcolor
1.000 UL
LTa
LCa setrgbcolor
2775 3493 M
0 3556 V
stroke
LTb
LCb setrgbcolor
2775 3493 M
0 63 V
0 3493 R
0 -63 V
stroke
2775 3373 M
currentpoint gsave translate -45 rotate 0 0 moveto
[ [(Times) 200.0 0.0 true true 0 ( 500)]
] -66.7 MLshow
grestore
1.000 UL
LTb
LCb setrgbcolor
1.000 UL
LTa
LCa setrgbcolor
4350 3493 M
0 3556 V
stroke
LTb
LCb setrgbcolor
4350 3493 M
0 63 V
0 3493 R
0 -63 V
stroke
4350 3373 M
currentpoint gsave translate -45 rotate 0 0 moveto
[ [(Times) 200.0 0.0 true true 0 ( 1000)]
] -66.7 MLshow
grestore
1.000 UL
LTb
LCb setrgbcolor
1.000 UL
LTa
LCa setrgbcolor
5924 3493 M
0 3556 V
stroke
LTb
LCb setrgbcolor
5924 3493 M
0 63 V
0 3493 R
0 -63 V
stroke
5924 3373 M
currentpoint gsave translate -45 rotate 0 0 moveto
[ [(Times) 200.0 0.0 true true 0 ( 1500)]
] -66.7 MLshow
grestore
1.000 UL
LTb
LCb setrgbcolor
1.000 UL
LTa
LCa setrgbcolor
7499 3493 M
0 3556 V
stroke
LTb
LCb setrgbcolor
7499 3493 M
0 63 V
0 3493 R
0 -63 V
stroke
7499 3373 M
currentpoint gsave translate -45 rotate 0 0 moveto
[ [(Times) 200.0 0.0 true true 0 ( 2000)]
] -66.7 MLshow
grestore
1.000 UL
LTb
LCb setrgbcolor
1.000 UL
LTa
LCa setrgbcolor
9074 3493 M
0 3556 V
stroke
LTb
LCb setrgbcolor
9074 3493 M
0 63 V
0 3493 R
0 -63 V
stroke
9074 3373 M
currentpoint gsave translate -45 rotate 0 0 moveto
[ [(Times) 200.0 0.0 true true 0 ( 2500)]
] -66.7 MLshow
grestore
1.000 UL
LTb
LCb setrgbcolor
1.000 UL
LTa
LCa setrgbcolor
10649 3493 M
0 3556 V
stroke
LTb
LCb setrgbcolor
10649 3493 M
0 63 V
0 3493 R
0 -63 V
stroke
10649 3373 M
currentpoint gsave translate -45 rotate 0 0 moveto
[ [(Times) 200.0 0.0 true true 0 ( 3000)]
] -66.7 MLshow
grestore
1.000 UL
LTb
LCb setrgbcolor
1.000 UL
LTa
LCa setrgbcolor
12223 3493 M
0 3556 V
stroke
LTb
LCb setrgbcolor
12223 3493 M
0 63 V
0 3493 R
0 -63 V
stroke
12223 3373 M
currentpoint gsave translate -45 rotate 0 0 moveto
[ [(Times) 200.0 0.0 true true 0 ( 3500)]
] -66.7 MLshow
grestore
1.000 UL
LTb
LCb setrgbcolor
1.000 UL
LTa
LCa setrgbcolor
13798 3493 M
0 3556 V
stroke
LTb
LCb setrgbcolor
13798 3493 M
0 63 V
0 3493 R
0 -63 V
stroke
13798 3373 M
currentpoint gsave translate -45 rotate 0 0 moveto
[ [(Times) 200.0 0.0 true true 0 ( 4000)]
] -66.7 MLshow
grestore
1.000 UL
LTb
LCb setrgbcolor
1.000 UL
LTb
LCb setrgbcolor
1200 7049 N
0 -3556 V
12598 0 V
0 3556 V
-12598 0 V
Z stroke
LCb setrgbcolor
500 5271 M
currentpoint gsave translate -270 rotate 0 0 moveto
[ [(Times) 200.0 0.0 true true 0 (Duration [sec])]
] -66.7 MCshow
grestore
LTb
LCb setrgbcolor
7499 2769 M
[ [(Times) 200.0 0.0 true true 0 (Time [sec])]
] -66.7 MCshow
LTb
7499 7349 M
[ [(Times) 200.0 0.0 true true 0 (src port 80, repeating connections sorted by start time)]
] -66.7 MCshow
1.000 UP
1.000 UL
LTb
LCb setrgbcolor
1.000 UL
LT8
LC8 setrgbcolor
7108 63 N
782 0 V
-782 0 V
Z stroke
% Begin plot #1
1.000 UP
1.000 UL
LT8
0.00 0.00 1.00 C 1200 3525 M
28 38 V
13 -16 V
13 36 V
12 27 V
25 1466 V
10 -1476 V
38 -48 V
15 -37 V
0 1 V
0 3 V
3 -4 V
4 19 V
0 1656 V
85 -1602 V
3 2646 V
6 -2681 V
6 18 V
48 -34 V
12 -15 V
16 38 V
3 -18 V
6 5 V
35 -30 V
16 13 V
9 -13 V
25 36 V
19 23 V
22 30 V
16 -28 V
63 -4 V
54 -58 V
9 5 V
16 5 V
28 32 V
22 -33 V
10 -7 V
31 0 V
16 221 V
9 -223 V
29 0 V
6 8 V
3 -8 V
7 3 V
12 0 V
0 877 V
6 -878 V
4 8 V
6 2 V
6 -8 V
3 12 V
13 -2 V
60 1067 V
19 -1078 V
50 1548 V
16 -1526 V
3 -11 V
9 -6 V
32 -7 V
3 -1 V
3 0 V
3 2 V
0 -2 V
3 4 V
7 4 V
19 -8 V
12 10 V
13 16 V
3 -11 V
38 -14 V
9 0 V
0 -1 V
3 1 V
16 5 V
3 -6 V
13 10 V
79 -9 V
6 -1 V
3 2 V
3 -2 V
22 44 V
13 -11 V
9 -21 V
7 9 V
34 23 V
35 -2 V
9 931 V
16 -968 V
0 -1 V
13 14 V
6 1282 V
54 -1192 V
34 -80 V
13 -28 V
19 0 V
12 12 V
10 -10 V
28 -3 V
13 1 V
3 6 V
3 -4 V
3 -1 V
3 1 V
7 0 V
0 -2 V
stroke 2835 3516 M
6 4 V
0 -1 V
41 1130 V
31 -1121 V
3 1685 V
10 -1692 V
6 13 V
7 -17 V
3 3 V
3 7 V
3 8 V
3 8 V
6 -19 V
7 1174 V
9 -1165 V
0 1120 V
25 -1118 V
44 -17 V
32 9 V
9 7 V
22 -18 V
13 1293 V
22 -1263 V
19 50 V
6 -73 V
13 -3 V
12 -3 V
4 -1 V
3 1 V
0 2 V
0 808 V
25 -810 V
13 0 V
9 8 V
0 -2 V
6 60 V
10 -66 V
3 7 V
6 -3 V
16 813 V
9 -818 V
51 4 V
6 0 V
3 -2 V
0 1 V
10 11 V
12 34 V
44 -32 V
16 -12 V
0 -4 V
3 0 V
16 3 V
32 1180 V
12 -1142 V
6 4 V
35 1172 V
13 -1202 V
31 88 V
0 -21 V
10 807 V
3 -861 V
9 -24 V
44 26 V
3 -20 V
13 61 V
6 6 V
29 -75 V
3 -1 V
3 1 V
22 21 V
9 1091 V
29 -1041 V
9 -8 V
13 -65 V
6 11 V
3 2 V
38 58 V
0 848 V
10 -914 V
66 17 V
22 -21 V
3 -1 V
3 2 V
10 -2 V
3 1 V
50 33 V
3 -25 V
13 -6 V
3 6 V
13 7 V
6 -2 V
3 0 V
22 -11 V
0 -3 V
16 0 V
12 68 V
19 -68 V
0 7 V
10 -3 V
25 27 V
16 -25 V
12 11 V
3 -13 V
0 15 V
stroke 4179 3535 M
10 1 V
22 93 V
19 -105 V
44 1443 V
6 -1439 V
3 18 V
7 -25 V
6 11 V
6 93 V
32 -101 V
3 13 V
6 -16 V
3 -2 V
35 1 V
3 -4 V
13 39 V
22 -3 V
0 2 V
31 -34 V
25 25 V
7 -23 V
3 6 V
6 13 V
3 -25 V
41 37 V
3 887 V
19 -906 V
4 -2 V
3 10 V
3 0 V
12 -22 V
7 5 V
6 -6 V
13 1 V
19 127 V
3 12 V
15 -81 V
10 -33 V
3 42 V
13 -36 V
9 -15 V
25 -3 V
16 80 V
6 1397 V
29 -1422 V
37 -35 V
57 104 V
28 -115 V
13 -2 V
0 2 V
10 66 V
25 1 V
22 -28 V
12 27 V
10 17 V
31 -103 V
19 140 V
22 -90 V
3 9 V
19 29 V
13 -54 V
16 1717 V
59 -1580 V
26 -135 V
31 -34 V
69 -6 V
4 5 V
3 7 V
9 -8 V
10 3 V
3 -3 V
6 1347 V
3 -1343 V
3 -9 V
41 36 V
26 -14 V
103 1450 V
19 -1456 V
22 72 V
35 -24 V
6 -55 V
7 56 V
19 -25 V
6 9 V
12 9 V
7 -59 V
50 1430 V
3 -1357 V
29 -50 V
22 1890 V
3 -1875 V
3 -33 V
6 2088 V
3 -2083 V
4 83 V
6 0 V
9 -10 V
16 -81 V
3 3 V
3 -4 V
7 14 V
9 -13 V
10 11 V
9 -3 V
stroke 5814 3526 M
0 2 V
3 -13 V
3 11 V
7 1386 V
19 -1384 V
25 85 V
15 -81 V
4 923 V
3 -938 V
12 13 V
13 3 V
6 -15 V
3 1434 V
4 -1414 V
40 -22 V
23 11 V
0 -3 V
3 4 V
15 -13 V
4 1 V
12 66 V
32 -55 V
3 15 V
3 9 V
13 1272 V
6 -1304 V
9 8 V
19 66 V
7 -7 V
28 -54 V
6 -14 V
3 -3 V
22 18 V
0 3 V
4 74 V
40 -54 V
32 -36 V
0 -4 V
3 5 V
10 16 V
12 97 V
54 -59 V
3 -26 V
9 -26 V
29 9 V
6 34 V
16 47 V
28 -61 V
9 -27 V
48 66 V
38 -67 V
12 7 V
3 4 V
3 -19 V
7 10 V
28 41 V
13 -49 V
3 13 V
28 -13 V
6 -1 V
7 1 V
6 8 V
28 -10 V
0 3 V
29 30 V
6 -33 V
0 8 V
0 887 V
6 -869 V
19 -25 V
13 8 V
0 619 V
19 -625 V
12 1077 V
3 -1073 V
4 -1 V
3 1 V
12 -2 V
7 14 V
3 -15 V
0 10 V
12 -37 V
4 26 V
3 -3 V
3 1 V
3 1 V
0 3 V
6 16 V
3 -15 V
0 19 V
7 -20 V
3 30 V
16 -33 V
6 11 V
9 -13 V
4 11 V
12 -1 V
35 -2 V
3 -2 V
57 10 V
37 2 V
10 -14 V
0 -4 V
3 6 V
stroke 7036 3522 M
25 -6 V
7 0 V
3 5 V
6 16 V
13 21 V
15 -37 V
26 70 V
3 -24 V
6 840 V
19 -871 V
0 1 V
16 -19 V
6 1 V
0 794 V
0 31 V
3 -823 V
0 883 V
9 -878 V
7 -10 V
3 12 V
13 -4 V
3 872 V
3 -873 V
0 1 V
3 -5 V
3 1 V
6 13 V
4 0 V
15 25 V
7 11 V
15 -43 V
19 7 V
0 -1 V
7 -16 V
31 -1 V
13 13 V
31 -12 V
0 2 V
6 14 V
16 -16 V
3 0 V
4 813 V
3 -812 V
3 882 V
9 -869 V
3 -13 V
38 15 V
13 -12 V
16 -2 V
6 9 V
12 2 V
16 -10 V
19 -2 V
3 -2 V
0 1 V
3 0 V
13 0 V
9 1 V
4 -1 V
3 0 V
3 1 V
3 0 V
28 0 V
7 569 V
6 -568 V
13 -2 V
0 -1 V
6 845 V
25 -844 V
3 -1 V
10 1 V
3 0 V
16 6 V
6 -6 V
19 6 V
16 -6 V
22 8 V
3 -6 V
15 -2 V
7 218 V
6 -215 V
3 -3 V
7 2 V
12 0 V
3 -2 V
3 0 V
4 0 V
12 2 V
13 -2 V
19 -1 V
3 1 V
12 -1 V
4 0 V
3 3 V
22 0 V
12 2 V
3 -4 V
10 5 V
16 -5 V
3 2 V
3 920 V
3 -922 V
10 1 V
6 12 V
stroke 7981 3529 M
9 -10 V
7 5 V
9 -8 V
0 835 V
3 -831 V
10 -4 V
9 5 V
10 -2 V
6 -3 V
28 7 V
7 -6 V
6 0 V
3 1 V
9 7 V
13 -8 V
6 0 V
7 -1 V
3 0 V
9 0 V
3 2 V
13 0 V
3 8 V
22 -8 V
3 4 V
3 -6 V
7 -1 V
19 5 V
6 -2 V
6 6 V
3 -8 V
7 0 V
6 1 V
3 1337 V
3 -1336 V
0 -2 V
3 -1 V
4 7 V
6 0 V
0 1 V
3 -7 V
13 3 V
9 -2 V
10 0 V
3 -1 V
3 0 V
3 0 V
0 1 V
28 6 V
13 -6 V
0 1085 V
13 -1084 V
6 -3 V
0 1 V
16 2 V
6 -2 V
6 0 V
0 3 V
79 11 V
6 -12 V
19 -2 V
6 4 V
7 3370 V
3 -3372 V
9 0 V
0 -2 V
38 1 V
10 1 V
12 6 V
19 -7 V
6 2 V
7 -3 V
28 0 V
0 3 V
16 -1 V
6 -1 V
6 4 V
35 -4 V
0 1 V
6 -2 V
7 2 V
3 1 V
12 7 V
10 -10 V
12 2 V
4 -1 V
0 1 V
3 3 V
15 86 V
26 -87 V
53 1071 V
19 -1070 V
3 -2 V
13 -2 V
6 -1 V
0 1 V
13 -2 V
3 3 V
12 213 V
16 -156 V
25 -54 V
4 -2 V
6 7 V
6 -10 V
25 0 V
stroke 9001 3516 M
16 1165 V
6 -1164 V
16 -2 V
3 1 V
3 0 V
10 -23 V
6 23 V
13 0 V
6 9 V
3 1087 V
38 -1095 V
9 -1 V
4 0 V
6 1 V
3 1 V
19 -2 V
25 -1 V
16 8 V
19 2 V
3 -1 V
3 -9 V
22 1 V
10 4 V
9 0 V
3 -3 V
16 1 V
13 0 V
3 -3 V
19 11 V
3 -10 V
6 0 V
0 1 V
6 1 V
0 -1 V
35 -2 V
6 5 V
3 10 V
13 -14 V
3 8 V
3 0 V
7 -7 V
3 13 V
12 -10 V
10 -3 V
3 8 V
9 -2 V
0 860 V
7 -860 V
6 -1 V
13 -5 V
0 1 V
6 0 V
0 4 V
3 -5 V
6 1414 V
3 -1413 V
7 15 V
3 -15 V
16 -1 V
9 2 V
6 -3 V
16 0 V
6 1 V
7 17 V
12 0 V
4 199 V
15 -204 V
25 17 V
0 1275 V
10 -1301 V
3 -1 V
3 1 V
3 1 V
7 -2 V
0 -1 V
6 1 V
13 2 V
3 -2 V
3 -2 V
9 -1 V
7 1 V
3 14 V
19 -3 V
3 18 V
9 -15 V
7 8 V
6 -18 V
6 11 V
3 -1 V
19 11 V
6 -4 V
4 795 V
3 -815 V
3 11 V
13 -10 V
0 1 V
6 8 V
12 0 V
7 1051 V
12 -1062 V
0 9 V
3 -5 V
0 -2 V
4 -2 V
stroke 9830 3517 M
15 4 V
16 0 V
6 5 V
4 -9 V
3 -1 V
6 0 V
22 2 V
6 6 V
4 -8 V
0 1 V
15 1 V
13 2 V
12 -1 V
0 -3 V
16 -6 V
3 7 V
4 1 V
15 -2 V
25 3 V
4 -1 V
6 -1 V
19 3 V
6 -4 V
13 5 V
6 -3 V
6 0 V
32 -2 V
3 2 V
3 -1 V
13 0 V
6 4 V
22 -4 V
16 3 V
9 -3 V
3 3 V
26 822 V
3 -825 V
12 3 V
7 -2 V
19 -1 V
15 -1 V
3 1 V
29 -1 V
19 11 V
0 941 V
19 -952 V
25 1 V
3 2 V
3 -4 V
3 0 V
0 1 V
6 0 V
13 1 V
3 -1 V
10 0 V
12 3 V
7 -3 V
0 1 V
6 -1 V
9 0 V
0 1 V
7 -1 V
6 1 V
6 -1 V
10 0 V
19 0 V
18 1 V
10 -1 V
9 3 V
16 5 V
10 -5 V
6 6 V
0 -9 V
3 3 V
3 -2 V
10 2 V
3 -2 V
6 1 V
3 3 V
10 1 V
0 994 V
3 -1000 V
6 0 V
13 0 V
9 0 V
3 4 V
3 -4 V
4 0 V
0 812 V
6 -811 V
13 3 V
18 0 V
10 209 V
22 -211 V
22 -3 V
25 6 V
10 6 V
3 -11 V
3 0 V
9 0 V
7 -1 V
9 2 V
13 1 V
3 1 V
stroke 10803 3519 M
12 -3 V
19 1280 V
10 -1280 V
6 0 V
0 1 V
0 1 V
10 -1 V
0 8 V
12 -9 V
3 0 V
7 3 V
9 974 V
16 -975 V
16 0 V
3 3 V
0 -3 V
3 917 V
3 -917 V
6 0 V
3 2 V
4 6 V
12 -4 V
6 -6 V
4 0 V
3 3 V
3 -1 V
3 -2 V
6 0 V
7 4 V
12 7 V
7 -8 V
6 -4 V
3 2 V
9 1 V
4 1227 V
9 -1227 V
3 -2 V
13 0 V
9 10 V
63 -6 V
3 1384 V
4 -1387 V
0 1 V
12 1 V
3 1 V
0 1 V
22 15 V
13 -17 V
3 4 V
6 8 V
0 909 V
4 -907 V
18 -16 V
10 19 V
6 9 V
13 -28 V
47 17 V
9 -11 V
16 869 V
6 -875 V
4 1 V
6 11 V
0 5 V
3 -6 V
19 -6 V
6 0 V
10 19 V
0 4 V
41 -16 V
25 -12 V
6 13 V
0 -7 V
32 -4 V
3 1 V
12 3 V
13 7 V
0 -11 V
19 -4 V
16 1848 V
22 -1824 V
28 20 V
6 19 V
7 1671 V
3 -1656 V
6 -5 V
16 2 V
38 -90 V
22 33 V
97 33 V
16 -10 V
6 -3 V
7 964 V
3 299 V
16 -1282 V
25 2 V
47 1314 V
3 -1327 V
16 -5 V
0 -3 V
3 3 V
3 12 V
19 -11 V
3 23 V
7 24 V
stroke 11956 3566 M
22 -38 V
0 2 V
3 13 V
6 13 V
32 -33 V
3 -5 V
12 24 V
3 -23 V
7 4 V
28 -3 V
6 5 V
4 -7 V
9 22 V
13 -19 V
25 -3 V
3 15 V
0 1 V
19 -14 V
12 -4 V
13 22 V
3 745 V
22 -745 V
25 -19 V
4 -4 V
6 3 V
9 1 V
3 -3 V
26 23 V
9 -21 V
10 3 V
15 6 V
7 1046 V
6 -1045 V
3 14 V
6 -11 V
16 29 V
16 0 V
19 -42 V
6 15 V
19 -11 V
19 30 V
9 1 V
0 -1 V
73 -3 V
6 9 V
38 -36 V
41 260 V
25 -258 V
22 26 V
69 -6 V
7 7 V
3 -30 V
6 21 V
9 23 V
19 12 V
7 17 V
37 5 V
10 20 V
13 -52 V
3 -36 V
9 -6 V
10 9 V
9 7 V
9 901 V
4 -882 V
22 -43 V
3 19 V
6 -7 V
6 1 V
1200 3525 TriUF
1228 3563 TriUF
1241 3547 TriUF
1254 3583 TriUF
1266 3610 TriUF
1291 5076 TriUF
1301 3600 TriUF
1339 3552 TriUF
1354 3515 TriUF
1354 3516 TriUF
1354 3519 TriUF
1357 3515 TriUF
1361 3534 TriUF
1361 5190 TriUF
1446 3588 TriUF
1449 6234 TriUF
1455 3553 TriUF
1461 3571 TriUF
1509 3537 TriUF
1521 3522 TriUF
1537 3560 TriUF
1540 3542 TriUF
1546 3547 TriUF
1581 3517 TriUF
1597 3530 TriUF
1606 3517 TriUF
1631 3553 TriUF
1650 3576 TriUF
1672 3606 TriUF
1688 3578 TriUF
1751 3574 TriUF
1805 3516 TriUF
1814 3521 TriUF
1830 3526 TriUF
1858 3558 TriUF
1880 3525 TriUF
1890 3518 TriUF
1890 3518 TriUF
1921 3518 TriUF
1937 3739 TriUF
1946 3516 TriUF
1975 3516 TriUF
1981 3524 TriUF
1984 3516 TriUF
1991 3519 TriUF
2003 3519 TriUF
2003 4396 TriUF
2009 3518 TriUF
2013 3526 TriUF
2019 3528 TriUF
2025 3520 TriUF
2028 3532 TriUF
2041 3530 TriUF
2101 4597 TriUF
2120 3519 TriUF
2170 5067 TriUF
2186 3541 TriUF
2189 3530 TriUF
2198 3524 TriUF
2230 3517 TriUF
2233 3516 TriUF
2236 3516 TriUF
2239 3518 TriUF
2239 3516 TriUF
2242 3520 TriUF
2249 3524 TriUF
2268 3516 TriUF
2280 3526 TriUF
2293 3542 TriUF
2296 3531 TriUF
2334 3517 TriUF
2343 3517 TriUF
2343 3516 TriUF
2346 3517 TriUF
2362 3522 TriUF
2365 3516 TriUF
2378 3526 TriUF
2457 3517 TriUF
2463 3516 TriUF
2466 3518 TriUF
2469 3516 TriUF
2491 3560 TriUF
2504 3549 TriUF
2513 3528 TriUF
2520 3537 TriUF
2554 3560 TriUF
2589 3558 TriUF
2598 4489 TriUF
2614 3521 TriUF
2614 3520 TriUF
2627 3534 TriUF
2633 4816 TriUF
2687 3624 TriUF
2721 3544 TriUF
2734 3516 TriUF
2753 3516 TriUF
2765 3528 TriUF
2775 3518 TriUF
2803 3515 TriUF
2816 3516 TriUF
2819 3522 TriUF
2822 3518 TriUF
2825 3517 TriUF
2828 3518 TriUF
2835 3518 TriUF
2835 3516 TriUF
2841 3520 TriUF
2841 3519 TriUF
2882 4649 TriUF
2913 3528 TriUF
2916 5213 TriUF
2926 3521 TriUF
2932 3534 TriUF
2939 3517 TriUF
2942 3520 TriUF
2945 3527 TriUF
2948 3535 TriUF
2951 3543 TriUF
2957 3524 TriUF
2964 4698 TriUF
2973 3533 TriUF
2973 4653 TriUF
2998 3535 TriUF
3042 3518 TriUF
3074 3527 TriUF
3083 3534 TriUF
3105 3516 TriUF
3118 4809 TriUF
3140 3546 TriUF
3159 3596 TriUF
3165 3523 TriUF
3178 3520 TriUF
3190 3517 TriUF
3194 3516 TriUF
3197 3517 TriUF
3197 3519 TriUF
3197 4327 TriUF
3222 3517 TriUF
3235 3517 TriUF
3244 3525 TriUF
3244 3523 TriUF
3250 3583 TriUF
3260 3517 TriUF
3263 3524 TriUF
3269 3521 TriUF
3285 4334 TriUF
3294 3516 TriUF
3345 3520 TriUF
3351 3520 TriUF
3354 3518 TriUF
3354 3519 TriUF
3364 3530 TriUF
3376 3564 TriUF
3420 3532 TriUF
3436 3520 TriUF
3436 3516 TriUF
3439 3516 TriUF
3455 3519 TriUF
3487 4699 TriUF
3499 3557 TriUF
3505 3561 TriUF
3540 4733 TriUF
3553 3531 TriUF
3584 3619 TriUF
3584 3598 TriUF
3594 4405 TriUF
3597 3544 TriUF
3606 3520 TriUF
3650 3546 TriUF
3653 3526 TriUF
3666 3587 TriUF
3672 3593 TriUF
3701 3518 TriUF
3704 3517 TriUF
3707 3518 TriUF
3729 3539 TriUF
3738 4630 TriUF
3767 3589 TriUF
3776 3581 TriUF
3789 3516 TriUF
3795 3527 TriUF
3798 3529 TriUF
3836 3587 TriUF
3836 4435 TriUF
3846 3521 TriUF
3912 3538 TriUF
3934 3517 TriUF
3937 3516 TriUF
3940 3518 TriUF
3950 3516 TriUF
3953 3517 TriUF
4003 3550 TriUF
4006 3525 TriUF
4019 3519 TriUF
4022 3525 TriUF
4035 3532 TriUF
4041 3530 TriUF
4044 3530 TriUF
4066 3519 TriUF
4066 3516 TriUF
4082 3516 TriUF
4094 3584 TriUF
4113 3516 TriUF
4113 3523 TriUF
4123 3520 TriUF
4148 3547 TriUF
4164 3522 TriUF
4176 3533 TriUF
4179 3520 TriUF
4179 3535 TriUF
4189 3536 TriUF
4211 3629 TriUF
4230 3524 TriUF
4274 4967 TriUF
4280 3528 TriUF
4283 3546 TriUF
4290 3521 TriUF
4296 3532 TriUF
4302 3625 TriUF
4334 3524 TriUF
4337 3537 TriUF
4343 3521 TriUF
4346 3519 TriUF
4381 3520 TriUF
4381 3520 TriUF
4384 3516 TriUF
4397 3555 TriUF
4419 3552 TriUF
4419 3554 TriUF
4450 3520 TriUF
4475 3545 TriUF
4482 3522 TriUF
4485 3528 TriUF
4491 3541 TriUF
4494 3516 TriUF
4494 3516 TriUF
4535 3553 TriUF
4538 4440 TriUF
4557 3534 TriUF
4561 3532 TriUF
4564 3542 TriUF
4567 3542 TriUF
4579 3520 TriUF
4586 3525 TriUF
4592 3519 TriUF
4605 3520 TriUF
4624 3647 TriUF
4627 3659 TriUF
4642 3578 TriUF
4652 3545 TriUF
4655 3587 TriUF
4668 3551 TriUF
4677 3536 TriUF
4702 3533 TriUF
4718 3613 TriUF
4724 5010 TriUF
4753 3588 TriUF
4790 3553 TriUF
4847 3657 TriUF
4875 3542 TriUF
4888 3540 TriUF
4888 3542 TriUF
4898 3608 TriUF
4923 3609 TriUF
4945 3581 TriUF
4957 3608 TriUF
4967 3625 TriUF
4998 3522 TriUF
5017 3662 TriUF
5039 3572 TriUF
5042 3581 TriUF
5061 3610 TriUF
5074 3556 TriUF
5090 5273 TriUF
5149 3693 TriUF
5175 3558 TriUF
5206 3524 TriUF
5275 3518 TriUF
5279 3523 TriUF
5282 3530 TriUF
5291 3522 TriUF
5301 3525 TriUF
5304 3522 TriUF
5310 4869 TriUF
5313 3526 TriUF
5316 3517 TriUF
5357 3553 TriUF
5383 3539 TriUF
5486 4989 TriUF
5505 3533 TriUF
5527 3605 TriUF
5562 3581 TriUF
5568 3526 TriUF
5575 3582 TriUF
5594 3557 TriUF
5600 3566 TriUF
5612 3575 TriUF
5619 3516 TriUF
5669 4946 TriUF
5672 3589 TriUF
5701 3539 TriUF
5723 5429 TriUF
5726 3554 TriUF
5729 3521 TriUF
5735 5609 TriUF
5738 3526 TriUF
5742 3609 TriUF
5748 3609 TriUF
5757 3599 TriUF
5773 3518 TriUF
5776 3521 TriUF
5779 3517 TriUF
5786 3531 TriUF
5795 3518 TriUF
5805 3529 TriUF
5814 3526 TriUF
5814 3528 TriUF
5817 3515 TriUF
5820 3526 TriUF
5827 4912 TriUF
5846 3528 TriUF
5871 3613 TriUF
5886 3532 TriUF
5890 4455 TriUF
5893 3517 TriUF
5905 3530 TriUF
5918 3533 TriUF
5924 3518 TriUF
5927 4952 TriUF
5931 3538 TriUF
5971 3516 TriUF
5994 3527 TriUF
5994 3524 TriUF
5997 3528 TriUF
6012 3515 TriUF
6016 3516 TriUF
6016 3516 TriUF
6028 3582 TriUF
6060 3527 TriUF
6063 3542 TriUF
6066 3551 TriUF
6079 4823 TriUF
6085 3519 TriUF
6094 3527 TriUF
6113 3593 TriUF
6120 3586 TriUF
6148 3532 TriUF
6154 3518 TriUF
6157 3515 TriUF
6179 3533 TriUF
6179 3536 TriUF
6183 3610 TriUF
6223 3556 TriUF
6255 3520 TriUF
6255 3516 TriUF
6258 3521 TriUF
6268 3537 TriUF
6280 3634 TriUF
6334 3575 TriUF
6337 3549 TriUF
6346 3523 TriUF
6375 3532 TriUF
6381 3566 TriUF
6397 3613 TriUF
6425 3552 TriUF
6434 3525 TriUF
6482 3591 TriUF
6520 3524 TriUF
6532 3531 TriUF
6535 3535 TriUF
6538 3516 TriUF
6545 3526 TriUF
6573 3567 TriUF
6586 3518 TriUF
6589 3531 TriUF
6617 3518 TriUF
6623 3517 TriUF
6630 3518 TriUF
6636 3526 TriUF
6664 3516 TriUF
6664 3519 TriUF
6693 3549 TriUF
6699 3516 TriUF
6699 3524 TriUF
6699 4411 TriUF
6705 3542 TriUF
6724 3517 TriUF
6737 3525 TriUF
6737 4144 TriUF
6756 3519 TriUF
6768 4596 TriUF
6771 3523 TriUF
6775 3522 TriUF
6778 3523 TriUF
6790 3521 TriUF
6797 3535 TriUF
6800 3520 TriUF
6800 3530 TriUF
6812 3493 TriUF
6816 3519 TriUF
6819 3516 TriUF
6822 3517 TriUF
6825 3518 TriUF
6825 3521 TriUF
6831 3537 TriUF
6834 3522 TriUF
6834 3541 TriUF
6841 3521 TriUF
6844 3551 TriUF
6860 3518 TriUF
6866 3529 TriUF
6875 3516 TriUF
6879 3527 TriUF
6891 3526 TriUF
6926 3524 TriUF
6929 3522 TriUF
6986 3532 TriUF
7023 3534 TriUF
7033 3520 TriUF
7033 3516 TriUF
7036 3522 TriUF
7061 3516 TriUF
7068 3516 TriUF
7071 3521 TriUF
7077 3537 TriUF
7090 3558 TriUF
7105 3521 TriUF
7131 3591 TriUF
7134 3567 TriUF
7140 4407 TriUF
7159 3536 TriUF
7159 3537 TriUF
7175 3518 TriUF
7181 3519 TriUF
7181 4313 TriUF
7181 4344 TriUF
7184 3521 TriUF
7184 4404 TriUF
7193 3526 TriUF
7200 3516 TriUF
7203 3528 TriUF
7216 3524 TriUF
7219 4396 TriUF
7222 3523 TriUF
7222 3524 TriUF
7225 3519 TriUF
7228 3520 TriUF
7234 3533 TriUF
7238 3533 TriUF
7253 3558 TriUF
7260 3569 TriUF
7275 3526 TriUF
7294 3533 TriUF
7294 3532 TriUF
7301 3516 TriUF
7332 3515 TriUF
7345 3528 TriUF
7376 3516 TriUF
7376 3518 TriUF
7382 3532 TriUF
7398 3516 TriUF
7401 3516 TriUF
7405 4329 TriUF
7408 3517 TriUF
7411 4399 TriUF
7420 3530 TriUF
7423 3517 TriUF
7461 3532 TriUF
7474 3520 TriUF
7490 3518 TriUF
7496 3527 TriUF
7508 3529 TriUF
7524 3519 TriUF
7543 3517 TriUF
7546 3515 TriUF
7546 3516 TriUF
7549 3516 TriUF
7549 3516 TriUF
7562 3516 TriUF
7571 3517 TriUF
7575 3516 TriUF
7578 3516 TriUF
7581 3517 TriUF
7584 3517 TriUF
7612 3517 TriUF
7619 4086 TriUF
7625 3518 TriUF
7638 3516 TriUF
7638 3515 TriUF
7644 4360 TriUF
7669 3516 TriUF
7672 3515 TriUF
7682 3516 TriUF
7685 3516 TriUF
7701 3522 TriUF
7707 3516 TriUF
7726 3522 TriUF
7742 3516 TriUF
7764 3524 TriUF
7767 3518 TriUF
7782 3516 TriUF
7789 3734 TriUF
7795 3519 TriUF
7798 3516 TriUF
7805 3518 TriUF
7817 3518 TriUF
7820 3516 TriUF
7823 3516 TriUF
7827 3516 TriUF
7839 3518 TriUF
7852 3516 TriUF
7871 3515 TriUF
7874 3516 TriUF
7886 3515 TriUF
7890 3515 TriUF
7893 3518 TriUF
7915 3518 TriUF
7927 3520 TriUF
7930 3516 TriUF
7940 3521 TriUF
7956 3516 TriUF
7959 3518 TriUF
7962 4438 TriUF
7965 3516 TriUF
7975 3517 TriUF
7981 3529 TriUF
7990 3519 TriUF
7997 3524 TriUF
8006 3516 TriUF
8006 3516 TriUF
8006 4351 TriUF
8009 3520 TriUF
8019 3516 TriUF
8028 3521 TriUF
8038 3519 TriUF
8044 3516 TriUF
8072 3523 TriUF
8079 3517 TriUF
8085 3517 TriUF
8088 3518 TriUF
8097 3525 TriUF
8110 3517 TriUF
8116 3517 TriUF
8123 3516 TriUF
8126 3516 TriUF
8135 3516 TriUF
8138 3518 TriUF
8151 3518 TriUF
8154 3526 TriUF
8176 3518 TriUF
8179 3522 TriUF
8182 3516 TriUF
8189 3515 TriUF
8208 3520 TriUF
8214 3518 TriUF
8220 3524 TriUF
8223 3516 TriUF
8230 3516 TriUF
8236 3517 TriUF
8239 4854 TriUF
8242 3518 TriUF
8242 3516 TriUF
8245 3515 TriUF
8249 3522 TriUF
8255 3522 TriUF
8255 3523 TriUF
8258 3516 TriUF
8271 3519 TriUF
8280 3517 TriUF
8290 3517 TriUF
8293 3516 TriUF
8296 3516 TriUF
8299 3516 TriUF
8299 3517 TriUF
8327 3523 TriUF
8340 3517 TriUF
8340 4602 TriUF
8353 3518 TriUF
8359 3515 TriUF
8359 3516 TriUF
8375 3518 TriUF
8381 3516 TriUF
8387 3516 TriUF
8387 3519 TriUF
8466 3530 TriUF
8472 3518 TriUF
8491 3516 TriUF
8497 3520 TriUF
8504 6890 TriUF
8507 3518 TriUF
8516 3518 TriUF
8516 3516 TriUF
8554 3517 TriUF
8564 3518 TriUF
8576 3524 TriUF
8595 3517 TriUF
8601 3519 TriUF
8608 3516 TriUF
8636 3516 TriUF
8636 3519 TriUF
8652 3518 TriUF
8658 3517 TriUF
8664 3521 TriUF
8699 3517 TriUF
8699 3518 TriUF
8705 3516 TriUF
8712 3518 TriUF
8715 3519 TriUF
8727 3526 TriUF
8737 3516 TriUF
8749 3518 TriUF
8753 3517 TriUF
8753 3518 TriUF
8756 3521 TriUF
8771 3607 TriUF
8797 3520 TriUF
8850 4591 TriUF
8869 3521 TriUF
8872 3519 TriUF
8885 3517 TriUF
8891 3516 TriUF
8891 3517 TriUF
8904 3515 TriUF
8904 3515 TriUF
8907 3518 TriUF
8919 3731 TriUF
8935 3575 TriUF
8960 3521 TriUF
8964 3519 TriUF
8970 3526 TriUF
8976 3516 TriUF
9001 3516 TriUF
9017 4681 TriUF
9023 3517 TriUF
9039 3515 TriUF
9042 3516 TriUF
9045 3516 TriUF
9055 3493 TriUF
9061 3516 TriUF
9074 3516 TriUF
9080 3525 TriUF
9083 4612 TriUF
9121 3517 TriUF
9130 3516 TriUF
9134 3516 TriUF
9140 3517 TriUF
9143 3518 TriUF
9162 3516 TriUF
9162 3516 TriUF
9187 3515 TriUF
9203 3523 TriUF
9222 3525 TriUF
9225 3524 TriUF
9228 3515 TriUF
9250 3516 TriUF
9260 3520 TriUF
9269 3520 TriUF
9272 3517 TriUF
9288 3518 TriUF
9301 3518 TriUF
9304 3515 TriUF
9323 3526 TriUF
9326 3516 TriUF
9332 3516 TriUF
9332 3517 TriUF
9338 3518 TriUF
9338 3517 TriUF
9373 3515 TriUF
9379 3520 TriUF
9382 3530 TriUF
9395 3516 TriUF
9398 3524 TriUF
9401 3524 TriUF
9401 3524 TriUF
9408 3517 TriUF
9408 3517 TriUF
9411 3530 TriUF
9423 3520 TriUF
9433 3517 TriUF
9436 3525 TriUF
9445 3523 TriUF
9445 4383 TriUF
9452 3523 TriUF
9458 3522 TriUF
9471 3517 TriUF
9471 3518 TriUF
9477 3518 TriUF
9477 3522 TriUF
9480 3517 TriUF
9486 4931 TriUF
9489 3518 TriUF
9496 3533 TriUF
9499 3518 TriUF
9515 3517 TriUF
9524 3519 TriUF
9530 3516 TriUF
9530 3516 TriUF
9546 3516 TriUF
9552 3517 TriUF
9559 3534 TriUF
9571 3534 TriUF
9575 3733 TriUF
9590 3529 TriUF
9615 3546 TriUF
9615 4821 TriUF
9625 3520 TriUF
9628 3519 TriUF
9631 3520 TriUF
9634 3521 TriUF
9641 3519 TriUF
9641 3518 TriUF
9647 3519 TriUF
9660 3521 TriUF
9663 3519 TriUF
9666 3517 TriUF
9675 3516 TriUF
9682 3517 TriUF
9685 3531 TriUF
9704 3528 TriUF
9707 3546 TriUF
9716 3531 TriUF
9723 3539 TriUF
9729 3521 TriUF
9735 3532 TriUF
9738 3531 TriUF
9757 3542 TriUF
9763 3538 TriUF
9767 4333 TriUF
9770 3518 TriUF
9773 3529 TriUF
9786 3519 TriUF
9786 3520 TriUF
9792 3528 TriUF
9804 3528 TriUF
9811 4579 TriUF
9823 3517 TriUF
9823 3526 TriUF
9826 3521 TriUF
9826 3519 TriUF
9830 3517 TriUF
9845 3521 TriUF
9861 3521 TriUF
9867 3526 TriUF
9871 3517 TriUF
9874 3516 TriUF
9880 3516 TriUF
9902 3518 TriUF
9908 3524 TriUF
9912 3516 TriUF
9912 3517 TriUF
9927 3518 TriUF
9940 3520 TriUF
9952 3519 TriUF
9952 3516 TriUF
9968 3510 TriUF
9971 3517 TriUF
9975 3518 TriUF
9990 3516 TriUF
9990 3516 TriUF
10015 3519 TriUF
10019 3518 TriUF
10025 3517 TriUF
10044 3520 TriUF
10050 3516 TriUF
10063 3521 TriUF
10069 3518 TriUF
10075 3518 TriUF
10107 3516 TriUF
10110 3518 TriUF
10113 3517 TriUF
10126 3517 TriUF
10132 3521 TriUF
10154 3517 TriUF
10170 3520 TriUF
10179 3517 TriUF
10182 3520 TriUF
10208 4342 TriUF
10211 3517 TriUF
10211 3517 TriUF
10223 3520 TriUF
10230 3518 TriUF
10249 3517 TriUF
10264 3516 TriUF
10267 3517 TriUF
10296 3516 TriUF
10315 3527 TriUF
10315 4468 TriUF
10334 3516 TriUF
10359 3517 TriUF
10362 3519 TriUF
10365 3515 TriUF
10368 3515 TriUF
10368 3516 TriUF
10374 3516 TriUF
10387 3517 TriUF
10390 3516 TriUF
10400 3516 TriUF
10412 3519 TriUF
10419 3516 TriUF
10419 3517 TriUF
10425 3516 TriUF
10434 3516 TriUF
10434 3517 TriUF
10441 3516 TriUF
10447 3517 TriUF
10453 3516 TriUF
10463 3516 TriUF
10482 3516 TriUF
10500 3517 TriUF
10510 3516 TriUF
10519 3519 TriUF
10535 3524 TriUF
10545 3519 TriUF
10551 3525 TriUF
10551 3516 TriUF
10554 3519 TriUF
10557 3517 TriUF
10567 3519 TriUF
10570 3517 TriUF
10576 3518 TriUF
10579 3521 TriUF
10589 3522 TriUF
10589 4516 TriUF
10592 3516 TriUF
10598 3516 TriUF
10611 3516 TriUF
10620 3516 TriUF
10623 3520 TriUF
10626 3516 TriUF
10630 3516 TriUF
10630 4328 TriUF
10636 3517 TriUF
10649 3520 TriUF
10667 3520 TriUF
10677 3729 TriUF
10699 3518 TriUF
10721 3515 TriUF
10746 3521 TriUF
10756 3527 TriUF
10759 3516 TriUF
10762 3516 TriUF
10771 3516 TriUF
10771 3516 TriUF
10778 3515 TriUF
10787 3517 TriUF
10800 3518 TriUF
10803 3519 TriUF
10815 3516 TriUF
10834 4796 TriUF
10844 3516 TriUF
10850 3516 TriUF
10850 3517 TriUF
10850 3518 TriUF
10860 3517 TriUF
10860 3525 TriUF
10872 3516 TriUF
10875 3516 TriUF
10882 3519 TriUF
10891 4493 TriUF
10907 3518 TriUF
10923 3518 TriUF
10926 3521 TriUF
10926 3518 TriUF
10929 4435 TriUF
10932 3518 TriUF
10938 3518 TriUF
10941 3520 TriUF
10945 3526 TriUF
10957 3522 TriUF
10963 3516 TriUF
10967 3516 TriUF
10970 3519 TriUF
10973 3518 TriUF
10976 3516 TriUF
10982 3516 TriUF
10989 3520 TriUF
11001 3527 TriUF
11008 3519 TriUF
11014 3515 TriUF
11017 3517 TriUF
11026 3518 TriUF
11030 4745 TriUF
11039 3518 TriUF
11042 3516 TriUF
11055 3516 TriUF
11055 3516 TriUF
11064 3526 TriUF
11127 3520 TriUF
11127 3520 TriUF
11130 4904 TriUF
11134 3517 TriUF
11134 3518 TriUF
11146 3519 TriUF
11149 3520 TriUF
11149 3521 TriUF
11171 3536 TriUF
11184 3519 TriUF
11187 3523 TriUF
11193 3531 TriUF
11193 4440 TriUF
11197 3533 TriUF
11215 3517 TriUF
11225 3536 TriUF
11231 3545 TriUF
11244 3517 TriUF
11291 3534 TriUF
11300 3523 TriUF
11316 4392 TriUF
11322 3517 TriUF
11326 3518 TriUF
11332 3529 TriUF
11332 3534 TriUF
11335 3528 TriUF
11354 3522 TriUF
11360 3522 TriUF
11370 3541 TriUF
11370 3545 TriUF
11411 3529 TriUF
11436 3517 TriUF
11442 3530 TriUF
11442 3523 TriUF
11474 3519 TriUF
11477 3520 TriUF
11489 3523 TriUF
11502 3530 TriUF
11502 3519 TriUF
11521 3515 TriUF
11537 5363 TriUF
11559 3539 TriUF
11587 3559 TriUF
11593 3578 TriUF
11600 5249 TriUF
11603 3593 TriUF
11609 3588 TriUF
11625 3590 TriUF
11663 3500 TriUF
11685 3533 TriUF
11782 3566 TriUF
11798 3556 TriUF
11804 3553 TriUF
11811 4517 TriUF
11814 4816 TriUF
11830 3534 TriUF
11855 3536 TriUF
11902 4850 TriUF
11905 3523 TriUF
11921 3518 TriUF
11921 3515 TriUF
11924 3518 TriUF
11927 3530 TriUF
11946 3519 TriUF
11949 3542 TriUF
11956 3566 TriUF
11978 3528 TriUF
11978 3530 TriUF
11981 3543 TriUF
11987 3556 TriUF
11987 3556 TriUF
12019 3523 TriUF
12022 3518 TriUF
12034 3542 TriUF
12037 3519 TriUF
12044 3523 TriUF
12072 3520 TriUF
12078 3525 TriUF
12082 3518 TriUF
12091 3540 TriUF
12104 3521 TriUF
12129 3518 TriUF
12132 3533 TriUF
12132 3534 TriUF
12151 3520 TriUF
12163 3516 TriUF
12176 3538 TriUF
12179 4283 TriUF
12201 3538 TriUF
12226 3519 TriUF
12230 3515 TriUF
12236 3518 TriUF
12245 3519 TriUF
12248 3516 TriUF
12274 3539 TriUF
12283 3518 TriUF
12293 3521 TriUF
12308 3527 TriUF
12315 4573 TriUF
12321 3528 TriUF
12324 3542 TriUF
12330 3531 TriUF
12346 3560 TriUF
12362 3560 TriUF
12381 3518 TriUF
12387 3533 TriUF
12406 3522 TriUF
12425 3552 TriUF
12434 3553 TriUF
12434 3552 TriUF
12507 3549 TriUF
12513 3558 TriUF
12551 3522 TriUF
12592 3782 TriUF
12617 3524 TriUF
12639 3550 TriUF
12708 3544 TriUF
12715 3551 TriUF
12718 3521 TriUF
12724 3542 TriUF
12733 3565 TriUF
12752 3577 TriUF
12759 3594 TriUF
12796 3599 TriUF
12806 3619 TriUF
12819 3567 TriUF
12822 3531 TriUF
12831 3525 TriUF
12841 3534 TriUF
12850 3541 TriUF
12859 4442 TriUF
12863 3560 TriUF
12885 3517 TriUF
12888 3536 TriUF
12894 3529 TriUF
12900 3530 TriUF
% End plot #1
1.000 UL
LTb
LCb setrgbcolor
1200 7049 N
0 -3556 V
12598 0 V
0 3556 V
-12598 0 V
Z stroke
1.000 UP
1.000 UL
LTb
LCb setrgbcolor
stroke
grestore
end
showpage
%%Page: 2 2
gnudict begin
gsave
doclip
50 50 translate
0.050 0.050 scale
0 setgray
newpath
(Times) findfont 200 scalefont setfont
BackgroundColor 0 lt 3 1 roll 0 lt exch 0 lt or or not {BackgroundColor C 1.000 0 0 14400.00 10080.00 BoxColFill} if
1.000 UL
LTb
LCb setrgbcolor
1.000 UL
LTa
LCa setrgbcolor
600 3323 M
12598 0 V
stroke
LTb
LCb setrgbcolor
600 3323 M
63 0 V
12535 0 R
-63 0 V
stroke
480 3323 M
[ [(Times) 200.0 0.0 true true 0 ( 0)]
] -66.7 MRshow
1.000 UL
LTb
LCb setrgbcolor
1.000 UL
LTa
LCa setrgbcolor
600 3737 M
12598 0 V
stroke
LTb
LCb setrgbcolor
600 3737 M
63 0 V
12535 0 R
-63 0 V
stroke
480 3737 M
[ [(Times) 200.0 0.0 true true 0 ( 500000)]
] -66.7 MRshow
1.000 UL
LTb
LCb setrgbcolor
1.000 UL
LTa
LCa setrgbcolor
600 4151 M
12598 0 V
stroke
LTb
LCb setrgbcolor
600 4151 M
63 0 V
12535 0 R
-63 0 V
stroke
480 4151 M
[ [(Times) 200.0 0.0 true true 0 ( 1e+06)]
] -66.7 MRshow
1.000 UL
LTb
LCb setrgbcolor
1.000 UL
LTa
LCa setrgbcolor
600 4565 M
12598 0 V
stroke
LTb
LCb setrgbcolor
600 4565 M
63 0 V
12535 0 R
-63 0 V
stroke
480 4565 M
[ [(Times) 200.0 0.0 true true 0 ( 1.5e+06)]
] -66.7 MRshow
1.000 UL
LTb
LCb setrgbcolor
1.000 UL
LTa
LCa setrgbcolor
600 4979 M
12598 0 V
stroke
LTb
LCb setrgbcolor
600 4979 M
63 0 V
12535 0 R
-63 0 V
stroke
480 4979 M
[ [(Times) 200.0 0.0 true true 0 ( 2e+06)]
] -66.7 MRshow
1.000 UL
LTb
LCb setrgbcolor
1.000 UL
LTa
LCa setrgbcolor
600 5393 M
12598 0 V
stroke
LTb
LCb setrgbcolor
600 5393 M
63 0 V
12535 0 R
-63 0 V
stroke
480 5393 M
[ [(Times) 200.0 0.0 true true 0 ( 2.5e+06)]
] -66.7 MRshow
1.000 UL
LTb
LCb setrgbcolor
1.000 UL
LTa
LCa setrgbcolor
600 5807 M
12598 0 V
stroke
LTb
LCb setrgbcolor
600 5807 M
63 0 V
12535 0 R
-63 0 V
stroke
480 5807 M
[ [(Times) 200.0 0.0 true true 0 ( 3e+06)]
] -66.7 MRshow
1.000 UL
LTb
LCb setrgbcolor
1.000 UL
LTa
LCa setrgbcolor
600 6221 M
12598 0 V
stroke
LTb
LCb setrgbcolor
600 6221 M
63 0 V
12535 0 R
-63 0 V
stroke
480 6221 M
[ [(Times) 200.0 0.0 true true 0 ( 3.5e+06)]
] -66.7 MRshow
1.000 UL
LTb
LCb setrgbcolor
1.000 UL
LTa
LCa setrgbcolor
600 6635 M
12598 0 V
stroke
LTb
LCb setrgbcolor
600 6635 M
63 0 V
12535 0 R
-63 0 V
stroke
480 6635 M
[ [(Times) 200.0 0.0 true true 0 ( 4e+06)]
] -66.7 MRshow
1.000 UL
LTb
LCb setrgbcolor
1.000 UL
LTa
LCa setrgbcolor
600 7049 M
12598 0 V
stroke
LTb
LCb setrgbcolor
600 7049 M
63 0 V
12535 0 R
-63 0 V
stroke
480 7049 M
[ [(Times) 200.0 0.0 true true 0 ( 4.5e+06)]
] -66.7 MRshow
1.000 UL
LTb
LCb setrgbcolor
1.000 UL
LTa
LCa setrgbcolor
600 3323 M
0 3726 V
stroke
LTb
LCb setrgbcolor
600 3323 M
0 63 V
0 3663 R
0 -63 V
stroke
600 3203 M
currentpoint gsave translate -45 rotate 0 0 moveto
[ [(Times) 200.0 0.0 true true 0 ( 0)]
] -66.7 MLshow
grestore
1.000 UL
LTb
LCb setrgbcolor
1.000 UL
LTa
LCa setrgbcolor
1860 3323 M
0 3726 V
stroke
LTb
LCb setrgbcolor
1860 3323 M
0 63 V
0 3663 R
0 -63 V
stroke
1860 3203 M
currentpoint gsave translate -45 rotate 0 0 moveto
[ [(Times) 200.0 0.0 true true 0 ( 5)]
] -66.7 MLshow
grestore
1.000 UL
LTb
LCb setrgbcolor
1.000 UL
LTa
LCa setrgbcolor
3120 3323 M
0 3726 V
stroke
LTb
LCb setrgbcolor
3120 3323 M
0 63 V
0 3663 R
0 -63 V
stroke
3120 3203 M
currentpoint gsave translate -45 rotate 0 0 moveto
[ [(Times) 200.0 0.0 true true 0 ( 10)]
] -66.7 MLshow
grestore
1.000 UL
LTb
LCb setrgbcolor
1.000 UL
LTa
LCa setrgbcolor
4379 3323 M
0 3726 V
stroke
LTb
LCb setrgbcolor
4379 3323 M
0 63 V
0 3663 R
0 -63 V
stroke
4379 3203 M
currentpoint gsave translate -45 rotate 0 0 moveto
[ [(Times) 200.0 0.0 true true 0 ( 15)]
] -66.7 MLshow
grestore
1.000 UL
LTb
LCb setrgbcolor
1.000 UL
LTa
LCa setrgbcolor
5639 3323 M
0 3726 V
stroke
LTb
LCb setrgbcolor
5639 3323 M
0 63 V
0 3663 R
0 -63 V
stroke
5639 3203 M
currentpoint gsave translate -45 rotate 0 0 moveto
[ [(Times) 200.0 0.0 true true 0 ( 20)]
] -66.7 MLshow
grestore
1.000 UL
LTb
LCb setrgbcolor
1.000 UL
LTa
LCa setrgbcolor
6899 3323 M
0 3726 V
stroke
LTb
LCb setrgbcolor
6899 3323 M
0 63 V
0 3663 R
0 -63 V
stroke
6899 3203 M
currentpoint gsave translate -45 rotate 0 0 moveto
[ [(Times) 200.0 0.0 true true 0 ( 25)]
] -66.7 MLshow
grestore
1.000 UL
LTb
LCb setrgbcolor
1.000 UL
LTa
LCa setrgbcolor
8159 3323 M
0 3726 V
stroke
LTb
LCb setrgbcolor
8159 3323 M
0 63 V
0 3663 R
0 -63 V
stroke
8159 3203 M
currentpoint gsave translate -45 rotate 0 0 moveto
[ [(Times) 200.0 0.0 true true 0 ( 30)]
] -66.7 MLshow
grestore
1.000 UL
LTb
LCb setrgbcolor
1.000 UL
LTa
LCa setrgbcolor
9419 3323 M
0 3726 V
stroke
LTb
LCb setrgbcolor
9419 3323 M
0 63 V
0 3663 R
0 -63 V
stroke
9419 3203 M
currentpoint gsave translate -45 rotate 0 0 moveto
[ [(Times) 200.0 0.0 true true 0 ( 35)]
] -66.7 MLshow
grestore
1.000 UL
LTb
LCb setrgbcolor
1.000 UL
LTa
LCa setrgbcolor
10678 3323 M
0 3726 V
stroke
LTb
LCb setrgbcolor
10678 3323 M
0 63 V
0 3663 R
0 -63 V
stroke
10678 3203 M
currentpoint gsave translate -45 rotate 0 0 moveto
[ [(Times) 200.0 0.0 true true 0 ( 40)]
] -66.7 MLshow
grestore
1.000 UL
LTb
LCb setrgbcolor
1.000 UL
LTa
LCa setrgbcolor
11938 3323 M
0 3726 V
stroke
LTb
LCb setrgbcolor
11938 3323 M
0 63 V
0 3663 R
0 -63 V
stroke
11938 3203 M
currentpoint gsave translate -45 rotate 0 0 moveto
[ [(Times) 200.0 0.0 true true 0 ( 45)]
] -66.7 MLshow
grestore
1.000 UL
LTb
LCb setrgbcolor
1.000 UL
LTa
LCa setrgbcolor
13198 3323 M
0 3726 V
stroke
LTb
LCb setrgbcolor
13198 3323 M
0 63 V
0 3663 R
0 -63 V
stroke
13198 3203 M
currentpoint gsave translate -45 rotate 0 0 moveto
[ [(Times) 200.0 0.0 true true 0 ( 50)]
] -66.7 MLshow
grestore
1.000 UL
LTb
LCb setrgbcolor
1.000 UL
LTb
LCb setrgbcolor
600 7049 N
0 -3726 V
12598 0 V
0 3726 V
600 7049 L
Z stroke
LCb setrgbcolor
-700 5186 M
currentpoint gsave translate -270 rotate 0 0 moveto
[ [(Times) 200.0 0.0 true true 0 (Flow size [bytes])]
] -66.7 MCshow
grestore
LTb
LCb setrgbcolor
6899 2769 M
[ [(Times) 200.0 0.0 true true 0 (Duration [sec])]
] -66.7 MCshow
LTb
6899 7349 M
[ [(Times) 200.0 0.0 true true 0 (src port 80, repeating connections sorted by duration)]
] -66.7 MCshow
1.000 UP
1.000 UL
LTb
LCb setrgbcolor
1.000 UL
LT8
LC8 setrgbcolor
6508 63 N
782 0 V
-782 0 V
Z stroke
% Begin plot #1
1.000 UP
1.000 UL
LT8
1.00 0.00 0.00 C 600 3323 TriUF
600 3323 TriUF
624 3323 TriUF
659 3323 TriUF
679 3323 TriUF
679 3323 TriUF
679 3323 TriUF
679 3323 TriUF
679 3323 TriUF
679 3323 TriUF
679 3323 TriUF
679 3323 TriUF
679 3323 TriUF
679 3323 TriUF
679 3323 TriUF
679 3323 TriUF
679 3323 TriUF
679 3323 TriUF
679 3323 TriUF
679 3323 TriUF
679 3323 TriUF
679 3323 TriUF
679 3323 TriUF
680 3323 TriUF
680 3323 TriUF
680 3323 TriUF
680 3323 TriUF
680 3323 TriUF
680 3323 TriUF
680 3323 TriUF
680 3323 TriUF
680 3323 TriUF
680 3323 TriUF
680 3323 TriUF
680 3323 TriUF
680 3323 TriUF
680 3323 TriUF
680 3323 TriUF
680 3323 TriUF
680 3323 TriUF
680 3323 TriUF
680 3323 TriUF
680 3323 TriUF
680 3323 TriUF
680 3323 TriUF
680 3323 TriUF
680 3323 TriUF
680 3323 TriUF
680 3323 TriUF
680 3323 TriUF
680 3323 TriUF
680 3323 TriUF
680 3323 TriUF
680 3323 TriUF
680 3323 TriUF
680 3323 TriUF
680 3323 TriUF
680 3323 TriUF
680 3323 TriUF
680 3323 TriUF
680 3323 TriUF
680 3323 TriUF
680 3323 TriUF
680 3323 TriUF
680 3323 TriUF
680 3323 TriUF
680 3323 TriUF
680 3323 TriUF
680 3323 TriUF
680 3323 TriUF
680 3323 TriUF
680 3323 TriUF
680 3323 TriUF
680 3323 TriUF
680 3323 TriUF
680 3323 TriUF
680 3323 TriUF
680 3323 TriUF
680 3323 TriUF
680 3323 TriUF
680 3323 TriUF
680 3323 TriUF
680 3323 TriUF
680 3323 TriUF
680 3323 TriUF
680 3323 TriUF
680 3323 TriUF
680 3323 TriUF
680 3323 TriUF
680 3323 TriUF
680 3323 TriUF
680 3323 TriUF
680 3323 TriUF
680 3323 TriUF
680 3323 TriUF
680 3323 TriUF
680 3323 TriUF
680 3323 TriUF
680 3323 TriUF
680 3323 TriUF
680 3323 TriUF
680 3323 TriUF
680 3323 TriUF
680 3323 TriUF
680 3323 TriUF
680 3323 TriUF
680 3323 TriUF
680 3323 TriUF
680 3323 TriUF
680 3323 TriUF
680 3323 TriUF
680 3323 TriUF
680 3323 TriUF
680 3323 TriUF
680 3323 TriUF
680 3323 TriUF
680 3323 TriUF
680 3323 TriUF
680 3323 TriUF
680 3323 TriUF
680 3323 TriUF
680 3323 TriUF
680 3323 TriUF
680 3323 TriUF
680 3323 TriUF
680 3323 TriUF
680 3323 TriUF
680 3323 TriUF
680 3323 TriUF
680 3323 TriUF
680 3323 TriUF
680 3323 TriUF
680 3323 TriUF
680 3323 TriUF
680 3323 TriUF
680 3323 TriUF
680 3323 TriUF
681 3323 TriUF
681 3323 TriUF
681 3323 TriUF
681 3323 TriUF
681 3323 TriUF
681 3323 TriUF
681 3323 TriUF
681 3323 TriUF
681 3323 TriUF
681 3323 TriUF
681 3323 TriUF
681 3323 TriUF
681 3323 TriUF
681 3323 TriUF
681 3323 TriUF
681 3323 TriUF
681 3323 TriUF
681 3323 TriUF
681 3323 TriUF
681 3323 TriUF
681 3323 TriUF
681 3323 TriUF
682 3323 TriUF
682 3323 TriUF
682 3323 TriUF
682 3323 TriUF
682 3323 TriUF
682 3323 TriUF
682 3323 TriUF
682 3323 TriUF
682 3323 TriUF
682 3323 TriUF
682 3323 TriUF
682 3323 TriUF
682 3323 TriUF
682 3323 TriUF
682 3323 TriUF
682 3323 TriUF
682 3323 TriUF
682 3323 TriUF
682 3323 TriUF
682 3323 TriUF
682 3323 TriUF
682 3323 TriUF
682 3323 TriUF
682 3323 TriUF
683 3323 TriUF
683 3323 TriUF
683 3323 TriUF
683 3323 TriUF
683 3323 TriUF
683 3323 TriUF
683 3323 TriUF
683 3323 TriUF
683 3323 TriUF
683 3323 TriUF
683 3323 TriUF
683 3323 TriUF
683 3323 TriUF
683 3323 TriUF
683 3323 TriUF
683 3323 TriUF
684 3323 TriUF
684 3323 TriUF
684 3323 TriUF
684 3323 TriUF
684 3323 TriUF
684 3323 TriUF
684 3323 TriUF
684 3323 TriUF
684 3323 TriUF
684 3323 TriUF
684 3323 TriUF
684 3323 TriUF
684 3323 TriUF
684 3323 TriUF
684 3323 TriUF
684 3323 TriUF
684 3323 TriUF
684 3323 TriUF
684 3323 TriUF
684 3323 TriUF
684 3323 TriUF
684 3323 TriUF
684 3323 TriUF
684 3323 TriUF
684 3323 TriUF
684 3323 TriUF
684 3323 TriUF
684 3323 TriUF
684 3323 TriUF
684 3323 TriUF
684 3323 TriUF
684 3323 TriUF
684 3323 TriUF
684 3323 TriUF
684 3323 TriUF
684 3323 TriUF
684 3323 TriUF
684 3323 TriUF
684 3323 TriUF
684 3323 TriUF
684 3323 TriUF
684 3323 TriUF
684 3323 TriUF
684 3323 TriUF
684 3323 TriUF
684 3323 TriUF
684 3323 TriUF
684 3323 TriUF
684 3323 TriUF
684 3323 TriUF
684 3323 TriUF
684 3323 TriUF
684 3323 TriUF
684 3323 TriUF
684 3323 TriUF
684 3323 TriUF
684 3323 TriUF
684 3323 TriUF
684 3323 TriUF
685 3323 TriUF
685 3323 TriUF
685 3323 TriUF
685 3323 TriUF
685 3323 TriUF
685 3323 TriUF
685 3323 TriUF
685 3323 TriUF
685 3323 TriUF
685 3323 TriUF
685 3323 TriUF
685 3323 TriUF
685 3323 TriUF
685 3323 TriUF
686 3323 TriUF
686 3323 TriUF
686 3323 TriUF
686 3323 TriUF
686 3323 TriUF
686 3323 TriUF
686 3323 TriUF
686 3323 TriUF
686 3323 TriUF
686 3323 TriUF
686 3323 TriUF
686 3323 TriUF
686 3323 TriUF
686 3323 TriUF
687 3323 TriUF
687 3323 TriUF
687 3323 TriUF
687 3323 TriUF
687 3323 TriUF
687 3323 TriUF
687 3323 TriUF
687 3323 TriUF
687 3323 TriUF
687 3323 TriUF
687 3323 TriUF
687 3323 TriUF
687 3323 TriUF
687 3323 TriUF
687 3323 TriUF
687 3323 TriUF
687 3323 TriUF
687 3323 TriUF
687 3323 TriUF
687 3323 TriUF
688 3323 TriUF
688 3323 TriUF
688 3323 TriUF
688 3323 TriUF
688 3323 TriUF
688 3323 TriUF
688 3323 TriUF
688 3323 TriUF
688 3323 TriUF
688 3323 TriUF
688 3323 TriUF
688 3323 TriUF
688 3323 TriUF
688 3323 TriUF
688 3323 TriUF
688 3323 TriUF
688 3323 TriUF
688 3323 TriUF
688 3323 TriUF
688 3323 TriUF
688 3323 TriUF
688 3323 TriUF
688 3323 TriUF
688 3323 TriUF
688 3323 TriUF
688 3323 TriUF
688 3323 TriUF
688 3323 TriUF
688 3323 TriUF
688 3323 TriUF
688 3323 TriUF
688 3323 TriUF
688 3323 TriUF
688 3323 TriUF
688 3323 TriUF
688 3323 TriUF
688 3323 TriUF
688 3323 TriUF
688 3323 TriUF
688 3323 TriUF
688 3323 TriUF
688 3323 TriUF
688 3323 TriUF
688 3323 TriUF
688 3323 TriUF
688 3323 TriUF
688 3323 TriUF
688 3323 TriUF
688 3323 TriUF
688 3323 TriUF
688 3323 TriUF
688 3323 TriUF
689 3323 TriUF
689 3323 TriUF
689 3323 TriUF
689 3323 TriUF
689 3323 TriUF
689 3323 TriUF
689 3323 TriUF
689 3323 TriUF
689 3323 TriUF
689 3323 TriUF
689 3323 TriUF
689 3323 TriUF
689 3323 TriUF
689 3323 TriUF
689 3323 TriUF
689 3323 TriUF
689 3323 TriUF
689 3323 TriUF
689 3323 TriUF
689 3323 TriUF
690 3323 TriUF
690 3323 TriUF
690 3323 TriUF
690 3323 TriUF
690 3323 TriUF
690 3323 TriUF
690 3323 TriUF
690 3323 TriUF
690 3323 TriUF
690 3323 TriUF
691 3323 TriUF
691 3323 TriUF
691 3323 TriUF
691 3323 TriUF
691 3323 TriUF
691 3323 TriUF
691 3323 TriUF
691 3323 TriUF
691 3323 TriUF
691 3323 TriUF
691 3323 TriUF
692 3323 TriUF
692 3323 TriUF
692 3323 TriUF
692 3323 TriUF
692 3323 TriUF
692 3323 TriUF
692 3323 TriUF
692 3323 TriUF
692 3323 TriUF
692 3323 TriUF
692 3323 TriUF
692 3323 TriUF
692 3323 TriUF
692 3323 TriUF
692 3323 TriUF
692 3323 TriUF
692 3323 TriUF
692 3323 TriUF
692 3323 TriUF
692 3323 TriUF
692 3323 TriUF
692 3323 TriUF
692 3323 TriUF
692 3323 TriUF
692 3323 TriUF
692 3323 TriUF
692 3323 TriUF
692 3323 TriUF
692 3323 TriUF
692 3323 TriUF
692 3323 TriUF
692 3323 TriUF
692 3323 TriUF
692 3323 TriUF
693 3323 TriUF
693 3323 TriUF
693 3323 TriUF
693 3323 TriUF
693 3323 TriUF
693 3323 TriUF
694 3323 TriUF
694 3323 TriUF
694 3323 TriUF
694 3323 TriUF
694 3323 TriUF
694 3323 TriUF
694 3323 TriUF
694 3323 TriUF
694 3323 TriUF
694 3323 TriUF
694 3323 TriUF
695 3323 TriUF
695 3323 TriUF
695 3323 TriUF
695 3323 TriUF
695 3323 TriUF
695 3323 TriUF
695 3323 TriUF
695 3323 TriUF
695 3323 TriUF
696 3323 TriUF
696 3323 TriUF
696 3323 TriUF
696 3323 TriUF
696 3323 TriUF
696 3323 TriUF
696 3323 TriUF
696 3323 TriUF
696 3323 TriUF
696 3323 TriUF
696 3323 TriUF
696 3323 TriUF
696 3323 TriUF
696 3323 TriUF
696 3323 TriUF
696 3323 TriUF
696 3323 TriUF
696 3323 TriUF
696 3323 TriUF
696 3323 TriUF
696 3323 TriUF
696 3323 TriUF
696 3323 TriUF
696 3323 TriUF
696 3323 TriUF
696 3323 TriUF
696 3323 TriUF
696 3323 TriUF
697 3323 TriUF
697 3323 TriUF
697 3323 TriUF
697 3323 TriUF
697 3323 TriUF
697 3323 TriUF
698 3323 TriUF
698 3323 TriUF
698 3323 TriUF
698 3323 TriUF
698 3323 TriUF
698 3323 TriUF
698 3323 TriUF
698 3323 TriUF
699 3323 TriUF
699 3323 TriUF
699 3323 TriUF
699 3323 TriUF
699 3323 TriUF
699 3323 TriUF
699 3323 TriUF
700 3323 TriUF
700 3323 TriUF
700 3323 TriUF
700 3323 TriUF
700 3323 TriUF
700 3323 TriUF
700 3323 TriUF
700 3323 TriUF
700 3323 TriUF
700 3323 TriUF
700 3323 TriUF
700 3323 TriUF
700 3323 TriUF
700 3323 TriUF
700 3323 TriUF
700 3323 TriUF
700 3323 TriUF
700 3323 TriUF
701 3323 TriUF
701 3323 TriUF
701 3323 TriUF
701 3323 TriUF
701 3323 TriUF
701 3323 TriUF
701 3323 TriUF
702 3323 TriUF
702 3323 TriUF
702 3323 TriUF
702 3323 TriUF
702 3323 TriUF
702 3323 TriUF
703 3323 TriUF
703 3323 TriUF
703 3323 TriUF
703 3323 TriUF
703 3323 TriUF
704 3323 TriUF
704 3323 TriUF
704 3323 TriUF
704 3323 TriUF
704 3323 TriUF
704 3323 TriUF
704 3323 TriUF
704 3323 TriUF
704 3323 TriUF
704 3323 TriUF
705 3323 TriUF
705 3323 TriUF
705 3323 TriUF
705 3323 TriUF
705 3323 TriUF
705 3323 TriUF
707 3323 TriUF
707 3323 TriUF
707 3323 TriUF
707 3323 TriUF
707 3323 TriUF
707 3323 TriUF
708 3323 TriUF
708 3323 TriUF
708 3323 TriUF
708 3323 TriUF
708 3323 TriUF
708 3323 TriUF
708 3323 TriUF
708 3323 TriUF
708 3323 TriUF
708 3323 TriUF
708 3323 TriUF
709 3323 TriUF
709 3323 TriUF
709 3323 TriUF
710 3323 TriUF
710 3323 TriUF
710 3323 TriUF
710 3323 TriUF
710 3323 TriUF
710 3323 TriUF
711 3323 TriUF
711 3323 TriUF
711 3323 TriUF
711 3323 TriUF
711 3323 TriUF
711 3323 TriUF
711 3323 TriUF
711 3323 TriUF
711 3323 TriUF
711 3323 TriUF
712 3323 TriUF
712 3323 TriUF
712 3323 TriUF
712 3323 TriUF
712 3323 TriUF
712 3323 TriUF
712 3323 TriUF
712 3323 TriUF
712 3323 TriUF
712 3323 TriUF
712 3323 TriUF
712 3323 TriUF
712 3323 TriUF
712 3323 TriUF
713 3323 TriUF
714 3323 TriUF
714 3323 TriUF
714 3323 TriUF
715 3323 TriUF
715 3323 TriUF
715 3323 TriUF
715 3323 TriUF
715 3323 TriUF
715 3323 TriUF
715 3323 TriUF
715 3323 TriUF
716 3323 TriUF
716 3323 TriUF
716 3323 TriUF
716 3323 TriUF
716 3323 TriUF
716 3323 TriUF
716 3323 TriUF
716 3323 TriUF
716 3323 TriUF
716 3323 TriUF
716 3323 TriUF
717 3323 TriUF
717 3323 TriUF
717 3323 TriUF
717 3323 TriUF
718 3323 TriUF
718 3323 TriUF
718 3323 TriUF
719 3323 TriUF
719 3323 TriUF
719 3323 TriUF
719 3323 TriUF
719 3323 TriUF
719 3323 TriUF
720 3323 TriUF
720 3323 TriUF
720 3323 TriUF
720 3323 TriUF
721 3323 TriUF
721 3323 TriUF
723 3323 TriUF
723 3323 TriUF
723 3323 TriUF
723 3323 TriUF
723 3323 TriUF
723 3323 TriUF
723 3323 TriUF
723 3323 TriUF
723 3323 TriUF
723 3323 TriUF
723 3323 TriUF
723 3323 TriUF
723 3323 TriUF
724 3323 TriUF
725 3323 TriUF
725 3323 TriUF
725 3323 TriUF
727 3323 TriUF
727 3323 TriUF
727 3323 TriUF
727 3323 TriUF
727 3323 TriUF
727 3323 TriUF
728 3323 TriUF
728 3323 TriUF
729 3323 TriUF
729 3323 TriUF
729 3323 TriUF
730 3323 TriUF
730 3323 TriUF
730 3323 TriUF
731 3323 TriUF
731 3323 TriUF
731 3323 TriUF
731 3323 TriUF
731 3323 TriUF
731 3323 TriUF
731 3323 TriUF
731 3323 TriUF
731 3323 TriUF
732 3323 TriUF
732 3323 TriUF
732 3323 TriUF
732 3323 TriUF
732 3323 TriUF
734 3323 TriUF
734 3323 TriUF
734 3323 TriUF
734 3323 TriUF
735 3323 TriUF
735 3323 TriUF
735 3323 TriUF
735 3323 TriUF
735 3323 TriUF
735 3323 TriUF
735 3323 TriUF
736 3323 TriUF
737 3323 TriUF
737 3323 TriUF
738 3323 TriUF
738 3323 TriUF
738 3323 TriUF
739 3323 TriUF
739 3323 TriUF
739 3323 TriUF
739 3323 TriUF
739 3323 TriUF
739 3323 TriUF
739 3323 TriUF
740 3323 TriUF
740 3323 TriUF
740 3323 TriUF
740 3323 TriUF
740 3323 TriUF
741 3323 TriUF
742 3323 TriUF
742 3323 TriUF
742 3323 TriUF
742 3323 TriUF
743 3323 TriUF
743 3323 TriUF
743 3323 TriUF
743 3323 TriUF
744 3323 TriUF
744 3323 TriUF
745 3323 TriUF
745 3323 TriUF
745 3323 TriUF
746 3323 TriUF
747 3323 TriUF
747 3323 TriUF
747 3323 TriUF
747 3323 TriUF
747 3323 TriUF
747 3323 TriUF
747 3323 TriUF
747 3323 TriUF
747 3323 TriUF
748 3323 TriUF
749 3323 TriUF
749 3323 TriUF
751 3323 TriUF
751 3323 TriUF
751 3323 TriUF
751 3323 TriUF
753 3323 TriUF
754 3323 TriUF
754 3323 TriUF
754 3323 TriUF
755 3323 TriUF
755 3323 TriUF
755 3323 TriUF
756 3323 TriUF
757 3323 TriUF
757 3323 TriUF
758 3323 TriUF
758 3323 TriUF
759 3323 TriUF
759 3323 TriUF
759 3323 TriUF
761 3323 TriUF
763 3323 TriUF
763 3323 TriUF
763 3323 TriUF
763 3323 TriUF
764 3323 TriUF
765 3323 TriUF
767 3323 TriUF
768 3323 TriUF
769 3323 TriUF
770 3323 TriUF
770 3323 TriUF
770 3323 TriUF
771 3323 TriUF
772 3323 TriUF
773 3323 TriUF
773 3323 TriUF
774 3323 TriUF
774 3323 TriUF
774 3323 TriUF
774 3323 TriUF
774 3323 TriUF
774 3323 TriUF
774 3323 TriUF
774 3323 TriUF
774 3323 TriUF
775 3323 TriUF
778 3323 TriUF
778 3323 TriUF
781 3323 TriUF
782 3323 TriUF
782 3323 TriUF
784 3323 TriUF
784 3323 TriUF
785 3323 TriUF
786 3323 TriUF
786 3323 TriUF
788 3323 TriUF
788 3323 TriUF
789 3323 TriUF
789 3323 TriUF
790 3323 TriUF
791 3323 TriUF
792 3323 TriUF
798 3323 TriUF
798 3323 TriUF
798 3323 TriUF
799 3323 TriUF
802 3323 TriUF
803 3323 TriUF
805 3323 TriUF
805 3323 TriUF
806 3323 TriUF
806 3323 TriUF
810 3323 TriUF
810 3323 TriUF
810 3323 TriUF
810 3323 TriUF
811 3323 TriUF
813 3323 TriUF
813 3323 TriUF
813 3323 TriUF
813 3323 TriUF
814 3323 TriUF
814 3323 TriUF
814 3323 TriUF
818 3323 TriUF
818 3323 TriUF
820 3323 TriUF
822 3323 TriUF
822 3323 TriUF
823 3323 TriUF
824 3323 TriUF
825 3323 TriUF
825 3323 TriUF
826 3323 TriUF
829 3323 TriUF
830 3323 TriUF
830 3323 TriUF
831 3323 TriUF
831 3323 TriUF
832 3323 TriUF
833 3323 TriUF
837 3323 TriUF
837 3323 TriUF
837 3323 TriUF
838 3323 TriUF
838 3323 TriUF
838 3323 TriUF
842 3323 TriUF
849 3323 TriUF
853 3323 TriUF
857 3323 TriUF
857 3323 TriUF
857 3323 TriUF
859 3323 TriUF
859 3323 TriUF
861 3323 TriUF
861 3323 TriUF
861 3323 TriUF
868 3323 TriUF
877 3323 TriUF
881 3323 TriUF
888 3323 TriUF
889 3323 TriUF
892 3323 TriUF
892 3323 TriUF
895 3323 TriUF
896 3323 TriUF
900 3323 TriUF
900 3323 TriUF
900 3323 TriUF
912 3323 TriUF
912 3323 TriUF
912 3323 TriUF
912 3323 TriUF
916 3323 TriUF
916 3323 TriUF
920 3323 TriUF
920 3323 TriUF
924 3323 TriUF
931 3323 TriUF
931 3323 TriUF
933 3323 TriUF
934 3323 TriUF
935 3323 TriUF
936 3323 TriUF
937 3323 TriUF
939 3323 TriUF
941 3323 TriUF
944 3323 TriUF
946 3323 TriUF
947 3323 TriUF
955 3323 TriUF
955 3323 TriUF
955 3323 TriUF
958 3323 TriUF
963 3323 TriUF
972 3323 TriUF
974 3323 TriUF
974 3323 TriUF
979 3323 TriUF
997 3323 TriUF
1001 3323 TriUF
1004 3323 TriUF
1006 3323 TriUF
1007 3323 TriUF
1010 3323 TriUF
1010 3323 TriUF
1011 3323 TriUF
1014 3323 TriUF
1015 3323 TriUF
1015 3323 TriUF
1024 3323 TriUF
1026 3323 TriUF
1027 3323 TriUF
1047 3323 TriUF
1048 3323 TriUF
1064 3323 TriUF
1066 3323 TriUF
1069 3323 TriUF
1081 3323 TriUF
1100 3323 TriUF
1144 3323 TriUF
1182 3323 TriUF
1189 3323 TriUF
1199 3323 TriUF
1309 3323 TriUF
1436 3323 TriUF
1444 3323 TriUF
1450 3323 TriUF
1454 3323 TriUF
1471 3323 TriUF
1623 3323 TriUF
2699 3836 TriUF
2905 3970 TriUF
3400 4255 TriUF
3506 4256 TriUF
3554 4221 TriUF
3559 4246 TriUF
3561 4251 TriUF
3575 4238 TriUF
3580 4256 TriUF
3607 4224 TriUF
3616 4238 TriUF
3638 4234 TriUF
3673 4249 TriUF
3753 4241 TriUF
3786 4218 TriUF
3798 4254 TriUF
3801 4325 TriUF
3811 4293 TriUF
3829 4266 TriUF
3830 4198 TriUF
3839 4242 TriUF
3854 4257 TriUF
3936 4246 TriUF
3938 4256 TriUF
3947 4232 TriUF
3954 4228 TriUF
3955 4299 TriUF
3961 3695 TriUF
4009 4247 TriUF
4055 4228 TriUF
4127 4240 TriUF
4144 4237 TriUF
4225 4233 TriUF
4228 4271 TriUF
4425 4220 TriUF
4446 4235 TriUF
4492 4212 TriUF
4509 4239 TriUF
4510 4202 TriUF
4529 4235 TriUF
4563 4212 TriUF
4630 4240 TriUF
4696 4320 TriUF
4711 4395 TriUF
4808 4208 TriUF
4870 4248 TriUF
4874 4293 TriUF
4995 4247 TriUF
5035 4214 TriUF
5218 4210 TriUF
5263 4241 TriUF
5286 4257 TriUF
5286 4302 TriUF
5306 4218 TriUF
5311 4238 TriUF
5409 4240 TriUF
5422 4219 TriUF
5473 4261 TriUF
5598 4224 TriUF
5628 4265 TriUF
5695 4222 TriUF
5747 4299 TriUF
5768 4231 TriUF
5821 4266 TriUF
5899 4281 TriUF
5975 4254 TriUF
6176 4202 TriUF
6209 4221 TriUF
6613 5131 TriUF
6695 4260 TriUF
6821 4271 TriUF
6906 4347 TriUF
7224 4261 TriUF
7458 4230 TriUF
8097 4219 TriUF
10310 5177 TriUF
12636 6823 TriUF
% End plot #1
1.000 UL
LTb
LCb setrgbcolor
600 7049 N
0 -3726 V
12598 0 V
0 3726 V
600 7049 L
Z stroke
1.000 UP
1.000 UL
LTb
LCb setrgbcolor
stroke
grestore
end
showpage
%%Trailer
%%DocumentFonts: Times
