%!PS-Adobe-2.0 EPSF-2.0
%%Title: repeating_conn_1375810740_1049100592.eps
%%Creator: gnuplot 4.6 patchlevel 2
%%CreationDate: Sun Apr  6 23:31:54 2014
%%DocumentFonts: (atend)
%%BoundingBox: 50 50 770 554
%%EndComments
%%BeginProlog
/gnudict 256 dict def
gnudict begin
%
% The following true/false flags may be edited by hand if desired.
% The unit line width and grayscale image gamma correction may also be changed.
%
/Color true def
/Blacktext false def
/Solid false def
/Dashlength 1 def
/Landscape false def
/Level1 false def
/Rounded false def
/ClipToBoundingBox false def
/SuppressPDFMark false def
/TransparentPatterns false def
/gnulinewidth 5.000 def
/userlinewidth gnulinewidth def
/Gamma 1.0 def
/BackgroundColor {-1.000 -1.000 -1.000} def
%
/vshift -66 def
/dl1 {
  10.0 Dashlength mul mul
  Rounded { currentlinewidth 0.75 mul sub dup 0 le { pop 0.01 } if } if
} def
/dl2 {
  10.0 Dashlength mul mul
  Rounded { currentlinewidth 0.75 mul add } if
} def
/hpt_ 31.5 def
/vpt_ 31.5 def
/hpt hpt_ def
/vpt vpt_ def
/doclip {
  ClipToBoundingBox {
    newpath 50 50 moveto 770 50 lineto 770 554 lineto 50 554 lineto closepath
    clip
  } if
} def
%
% Gnuplot Prolog Version 4.6 (September 2012)
%
%/SuppressPDFMark true def
%
/M {moveto} bind def
/L {lineto} bind def
/R {rmoveto} bind def
/V {rlineto} bind def
/N {newpath moveto} bind def
/Z {closepath} bind def
/C {setrgbcolor} bind def
/f {rlineto fill} bind def
/g {setgray} bind def
/Gshow {show} def   % May be redefined later in the file to support UTF-8
/vpt2 vpt 2 mul def
/hpt2 hpt 2 mul def
/Lshow {currentpoint stroke M 0 vshift R 
	Blacktext {gsave 0 setgray show grestore} {show} ifelse} def
/Rshow {currentpoint stroke M dup stringwidth pop neg vshift R
	Blacktext {gsave 0 setgray show grestore} {show} ifelse} def
/Cshow {currentpoint stroke M dup stringwidth pop -2 div vshift R 
	Blacktext {gsave 0 setgray show grestore} {show} ifelse} def
/UP {dup vpt_ mul /vpt exch def hpt_ mul /hpt exch def
  /hpt2 hpt 2 mul def /vpt2 vpt 2 mul def} def
/DL {Color {setrgbcolor Solid {pop []} if 0 setdash}
 {pop pop pop 0 setgray Solid {pop []} if 0 setdash} ifelse} def
/BL {stroke userlinewidth 2 mul setlinewidth
	Rounded {1 setlinejoin 1 setlinecap} if} def
/AL {stroke userlinewidth 2 div setlinewidth
	Rounded {1 setlinejoin 1 setlinecap} if} def
/UL {dup gnulinewidth mul /userlinewidth exch def
	dup 1 lt {pop 1} if 10 mul /udl exch def} def
/PL {stroke userlinewidth setlinewidth
	Rounded {1 setlinejoin 1 setlinecap} if} def
3.8 setmiterlimit
% Default Line colors
/LCw {1 1 1} def
/LCb {0 0 0} def
/LCa {0 0 0} def
/LC0 {1 0 0} def
/LC1 {0 1 0} def
/LC2 {0 0 1} def
/LC3 {1 0 1} def
/LC4 {0 1 1} def
/LC5 {1 1 0} def
/LC6 {0 0 0} def
/LC7 {1 0.3 0} def
/LC8 {0.5 0.5 0.5} def
% Default Line Types
/LTw {PL [] 1 setgray} def
/LTb {BL [] LCb DL} def
/LTa {AL [1 udl mul 2 udl mul] 0 setdash LCa setrgbcolor} def
/LT0 {PL [] LC0 DL} def
/LT1 {PL [4 dl1 2 dl2] LC1 DL} def
/LT2 {PL [2 dl1 3 dl2] LC2 DL} def
/LT3 {PL [1 dl1 1.5 dl2] LC3 DL} def
/LT4 {PL [6 dl1 2 dl2 1 dl1 2 dl2] LC4 DL} def
/LT5 {PL [3 dl1 3 dl2 1 dl1 3 dl2] LC5 DL} def
/LT6 {PL [2 dl1 2 dl2 2 dl1 6 dl2] LC6 DL} def
/LT7 {PL [1 dl1 2 dl2 6 dl1 2 dl2 1 dl1 2 dl2] LC7 DL} def
/LT8 {PL [2 dl1 2 dl2 2 dl1 2 dl2 2 dl1 2 dl2 2 dl1 4 dl2] LC8 DL} def
/Pnt {stroke [] 0 setdash gsave 1 setlinecap M 0 0 V stroke grestore} def
/Dia {stroke [] 0 setdash 2 copy vpt add M
  hpt neg vpt neg V hpt vpt neg V
  hpt vpt V hpt neg vpt V closepath stroke
  Pnt} def
/Pls {stroke [] 0 setdash vpt sub M 0 vpt2 V
  currentpoint stroke M
  hpt neg vpt neg R hpt2 0 V stroke
 } def
/Box {stroke [] 0 setdash 2 copy exch hpt sub exch vpt add M
  0 vpt2 neg V hpt2 0 V 0 vpt2 V
  hpt2 neg 0 V closepath stroke
  Pnt} def
/Crs {stroke [] 0 setdash exch hpt sub exch vpt add M
  hpt2 vpt2 neg V currentpoint stroke M
  hpt2 neg 0 R hpt2 vpt2 V stroke} def
/TriU {stroke [] 0 setdash 2 copy vpt 1.12 mul add M
  hpt neg vpt -1.62 mul V
  hpt 2 mul 0 V
  hpt neg vpt 1.62 mul V closepath stroke
  Pnt} def
/Star {2 copy Pls Crs} def
/BoxF {stroke [] 0 setdash exch hpt sub exch vpt add M
  0 vpt2 neg V hpt2 0 V 0 vpt2 V
  hpt2 neg 0 V closepath fill} def
/TriUF {stroke [] 0 setdash vpt 1.12 mul add M
  hpt neg vpt -1.62 mul V
  hpt 2 mul 0 V
  hpt neg vpt 1.62 mul V closepath fill} def
/TriD {stroke [] 0 setdash 2 copy vpt 1.12 mul sub M
  hpt neg vpt 1.62 mul V
  hpt 2 mul 0 V
  hpt neg vpt -1.62 mul V closepath stroke
  Pnt} def
/TriDF {stroke [] 0 setdash vpt 1.12 mul sub M
  hpt neg vpt 1.62 mul V
  hpt 2 mul 0 V
  hpt neg vpt -1.62 mul V closepath fill} def
/DiaF {stroke [] 0 setdash vpt add M
  hpt neg vpt neg V hpt vpt neg V
  hpt vpt V hpt neg vpt V closepath fill} def
/Pent {stroke [] 0 setdash 2 copy gsave
  translate 0 hpt M 4 {72 rotate 0 hpt L} repeat
  closepath stroke grestore Pnt} def
/PentF {stroke [] 0 setdash gsave
  translate 0 hpt M 4 {72 rotate 0 hpt L} repeat
  closepath fill grestore} def
/Circle {stroke [] 0 setdash 2 copy
  hpt 0 360 arc stroke Pnt} def
/CircleF {stroke [] 0 setdash hpt 0 360 arc fill} def
/C0 {BL [] 0 setdash 2 copy moveto vpt 90 450 arc} bind def
/C1 {BL [] 0 setdash 2 copy moveto
	2 copy vpt 0 90 arc closepath fill
	vpt 0 360 arc closepath} bind def
/C2 {BL [] 0 setdash 2 copy moveto
	2 copy vpt 90 180 arc closepath fill
	vpt 0 360 arc closepath} bind def
/C3 {BL [] 0 setdash 2 copy moveto
	2 copy vpt 0 180 arc closepath fill
	vpt 0 360 arc closepath} bind def
/C4 {BL [] 0 setdash 2 copy moveto
	2 copy vpt 180 270 arc closepath fill
	vpt 0 360 arc closepath} bind def
/C5 {BL [] 0 setdash 2 copy moveto
	2 copy vpt 0 90 arc
	2 copy moveto
	2 copy vpt 180 270 arc closepath fill
	vpt 0 360 arc} bind def
/C6 {BL [] 0 setdash 2 copy moveto
	2 copy vpt 90 270 arc closepath fill
	vpt 0 360 arc closepath} bind def
/C7 {BL [] 0 setdash 2 copy moveto
	2 copy vpt 0 270 arc closepath fill
	vpt 0 360 arc closepath} bind def
/C8 {BL [] 0 setdash 2 copy moveto
	2 copy vpt 270 360 arc closepath fill
	vpt 0 360 arc closepath} bind def
/C9 {BL [] 0 setdash 2 copy moveto
	2 copy vpt 270 450 arc closepath fill
	vpt 0 360 arc closepath} bind def
/C10 {BL [] 0 setdash 2 copy 2 copy moveto vpt 270 360 arc closepath fill
	2 copy moveto
	2 copy vpt 90 180 arc closepath fill
	vpt 0 360 arc closepath} bind def
/C11 {BL [] 0 setdash 2 copy moveto
	2 copy vpt 0 180 arc closepath fill
	2 copy moveto
	2 copy vpt 270 360 arc closepath fill
	vpt 0 360 arc closepath} bind def
/C12 {BL [] 0 setdash 2 copy moveto
	2 copy vpt 180 360 arc closepath fill
	vpt 0 360 arc closepath} bind def
/C13 {BL [] 0 setdash 2 copy moveto
	2 copy vpt 0 90 arc closepath fill
	2 copy moveto
	2 copy vpt 180 360 arc closepath fill
	vpt 0 360 arc closepath} bind def
/C14 {BL [] 0 setdash 2 copy moveto
	2 copy vpt 90 360 arc closepath fill
	vpt 0 360 arc} bind def
/C15 {BL [] 0 setdash 2 copy vpt 0 360 arc closepath fill
	vpt 0 360 arc closepath} bind def
/Rec {newpath 4 2 roll moveto 1 index 0 rlineto 0 exch rlineto
	neg 0 rlineto closepath} bind def
/Square {dup Rec} bind def
/Bsquare {vpt sub exch vpt sub exch vpt2 Square} bind def
/S0 {BL [] 0 setdash 2 copy moveto 0 vpt rlineto BL Bsquare} bind def
/S1 {BL [] 0 setdash 2 copy vpt Square fill Bsquare} bind def
/S2 {BL [] 0 setdash 2 copy exch vpt sub exch vpt Square fill Bsquare} bind def
/S3 {BL [] 0 setdash 2 copy exch vpt sub exch vpt2 vpt Rec fill Bsquare} bind def
/S4 {BL [] 0 setdash 2 copy exch vpt sub exch vpt sub vpt Square fill Bsquare} bind def
/S5 {BL [] 0 setdash 2 copy 2 copy vpt Square fill
	exch vpt sub exch vpt sub vpt Square fill Bsquare} bind def
/S6 {BL [] 0 setdash 2 copy exch vpt sub exch vpt sub vpt vpt2 Rec fill Bsquare} bind def
/S7 {BL [] 0 setdash 2 copy exch vpt sub exch vpt sub vpt vpt2 Rec fill
	2 copy vpt Square fill Bsquare} bind def
/S8 {BL [] 0 setdash 2 copy vpt sub vpt Square fill Bsquare} bind def
/S9 {BL [] 0 setdash 2 copy vpt sub vpt vpt2 Rec fill Bsquare} bind def
/S10 {BL [] 0 setdash 2 copy vpt sub vpt Square fill 2 copy exch vpt sub exch vpt Square fill
	Bsquare} bind def
/S11 {BL [] 0 setdash 2 copy vpt sub vpt Square fill 2 copy exch vpt sub exch vpt2 vpt Rec fill
	Bsquare} bind def
/S12 {BL [] 0 setdash 2 copy exch vpt sub exch vpt sub vpt2 vpt Rec fill Bsquare} bind def
/S13 {BL [] 0 setdash 2 copy exch vpt sub exch vpt sub vpt2 vpt Rec fill
	2 copy vpt Square fill Bsquare} bind def
/S14 {BL [] 0 setdash 2 copy exch vpt sub exch vpt sub vpt2 vpt Rec fill
	2 copy exch vpt sub exch vpt Square fill Bsquare} bind def
/S15 {BL [] 0 setdash 2 copy Bsquare fill Bsquare} bind def
/D0 {gsave translate 45 rotate 0 0 S0 stroke grestore} bind def
/D1 {gsave translate 45 rotate 0 0 S1 stroke grestore} bind def
/D2 {gsave translate 45 rotate 0 0 S2 stroke grestore} bind def
/D3 {gsave translate 45 rotate 0 0 S3 stroke grestore} bind def
/D4 {gsave translate 45 rotate 0 0 S4 stroke grestore} bind def
/D5 {gsave translate 45 rotate 0 0 S5 stroke grestore} bind def
/D6 {gsave translate 45 rotate 0 0 S6 stroke grestore} bind def
/D7 {gsave translate 45 rotate 0 0 S7 stroke grestore} bind def
/D8 {gsave translate 45 rotate 0 0 S8 stroke grestore} bind def
/D9 {gsave translate 45 rotate 0 0 S9 stroke grestore} bind def
/D10 {gsave translate 45 rotate 0 0 S10 stroke grestore} bind def
/D11 {gsave translate 45 rotate 0 0 S11 stroke grestore} bind def
/D12 {gsave translate 45 rotate 0 0 S12 stroke grestore} bind def
/D13 {gsave translate 45 rotate 0 0 S13 stroke grestore} bind def
/D14 {gsave translate 45 rotate 0 0 S14 stroke grestore} bind def
/D15 {gsave translate 45 rotate 0 0 S15 stroke grestore} bind def
/DiaE {stroke [] 0 setdash vpt add M
  hpt neg vpt neg V hpt vpt neg V
  hpt vpt V hpt neg vpt V closepath stroke} def
/BoxE {stroke [] 0 setdash exch hpt sub exch vpt add M
  0 vpt2 neg V hpt2 0 V 0 vpt2 V
  hpt2 neg 0 V closepath stroke} def
/TriUE {stroke [] 0 setdash vpt 1.12 mul add M
  hpt neg vpt -1.62 mul V
  hpt 2 mul 0 V
  hpt neg vpt 1.62 mul V closepath stroke} def
/TriDE {stroke [] 0 setdash vpt 1.12 mul sub M
  hpt neg vpt 1.62 mul V
  hpt 2 mul 0 V
  hpt neg vpt -1.62 mul V closepath stroke} def
/PentE {stroke [] 0 setdash gsave
  translate 0 hpt M 4 {72 rotate 0 hpt L} repeat
  closepath stroke grestore} def
/CircE {stroke [] 0 setdash 
  hpt 0 360 arc stroke} def
/Opaque {gsave closepath 1 setgray fill grestore 0 setgray closepath} def
/DiaW {stroke [] 0 setdash vpt add M
  hpt neg vpt neg V hpt vpt neg V
  hpt vpt V hpt neg vpt V Opaque stroke} def
/BoxW {stroke [] 0 setdash exch hpt sub exch vpt add M
  0 vpt2 neg V hpt2 0 V 0 vpt2 V
  hpt2 neg 0 V Opaque stroke} def
/TriUW {stroke [] 0 setdash vpt 1.12 mul add M
  hpt neg vpt -1.62 mul V
  hpt 2 mul 0 V
  hpt neg vpt 1.62 mul V Opaque stroke} def
/TriDW {stroke [] 0 setdash vpt 1.12 mul sub M
  hpt neg vpt 1.62 mul V
  hpt 2 mul 0 V
  hpt neg vpt -1.62 mul V Opaque stroke} def
/PentW {stroke [] 0 setdash gsave
  translate 0 hpt M 4 {72 rotate 0 hpt L} repeat
  Opaque stroke grestore} def
/CircW {stroke [] 0 setdash 
  hpt 0 360 arc Opaque stroke} def
/BoxFill {gsave Rec 1 setgray fill grestore} def
/Density {
  /Fillden exch def
  currentrgbcolor
  /ColB exch def /ColG exch def /ColR exch def
  /ColR ColR Fillden mul Fillden sub 1 add def
  /ColG ColG Fillden mul Fillden sub 1 add def
  /ColB ColB Fillden mul Fillden sub 1 add def
  ColR ColG ColB setrgbcolor} def
/BoxColFill {gsave Rec PolyFill} def
/PolyFill {gsave Density fill grestore grestore} def
/h {rlineto rlineto rlineto gsave closepath fill grestore} bind def
%
% PostScript Level 1 Pattern Fill routine for rectangles
% Usage: x y w h s a XX PatternFill
%	x,y = lower left corner of box to be filled
%	w,h = width and height of box
%	  a = angle in degrees between lines and x-axis
%	 XX = 0/1 for no/yes cross-hatch
%
/PatternFill {gsave /PFa [ 9 2 roll ] def
  PFa 0 get PFa 2 get 2 div add PFa 1 get PFa 3 get 2 div add translate
  PFa 2 get -2 div PFa 3 get -2 div PFa 2 get PFa 3 get Rec
  TransparentPatterns {} {gsave 1 setgray fill grestore} ifelse
  clip
  currentlinewidth 0.5 mul setlinewidth
  /PFs PFa 2 get dup mul PFa 3 get dup mul add sqrt def
  0 0 M PFa 5 get rotate PFs -2 div dup translate
  0 1 PFs PFa 4 get div 1 add floor cvi
	{PFa 4 get mul 0 M 0 PFs V} for
  0 PFa 6 get ne {
	0 1 PFs PFa 4 get div 1 add floor cvi
	{PFa 4 get mul 0 2 1 roll M PFs 0 V} for
 } if
  stroke grestore} def
%
/languagelevel where
 {pop languagelevel} {1} ifelse
 2 lt
	{/InterpretLevel1 true def}
	{/InterpretLevel1 Level1 def}
 ifelse
%
% PostScript level 2 pattern fill definitions
%
/Level2PatternFill {
/Tile8x8 {/PaintType 2 /PatternType 1 /TilingType 1 /BBox [0 0 8 8] /XStep 8 /YStep 8}
	bind def
/KeepColor {currentrgbcolor [/Pattern /DeviceRGB] setcolorspace} bind def
<< Tile8x8
 /PaintProc {0.5 setlinewidth pop 0 0 M 8 8 L 0 8 M 8 0 L stroke} 
>> matrix makepattern
/Pat1 exch def
<< Tile8x8
 /PaintProc {0.5 setlinewidth pop 0 0 M 8 8 L 0 8 M 8 0 L stroke
	0 4 M 4 8 L 8 4 L 4 0 L 0 4 L stroke}
>> matrix makepattern
/Pat2 exch def
<< Tile8x8
 /PaintProc {0.5 setlinewidth pop 0 0 M 0 8 L
	8 8 L 8 0 L 0 0 L fill}
>> matrix makepattern
/Pat3 exch def
<< Tile8x8
 /PaintProc {0.5 setlinewidth pop -4 8 M 8 -4 L
	0 12 M 12 0 L stroke}
>> matrix makepattern
/Pat4 exch def
<< Tile8x8
 /PaintProc {0.5 setlinewidth pop -4 0 M 8 12 L
	0 -4 M 12 8 L stroke}
>> matrix makepattern
/Pat5 exch def
<< Tile8x8
 /PaintProc {0.5 setlinewidth pop -2 8 M 4 -4 L
	0 12 M 8 -4 L 4 12 M 10 0 L stroke}
>> matrix makepattern
/Pat6 exch def
<< Tile8x8
 /PaintProc {0.5 setlinewidth pop -2 0 M 4 12 L
	0 -4 M 8 12 L 4 -4 M 10 8 L stroke}
>> matrix makepattern
/Pat7 exch def
<< Tile8x8
 /PaintProc {0.5 setlinewidth pop 8 -2 M -4 4 L
	12 0 M -4 8 L 12 4 M 0 10 L stroke}
>> matrix makepattern
/Pat8 exch def
<< Tile8x8
 /PaintProc {0.5 setlinewidth pop 0 -2 M 12 4 L
	-4 0 M 12 8 L -4 4 M 8 10 L stroke}
>> matrix makepattern
/Pat9 exch def
/Pattern1 {PatternBgnd KeepColor Pat1 setpattern} bind def
/Pattern2 {PatternBgnd KeepColor Pat2 setpattern} bind def
/Pattern3 {PatternBgnd KeepColor Pat3 setpattern} bind def
/Pattern4 {PatternBgnd KeepColor Landscape {Pat5} {Pat4} ifelse setpattern} bind def
/Pattern5 {PatternBgnd KeepColor Landscape {Pat4} {Pat5} ifelse setpattern} bind def
/Pattern6 {PatternBgnd KeepColor Landscape {Pat9} {Pat6} ifelse setpattern} bind def
/Pattern7 {PatternBgnd KeepColor Landscape {Pat8} {Pat7} ifelse setpattern} bind def
} def
%
%
%End of PostScript Level 2 code
%
/PatternBgnd {
  TransparentPatterns {} {gsave 1 setgray fill grestore} ifelse
} def
%
% Substitute for Level 2 pattern fill codes with
% grayscale if Level 2 support is not selected.
%
/Level1PatternFill {
/Pattern1 {0.250 Density} bind def
/Pattern2 {0.500 Density} bind def
/Pattern3 {0.750 Density} bind def
/Pattern4 {0.125 Density} bind def
/Pattern5 {0.375 Density} bind def
/Pattern6 {0.625 Density} bind def
/Pattern7 {0.875 Density} bind def
} def
%
% Now test for support of Level 2 code
%
Level1 {Level1PatternFill} {Level2PatternFill} ifelse
%
/Symbol-Oblique /Symbol findfont [1 0 .167 1 0 0] makefont
dup length dict begin {1 index /FID eq {pop pop} {def} ifelse} forall
currentdict end definefont pop
/MFshow {
   { dup 5 get 3 ge
     { 5 get 3 eq {gsave} {grestore} ifelse }
     {dup dup 0 get findfont exch 1 get scalefont setfont
     [ currentpoint ] exch dup 2 get 0 exch R dup 5 get 2 ne {dup dup 6
     get exch 4 get {Gshow} {stringwidth pop 0 R} ifelse }if dup 5 get 0 eq
     {dup 3 get {2 get neg 0 exch R pop} {pop aload pop M} ifelse} {dup 5
     get 1 eq {dup 2 get exch dup 3 get exch 6 get stringwidth pop -2 div
     dup 0 R} {dup 6 get stringwidth pop -2 div 0 R 6 get
     show 2 index {aload pop M neg 3 -1 roll neg R pop pop} {pop pop pop
     pop aload pop M} ifelse }ifelse }ifelse }
     ifelse }
   forall} def
/Gswidth {dup type /stringtype eq {stringwidth} {pop (n) stringwidth} ifelse} def
/MFwidth {0 exch { dup 5 get 3 ge { 5 get 3 eq { 0 } { pop } ifelse }
 {dup 3 get{dup dup 0 get findfont exch 1 get scalefont setfont
     6 get Gswidth pop add} {pop} ifelse} ifelse} forall} def
/MLshow { currentpoint stroke M
  0 exch R
  Blacktext {gsave 0 setgray MFshow grestore} {MFshow} ifelse } bind def
/MRshow { currentpoint stroke M
  exch dup MFwidth neg 3 -1 roll R
  Blacktext {gsave 0 setgray MFshow grestore} {MFshow} ifelse } bind def
/MCshow { currentpoint stroke M
  exch dup MFwidth -2 div 3 -1 roll R
  Blacktext {gsave 0 setgray MFshow grestore} {MFshow} ifelse } bind def
/XYsave    { [( ) 1 2 true false 3 ()] } bind def
/XYrestore { [( ) 1 2 true false 4 ()] } bind def
Level1 SuppressPDFMark or 
{} {
/SDict 10 dict def
systemdict /pdfmark known not {
  userdict /pdfmark systemdict /cleartomark get put
} if
SDict begin [
  /Title (repeating_conn_1375810740_1049100592.eps)
  /Subject (gnuplot plot)
  /Creator (gnuplot 4.6 patchlevel 2)
  /Author (olgabo)
%  /Producer (gnuplot)
%  /Keywords ()
  /CreationDate (Sun Apr  6 23:31:54 2014)
  /DOCINFO pdfmark
end
} ifelse
end
%%EndProlog
%%Page: 1 1
gnudict begin
gsave
doclip
50 50 translate
0.050 0.050 scale
0 setgray
newpath
(Times) findfont 200 scalefont setfont
BackgroundColor 0 lt 3 1 roll 0 lt exch 0 lt or or not {BackgroundColor C 1.000 0 0 14400.00 10080.00 BoxColFill} if
1.000 UL
LTb
LCb setrgbcolor
1.000 UL
LTa
LCa setrgbcolor
1200 3493 M
12598 0 V
stroke
LTb
LCb setrgbcolor
1200 3493 M
63 0 V
12535 0 R
-63 0 V
stroke
1080 3493 M
[ [(Times) 200.0 0.0 true true 0 ( 0)]
] -66.7 MRshow
1.000 UL
LTb
LCb setrgbcolor
1.000 UL
LTa
LCa setrgbcolor
1200 4086 M
12598 0 V
stroke
LTb
LCb setrgbcolor
1200 4086 M
63 0 V
12535 0 R
-63 0 V
stroke
1080 4086 M
[ [(Times) 200.0 0.0 true true 0 ( 2)]
] -66.7 MRshow
1.000 UL
LTb
LCb setrgbcolor
1.000 UL
LTa
LCa setrgbcolor
1200 4678 M
12598 0 V
stroke
LTb
LCb setrgbcolor
1200 4678 M
63 0 V
12535 0 R
-63 0 V
stroke
1080 4678 M
[ [(Times) 200.0 0.0 true true 0 ( 4)]
] -66.7 MRshow
1.000 UL
LTb
LCb setrgbcolor
1.000 UL
LTa
LCa setrgbcolor
1200 5271 M
12598 0 V
stroke
LTb
LCb setrgbcolor
1200 5271 M
63 0 V
12535 0 R
-63 0 V
stroke
1080 5271 M
[ [(Times) 200.0 0.0 true true 0 ( 6)]
] -66.7 MRshow
1.000 UL
LTb
LCb setrgbcolor
1.000 UL
LTa
LCa setrgbcolor
1200 5864 M
12598 0 V
stroke
LTb
LCb setrgbcolor
1200 5864 M
63 0 V
12535 0 R
-63 0 V
stroke
1080 5864 M
[ [(Times) 200.0 0.0 true true 0 ( 8)]
] -66.7 MRshow
1.000 UL
LTb
LCb setrgbcolor
1.000 UL
LTa
LCa setrgbcolor
1200 6456 M
12598 0 V
stroke
LTb
LCb setrgbcolor
1200 6456 M
63 0 V
12535 0 R
-63 0 V
stroke
1080 6456 M
[ [(Times) 200.0 0.0 true true 0 ( 10)]
] -66.7 MRshow
1.000 UL
LTb
LCb setrgbcolor
1.000 UL
LTa
LCa setrgbcolor
1200 7049 M
12598 0 V
stroke
LTb
LCb setrgbcolor
1200 7049 M
63 0 V
12535 0 R
-63 0 V
stroke
1080 7049 M
[ [(Times) 200.0 0.0 true true 0 ( 12)]
] -66.7 MRshow
1.000 UL
LTb
LCb setrgbcolor
1.000 UL
LTa
LCa setrgbcolor
1200 3493 M
0 3556 V
stroke
LTb
LCb setrgbcolor
1200 3493 M
0 63 V
0 3493 R
0 -63 V
stroke
1200 3373 M
currentpoint gsave translate -45 rotate 0 0 moveto
[ [(Times) 200.0 0.0 true true 0 ( 0)]
] -66.7 MLshow
grestore
1.000 UL
LTb
LCb setrgbcolor
1.000 UL
LTa
LCa setrgbcolor
2775 3493 M
0 3556 V
stroke
LTb
LCb setrgbcolor
2775 3493 M
0 63 V
0 3493 R
0 -63 V
stroke
2775 3373 M
currentpoint gsave translate -45 rotate 0 0 moveto
[ [(Times) 200.0 0.0 true true 0 ( 500)]
] -66.7 MLshow
grestore
1.000 UL
LTb
LCb setrgbcolor
1.000 UL
LTa
LCa setrgbcolor
4350 3493 M
0 3556 V
stroke
LTb
LCb setrgbcolor
4350 3493 M
0 63 V
0 3493 R
0 -63 V
stroke
4350 3373 M
currentpoint gsave translate -45 rotate 0 0 moveto
[ [(Times) 200.0 0.0 true true 0 ( 1000)]
] -66.7 MLshow
grestore
1.000 UL
LTb
LCb setrgbcolor
1.000 UL
LTa
LCa setrgbcolor
5924 3493 M
0 3556 V
stroke
LTb
LCb setrgbcolor
5924 3493 M
0 63 V
0 3493 R
0 -63 V
stroke
5924 3373 M
currentpoint gsave translate -45 rotate 0 0 moveto
[ [(Times) 200.0 0.0 true true 0 ( 1500)]
] -66.7 MLshow
grestore
1.000 UL
LTb
LCb setrgbcolor
1.000 UL
LTa
LCa setrgbcolor
7499 3493 M
0 3556 V
stroke
LTb
LCb setrgbcolor
7499 3493 M
0 63 V
0 3493 R
0 -63 V
stroke
7499 3373 M
currentpoint gsave translate -45 rotate 0 0 moveto
[ [(Times) 200.0 0.0 true true 0 ( 2000)]
] -66.7 MLshow
grestore
1.000 UL
LTb
LCb setrgbcolor
1.000 UL
LTa
LCa setrgbcolor
9074 3493 M
0 3556 V
stroke
LTb
LCb setrgbcolor
9074 3493 M
0 63 V
0 3493 R
0 -63 V
stroke
9074 3373 M
currentpoint gsave translate -45 rotate 0 0 moveto
[ [(Times) 200.0 0.0 true true 0 ( 2500)]
] -66.7 MLshow
grestore
1.000 UL
LTb
LCb setrgbcolor
1.000 UL
LTa
LCa setrgbcolor
10649 3493 M
0 3556 V
stroke
LTb
LCb setrgbcolor
10649 3493 M
0 63 V
0 3493 R
0 -63 V
stroke
10649 3373 M
currentpoint gsave translate -45 rotate 0 0 moveto
[ [(Times) 200.0 0.0 true true 0 ( 3000)]
] -66.7 MLshow
grestore
1.000 UL
LTb
LCb setrgbcolor
1.000 UL
LTa
LCa setrgbcolor
12223 3493 M
0 3556 V
stroke
LTb
LCb setrgbcolor
12223 3493 M
0 63 V
0 3493 R
0 -63 V
stroke
12223 3373 M
currentpoint gsave translate -45 rotate 0 0 moveto
[ [(Times) 200.0 0.0 true true 0 ( 3500)]
] -66.7 MLshow
grestore
1.000 UL
LTb
LCb setrgbcolor
1.000 UL
LTa
LCa setrgbcolor
13798 3493 M
0 3556 V
stroke
LTb
LCb setrgbcolor
13798 3493 M
0 63 V
0 3493 R
0 -63 V
stroke
13798 3373 M
currentpoint gsave translate -45 rotate 0 0 moveto
[ [(Times) 200.0 0.0 true true 0 ( 4000)]
] -66.7 MLshow
grestore
1.000 UL
LTb
LCb setrgbcolor
1.000 UL
LTb
LCb setrgbcolor
1200 7049 N
0 -3556 V
12598 0 V
0 3556 V
-12598 0 V
Z stroke
LCb setrgbcolor
500 5271 M
currentpoint gsave translate -270 rotate 0 0 moveto
[ [(Times) 200.0 0.0 true true 0 (Duration [sec])]
] -66.7 MCshow
grestore
LTb
LCb setrgbcolor
7499 2769 M
[ [(Times) 200.0 0.0 true true 0 (Time [sec])]
] -66.7 MCshow
LTb
7499 7349 M
[ [(Times) 200.0 0.0 true true 0 (src port 80, repeating connections sorted by start time)]
] -66.7 MCshow
1.000 UP
1.000 UL
LTb
LCb setrgbcolor
1.000 UL
LT8
LC8 setrgbcolor
7108 63 N
782 0 V
-782 0 V
Z stroke
% Begin plot #1
1.000 UP
1.000 UL
LT8
0.00 0.00 1.00 C 1200 3528 M
6 447 V
3 -319 V
10 94 V
12 -6 V
7 298 V
0 657 V
0 1312 V
9 -2423 V
7 942 V
3 -549 V
9 -104 V
3 438 V
0 836 V
3 -1399 V
13 -229 V
3 53 V
10 71 V
6 1670 V
28 -1623 V
19 422 V
25 -444 V
4 146 V
12 1102 V
6 -1260 V
13 -121 V
6 1303 V
16 -934 V
10 309 V
6 -406 V
3 -45 V
0 78 V
3 1782 V
22 -1011 V
13 550 V
3 -1604 V
25 -40 V
25 343 V
7 245 V
15 -133 V
7 393 V
9 -750 V
0 1227 V
13 -679 V
3 353 V
6 -562 V
3 155 V
16 -424 V
3 348 V
38 -379 V
19 -92 V
3 106 V
3 331 V
3 -439 V
10 413 V
9 134 V
0 132 V
35 -734 V
0 137 V
3 449 V
13 -590 V
0 458 V
22 -441 V
0 112 V
9 -87 V
170 225 V
3 -137 V
22 -103 V
13 46 V
3 4 V
10 21 V
3 112 V
6 318 V
9 -108 V
7 -338 V
22 322 V
19 -102 V
6 -193 V
22 173 V
6 169 V
13 -445 V
6 225 V
0 47 V
19 0 V
0 -138 V
3 80 V
10 283 V
0 -217 V
0 80 V
28 -329 V
3 16 V
13 274 V
3 472 V
3 -364 V
0 374 V
10 -624 V
3 32 V
0 299 V
6 -395 V
0 502 V
9 -215 V
4 -110 V
6 -15 V
0 1362 V
6 -1641 V
stroke 2258 3509 M
10 122 V
3 69 V
12 173 V
7 369 V
3 167 V
0 83 V
3 -951 V
6 170 V
0 157 V
10 -306 V
0 48 V
3 -93 V
6 11 V
10 543 V
6 -164 V
3 -16 V
3 256 V
7 -627 V
18 216 V
10 802 V
6 -649 V
13 -240 V
6 118 V
0 -85 V
6 -168 V
10 395 V
12 -141 V
16 185 V
10 -171 V
3 -51 V
0 356 V
6 -146 V
13 -425 V
0 622 V
0 370 V
6 -983 V
3 79 V
0 457 V
3 -360 V
3 2059 V
10 -2238 V
3 26 V
3 656 V
3 -629 V
0 843 V
10 -255 V
9 36 V
7 -91 V
6 -463 V
0 338 V
3 -270 V
3 19 V
3 -93 V
3 -92 V
4 60 V
3 -35 V
6 509 V
3 83 V
3 -282 V
3 -317 V
0 128 V
19 353 V
4 1772 V
9 -2304 V
16 79 V
0 174 V
6 -239 V
6 800 V
19 -782 V
3 357 V
16 -380 V
3 150 V
0 697 V
3 -839 V
29 -13 V
0 69 V
390 -25 V
7 183 V
0 249 V
18 499 V
38 -567 V
3 -245 V
4 -74 V
3 137 V
0 943 V
6 -672 V
28 -462 V
22 1111 V
10 -1058 V
12 -95 V
0 483 V
13 28 V
41 -134 V
3 -377 V
0 48 V
10 312 V
0 501 V
6 -747 V
3 -97 V
0 127 V
0 105 V
10 -185 V
9 723 V
13 -691 V
stroke 3361 3607 M
0 371 V
6 -354 V
16 155 V
15 89 V
0 641 V
22 -999 V
13 57 V
6 321 V
7 -221 V
0 766 V
9 -641 V
9 -253 V
13 -28 V
25 45 V
10 559 V
6 -547 V
16 28 V
0 231 V
22 -93 V
3 -93 V
3 194 V
0 2205 V
22 -2191 V
3 -242 V
13 368 V
13 -440 V
3 -12 V
0 201 V
0 -181 V
3 1241 V
6 -1217 V
3 63 V
0 85 V
16 2028 V
16 -2144 V
6 -92 V
0 569 V
6 -548 V
7 142 V
0 198 V
6 1802 V
6 -2109 V
7 149 V
9 345 V
3 -539 V
13 669 V
6 -467 V
0 725 V
9 -309 V
4 -363 V
6 -30 V
3 -221 V
0 67 V
3 161 V
7 320 V
6 -71 V
3 -49 V
3 -374 V
0 465 V
3 -482 V
0 32 V
0 2051 V
7 -2091 V
34 27 V
3 196 V
7 65 V
9 -271 V
10 1 V
6 107 V
3 -137 V
0 1279 V
9 -806 V
16 -492 V
19 49 V
10 -11 V
0 2318 V
6 -2288 V
0 297 V
3 432 V
6 -197 V
10 613 V
22 -996 V
3 -225 V
6 160 V
7 368 V
9 -415 V
3 1115 V
6 -1079 V
4 14 V
12 263 V
3 -194 V
0 -8 V
10 -148 V
0 20 V
9 189 V
3 198 V
4 -186 V
18 153 V
0 172 V
10 -407 V
3 6 V
0 -187 V
28 46 V
0 342 V
stroke 4094 3932 M
7 -385 V
9 347 V
16 -258 V
0 472 V
9 -377 V
10 -205 V
25 151 V
6 25 V
3 -140 V
26 105 V
15 567 V
13 -113 V
0 1265 V
47 -1874 V
3 466 V
703 -182 V
9 1312 V
19 -1597 V
0 -4 V
19 435 V
3 -407 V
0 173 V
22 -197 V
35 13 V
0 147 V
3 201 V
0 -126 V
6 -205 V
0 357 V
3 85 V
0 43 V
7 -497 V
0 281 V
3 130 V
3 -240 V
0 388 V
3 -310 V
0 93 V
3 -222 V
3 148 V
0 52 V
7 257 V
6 -483 V
0 36 V
3 94 V
6 -32 V
26 28 V
3 459 V
16 -390 V
15 165 V
10 -402 V
22 26 V
0 -22 V
6 121 V
0 -173 V
3 1165 V
25 -78 V
4 -973 V
28 35 V
13 -150 V
22 56 V
15 -74 V
0 129 V
3 1596 V
16 -1186 V
7 1486 V
9 -1720 V
0 59 V
13 -138 V
44 305 V
6 7 V
9 -374 V
32 507 V
13 -668 V
0 814 V
47 -636 V
6 -80 V
10 -11 V
25 2324 V
28 -2382 V
0 528 V
19 -164 V
16 -159 V
0 385 V
25 234 V
16 -418 V
34 102 V
7 -308 V
3 -190 V
0 47 V
0 490 V
0 -216 V
9 98 V
16 1306 V
6 -1762 V
22 486 V
3 -409 V
696 -84 V
0 208 V
19 242 V
10 -382 V
9 267 V
10 788 V
28 -1003 V
stroke 6573 3632 M
3 -58 V
13 -45 V
0 6 V
16 221 V
18 165 V
4 -407 V
3 6 V
19 37 V
3 277 V
9 -44 V
7 -147 V
25 26 V
15 -101 V
4 175 V
9 -187 V
3 -4 V
25 17 V
0 227 V
13 -289 V
6 755 V
0 494 V
10 -1234 V
0 18 V
6 1315 V
0 202 V
13 -1364 V
6 -11 V
13 746 V
9 -765 V
3 481 V
19 -494 V
0 134 V
10 -108 V
0 185 V
6 1222 V
3 -1512 V
3 52 V
0 295 V
10 -331 V
22 120 V
6 23 V
12 180 V
10 -188 V
3 -161 V
10 -28 V
0 -13 V
0 714 V
9 89 V
0 101 V
6 -756 V
7 -72 V
0 250 V
3 890 V
3 -1155 V
16 276 V
3 1942 V
9 -2146 V
22 -69 V
3 -45 V
4 386 V
3 -193 V
0 18 V
0 223 V
6 23 V
3 -419 V
16 26 V
3 98 V
6 320 V
4 -269 V
9 100 V
9 -340 V
13 156 V
6 -141 V
0 244 V
10 -128 V
6 -131 V
6 142 V
10 833 V
3 -957 V
9 182 V
0 185 V
13 269 V
3 392 V
6 -624 V
7 -201 V
28 -178 V
0 66 V
16 -61 V
6 208 V
16 367 V
397 -612 V
6 339 V
9 202 V
13 420 V
3 -536 V
3 -346 V
4 133 V
3 200 V
6 -106 V
3 -315 V
22 226 V
10 -38 V
6 267 V
3 -353 V
stroke 7732 3616 M
28 1120 V
0 645 V
16 43 V
10 -1710 V
47 148 V
3 261 V
22 -232 V
9 -179 V
10 450 V
13 -571 V
15 14 V
3 134 V
0 549 V
10 -769 V
0 157 V
12 -154 V
7 38 V
3 -56 V
35 5 V
15 44 V
3 170 V
7 51 V
6 37 V
10 -73 V
9 -45 V
0 -160 V
16 1003 V
9 -655 V
47 287 V
38 -269 V
13 -257 V
0 210 V
9 16 V
7 -137 V
3 -124 V
6 -37 V
0 352 V
6 339 V
22 -713 V
19 55 V
25 -66 V
7 321 V
25 -257 V
0 113 V
0 726 V
3 -395 V
19 -483 V
3 171 V
0 156 V
3 -183 V
0 59 V
3 -165 V
10 90 V
53 -165 V
29 60 V
9 336 V
10 -314 V
3 35 V
0 180 V
12 12 V
7 -279 V
9 31 V
16 56 V
0 613 V
22 24 V
6 -769 V
3 508 V
22 -500 V
10 210 V
9 -182 V
13 466 V
19 1332 V
3 -1794 V
22 93 V
0 637 V
16 -671 V
25 12 V
3 599 V
0 547 V
10 1639 V
6 -2888 V
22 264 V
0 10 V
3 -137 V
3 653 V
3 -622 V
7 -82 V
3 985 V
25 -859 V
6 -196 V
0 79 V
0 474 V
13 -533 V
0 1163 V
3 -1055 V
13 90 V
3 323 V
6 427 V
19 -848 V
13 -140 V
6 1696 V
22 353 V
22 -1310 V
13 -702 V
stroke 8860 3551 M
0 8 V
12 966 V
54 114 V
0 571 V
19 -1265 V
3 -154 V
6 1031 V
19 -1198 V
3 2877 V
3 -860 V
32 -1937 V
0 585 V
3 -535 V
19 108 V
19 -120 V
0 421 V
3 -100 V
16 297 V
15 191 V
13 -534 V
16 -323 V
41 123 V
44 -104 V
15 655 V
10 -722 V
13 -137 V
6 1297 V
6 -1221 V
0 26 V
6 -62 V
16 294 V
10 586 V
28 -634 V
57 1074 V
3 -1137 V
12 535 V
4 23 V
387 -553 V
38 -87 V
3 -142 V
6 101 V
29 -14 V
6 163 V
6 -155 V
22 -15 V
32 493 V
19 -175 V
6 -380 V
25 1271 V
3 -1129 V
3 -11 V
13 -9 V
3 -86 V
19 1147 V
25 -573 V
16 1763 V
31 -2291 V
13 399 V
583 457 V
19 -943 V
9 44 V
0 91 V
0 -107 V
3 311 V
6 625 V
16 -908 V
3 317 V
19 -314 V
7 54 V
12 -113 V
16 110 V
3 365 V
13 -413 V
9 -74 V
22 1501 V
25 -1496 V
22 135 V
7 582 V
12 -445 V
19 -174 V
0 248 V
3 7 V
29 865 V
31 -1224 V
41 50 V
13 42 V
6 -70 V
6 316 V
3 -142 V
7 681 V
12 -266 V
13 -230 V
3 -238 V
25 -126 V
3 151 V
4 243 V
3 -398 V
22 185 V
3 90 V
3 300 V
10 -533 V
0 41 V
0 136 V
18 -231 V
stroke 11174 3509 M
0 356 V
4 313 V
12 -506 V
10 9 V
0 245 V
6 -235 V
0 -184 V
16 17 V
0 179 V
22 -156 V
3 -27 V
0 32 V
6 713 V
29 198 V
3 -939 V
6 100 V
13 254 V
3 -305 V
9 -67 V
6 873 V
7 -570 V
0 470 V
6 -739 V
3 173 V
7 405 V
6 -572 V
0 246 V
3 -186 V
0 868 V
9 -467 V
4 -217 V
0 396 V
9 256 V
32 -907 V
3 191 V
0 546 V
3 -64 V
3 526 V
9 -1071 V
0 336 V
4 -337 V
6 881 V
9 -634 V
7 -318 V
15 124 V
7 -84 V
37 -110 V
4 134 V
3 -139 V
3 861 V
6 -269 V
7 -560 V
0 19 V
3 309 V
12 -237 V
0 -136 V
13 376 V
12 -363 V
4 816 V
6 -795 V
6 154 V
16 121 V
3 588 V
10 -820 V
18 869 V
7 -924 V
3 223 V
0 247 V
6 -445 V
0 183 V
3 -117 V
10 778 V
19 -681 V
0 43 V
22 -244 V
9 84 V
3 -64 V
0 506 V
13 -492 V
3 54 V
0 500 V
3 -192 V
16 -213 V
3 -104 V
3 87 V
16 -144 V
3 113 V
3 2545 V
3 -2636 V
10 38 V
0 160 V
0 17 V
9 672 V
7 -866 V
3 -16 V
6 143 V
0 414 V
3 -562 V
3 12 V
4 753 V
25 -367 V
0 315 V
3 -655 V
6 -7 V
stroke 11864 3607 M
10 -68 V
0 408 V
3 -435 V
3 -5 V
0 351 V
0 -189 V
3 -157 V
22 106 V
3 46 V
7 2884 V
3 -2164 V
3 -831 V
0 151 V
16 607 V
6 374 V
9 -671 V
0 393 V
4 -837 V
9 2 V
0 1141 V
28 -1018 V
3 381 V
16 693 V
3 -477 V
7 -730 V
0 38 V
3 220 V
3 161 V
0 448 V
16 194 V
3 -1075 V
6 305 V
0 736 V
6 -1056 V
7 390 V
6 458 V
0 2066 V
3 -2746 V
3 48 V
7 389 V
12 -444 V
13 66 V
3 12 V
3 98 V
6 391 V
26 -523 V
0 82 V
6 -314 V
3 218 V
0 -134 V
6 1130 V
4 -299 V
6 315 V
3 -1147 V
9 210 V
0 584 V
4 -273 V
6 -555 V
0 1032 V
3 -967 V
10 1041 V
9 -765 V
3 -360 V
3 49 V
7 51 V
0 869 V
3 -462 V
0 391 V
3 -680 V
6 637 V
13 168 V
6 -1036 V
6 744 V
22 -527 V
7 17 V
3 68 V
3 1751 V
19 -991 V
6 -895 V
3 228 V
0 151 V
0 85 V
7 -554 V
0 163 V
3 135 V
3 -241 V
3 1816 V
6 -1665 V
13 912 V
6 -1060 V
0 580 V
7 -383 V
6 522 V
9 -751 V
3 336 V
10 -287 V
6 661 V
3 -763 V
4 -33 V
0 952 V
0 1094 V
9 -2035 V
16 82 V
6 180 V
stroke 12450 3815 M
0 410 V
6 -617 V
3 -94 V
4 1044 V
12 -537 V
7 -478 V
6 815 V
6 -815 V
6 83 V
0 -114 V
4 97 V
9 -73 V
3 369 V
3 69 V
7 -418 V
0 364 V
6 233 V
6 -350 V
3 -284 V
0 764 V
10 -697 V
6 416 V
10 -491 V
3 268 V
3 -70 V
0 493 V
6 -480 V
6 -196 V
7 3107 V
6 -2862 V
35 -244 V
3 82 V
16 901 V
9 -862 V
0 138 V
6 -200 V
0 186 V
7 -156 V
3 -67 V
6 -13 V
10 19 V
0 433 V
3 949 V
9 -1414 V
0 307 V
6 726 V
4 -222 V
0 698 V
22 -1524 V
28 548 V
9 -137 V
19 -397 V
7 73 V
3 194 V
19 -278 V
0 229 V
0 47 V
9 -270 V
3 69 V
3 -63 V
4 100 V
6 505 V
9 419 V
3 -762 V
16 -33 V
3 -35 V
7 -147 V
1200 3528 TriUF
1206 3975 TriUF
1209 3656 TriUF
1219 3750 TriUF
1231 3744 TriUF
1238 4042 TriUF
1238 4699 TriUF
1238 6011 TriUF
1247 3588 TriUF
1254 4530 TriUF
1257 3981 TriUF
1266 3877 TriUF
1269 4315 TriUF
1269 5151 TriUF
1272 3752 TriUF
1285 3523 TriUF
1288 3576 TriUF
1298 3647 TriUF
1304 5317 TriUF
1332 3694 TriUF
1351 4116 TriUF
1376 3672 TriUF
1380 3818 TriUF
1392 4920 TriUF
1398 3660 TriUF
1411 3539 TriUF
1417 4842 TriUF
1433 3908 TriUF
1443 4217 TriUF
1449 3811 TriUF
1452 3766 TriUF
1452 3844 TriUF
1455 5626 TriUF
1477 4615 TriUF
1490 5165 TriUF
1493 3561 TriUF
1518 3521 TriUF
1543 3864 TriUF
1550 4109 TriUF
1565 3976 TriUF
1572 4369 TriUF
1581 3619 TriUF
1581 4846 TriUF
1594 4167 TriUF
1597 4520 TriUF
1603 3958 TriUF
1606 4113 TriUF
1622 3689 TriUF
1625 4037 TriUF
1663 3658 TriUF
1682 3566 TriUF
1685 3672 TriUF
1688 4003 TriUF
1691 3564 TriUF
1701 3977 TriUF
1710 4111 TriUF
1710 4243 TriUF
1745 3509 TriUF
1745 3646 TriUF
1748 4095 TriUF
1761 3505 TriUF
1761 3963 TriUF
1783 3522 TriUF
1783 3634 TriUF
1792 3547 TriUF
1962 3772 TriUF
1965 3635 TriUF
1987 3532 TriUF
2000 3578 TriUF
2003 3582 TriUF
2013 3603 TriUF
2016 3715 TriUF
2022 4033 TriUF
2031 3925 TriUF
2038 3587 TriUF
2060 3909 TriUF
2079 3807 TriUF
2085 3614 TriUF
2107 3787 TriUF
2113 3956 TriUF
2126 3511 TriUF
2132 3736 TriUF
2132 3783 TriUF
2151 3783 TriUF
2151 3645 TriUF
2154 3725 TriUF
2164 4008 TriUF
2164 3791 TriUF
2164 3871 TriUF
2192 3542 TriUF
2195 3558 TriUF
2208 3832 TriUF
2211 4304 TriUF
2214 3940 TriUF
2214 4314 TriUF
2224 3690 TriUF
2227 3722 TriUF
2227 4021 TriUF
2233 3626 TriUF
2233 4128 TriUF
2242 3913 TriUF
2246 3803 TriUF
2252 3788 TriUF
2252 5150 TriUF
2258 3509 TriUF
2268 3631 TriUF
2271 3700 TriUF
2283 3873 TriUF
2290 4242 TriUF
2293 4409 TriUF
2293 4492 TriUF
2296 3541 TriUF
2302 3711 TriUF
2302 3868 TriUF
2312 3562 TriUF
2312 3610 TriUF
2315 3517 TriUF
2321 3528 TriUF
2331 4071 TriUF
2337 3907 TriUF
2340 3891 TriUF
2343 4147 TriUF
2350 3520 TriUF
2368 3736 TriUF
2378 4538 TriUF
2384 3889 TriUF
2397 3649 TriUF
2403 3767 TriUF
2403 3682 TriUF
2409 3514 TriUF
2419 3909 TriUF
2431 3768 TriUF
2447 3953 TriUF
2457 3782 TriUF
2460 3731 TriUF
2460 4087 TriUF
2466 3941 TriUF
2479 3516 TriUF
2479 4138 TriUF
2479 4508 TriUF
2485 3525 TriUF
2488 3604 TriUF
2488 4061 TriUF
2491 3701 TriUF
2494 5760 TriUF
2504 3522 TriUF
2507 3548 TriUF
2510 4204 TriUF
2513 3575 TriUF
2513 4418 TriUF
2523 4163 TriUF
2532 4199 TriUF
2539 4108 TriUF
2545 3645 TriUF
2545 3983 TriUF
2548 3713 TriUF
2551 3732 TriUF
2554 3639 TriUF
2557 3547 TriUF
2561 3607 TriUF
2564 3572 TriUF
2570 4081 TriUF
2573 4164 TriUF
2576 3882 TriUF
2579 3565 TriUF
2579 3693 TriUF
2598 4046 TriUF
2602 5818 TriUF
2611 3514 TriUF
2627 3593 TriUF
2627 3767 TriUF
2633 3528 TriUF
2639 4328 TriUF
2658 3546 TriUF
2661 3903 TriUF
2677 3523 TriUF
2680 3673 TriUF
2680 4370 TriUF
2683 3531 TriUF
2712 3518 TriUF
2712 3587 TriUF
3102 3562 TriUF
3109 3745 TriUF
3109 3994 TriUF
3127 4493 TriUF
3165 3926 TriUF
3168 3681 TriUF
3172 3607 TriUF
3175 3744 TriUF
3175 4687 TriUF
3181 4015 TriUF
3209 3553 TriUF
3231 4664 TriUF
3241 3606 TriUF
3253 3511 TriUF
3253 3994 TriUF
3266 4022 TriUF
3307 3888 TriUF
3310 3511 TriUF
3310 3559 TriUF
3320 3871 TriUF
3320 4372 TriUF
3326 3625 TriUF
3329 3528 TriUF
3329 3655 TriUF
3329 3760 TriUF
3339 3575 TriUF
3348 4298 TriUF
3361 3607 TriUF
3361 3978 TriUF
3367 3624 TriUF
3383 3779 TriUF
3398 3868 TriUF
3398 4509 TriUF
3420 3510 TriUF
3433 3567 TriUF
3439 3888 TriUF
3446 3667 TriUF
3446 4433 TriUF
3455 3792 TriUF
3464 3539 TriUF
3477 3511 TriUF
3502 3556 TriUF
3512 4115 TriUF
3518 3568 TriUF
3534 3596 TriUF
3534 3827 TriUF
3556 3734 TriUF
3559 3641 TriUF
3562 3835 TriUF
3562 6040 TriUF
3584 3849 TriUF
3587 3607 TriUF
3600 3975 TriUF
3613 3535 TriUF
3616 3523 TriUF
3616 3724 TriUF
3616 3543 TriUF
3619 4784 TriUF
3625 3567 TriUF
3628 3630 TriUF
3628 3715 TriUF
3644 5743 TriUF
3660 3599 TriUF
3666 3507 TriUF
3666 4076 TriUF
3672 3528 TriUF
3679 3670 TriUF
3679 3868 TriUF
3685 5670 TriUF
3691 3561 TriUF
3698 3710 TriUF
3707 4055 TriUF
3710 3516 TriUF
3723 4185 TriUF
3729 3718 TriUF
3729 4443 TriUF
3738 4134 TriUF
3742 3771 TriUF
3748 3741 TriUF
3751 3520 TriUF
3751 3587 TriUF
3754 3748 TriUF
3761 4068 TriUF
3767 3997 TriUF
3770 3948 TriUF
3773 3574 TriUF
3773 4039 TriUF
3776 3557 TriUF
3776 3589 TriUF
3776 5640 TriUF
3783 3549 TriUF
3817 3576 TriUF
3820 3772 TriUF
3827 3837 TriUF
3836 3566 TriUF
3846 3567 TriUF
3852 3674 TriUF
3855 3537 TriUF
3855 4816 TriUF
3864 4010 TriUF
3880 3518 TriUF
3899 3567 TriUF
3909 3556 TriUF
3909 5874 TriUF
3915 3586 TriUF
3915 3883 TriUF
3918 4315 TriUF
3924 4118 TriUF
3934 4731 TriUF
3956 3735 TriUF
3959 3510 TriUF
3965 3670 TriUF
3972 4038 TriUF
3981 3623 TriUF
3984 4738 TriUF
3990 3659 TriUF
3994 3673 TriUF
4006 3936 TriUF
4009 3742 TriUF
4009 3734 TriUF
4019 3586 TriUF
4019 3606 TriUF
4028 3795 TriUF
4031 3993 TriUF
4035 3807 TriUF
4053 3960 TriUF
4053 4132 TriUF
4063 3725 TriUF
4066 3731 TriUF
4066 3544 TriUF
4094 3590 TriUF
4094 3932 TriUF
4101 3547 TriUF
4110 3894 TriUF
4126 3636 TriUF
4126 4108 TriUF
4135 3731 TriUF
4145 3526 TriUF
4170 3677 TriUF
4176 3702 TriUF
4179 3562 TriUF
4205 3667 TriUF
4220 4234 TriUF
4233 4121 TriUF
4233 5386 TriUF
4280 3512 TriUF
4283 3978 TriUF
4986 3796 TriUF
4995 5108 TriUF
5014 3511 TriUF
5014 3507 TriUF
5033 3942 TriUF
5036 3535 TriUF
5036 3708 TriUF
5058 3511 TriUF
5093 3524 TriUF
5093 3671 TriUF
5096 3872 TriUF
5096 3746 TriUF
5102 3541 TriUF
5102 3898 TriUF
5105 3983 TriUF
5105 4026 TriUF
5112 3529 TriUF
5112 3810 TriUF
5115 3940 TriUF
5118 3700 TriUF
5118 4088 TriUF
5121 3778 TriUF
5121 3871 TriUF
5124 3649 TriUF
5127 3797 TriUF
5127 3849 TriUF
5134 4106 TriUF
5140 3623 TriUF
5140 3659 TriUF
5143 3753 TriUF
5149 3721 TriUF
5175 3749 TriUF
5178 4208 TriUF
5194 3818 TriUF
5209 3983 TriUF
5219 3581 TriUF
5241 3607 TriUF
5241 3585 TriUF
5247 3706 TriUF
5247 3533 TriUF
5250 4698 TriUF
5275 4620 TriUF
5279 3647 TriUF
5307 3682 TriUF
5320 3532 TriUF
5342 3588 TriUF
5357 3514 TriUF
5357 3643 TriUF
5360 5239 TriUF
5376 4053 TriUF
5383 5539 TriUF
5392 3819 TriUF
5392 3878 TriUF
5405 3740 TriUF
5449 4045 TriUF
5455 4052 TriUF
5464 3678 TriUF
5496 4185 TriUF
5509 3517 TriUF
5509 4331 TriUF
5556 3695 TriUF
5562 3615 TriUF
5572 3604 TriUF
5597 5928 TriUF
5625 3546 TriUF
5625 4074 TriUF
5644 3910 TriUF
5660 3751 TriUF
5660 4136 TriUF
5685 4370 TriUF
5701 3952 TriUF
5735 4054 TriUF
5742 3746 TriUF
5745 3556 TriUF
5745 3603 TriUF
5745 4093 TriUF
5745 3877 TriUF
5754 3975 TriUF
5770 5281 TriUF
5776 3519 TriUF
5798 4005 TriUF
5801 3596 TriUF
6497 3512 TriUF
6497 3720 TriUF
6516 3962 TriUF
6526 3580 TriUF
6535 3847 TriUF
6545 4635 TriUF
6573 3632 TriUF
6576 3574 TriUF
6589 3529 TriUF
6589 3535 TriUF
6605 3756 TriUF
6623 3921 TriUF
6627 3514 TriUF
6630 3520 TriUF
6649 3557 TriUF
6652 3834 TriUF
6661 3790 TriUF
6668 3643 TriUF
6693 3669 TriUF
6708 3568 TriUF
6712 3743 TriUF
6721 3556 TriUF
6724 3552 TriUF
6749 3569 TriUF
6749 3796 TriUF
6762 3507 TriUF
6768 4262 TriUF
6768 4756 TriUF
6778 3522 TriUF
6778 3540 TriUF
6784 4855 TriUF
6784 5057 TriUF
6797 3693 TriUF
6803 3682 TriUF
6816 4428 TriUF
6825 3663 TriUF
6828 4144 TriUF
6847 3650 TriUF
6847 3784 TriUF
6857 3676 TriUF
6857 3861 TriUF
6863 5083 TriUF
6866 3571 TriUF
6869 3623 TriUF
6869 3918 TriUF
6879 3587 TriUF
6901 3707 TriUF
6907 3730 TriUF
6919 3910 TriUF
6929 3722 TriUF
6932 3561 TriUF
6942 3533 TriUF
6942 3520 TriUF
6942 4234 TriUF
6951 4323 TriUF
6951 4424 TriUF
6957 3668 TriUF
6964 3596 TriUF
6964 3846 TriUF
6967 4736 TriUF
6970 3581 TriUF
6986 3857 TriUF
6989 5799 TriUF
6998 3653 TriUF
7020 3584 TriUF
7023 3539 TriUF
7027 3925 TriUF
7030 3732 TriUF
7030 3750 TriUF
7030 3973 TriUF
7036 3996 TriUF
7039 3577 TriUF
7055 3603 TriUF
7058 3701 TriUF
7064 4021 TriUF
7068 3752 TriUF
7077 3852 TriUF
7086 3512 TriUF
7099 3668 TriUF
7105 3527 TriUF
7105 3771 TriUF
7115 3643 TriUF
7121 3512 TriUF
7127 3654 TriUF
7137 4487 TriUF
7140 3530 TriUF
7149 3712 TriUF
7149 3897 TriUF
7162 4166 TriUF
7165 4558 TriUF
7171 3934 TriUF
7178 3733 TriUF
7206 3555 TriUF
7206 3621 TriUF
7222 3560 TriUF
7228 3768 TriUF
7244 4135 TriUF
7641 3523 TriUF
7647 3862 TriUF
7656 4064 TriUF
7669 4484 TriUF
7672 3948 TriUF
7675 3602 TriUF
7679 3735 TriUF
7682 3935 TriUF
7688 3829 TriUF
7691 3514 TriUF
7713 3740 TriUF
7723 3702 TriUF
7729 3969 TriUF
7732 3616 TriUF
7760 4736 TriUF
7760 5381 TriUF
7776 5424 TriUF
7786 3714 TriUF
7833 3862 TriUF
7836 4123 TriUF
7858 3891 TriUF
7867 3712 TriUF
7877 4162 TriUF
7890 3591 TriUF
7905 3605 TriUF
7908 3739 TriUF
7908 4288 TriUF
7918 3519 TriUF
7918 3676 TriUF
7930 3522 TriUF
7937 3560 TriUF
7940 3504 TriUF
7975 3509 TriUF
7990 3553 TriUF
7993 3723 TriUF
8000 3774 TriUF
8006 3811 TriUF
8016 3738 TriUF
8025 3693 TriUF
8025 3533 TriUF
8041 4536 TriUF
8050 3881 TriUF
8097 4168 TriUF
8135 3899 TriUF
8148 3642 TriUF
8148 3852 TriUF
8157 3868 TriUF
8164 3731 TriUF
8167 3607 TriUF
8173 3570 TriUF
8173 3922 TriUF
8179 4261 TriUF
8201 3548 TriUF
8220 3603 TriUF
8245 3537 TriUF
8252 3858 TriUF
8277 3601 TriUF
8277 3714 TriUF
8277 4440 TriUF
8280 4045 TriUF
8299 3562 TriUF
8302 3733 TriUF
8302 3889 TriUF
8305 3706 TriUF
8305 3765 TriUF
8308 3600 TriUF
8318 3690 TriUF
8371 3525 TriUF
8400 3585 TriUF
8409 3921 TriUF
8419 3607 TriUF
8422 3642 TriUF
8422 3822 TriUF
8434 3834 TriUF
8441 3555 TriUF
8450 3586 TriUF
8466 3642 TriUF
8466 4255 TriUF
8488 4279 TriUF
8494 3510 TriUF
8497 4018 TriUF
8519 3518 TriUF
8529 3728 TriUF
8538 3546 TriUF
8551 4012 TriUF
8570 5344 TriUF
8573 3550 TriUF
8595 3643 TriUF
8595 4280 TriUF
8611 3609 TriUF
8636 3621 TriUF
8639 4220 TriUF
8639 4767 TriUF
8649 6406 TriUF
8655 3518 TriUF
8677 3782 TriUF
8677 3792 TriUF
8680 3655 TriUF
8683 4308 TriUF
8686 3686 TriUF
8693 3604 TriUF
8696 4589 TriUF
8721 3730 TriUF
8727 3534 TriUF
8727 3613 TriUF
8727 4087 TriUF
8740 3554 TriUF
8740 4717 TriUF
8743 3662 TriUF
8756 3752 TriUF
8759 4075 TriUF
8765 4502 TriUF
8784 3654 TriUF
8797 3514 TriUF
8803 5210 TriUF
8825 5563 TriUF
8847 4253 TriUF
8860 3551 TriUF
8860 3559 TriUF
8872 4525 TriUF
8926 4639 TriUF
8926 5210 TriUF
8945 3945 TriUF
8948 3791 TriUF
8954 4822 TriUF
8973 3624 TriUF
8976 6501 TriUF
8979 5641 TriUF
9011 3704 TriUF
9011 4289 TriUF
9014 3754 TriUF
9033 3862 TriUF
9052 3742 TriUF
9052 4163 TriUF
9055 4063 TriUF
9071 4360 TriUF
9086 4551 TriUF
9099 4017 TriUF
9115 3694 TriUF
9156 3817 TriUF
9200 3713 TriUF
9215 4368 TriUF
9225 3646 TriUF
9238 3509 TriUF
9244 4806 TriUF
9250 3585 TriUF
9250 3611 TriUF
9256 3549 TriUF
9272 3843 TriUF
9282 4429 TriUF
9310 3795 TriUF
9367 4869 TriUF
9370 3732 TriUF
9382 4267 TriUF
9386 4290 TriUF
9773 3737 TriUF
9811 3650 TriUF
9814 3508 TriUF
9820 3609 TriUF
9849 3595 TriUF
9855 3758 TriUF
9861 3603 TriUF
9883 3588 TriUF
9915 4081 TriUF
9934 3906 TriUF
9940 3526 TriUF
9965 4797 TriUF
9968 3668 TriUF
9971 3657 TriUF
9984 3648 TriUF
9987 3562 TriUF
10006 4709 TriUF
10031 4136 TriUF
10047 5899 TriUF
10078 3608 TriUF
10091 4007 TriUF
10674 4464 TriUF
10693 3521 TriUF
10702 3565 TriUF
10702 3656 TriUF
10702 3549 TriUF
10705 3860 TriUF
10711 4485 TriUF
10727 3577 TriUF
10730 3894 TriUF
10749 3580 TriUF
10756 3634 TriUF
10768 3521 TriUF
10784 3631 TriUF
10787 3996 TriUF
10800 3583 TriUF
10809 3509 TriUF
10831 5010 TriUF
10856 3514 TriUF
10878 3649 TriUF
10885 4231 TriUF
10897 3786 TriUF
10916 3612 TriUF
10916 3860 TriUF
10919 3867 TriUF
10948 4732 TriUF
10979 3508 TriUF
11020 3558 TriUF
11033 3600 TriUF
11039 3530 TriUF
11045 3846 TriUF
11048 3704 TriUF
11055 4385 TriUF
11067 4119 TriUF
11080 3889 TriUF
11083 3651 TriUF
11108 3525 TriUF
11111 3676 TriUF
11115 3919 TriUF
11118 3521 TriUF
11140 3706 TriUF
11143 3796 TriUF
11146 4096 TriUF
11156 3563 TriUF
11156 3604 TriUF
11156 3740 TriUF
11174 3509 TriUF
11174 3865 TriUF
11178 4178 TriUF
11190 3672 TriUF
11200 3681 TriUF
11200 3926 TriUF
11206 3691 TriUF
11206 3507 TriUF
11222 3524 TriUF
11222 3703 TriUF
11244 3547 TriUF
11247 3520 TriUF
11247 3552 TriUF
11253 4265 TriUF
11282 4463 TriUF
11285 3524 TriUF
11291 3624 TriUF
11304 3878 TriUF
11307 3573 TriUF
11316 3506 TriUF
11322 4379 TriUF
11329 3809 TriUF
11329 4279 TriUF
11335 3540 TriUF
11338 3713 TriUF
11345 4118 TriUF
11351 3546 TriUF
11351 3792 TriUF
11354 3606 TriUF
11354 4474 TriUF
11363 4007 TriUF
11367 3790 TriUF
11367 4186 TriUF
11376 4442 TriUF
11408 3535 TriUF
11411 3726 TriUF
11411 4272 TriUF
11414 4208 TriUF
11417 4734 TriUF
11426 3663 TriUF
11426 3999 TriUF
11430 3662 TriUF
11436 4543 TriUF
11445 3909 TriUF
11452 3591 TriUF
11467 3715 TriUF
11474 3631 TriUF
11511 3521 TriUF
11515 3655 TriUF
11518 3516 TriUF
11521 4377 TriUF
11527 4108 TriUF
11534 3548 TriUF
11534 3567 TriUF
11537 3876 TriUF
11549 3639 TriUF
11549 3503 TriUF
11562 3879 TriUF
11574 3516 TriUF
11578 4332 TriUF
11584 3537 TriUF
11590 3691 TriUF
11606 3812 TriUF
11609 4400 TriUF
11619 3580 TriUF
11637 4449 TriUF
11644 3525 TriUF
11647 3748 TriUF
11647 3995 TriUF
11653 3550 TriUF
11653 3733 TriUF
11656 3616 TriUF
11666 4394 TriUF
11685 3713 TriUF
11685 3756 TriUF
11707 3512 TriUF
11716 3596 TriUF
11719 3532 TriUF
11719 4038 TriUF
11732 3546 TriUF
11735 3600 TriUF
11735 4100 TriUF
11738 3908 TriUF
11754 3695 TriUF
11757 3591 TriUF
11760 3678 TriUF
11776 3534 TriUF
11779 3647 TriUF
11782 6192 TriUF
11785 3556 TriUF
11795 3594 TriUF
11795 3754 TriUF
11795 3771 TriUF
11804 4443 TriUF
11811 3577 TriUF
11814 3561 TriUF
11820 3704 TriUF
11820 4118 TriUF
11823 3556 TriUF
11826 3568 TriUF
11830 4321 TriUF
11855 3954 TriUF
11855 4269 TriUF
11858 3614 TriUF
11864 3607 TriUF
11874 3539 TriUF
11874 3947 TriUF
11877 3512 TriUF
11880 3507 TriUF
11880 3858 TriUF
11880 3669 TriUF
11883 3512 TriUF
11905 3618 TriUF
11908 3664 TriUF
11915 6548 TriUF
11918 4384 TriUF
11921 3553 TriUF
11921 3704 TriUF
11937 4311 TriUF
11943 4685 TriUF
11952 4014 TriUF
11952 4407 TriUF
11956 3570 TriUF
11965 3572 TriUF
11965 4713 TriUF
11993 3695 TriUF
11996 4076 TriUF
12012 4769 TriUF
12015 4292 TriUF
12022 3562 TriUF
12022 3600 TriUF
12025 3820 TriUF
12028 3981 TriUF
12028 4429 TriUF
12044 4623 TriUF
12047 3548 TriUF
12053 3853 TriUF
12053 4589 TriUF
12059 3533 TriUF
12066 3923 TriUF
12072 4381 TriUF
12072 6447 TriUF
12075 3701 TriUF
12078 3749 TriUF
12085 4138 TriUF
12097 3694 TriUF
12110 3760 TriUF
12113 3772 TriUF
12116 3870 TriUF
12122 4261 TriUF
12148 3738 TriUF
12148 3820 TriUF
12154 3506 TriUF
12157 3724 TriUF
12157 3590 TriUF
12163 4720 TriUF
12167 4421 TriUF
12173 4736 TriUF
12176 3589 TriUF
12185 3799 TriUF
12185 4383 TriUF
12189 4110 TriUF
12195 3555 TriUF
12195 4587 TriUF
12198 3620 TriUF
12208 4661 TriUF
12217 3896 TriUF
12220 3536 TriUF
12223 3585 TriUF
12230 3636 TriUF
12230 4505 TriUF
12233 4043 TriUF
12233 4434 TriUF
12236 3754 TriUF
12242 4391 TriUF
12255 4559 TriUF
12261 3523 TriUF
12267 4267 TriUF
12289 3740 TriUF
12296 3757 TriUF
12299 3825 TriUF
12302 5576 TriUF
12321 4585 TriUF
12327 3690 TriUF
12330 3918 TriUF
12330 4069 TriUF
12330 4154 TriUF
12337 3600 TriUF
12337 3763 TriUF
12340 3898 TriUF
12343 3657 TriUF
12346 5473 TriUF
12352 3808 TriUF
12365 4720 TriUF
12371 3660 TriUF
12371 4240 TriUF
12378 3857 TriUF
12384 4379 TriUF
12393 3628 TriUF
12396 3964 TriUF
12406 3677 TriUF
12412 4338 TriUF
12415 3575 TriUF
12419 3542 TriUF
12419 4494 TriUF
12419 5588 TriUF
12428 3553 TriUF
12444 3635 TriUF
12450 3815 TriUF
12450 4225 TriUF
12456 3608 TriUF
12459 3514 TriUF
12463 4558 TriUF
12475 4021 TriUF
12482 3543 TriUF
12488 4358 TriUF
12494 3543 TriUF
12500 3626 TriUF
12500 3512 TriUF
12504 3609 TriUF
12513 3536 TriUF
12516 3905 TriUF
12519 3974 TriUF
12526 3556 TriUF
12526 3920 TriUF
12532 4153 TriUF
12538 3803 TriUF
12541 3519 TriUF
12541 4283 TriUF
12551 3586 TriUF
12557 4002 TriUF
12567 3511 TriUF
12570 3779 TriUF
12573 3709 TriUF
12573 4202 TriUF
12579 3722 TriUF
12585 3526 TriUF
12592 6633 TriUF
12598 3771 TriUF
12633 3527 TriUF
12636 3609 TriUF
12652 4510 TriUF
12661 3648 TriUF
12661 3786 TriUF
12667 3586 TriUF
12667 3772 TriUF
12674 3616 TriUF
12677 3549 TriUF
12683 3536 TriUF
12693 3555 TriUF
12693 3988 TriUF
12696 4937 TriUF
12705 3523 TriUF
12705 3830 TriUF
12711 4556 TriUF
12715 4334 TriUF
12715 5032 TriUF
12737 3508 TriUF
12765 4056 TriUF
12774 3919 TriUF
12793 3522 TriUF
12800 3595 TriUF
12803 3789 TriUF
12822 3511 TriUF
12822 3740 TriUF
12822 3787 TriUF
12831 3517 TriUF
12834 3586 TriUF
12837 3523 TriUF
12841 3623 TriUF
12847 4128 TriUF
12856 4547 TriUF
12859 3785 TriUF
12875 3752 TriUF
12878 3717 TriUF
12885 3570 TriUF
% End plot #1
1.000 UL
LTb
LCb setrgbcolor
1200 7049 N
0 -3556 V
12598 0 V
0 3556 V
-12598 0 V
Z stroke
1.000 UP
1.000 UL
LTb
LCb setrgbcolor
stroke
grestore
end
showpage
%%Page: 2 2
gnudict begin
gsave
doclip
50 50 translate
0.050 0.050 scale
0 setgray
newpath
(Times) findfont 200 scalefont setfont
BackgroundColor 0 lt 3 1 roll 0 lt exch 0 lt or or not {BackgroundColor C 1.000 0 0 14400.00 10080.00 BoxColFill} if
1.000 UL
LTb
LCb setrgbcolor
1.000 UL
LTa
LCa setrgbcolor
600 3323 M
12598 0 V
stroke
LTb
LCb setrgbcolor
600 3323 M
63 0 V
12535 0 R
-63 0 V
stroke
480 3323 M
[ [(Times) 200.0 0.0 true true 0 ( 0)]
] -66.7 MRshow
1.000 UL
LTb
LCb setrgbcolor
1.000 UL
LTa
LCa setrgbcolor
600 3737 M
12598 0 V
stroke
LTb
LCb setrgbcolor
600 3737 M
63 0 V
12535 0 R
-63 0 V
stroke
480 3737 M
[ [(Times) 200.0 0.0 true true 0 ( 50000)]
] -66.7 MRshow
1.000 UL
LTb
LCb setrgbcolor
1.000 UL
LTa
LCa setrgbcolor
600 4151 M
12598 0 V
stroke
LTb
LCb setrgbcolor
600 4151 M
63 0 V
12535 0 R
-63 0 V
stroke
480 4151 M
[ [(Times) 200.0 0.0 true true 0 ( 100000)]
] -66.7 MRshow
1.000 UL
LTb
LCb setrgbcolor
1.000 UL
LTa
LCa setrgbcolor
600 4565 M
12598 0 V
stroke
LTb
LCb setrgbcolor
600 4565 M
63 0 V
12535 0 R
-63 0 V
stroke
480 4565 M
[ [(Times) 200.0 0.0 true true 0 ( 150000)]
] -66.7 MRshow
1.000 UL
LTb
LCb setrgbcolor
1.000 UL
LTa
LCa setrgbcolor
600 4979 M
12598 0 V
stroke
LTb
LCb setrgbcolor
600 4979 M
63 0 V
12535 0 R
-63 0 V
stroke
480 4979 M
[ [(Times) 200.0 0.0 true true 0 ( 200000)]
] -66.7 MRshow
1.000 UL
LTb
LCb setrgbcolor
1.000 UL
LTa
LCa setrgbcolor
600 5393 M
12598 0 V
stroke
LTb
LCb setrgbcolor
600 5393 M
63 0 V
12535 0 R
-63 0 V
stroke
480 5393 M
[ [(Times) 200.0 0.0 true true 0 ( 250000)]
] -66.7 MRshow
1.000 UL
LTb
LCb setrgbcolor
1.000 UL
LTa
LCa setrgbcolor
600 5807 M
12598 0 V
stroke
LTb
LCb setrgbcolor
600 5807 M
63 0 V
12535 0 R
-63 0 V
stroke
480 5807 M
[ [(Times) 200.0 0.0 true true 0 ( 300000)]
] -66.7 MRshow
1.000 UL
LTb
LCb setrgbcolor
1.000 UL
LTa
LCa setrgbcolor
600 6221 M
12598 0 V
stroke
LTb
LCb setrgbcolor
600 6221 M
63 0 V
12535 0 R
-63 0 V
stroke
480 6221 M
[ [(Times) 200.0 0.0 true true 0 ( 350000)]
] -66.7 MRshow
1.000 UL
LTb
LCb setrgbcolor
1.000 UL
LTa
LCa setrgbcolor
600 6635 M
12598 0 V
stroke
LTb
LCb setrgbcolor
600 6635 M
63 0 V
12535 0 R
-63 0 V
stroke
480 6635 M
[ [(Times) 200.0 0.0 true true 0 ( 400000)]
] -66.7 MRshow
1.000 UL
LTb
LCb setrgbcolor
1.000 UL
LTa
LCa setrgbcolor
600 7049 M
12598 0 V
stroke
LTb
LCb setrgbcolor
600 7049 M
63 0 V
12535 0 R
-63 0 V
stroke
480 7049 M
[ [(Times) 200.0 0.0 true true 0 ( 450000)]
] -66.7 MRshow
1.000 UL
LTb
LCb setrgbcolor
1.000 UL
LTa
LCa setrgbcolor
600 3323 M
0 3726 V
stroke
LTb
LCb setrgbcolor
600 3323 M
0 63 V
0 3663 R
0 -63 V
stroke
600 3203 M
currentpoint gsave translate -45 rotate 0 0 moveto
[ [(Times) 200.0 0.0 true true 0 ( 0)]
] -66.7 MLshow
grestore
1.000 UL
LTb
LCb setrgbcolor
1.000 UL
LTa
LCa setrgbcolor
2700 3323 M
0 3726 V
stroke
LTb
LCb setrgbcolor
2700 3323 M
0 63 V
0 3663 R
0 -63 V
stroke
2700 3203 M
currentpoint gsave translate -45 rotate 0 0 moveto
[ [(Times) 200.0 0.0 true true 0 ( 2)]
] -66.7 MLshow
grestore
1.000 UL
LTb
LCb setrgbcolor
1.000 UL
LTa
LCa setrgbcolor
4799 3323 M
0 3726 V
stroke
LTb
LCb setrgbcolor
4799 3323 M
0 63 V
0 3663 R
0 -63 V
stroke
4799 3203 M
currentpoint gsave translate -45 rotate 0 0 moveto
[ [(Times) 200.0 0.0 true true 0 ( 4)]
] -66.7 MLshow
grestore
1.000 UL
LTb
LCb setrgbcolor
1.000 UL
LTa
LCa setrgbcolor
6899 3323 M
0 3726 V
stroke
LTb
LCb setrgbcolor
6899 3323 M
0 63 V
0 3663 R
0 -63 V
stroke
6899 3203 M
currentpoint gsave translate -45 rotate 0 0 moveto
[ [(Times) 200.0 0.0 true true 0 ( 6)]
] -66.7 MLshow
grestore
1.000 UL
LTb
LCb setrgbcolor
1.000 UL
LTa
LCa setrgbcolor
8999 3323 M
0 3726 V
stroke
LTb
LCb setrgbcolor
8999 3323 M
0 63 V
0 3663 R
0 -63 V
stroke
8999 3203 M
currentpoint gsave translate -45 rotate 0 0 moveto
[ [(Times) 200.0 0.0 true true 0 ( 8)]
] -66.7 MLshow
grestore
1.000 UL
LTb
LCb setrgbcolor
1.000 UL
LTa
LCa setrgbcolor
11098 3323 M
0 3726 V
stroke
LTb
LCb setrgbcolor
11098 3323 M
0 63 V
0 3663 R
0 -63 V
stroke
11098 3203 M
currentpoint gsave translate -45 rotate 0 0 moveto
[ [(Times) 200.0 0.0 true true 0 ( 10)]
] -66.7 MLshow
grestore
1.000 UL
LTb
LCb setrgbcolor
1.000 UL
LTa
LCa setrgbcolor
13198 3323 M
0 3726 V
stroke
LTb
LCb setrgbcolor
13198 3323 M
0 63 V
0 3663 R
0 -63 V
stroke
13198 3203 M
currentpoint gsave translate -45 rotate 0 0 moveto
[ [(Times) 200.0 0.0 true true 0 ( 12)]
] -66.7 MLshow
grestore
1.000 UL
LTb
LCb setrgbcolor
1.000 UL
LTb
LCb setrgbcolor
600 7049 N
0 -3726 V
12598 0 V
0 3726 V
600 7049 L
Z stroke
LCb setrgbcolor
-580 5186 M
currentpoint gsave translate -270 rotate 0 0 moveto
[ [(Times) 200.0 0.0 true true 0 (Flow size [bytes])]
] -66.7 MCshow
grestore
LTb
LCb setrgbcolor
6899 2769 M
[ [(Times) 200.0 0.0 true true 0 (Duration [sec])]
] -66.7 MCshow
LTb
6899 7349 M
[ [(Times) 200.0 0.0 true true 0 (src port 80, repeating connections sorted by duration)]
] -66.7 MCshow
1.000 UP
1.000 UL
LTb
LCb setrgbcolor
1.000 UL
LT8
LC8 setrgbcolor
6508 63 N
782 0 V
-782 0 V
Z stroke
% Begin plot #1
1.000 UP
1.000 UL
LT8
1.00 0.00 0.00 C 636 3340 TriUF
641 3350 TriUF
641 3369 TriUF
646 3357 TriUF
647 3361 TriUF
648 3365 TriUF
648 3361 TriUF
650 3369 TriUF
650 3357 TriUF
651 3358 TriUF
652 3353 TriUF
652 3340 TriUF
653 3366 TriUF
655 3360 TriUF
656 3363 TriUF
656 3365 TriUF
656 3357 TriUF
656 3359 TriUF
657 3363 TriUF
660 3347 TriUF
661 3358 TriUF
662 3366 TriUF
662 3343 TriUF
662 3356 TriUF
663 3367 TriUF
663 3352 TriUF
663 3347 TriUF
664 3347 TriUF
665 3353 TriUF
665 3344 TriUF
666 3359 TriUF
667 3340 TriUF
667 3391 TriUF
667 3362 TriUF
668 3381 TriUF
668 3346 TriUF
669 3347 TriUF
669 3357 TriUF
673 3369 TriUF
673 3365 TriUF
673 3362 TriUF
674 3369 TriUF
674 3353 TriUF
674 3354 TriUF
675 3385 TriUF
676 3381 TriUF
680 3356 TriUF
681 3374 TriUF
683 3414 TriUF
683 3373 TriUF
684 3394 TriUF
685 3408 TriUF
686 3374 TriUF
688 3345 TriUF
689 3407 TriUF
690 3385 TriUF
690 3358 TriUF
691 3382 TriUF
692 3372 TriUF
692 3396 TriUF
695 3375 TriUF
696 3382 TriUF
696 3396 TriUF
696 3396 TriUF
696 3374 TriUF
698 3367 TriUF
698 3371 TriUF
699 3373 TriUF
700 3402 TriUF
701 3393 TriUF
703 3347 TriUF
703 3392 TriUF
703 3345 TriUF
703 3350 TriUF
704 3367 TriUF
705 3388 TriUF
706 3400 TriUF
706 3374 TriUF
707 3379 TriUF
707 3451 TriUF
707 3392 TriUF
708 3396 TriUF
709 3357 TriUF
710 3430 TriUF
711 3382 TriUF
712 3359 TriUF
712 3400 TriUF
712 3379 TriUF
715 3406 TriUF
715 3361 TriUF
717 3408 TriUF
718 3403 TriUF
721 3411 TriUF
722 3359 TriUF
723 3362 TriUF
723 3394 TriUF
724 3443 TriUF
725 3426 TriUF
725 3417 TriUF
727 3388 TriUF
727 3399 TriUF
731 3379 TriUF
732 3384 TriUF
736 3422 TriUF
738 3395 TriUF
738 3404 TriUF
738 3372 TriUF
740 3336 TriUF
740 3343 TriUF
741 3444 TriUF
743 3379 TriUF
745 3444 TriUF
746 3379 TriUF
747 3375 TriUF
747 3441 TriUF
749 3338 TriUF
750 3415 TriUF
751 3477 TriUF
751 3408 TriUF
754 3454 TriUF
755 3413 TriUF
755 3352 TriUF
756 3358 TriUF
762 3428 TriUF
763 3419 TriUF
763 3353 TriUF
764 3425 TriUF
766 3466 TriUF
767 3366 TriUF
769 3431 TriUF
770 3388 TriUF
772 3448 TriUF
773 3462 TriUF
776 3347 TriUF
777 3372 TriUF
777 3435 TriUF
779 3464 TriUF
786 3455 TriUF
787 3392 TriUF
788 3344 TriUF
788 3426 TriUF
789 3633 TriUF
790 3501 TriUF
792 3417 TriUF
793 3560 TriUF
793 3466 TriUF
794 3418 TriUF
795 3521 TriUF
796 3428 TriUF
796 3435 TriUF
798 3519 TriUF
799 3425 TriUF
799 3641 TriUF
800 3426 TriUF
803 3347 TriUF
803 3408 TriUF
805 3812 TriUF
809 3470 TriUF
810 3512 TriUF
812 3443 TriUF
812 3518 TriUF
812 3443 TriUF
814 3454 TriUF
816 3370 TriUF
818 3342 TriUF
818 3567 TriUF
819 3467 TriUF
819 3533 TriUF
822 3602 TriUF
822 3591 TriUF
823 3466 TriUF
823 3526 TriUF
824 3530 TriUF
824 3517 TriUF
824 3545 TriUF
826 3355 TriUF
828 3667 TriUF
830 3434 TriUF
831 3531 TriUF
832 3667 TriUF
836 3456 TriUF
837 3482 TriUF
837 3531 TriUF
840 3621 TriUF
840 3532 TriUF
841 3534 TriUF
841 3496 TriUF
844 3600 TriUF
844 3459 TriUF
844 3514 TriUF
844 3397 TriUF
846 3445 TriUF
846 3429 TriUF
850 3401 TriUF
850 3514 TriUF
854 3441 TriUF
857 3387 TriUF
857 3428 TriUF
858 3512 TriUF
861 3652 TriUF
861 3439 TriUF
861 3476 TriUF
863 3640 TriUF
863 3583 TriUF
864 3528 TriUF
865 3421 TriUF
867 3468 TriUF
869 3482 TriUF
871 3404 TriUF
871 3607 TriUF
873 3486 TriUF
877 3452 TriUF
881 3602 TriUF
881 3353 TriUF
882 3615 TriUF
886 3691 TriUF
887 3516 TriUF
890 3424 TriUF
892 3691 TriUF
892 3737 TriUF
893 3550 TriUF
894 3868 TriUF
896 3574 TriUF
897 3466 TriUF
899 3599 TriUF
902 3453 TriUF
907 3564 TriUF
907 3533 TriUF
907 3616 TriUF
910 3533 TriUF
910 3619 TriUF
914 3401 TriUF
920 3446 TriUF
924 3620 TriUF
924 3508 TriUF
925 3713 TriUF
926 3400 TriUF
927 3374 TriUF
928 3536 TriUF
928 3452 TriUF
929 3556 TriUF
929 3411 TriUF
930 3824 TriUF
930 3729 TriUF
931 3399 TriUF
932 3764 TriUF
933 3505 TriUF
934 3801 TriUF
938 3442 TriUF
938 3546 TriUF
938 3547 TriUF
940 3469 TriUF
940 3657 TriUF
943 3627 TriUF
943 3585 TriUF
946 3687 TriUF
947 3715 TriUF
949 3547 TriUF
955 3481 TriUF
959 3459 TriUF
961 3410 TriUF
962 3709 TriUF
964 3876 TriUF
965 3583 TriUF
966 3475 TriUF
967 3479 TriUF
976 3459 TriUF
978 3830 TriUF
979 3446 TriUF
980 3484 TriUF
980 3497 TriUF
981 3748 TriUF
982 3835 TriUF
988 3549 TriUF
988 3672 TriUF
989 3434 TriUF
990 3543 TriUF
991 3456 TriUF
991 3750 TriUF
992 3480 TriUF
993 3603 TriUF
993 3509 TriUF
993 3637 TriUF
995 3376 TriUF
999 3669 TriUF
1001 3486 TriUF
1001 3600 TriUF
1003 3636 TriUF
1003 3762 TriUF
1003 3432 TriUF
1003 3428 TriUF
1003 3503 TriUF
1004 3735 TriUF
1004 3524 TriUF
1005 3500 TriUF
1006 3518 TriUF
1008 3440 TriUF
1009 3684 TriUF
1009 3570 TriUF
1012 3477 TriUF
1012 3525 TriUF
1013 3919 TriUF
1017 3516 TriUF
1023 3445 TriUF
1025 3573 TriUF
1027 3884 TriUF
1029 3528 TriUF
1033 3899 TriUF
1036 3603 TriUF
1036 3497 TriUF
1037 3549 TriUF
1042 3619 TriUF
1048 3440 TriUF
1048 3462 TriUF
1053 3539 TriUF
1053 3622 TriUF
1060 3480 TriUF
1061 3551 TriUF
1061 3790 TriUF
1062 3848 TriUF
1062 3633 TriUF
1064 3655 TriUF
1064 3492 TriUF
1067 3880 TriUF
1071 3406 TriUF
1071 3493 TriUF
1078 3582 TriUF
1087 3543 TriUF
1088 3421 TriUF
1088 3591 TriUF
1088 3648 TriUF
1094 4013 TriUF
1100 3564 TriUF
1100 3540 TriUF
1103 3811 TriUF
1104 3425 TriUF
1105 3673 TriUF
1106 3554 TriUF
1117 3476 TriUF
1119 3632 TriUF
1123 3513 TriUF
1126 3542 TriUF
1126 3495 TriUF
1129 4263 TriUF
1130 3851 TriUF
1132 3364 TriUF
1133 3719 TriUF
1133 3875 TriUF
1139 3814 TriUF
1140 4163 TriUF
1141 3553 TriUF
1143 3842 TriUF
1145 3604 TriUF
1145 3965 TriUF
1146 3549 TriUF
1150 3414 TriUF
1151 3597 TriUF
1152 3504 TriUF
1152 3995 TriUF
1153 3566 TriUF
1154 3898 TriUF
1156 3743 TriUF
1159 3350 TriUF
1167 3538 TriUF
1171 3583 TriUF
1171 3880 TriUF
1175 3866 TriUF
1175 3540 TriUF
1175 3610 TriUF
1178 3639 TriUF
1178 3836 TriUF
1179 4126 TriUF
1181 3605 TriUF
1186 3667 TriUF
1189 3598 TriUF
1190 3532 TriUF
1190 3571 TriUF
1192 3791 TriUF
1197 3580 TriUF
1199 3574 TriUF
1202 3856 TriUF
1203 3686 TriUF
1207 3449 TriUF
1215 3468 TriUF
1216 3561 TriUF
1218 3987 TriUF
1219 4251 TriUF
1220 3501 TriUF
1222 3604 TriUF
1223 3749 TriUF
1226 3753 TriUF
1227 3702 TriUF
1230 3452 TriUF
1234 3878 TriUF
1234 3569 TriUF
1236 3687 TriUF
1237 3432 TriUF
1237 3618 TriUF
1242 4321 TriUF
1247 3424 TriUF
1248 3515 TriUF
1248 4057 TriUF
1251 3985 TriUF
1252 3581 TriUF
1254 3702 TriUF
1255 3474 TriUF
1266 3931 TriUF
1268 3556 TriUF
1268 3696 TriUF
1269 3508 TriUF
1270 3553 TriUF
1282 3501 TriUF
1295 3634 TriUF
1297 4325 TriUF
1299 3596 TriUF
1299 3693 TriUF
1302 3723 TriUF
1303 3629 TriUF
1308 3565 TriUF
1308 3504 TriUF
1310 3832 TriUF
1311 3516 TriUF
1311 3747 TriUF
1314 3726 TriUF
1314 3891 TriUF
1315 3720 TriUF
1317 3494 TriUF
1333 3505 TriUF
1333 3510 TriUF
1336 3819 TriUF
1337 3992 TriUF
1338 3544 TriUF
1339 3438 TriUF
1340 3504 TriUF
1343 3814 TriUF
1346 3475 TriUF
1347 3616 TriUF
1347 3606 TriUF
1349 3720 TriUF
1353 3649 TriUF
1353 3377 TriUF
1355 3765 TriUF
1359 3863 TriUF
1362 3626 TriUF
1364 3539 TriUF
1370 3421 TriUF
1373 3525 TriUF
1376 3617 TriUF
1378 3687 TriUF
1379 3766 TriUF
1379 4196 TriUF
1380 3637 TriUF
1380 3689 TriUF
1383 3719 TriUF
1383 3454 TriUF
1385 3458 TriUF
1385 3674 TriUF
1387 3511 TriUF
1392 3487 TriUF
1397 3497 TriUF
1404 4233 TriUF
1408 3646 TriUF
1411 3544 TriUF
1411 3916 TriUF
1412 3556 TriUF
1416 4201 TriUF
1418 3539 TriUF
1419 3502 TriUF
1422 3591 TriUF
1423 3525 TriUF
1425 3935 TriUF
1432 3464 TriUF
1440 3431 TriUF
1441 3506 TriUF
1442 3438 TriUF
1442 3808 TriUF
1443 3847 TriUF
1444 3603 TriUF
1445 3631 TriUF
1446 3907 TriUF
1447 3614 TriUF
1449 3519 TriUF
1450 3586 TriUF
1452 3719 TriUF
1452 3881 TriUF
1453 3731 TriUF
1458 3603 TriUF
1459 3734 TriUF
1462 3534 TriUF
1462 3560 TriUF
1466 3606 TriUF
1467 4200 TriUF
1467 3726 TriUF
1471 3434 TriUF
1474 3627 TriUF
1474 3565 TriUF
1475 3752 TriUF
1475 3701 TriUF
1476 3522 TriUF
1477 3458 TriUF
1481 3425 TriUF
1484 3561 TriUF
1485 4329 TriUF
1488 3654 TriUF
1490 3541 TriUF
1492 3894 TriUF
1495 4274 TriUF
1498 3639 TriUF
1504 3545 TriUF
1504 3697 TriUF
1506 3504 TriUF
1508 3741 TriUF
1510 3443 TriUF
1511 3453 TriUF
1514 4119 TriUF
1516 3925 TriUF
1517 3530 TriUF
1517 3617 TriUF
1518 3705 TriUF
1522 3816 TriUF
1524 3606 TriUF
1525 3521 TriUF
1525 4313 TriUF
1532 3751 TriUF
1532 3831 TriUF
1536 3496 TriUF
1539 3446 TriUF
1546 3510 TriUF
1547 3834 TriUF
1557 3742 TriUF
1562 4001 TriUF
1569 3808 TriUF
1569 3899 TriUF
1571 3882 TriUF
1573 4081 TriUF
1573 3523 TriUF
1583 3646 TriUF
1584 3488 TriUF
1586 3578 TriUF
1586 3573 TriUF
1587 4038 TriUF
1587 4056 TriUF
1587 3426 TriUF
1588 3690 TriUF
1596 3766 TriUF
1610 3605 TriUF
1613 3960 TriUF
1614 3594 TriUF
1624 4197 TriUF
1625 3567 TriUF
1626 4237 TriUF
1627 3970 TriUF
1632 3649 TriUF
1634 3509 TriUF
1639 3608 TriUF
1639 4056 TriUF
1641 3778 TriUF
1643 3853 TriUF
1644 3596 TriUF
1647 4214 TriUF
1651 3900 TriUF
1654 3524 TriUF
1655 3529 TriUF
1656 3463 TriUF
1658 3670 TriUF
1659 3568 TriUF
1661 3430 TriUF
1669 3620 TriUF
1671 3907 TriUF
1673 3564 TriUF
1674 3805 TriUF
1674 3498 TriUF
1678 3633 TriUF
1682 3614 TriUF
1700 3612 TriUF
1700 3519 TriUF
1711 3893 TriUF
1713 4410 TriUF
1715 3432 TriUF
1718 3658 TriUF
1722 3660 TriUF
1725 3851 TriUF
1727 3431 TriUF
1729 3622 TriUF
1741 3584 TriUF
1748 3595 TriUF
1751 4212 TriUF
1751 3771 TriUF
1756 3459 TriUF
1757 4197 TriUF
1759 3987 TriUF
1765 3752 TriUF
1776 4335 TriUF
1782 3626 TriUF
1792 3374 TriUF
1794 3976 TriUF
1802 4324 TriUF
1807 3567 TriUF
1809 3737 TriUF
1812 3864 TriUF
1819 4055 TriUF
1840 4123 TriUF
1842 3876 TriUF
1849 3929 TriUF
1850 3922 TriUF
1856 3982 TriUF
1861 3739 TriUF
1863 3456 TriUF
1872 3489 TriUF
1873 3983 TriUF
1874 3569 TriUF
1890 3739 TriUF
1891 3658 TriUF
1893 3477 TriUF
1894 3769 TriUF
1899 3558 TriUF
1900 3781 TriUF
1903 4350 TriUF
1907 4654 TriUF
1907 3605 TriUF
1908 3789 TriUF
1916 3425 TriUF
1918 3852 TriUF
1925 4568 TriUF
1928 3551 TriUF
1928 4824 TriUF
1929 3649 TriUF
1930 3684 TriUF
1936 4809 TriUF
1938 3507 TriUF
1939 3667 TriUF
1939 5080 TriUF
1942 3917 TriUF
1945 3747 TriUF
1956 3669 TriUF
1960 3796 TriUF
1962 4121 TriUF
1962 3645 TriUF
1965 3709 TriUF
1966 4420 TriUF
1976 3465 TriUF
1977 3940 TriUF
1981 3632 TriUF
1999 3643 TriUF
2001 3607 TriUF
2001 4265 TriUF
2002 3915 TriUF
2003 4173 TriUF
2008 3489 TriUF
2010 4072 TriUF
2020 3844 TriUF
2021 3833 TriUF
2028 3770 TriUF
2032 3658 TriUF
2034 3704 TriUF
2036 4064 TriUF
2039 4167 TriUF
2054 4111 TriUF
2061 3535 TriUF
2064 3419 TriUF
2068 3803 TriUF
2070 4095 TriUF
2071 3852 TriUF
2075 3519 TriUF
2075 4069 TriUF
2075 3781 TriUF
2077 3870 TriUF
2077 3759 TriUF
2087 3689 TriUF
2105 3801 TriUF
2107 3718 TriUF
2109 3877 TriUF
2111 4271 TriUF
2114 3615 TriUF
2117 4081 TriUF
2118 4079 TriUF
2120 4168 TriUF
2122 3533 TriUF
2129 4008 TriUF
2129 4763 TriUF
2134 4780 TriUF
2134 3703 TriUF
2156 3465 TriUF
2162 3657 TriUF
2165 3635 TriUF
2168 3925 TriUF
2182 3906 TriUF
2184 3533 TriUF
2187 3552 TriUF
2192 3648 TriUF
2201 3592 TriUF
2210 4578 TriUF
2210 4091 TriUF
2212 4080 TriUF
2225 3533 TriUF
2230 3484 TriUF
2234 3805 TriUF
2241 3909 TriUF
2249 3958 TriUF
2254 3385 TriUF
2263 3769 TriUF
2266 3765 TriUF
2268 4152 TriUF
2285 3702 TriUF
2299 4116 TriUF
2304 3612 TriUF
2307 3631 TriUF
2308 3927 TriUF
2308 3894 TriUF
2310 4325 TriUF
2316 3899 TriUF
2318 3655 TriUF
2320 3686 TriUF
2328 4056 TriUF
2330 3971 TriUF
2334 4380 TriUF
2337 4379 TriUF
2337 3611 TriUF
2353 3890 TriUF
2371 4366 TriUF
2375 3708 TriUF
2377 4204 TriUF
2377 4014 TriUF
2382 3686 TriUF
2383 3996 TriUF
2384 4249 TriUF
2394 3808 TriUF
2402 3745 TriUF
2407 3937 TriUF
2415 3747 TriUF
2419 4091 TriUF
2421 3798 TriUF
2426 4775 TriUF
2432 3604 TriUF
2439 3546 TriUF
2447 4803 TriUF
2449 3782 TriUF
2457 3896 TriUF
2460 4123 TriUF
2470 3584 TriUF
2471 3961 TriUF
2471 3771 TriUF
2475 3758 TriUF
2487 3779 TriUF
2511 4443 TriUF
2528 4267 TriUF
2532 3830 TriUF
2532 3807 TriUF
2535 4342 TriUF
2544 3549 TriUF
2548 4200 TriUF
2554 4174 TriUF
2557 4246 TriUF
2559 3879 TriUF
2579 4052 TriUF
2584 3717 TriUF
2588 3643 TriUF
2592 4483 TriUF
2594 3566 TriUF
2614 3801 TriUF
2618 3600 TriUF
2623 3489 TriUF
2638 4080 TriUF
2640 3758 TriUF
2649 3629 TriUF
2659 3895 TriUF
2661 3995 TriUF
2666 3869 TriUF
2666 3910 TriUF
2682 3908 TriUF
2685 4106 TriUF
2706 4086 TriUF
2706 3780 TriUF
2706 3823 TriUF
2727 3688 TriUF
2733 3531 TriUF
2738 3883 TriUF
2750 4181 TriUF
2771 3991 TriUF
2778 4142 TriUF
2780 3927 TriUF
2780 4012 TriUF
2783 3850 TriUF
2786 3763 TriUF
2790 3719 TriUF
2795 4113 TriUF
2803 3994 TriUF
2806 4199 TriUF
2814 3903 TriUF
2815 3953 TriUF
2816 4724 TriUF
2818 3705 TriUF
2824 3928 TriUF
2834 3708 TriUF
2850 4177 TriUF
2851 3863 TriUF
2865 3593 TriUF
2872 3605 TriUF
2873 3589 TriUF
2878 4211 TriUF
2879 4643 TriUF
2883 3894 TriUF
2885 3802 TriUF
2907 5144 TriUF
2916 4118 TriUF
2939 3972 TriUF
2940 3664 TriUF
2971 3947 TriUF
2972 4136 TriUF
2975 3726 TriUF
2977 3976 TriUF
2985 3810 TriUF
2987 3989 TriUF
2992 3984 TriUF
3026 4146 TriUF
3051 4432 TriUF
3053 3693 TriUF
3054 3829 TriUF
3102 3690 TriUF
3113 4469 TriUF
3120 3871 TriUF
3132 4116 TriUF
3134 4443 TriUF
3166 3864 TriUF
3175 4402 TriUF
3192 4601 TriUF
3214 3963 TriUF
3224 4324 TriUF
3226 3796 TriUF
3248 3732 TriUF
3252 4790 TriUF
3257 3982 TriUF
3291 3683 TriUF
3299 4167 TriUF
3319 3929 TriUF
3321 3694 TriUF
3326 3968 TriUF
3334 3973 TriUF
3341 4189 TriUF
3342 3850 TriUF
3351 4839 TriUF
3361 4245 TriUF
3384 4471 TriUF
3386 4171 TriUF
3387 3488 TriUF
3400 4086 TriUF
3418 4057 TriUF
3420 3827 TriUF
3424 4173 TriUF
3431 4801 TriUF
3451 4620 TriUF
3474 4130 TriUF
3488 3407 TriUF
3499 4010 TriUF
3509 3759 TriUF
3512 3831 TriUF
3513 4575 TriUF
3535 3913 TriUF
3541 4384 TriUF
3560 3945 TriUF
3567 3965 TriUF
3574 4219 TriUF
3578 4253 TriUF
3593 4271 TriUF
3664 3881 TriUF
3671 3649 TriUF
3701 5258 TriUF
3702 4055 TriUF
3706 3582 TriUF
3708 3816 TriUF
3716 4084 TriUF
3732 4188 TriUF
3739 3894 TriUF
3740 5202 TriUF
3747 3701 TriUF
3754 3972 TriUF
3755 3912 TriUF
3761 4552 TriUF
3781 4151 TriUF
3791 4170 TriUF
3812 4388 TriUF
3837 4405 TriUF
3844 4043 TriUF
3876 4000 TriUF
3889 4567 TriUF
3898 3836 TriUF
3913 4409 TriUF
3914 4302 TriUF
3915 3701 TriUF
3929 4676 TriUF
3932 4139 TriUF
3956 4180 TriUF
3961 5104 TriUF
3966 4473 TriUF
3967 4250 TriUF
3987 4448 TriUF
4037 3957 TriUF
4042 4069 TriUF
4074 4313 TriUF
4110 3952 TriUF
4115 3966 TriUF
4123 4368 TriUF
4139 4296 TriUF
4142 4462 TriUF
4147 4585 TriUF
4173 4278 TriUF
4185 4836 TriUF
4197 4857 TriUF
4201 4466 TriUF
4203 3572 TriUF
4237 4496 TriUF
4255 4403 TriUF
4272 4058 TriUF
4296 4261 TriUF
4302 3955 TriUF
4320 3877 TriUF
4334 4770 TriUF
4349 3968 TriUF
4364 4741 TriUF
4373 4467 TriUF
4374 3995 TriUF
4376 3906 TriUF
4468 3962 TriUF
4475 5288 TriUF
4481 3725 TriUF
4482 4207 TriUF
4576 3982 TriUF
4594 4271 TriUF
4605 4016 TriUF
4646 4477 TriUF
4659 4047 TriUF
4737 4479 TriUF
4748 4524 TriUF
4824 4243 TriUF
4829 3692 TriUF
4870 4891 TriUF
4874 4501 TriUF
4908 4289 TriUF
4923 4980 TriUF
4938 3597 TriUF
4946 4856 TriUF
4948 5552 TriUF
4987 4417 TriUF
4990 4269 TriUF
4996 4032 TriUF
5002 3573 TriUF
5004 4330 TriUF
5005 4957 TriUF
5009 4659 TriUF
5074 5850 TriUF
5114 4350 TriUF
5120 6011 TriUF
5174 4446 TriUF
5220 5080 TriUF
5252 4356 TriUF
5288 4244 TriUF
5307 4501 TriUF
5381 4781 TriUF
5394 5032 TriUF
5426 5747 TriUF
5474 4159 TriUF
5657 4939 TriUF
5716 4130 TriUF
5973 4710 TriUF
6052 4418 TriUF
6141 3666 TriUF
6234 4632 TriUF
6320 5356 TriUF
6471 5995 TriUF
6473 5024 TriUF
6523 4367 TriUF
6682 5321 TriUF
6682 4420 TriUF
6787 5250 TriUF
6934 4883 TriUF
7061 4224 TriUF
7156 6568 TriUF
7290 4848 TriUF
7307 4685 TriUF
7442 5506 TriUF
7614 6333 TriUF
7849 4429 TriUF
7933 4346 TriUF
7980 3839 TriUF
8023 4902 TriUF
8158 5196 TriUF
8205 4277 TriUF
8211 4492 TriUF
8311 4868 TriUF
8572 5480 TriUF
8632 5537 TriUF
8770 5718 TriUF
8836 5093 TriUF
9036 4784 TriUF
9123 5061 TriUF
9228 5898 TriUF
9521 5556 TriUF
9622 5731 TriUF
10161 5939 TriUF
10920 6004 TriUF
11065 6949 TriUF
11256 4754 TriUF
11422 6616 TriUF
11724 5899 TriUF
% End plot #1
1.000 UL
LTb
LCb setrgbcolor
600 7049 N
0 -3726 V
12598 0 V
0 3726 V
600 7049 L
Z stroke
1.000 UP
1.000 UL
LTb
LCb setrgbcolor
stroke
grestore
end
showpage
%%Trailer
%%DocumentFonts: Times
