%!PS-Adobe-2.0 EPSF-2.0
%%Title: repeating_conn_12319367_2643828146.eps
%%Creator: gnuplot 4.6 patchlevel 2
%%CreationDate: Tue Apr  8 12:08:16 2014
%%DocumentFonts: (atend)
%%BoundingBox: 50 50 770 554
%%EndComments
%%BeginProlog
/gnudict 256 dict def
gnudict begin
%
% The following true/false flags may be edited by hand if desired.
% The unit line width and grayscale image gamma correction may also be changed.
%
/Color true def
/Blacktext false def
/Solid false def
/Dashlength 1 def
/Landscape false def
/Level1 false def
/Rounded false def
/ClipToBoundingBox false def
/SuppressPDFMark false def
/TransparentPatterns false def
/gnulinewidth 5.000 def
/userlinewidth gnulinewidth def
/Gamma 1.0 def
/BackgroundColor {-1.000 -1.000 -1.000} def
%
/vshift -66 def
/dl1 {
  10.0 Dashlength mul mul
  Rounded { currentlinewidth 0.75 mul sub dup 0 le { pop 0.01 } if } if
} def
/dl2 {
  10.0 Dashlength mul mul
  Rounded { currentlinewidth 0.75 mul add } if
} def
/hpt_ 31.5 def
/vpt_ 31.5 def
/hpt hpt_ def
/vpt vpt_ def
/doclip {
  ClipToBoundingBox {
    newpath 50 50 moveto 770 50 lineto 770 554 lineto 50 554 lineto closepath
    clip
  } if
} def
%
% Gnuplot Prolog Version 4.6 (September 2012)
%
%/SuppressPDFMark true def
%
/M {moveto} bind def
/L {lineto} bind def
/R {rmoveto} bind def
/V {rlineto} bind def
/N {newpath moveto} bind def
/Z {closepath} bind def
/C {setrgbcolor} bind def
/f {rlineto fill} bind def
/g {setgray} bind def
/Gshow {show} def   % May be redefined later in the file to support UTF-8
/vpt2 vpt 2 mul def
/hpt2 hpt 2 mul def
/Lshow {currentpoint stroke M 0 vshift R 
	Blacktext {gsave 0 setgray show grestore} {show} ifelse} def
/Rshow {currentpoint stroke M dup stringwidth pop neg vshift R
	Blacktext {gsave 0 setgray show grestore} {show} ifelse} def
/Cshow {currentpoint stroke M dup stringwidth pop -2 div vshift R 
	Blacktext {gsave 0 setgray show grestore} {show} ifelse} def
/UP {dup vpt_ mul /vpt exch def hpt_ mul /hpt exch def
  /hpt2 hpt 2 mul def /vpt2 vpt 2 mul def} def
/DL {Color {setrgbcolor Solid {pop []} if 0 setdash}
 {pop pop pop 0 setgray Solid {pop []} if 0 setdash} ifelse} def
/BL {stroke userlinewidth 2 mul setlinewidth
	Rounded {1 setlinejoin 1 setlinecap} if} def
/AL {stroke userlinewidth 2 div setlinewidth
	Rounded {1 setlinejoin 1 setlinecap} if} def
/UL {dup gnulinewidth mul /userlinewidth exch def
	dup 1 lt {pop 1} if 10 mul /udl exch def} def
/PL {stroke userlinewidth setlinewidth
	Rounded {1 setlinejoin 1 setlinecap} if} def
3.8 setmiterlimit
% Default Line colors
/LCw {1 1 1} def
/LCb {0 0 0} def
/LCa {0 0 0} def
/LC0 {1 0 0} def
/LC1 {0 1 0} def
/LC2 {0 0 1} def
/LC3 {1 0 1} def
/LC4 {0 1 1} def
/LC5 {1 1 0} def
/LC6 {0 0 0} def
/LC7 {1 0.3 0} def
/LC8 {0.5 0.5 0.5} def
% Default Line Types
/LTw {PL [] 1 setgray} def
/LTb {BL [] LCb DL} def
/LTa {AL [1 udl mul 2 udl mul] 0 setdash LCa setrgbcolor} def
/LT0 {PL [] LC0 DL} def
/LT1 {PL [4 dl1 2 dl2] LC1 DL} def
/LT2 {PL [2 dl1 3 dl2] LC2 DL} def
/LT3 {PL [1 dl1 1.5 dl2] LC3 DL} def
/LT4 {PL [6 dl1 2 dl2 1 dl1 2 dl2] LC4 DL} def
/LT5 {PL [3 dl1 3 dl2 1 dl1 3 dl2] LC5 DL} def
/LT6 {PL [2 dl1 2 dl2 2 dl1 6 dl2] LC6 DL} def
/LT7 {PL [1 dl1 2 dl2 6 dl1 2 dl2 1 dl1 2 dl2] LC7 DL} def
/LT8 {PL [2 dl1 2 dl2 2 dl1 2 dl2 2 dl1 2 dl2 2 dl1 4 dl2] LC8 DL} def
/Pnt {stroke [] 0 setdash gsave 1 setlinecap M 0 0 V stroke grestore} def
/Dia {stroke [] 0 setdash 2 copy vpt add M
  hpt neg vpt neg V hpt vpt neg V
  hpt vpt V hpt neg vpt V closepath stroke
  Pnt} def
/Pls {stroke [] 0 setdash vpt sub M 0 vpt2 V
  currentpoint stroke M
  hpt neg vpt neg R hpt2 0 V stroke
 } def
/Box {stroke [] 0 setdash 2 copy exch hpt sub exch vpt add M
  0 vpt2 neg V hpt2 0 V 0 vpt2 V
  hpt2 neg 0 V closepath stroke
  Pnt} def
/Crs {stroke [] 0 setdash exch hpt sub exch vpt add M
  hpt2 vpt2 neg V currentpoint stroke M
  hpt2 neg 0 R hpt2 vpt2 V stroke} def
/TriU {stroke [] 0 setdash 2 copy vpt 1.12 mul add M
  hpt neg vpt -1.62 mul V
  hpt 2 mul 0 V
  hpt neg vpt 1.62 mul V closepath stroke
  Pnt} def
/Star {2 copy Pls Crs} def
/BoxF {stroke [] 0 setdash exch hpt sub exch vpt add M
  0 vpt2 neg V hpt2 0 V 0 vpt2 V
  hpt2 neg 0 V closepath fill} def
/TriUF {stroke [] 0 setdash vpt 1.12 mul add M
  hpt neg vpt -1.62 mul V
  hpt 2 mul 0 V
  hpt neg vpt 1.62 mul V closepath fill} def
/TriD {stroke [] 0 setdash 2 copy vpt 1.12 mul sub M
  hpt neg vpt 1.62 mul V
  hpt 2 mul 0 V
  hpt neg vpt -1.62 mul V closepath stroke
  Pnt} def
/TriDF {stroke [] 0 setdash vpt 1.12 mul sub M
  hpt neg vpt 1.62 mul V
  hpt 2 mul 0 V
  hpt neg vpt -1.62 mul V closepath fill} def
/DiaF {stroke [] 0 setdash vpt add M
  hpt neg vpt neg V hpt vpt neg V
  hpt vpt V hpt neg vpt V closepath fill} def
/Pent {stroke [] 0 setdash 2 copy gsave
  translate 0 hpt M 4 {72 rotate 0 hpt L} repeat
  closepath stroke grestore Pnt} def
/PentF {stroke [] 0 setdash gsave
  translate 0 hpt M 4 {72 rotate 0 hpt L} repeat
  closepath fill grestore} def
/Circle {stroke [] 0 setdash 2 copy
  hpt 0 360 arc stroke Pnt} def
/CircleF {stroke [] 0 setdash hpt 0 360 arc fill} def
/C0 {BL [] 0 setdash 2 copy moveto vpt 90 450 arc} bind def
/C1 {BL [] 0 setdash 2 copy moveto
	2 copy vpt 0 90 arc closepath fill
	vpt 0 360 arc closepath} bind def
/C2 {BL [] 0 setdash 2 copy moveto
	2 copy vpt 90 180 arc closepath fill
	vpt 0 360 arc closepath} bind def
/C3 {BL [] 0 setdash 2 copy moveto
	2 copy vpt 0 180 arc closepath fill
	vpt 0 360 arc closepath} bind def
/C4 {BL [] 0 setdash 2 copy moveto
	2 copy vpt 180 270 arc closepath fill
	vpt 0 360 arc closepath} bind def
/C5 {BL [] 0 setdash 2 copy moveto
	2 copy vpt 0 90 arc
	2 copy moveto
	2 copy vpt 180 270 arc closepath fill
	vpt 0 360 arc} bind def
/C6 {BL [] 0 setdash 2 copy moveto
	2 copy vpt 90 270 arc closepath fill
	vpt 0 360 arc closepath} bind def
/C7 {BL [] 0 setdash 2 copy moveto
	2 copy vpt 0 270 arc closepath fill
	vpt 0 360 arc closepath} bind def
/C8 {BL [] 0 setdash 2 copy moveto
	2 copy vpt 270 360 arc closepath fill
	vpt 0 360 arc closepath} bind def
/C9 {BL [] 0 setdash 2 copy moveto
	2 copy vpt 270 450 arc closepath fill
	vpt 0 360 arc closepath} bind def
/C10 {BL [] 0 setdash 2 copy 2 copy moveto vpt 270 360 arc closepath fill
	2 copy moveto
	2 copy vpt 90 180 arc closepath fill
	vpt 0 360 arc closepath} bind def
/C11 {BL [] 0 setdash 2 copy moveto
	2 copy vpt 0 180 arc closepath fill
	2 copy moveto
	2 copy vpt 270 360 arc closepath fill
	vpt 0 360 arc closepath} bind def
/C12 {BL [] 0 setdash 2 copy moveto
	2 copy vpt 180 360 arc closepath fill
	vpt 0 360 arc closepath} bind def
/C13 {BL [] 0 setdash 2 copy moveto
	2 copy vpt 0 90 arc closepath fill
	2 copy moveto
	2 copy vpt 180 360 arc closepath fill
	vpt 0 360 arc closepath} bind def
/C14 {BL [] 0 setdash 2 copy moveto
	2 copy vpt 90 360 arc closepath fill
	vpt 0 360 arc} bind def
/C15 {BL [] 0 setdash 2 copy vpt 0 360 arc closepath fill
	vpt 0 360 arc closepath} bind def
/Rec {newpath 4 2 roll moveto 1 index 0 rlineto 0 exch rlineto
	neg 0 rlineto closepath} bind def
/Square {dup Rec} bind def
/Bsquare {vpt sub exch vpt sub exch vpt2 Square} bind def
/S0 {BL [] 0 setdash 2 copy moveto 0 vpt rlineto BL Bsquare} bind def
/S1 {BL [] 0 setdash 2 copy vpt Square fill Bsquare} bind def
/S2 {BL [] 0 setdash 2 copy exch vpt sub exch vpt Square fill Bsquare} bind def
/S3 {BL [] 0 setdash 2 copy exch vpt sub exch vpt2 vpt Rec fill Bsquare} bind def
/S4 {BL [] 0 setdash 2 copy exch vpt sub exch vpt sub vpt Square fill Bsquare} bind def
/S5 {BL [] 0 setdash 2 copy 2 copy vpt Square fill
	exch vpt sub exch vpt sub vpt Square fill Bsquare} bind def
/S6 {BL [] 0 setdash 2 copy exch vpt sub exch vpt sub vpt vpt2 Rec fill Bsquare} bind def
/S7 {BL [] 0 setdash 2 copy exch vpt sub exch vpt sub vpt vpt2 Rec fill
	2 copy vpt Square fill Bsquare} bind def
/S8 {BL [] 0 setdash 2 copy vpt sub vpt Square fill Bsquare} bind def
/S9 {BL [] 0 setdash 2 copy vpt sub vpt vpt2 Rec fill Bsquare} bind def
/S10 {BL [] 0 setdash 2 copy vpt sub vpt Square fill 2 copy exch vpt sub exch vpt Square fill
	Bsquare} bind def
/S11 {BL [] 0 setdash 2 copy vpt sub vpt Square fill 2 copy exch vpt sub exch vpt2 vpt Rec fill
	Bsquare} bind def
/S12 {BL [] 0 setdash 2 copy exch vpt sub exch vpt sub vpt2 vpt Rec fill Bsquare} bind def
/S13 {BL [] 0 setdash 2 copy exch vpt sub exch vpt sub vpt2 vpt Rec fill
	2 copy vpt Square fill Bsquare} bind def
/S14 {BL [] 0 setdash 2 copy exch vpt sub exch vpt sub vpt2 vpt Rec fill
	2 copy exch vpt sub exch vpt Square fill Bsquare} bind def
/S15 {BL [] 0 setdash 2 copy Bsquare fill Bsquare} bind def
/D0 {gsave translate 45 rotate 0 0 S0 stroke grestore} bind def
/D1 {gsave translate 45 rotate 0 0 S1 stroke grestore} bind def
/D2 {gsave translate 45 rotate 0 0 S2 stroke grestore} bind def
/D3 {gsave translate 45 rotate 0 0 S3 stroke grestore} bind def
/D4 {gsave translate 45 rotate 0 0 S4 stroke grestore} bind def
/D5 {gsave translate 45 rotate 0 0 S5 stroke grestore} bind def
/D6 {gsave translate 45 rotate 0 0 S6 stroke grestore} bind def
/D7 {gsave translate 45 rotate 0 0 S7 stroke grestore} bind def
/D8 {gsave translate 45 rotate 0 0 S8 stroke grestore} bind def
/D9 {gsave translate 45 rotate 0 0 S9 stroke grestore} bind def
/D10 {gsave translate 45 rotate 0 0 S10 stroke grestore} bind def
/D11 {gsave translate 45 rotate 0 0 S11 stroke grestore} bind def
/D12 {gsave translate 45 rotate 0 0 S12 stroke grestore} bind def
/D13 {gsave translate 45 rotate 0 0 S13 stroke grestore} bind def
/D14 {gsave translate 45 rotate 0 0 S14 stroke grestore} bind def
/D15 {gsave translate 45 rotate 0 0 S15 stroke grestore} bind def
/DiaE {stroke [] 0 setdash vpt add M
  hpt neg vpt neg V hpt vpt neg V
  hpt vpt V hpt neg vpt V closepath stroke} def
/BoxE {stroke [] 0 setdash exch hpt sub exch vpt add M
  0 vpt2 neg V hpt2 0 V 0 vpt2 V
  hpt2 neg 0 V closepath stroke} def
/TriUE {stroke [] 0 setdash vpt 1.12 mul add M
  hpt neg vpt -1.62 mul V
  hpt 2 mul 0 V
  hpt neg vpt 1.62 mul V closepath stroke} def
/TriDE {stroke [] 0 setdash vpt 1.12 mul sub M
  hpt neg vpt 1.62 mul V
  hpt 2 mul 0 V
  hpt neg vpt -1.62 mul V closepath stroke} def
/PentE {stroke [] 0 setdash gsave
  translate 0 hpt M 4 {72 rotate 0 hpt L} repeat
  closepath stroke grestore} def
/CircE {stroke [] 0 setdash 
  hpt 0 360 arc stroke} def
/Opaque {gsave closepath 1 setgray fill grestore 0 setgray closepath} def
/DiaW {stroke [] 0 setdash vpt add M
  hpt neg vpt neg V hpt vpt neg V
  hpt vpt V hpt neg vpt V Opaque stroke} def
/BoxW {stroke [] 0 setdash exch hpt sub exch vpt add M
  0 vpt2 neg V hpt2 0 V 0 vpt2 V
  hpt2 neg 0 V Opaque stroke} def
/TriUW {stroke [] 0 setdash vpt 1.12 mul add M
  hpt neg vpt -1.62 mul V
  hpt 2 mul 0 V
  hpt neg vpt 1.62 mul V Opaque stroke} def
/TriDW {stroke [] 0 setdash vpt 1.12 mul sub M
  hpt neg vpt 1.62 mul V
  hpt 2 mul 0 V
  hpt neg vpt -1.62 mul V Opaque stroke} def
/PentW {stroke [] 0 setdash gsave
  translate 0 hpt M 4 {72 rotate 0 hpt L} repeat
  Opaque stroke grestore} def
/CircW {stroke [] 0 setdash 
  hpt 0 360 arc Opaque stroke} def
/BoxFill {gsave Rec 1 setgray fill grestore} def
/Density {
  /Fillden exch def
  currentrgbcolor
  /ColB exch def /ColG exch def /ColR exch def
  /ColR ColR Fillden mul Fillden sub 1 add def
  /ColG ColG Fillden mul Fillden sub 1 add def
  /ColB ColB Fillden mul Fillden sub 1 add def
  ColR ColG ColB setrgbcolor} def
/BoxColFill {gsave Rec PolyFill} def
/PolyFill {gsave Density fill grestore grestore} def
/h {rlineto rlineto rlineto gsave closepath fill grestore} bind def
%
% PostScript Level 1 Pattern Fill routine for rectangles
% Usage: x y w h s a XX PatternFill
%	x,y = lower left corner of box to be filled
%	w,h = width and height of box
%	  a = angle in degrees between lines and x-axis
%	 XX = 0/1 for no/yes cross-hatch
%
/PatternFill {gsave /PFa [ 9 2 roll ] def
  PFa 0 get PFa 2 get 2 div add PFa 1 get PFa 3 get 2 div add translate
  PFa 2 get -2 div PFa 3 get -2 div PFa 2 get PFa 3 get Rec
  TransparentPatterns {} {gsave 1 setgray fill grestore} ifelse
  clip
  currentlinewidth 0.5 mul setlinewidth
  /PFs PFa 2 get dup mul PFa 3 get dup mul add sqrt def
  0 0 M PFa 5 get rotate PFs -2 div dup translate
  0 1 PFs PFa 4 get div 1 add floor cvi
	{PFa 4 get mul 0 M 0 PFs V} for
  0 PFa 6 get ne {
	0 1 PFs PFa 4 get div 1 add floor cvi
	{PFa 4 get mul 0 2 1 roll M PFs 0 V} for
 } if
  stroke grestore} def
%
/languagelevel where
 {pop languagelevel} {1} ifelse
 2 lt
	{/InterpretLevel1 true def}
	{/InterpretLevel1 Level1 def}
 ifelse
%
% PostScript level 2 pattern fill definitions
%
/Level2PatternFill {
/Tile8x8 {/PaintType 2 /PatternType 1 /TilingType 1 /BBox [0 0 8 8] /XStep 8 /YStep 8}
	bind def
/KeepColor {currentrgbcolor [/Pattern /DeviceRGB] setcolorspace} bind def
<< Tile8x8
 /PaintProc {0.5 setlinewidth pop 0 0 M 8 8 L 0 8 M 8 0 L stroke} 
>> matrix makepattern
/Pat1 exch def
<< Tile8x8
 /PaintProc {0.5 setlinewidth pop 0 0 M 8 8 L 0 8 M 8 0 L stroke
	0 4 M 4 8 L 8 4 L 4 0 L 0 4 L stroke}
>> matrix makepattern
/Pat2 exch def
<< Tile8x8
 /PaintProc {0.5 setlinewidth pop 0 0 M 0 8 L
	8 8 L 8 0 L 0 0 L fill}
>> matrix makepattern
/Pat3 exch def
<< Tile8x8
 /PaintProc {0.5 setlinewidth pop -4 8 M 8 -4 L
	0 12 M 12 0 L stroke}
>> matrix makepattern
/Pat4 exch def
<< Tile8x8
 /PaintProc {0.5 setlinewidth pop -4 0 M 8 12 L
	0 -4 M 12 8 L stroke}
>> matrix makepattern
/Pat5 exch def
<< Tile8x8
 /PaintProc {0.5 setlinewidth pop -2 8 M 4 -4 L
	0 12 M 8 -4 L 4 12 M 10 0 L stroke}
>> matrix makepattern
/Pat6 exch def
<< Tile8x8
 /PaintProc {0.5 setlinewidth pop -2 0 M 4 12 L
	0 -4 M 8 12 L 4 -4 M 10 8 L stroke}
>> matrix makepattern
/Pat7 exch def
<< Tile8x8
 /PaintProc {0.5 setlinewidth pop 8 -2 M -4 4 L
	12 0 M -4 8 L 12 4 M 0 10 L stroke}
>> matrix makepattern
/Pat8 exch def
<< Tile8x8
 /PaintProc {0.5 setlinewidth pop 0 -2 M 12 4 L
	-4 0 M 12 8 L -4 4 M 8 10 L stroke}
>> matrix makepattern
/Pat9 exch def
/Pattern1 {PatternBgnd KeepColor Pat1 setpattern} bind def
/Pattern2 {PatternBgnd KeepColor Pat2 setpattern} bind def
/Pattern3 {PatternBgnd KeepColor Pat3 setpattern} bind def
/Pattern4 {PatternBgnd KeepColor Landscape {Pat5} {Pat4} ifelse setpattern} bind def
/Pattern5 {PatternBgnd KeepColor Landscape {Pat4} {Pat5} ifelse setpattern} bind def
/Pattern6 {PatternBgnd KeepColor Landscape {Pat9} {Pat6} ifelse setpattern} bind def
/Pattern7 {PatternBgnd KeepColor Landscape {Pat8} {Pat7} ifelse setpattern} bind def
} def
%
%
%End of PostScript Level 2 code
%
/PatternBgnd {
  TransparentPatterns {} {gsave 1 setgray fill grestore} ifelse
} def
%
% Substitute for Level 2 pattern fill codes with
% grayscale if Level 2 support is not selected.
%
/Level1PatternFill {
/Pattern1 {0.250 Density} bind def
/Pattern2 {0.500 Density} bind def
/Pattern3 {0.750 Density} bind def
/Pattern4 {0.125 Density} bind def
/Pattern5 {0.375 Density} bind def
/Pattern6 {0.625 Density} bind def
/Pattern7 {0.875 Density} bind def
} def
%
% Now test for support of Level 2 code
%
Level1 {Level1PatternFill} {Level2PatternFill} ifelse
%
/Symbol-Oblique /Symbol findfont [1 0 .167 1 0 0] makefont
dup length dict begin {1 index /FID eq {pop pop} {def} ifelse} forall
currentdict end definefont pop
/MFshow {
   { dup 5 get 3 ge
     { 5 get 3 eq {gsave} {grestore} ifelse }
     {dup dup 0 get findfont exch 1 get scalefont setfont
     [ currentpoint ] exch dup 2 get 0 exch R dup 5 get 2 ne {dup dup 6
     get exch 4 get {Gshow} {stringwidth pop 0 R} ifelse }if dup 5 get 0 eq
     {dup 3 get {2 get neg 0 exch R pop} {pop aload pop M} ifelse} {dup 5
     get 1 eq {dup 2 get exch dup 3 get exch 6 get stringwidth pop -2 div
     dup 0 R} {dup 6 get stringwidth pop -2 div 0 R 6 get
     show 2 index {aload pop M neg 3 -1 roll neg R pop pop} {pop pop pop
     pop aload pop M} ifelse }ifelse }ifelse }
     ifelse }
   forall} def
/Gswidth {dup type /stringtype eq {stringwidth} {pop (n) stringwidth} ifelse} def
/MFwidth {0 exch { dup 5 get 3 ge { 5 get 3 eq { 0 } { pop } ifelse }
 {dup 3 get{dup dup 0 get findfont exch 1 get scalefont setfont
     6 get Gswidth pop add} {pop} ifelse} ifelse} forall} def
/MLshow { currentpoint stroke M
  0 exch R
  Blacktext {gsave 0 setgray MFshow grestore} {MFshow} ifelse } bind def
/MRshow { currentpoint stroke M
  exch dup MFwidth neg 3 -1 roll R
  Blacktext {gsave 0 setgray MFshow grestore} {MFshow} ifelse } bind def
/MCshow { currentpoint stroke M
  exch dup MFwidth -2 div 3 -1 roll R
  Blacktext {gsave 0 setgray MFshow grestore} {MFshow} ifelse } bind def
/XYsave    { [( ) 1 2 true false 3 ()] } bind def
/XYrestore { [( ) 1 2 true false 4 ()] } bind def
Level1 SuppressPDFMark or 
{} {
/SDict 10 dict def
systemdict /pdfmark known not {
  userdict /pdfmark systemdict /cleartomark get put
} if
SDict begin [
  /Title (repeating_conn_12319367_2643828146.eps)
  /Subject (gnuplot plot)
  /Creator (gnuplot 4.6 patchlevel 2)
  /Author (olgabo)
%  /Producer (gnuplot)
%  /Keywords ()
  /CreationDate (Tue Apr  8 12:08:16 2014)
  /DOCINFO pdfmark
end
} ifelse
end
%%EndProlog
%%Page: 1 1
gnudict begin
gsave
doclip
50 50 translate
0.050 0.050 scale
0 setgray
newpath
(Times) findfont 200 scalefont setfont
BackgroundColor 0 lt 3 1 roll 0 lt exch 0 lt or or not {BackgroundColor C 1.000 0 0 14400.00 10080.00 BoxColFill} if
1.000 UL
LTb
LCb setrgbcolor
1.000 UL
LTa
LCa setrgbcolor
1200 3493 M
12598 0 V
stroke
LTb
LCb setrgbcolor
1200 3493 M
63 0 V
12535 0 R
-63 0 V
stroke
1080 3493 M
[ [(Times) 200.0 0.0 true true 0 ( 0)]
] -66.7 MRshow
1.000 UL
LTb
LCb setrgbcolor
1.000 UL
LTa
LCa setrgbcolor
1200 3888 M
12598 0 V
stroke
LTb
LCb setrgbcolor
1200 3888 M
63 0 V
12535 0 R
-63 0 V
stroke
1080 3888 M
[ [(Times) 200.0 0.0 true true 0 ( 50)]
] -66.7 MRshow
1.000 UL
LTb
LCb setrgbcolor
1.000 UL
LTa
LCa setrgbcolor
1200 4283 M
12598 0 V
stroke
LTb
LCb setrgbcolor
1200 4283 M
63 0 V
12535 0 R
-63 0 V
stroke
1080 4283 M
[ [(Times) 200.0 0.0 true true 0 ( 100)]
] -66.7 MRshow
1.000 UL
LTb
LCb setrgbcolor
1.000 UL
LTa
LCa setrgbcolor
1200 4678 M
12598 0 V
stroke
LTb
LCb setrgbcolor
1200 4678 M
63 0 V
12535 0 R
-63 0 V
stroke
1080 4678 M
[ [(Times) 200.0 0.0 true true 0 ( 150)]
] -66.7 MRshow
1.000 UL
LTb
LCb setrgbcolor
1.000 UL
LTa
LCa setrgbcolor
1200 5073 M
12598 0 V
stroke
LTb
LCb setrgbcolor
1200 5073 M
63 0 V
12535 0 R
-63 0 V
stroke
1080 5073 M
[ [(Times) 200.0 0.0 true true 0 ( 200)]
] -66.7 MRshow
1.000 UL
LTb
LCb setrgbcolor
1.000 UL
LTa
LCa setrgbcolor
1200 5469 M
12598 0 V
stroke
LTb
LCb setrgbcolor
1200 5469 M
63 0 V
12535 0 R
-63 0 V
stroke
1080 5469 M
[ [(Times) 200.0 0.0 true true 0 ( 250)]
] -66.7 MRshow
1.000 UL
LTb
LCb setrgbcolor
1.000 UL
LTa
LCa setrgbcolor
1200 5864 M
12598 0 V
stroke
LTb
LCb setrgbcolor
1200 5864 M
63 0 V
12535 0 R
-63 0 V
stroke
1080 5864 M
[ [(Times) 200.0 0.0 true true 0 ( 300)]
] -66.7 MRshow
1.000 UL
LTb
LCb setrgbcolor
1.000 UL
LTa
LCa setrgbcolor
1200 6259 M
12598 0 V
stroke
LTb
LCb setrgbcolor
1200 6259 M
63 0 V
12535 0 R
-63 0 V
stroke
1080 6259 M
[ [(Times) 200.0 0.0 true true 0 ( 350)]
] -66.7 MRshow
1.000 UL
LTb
LCb setrgbcolor
1.000 UL
LTa
LCa setrgbcolor
1200 6654 M
12598 0 V
stroke
LTb
LCb setrgbcolor
1200 6654 M
63 0 V
12535 0 R
-63 0 V
stroke
1080 6654 M
[ [(Times) 200.0 0.0 true true 0 ( 400)]
] -66.7 MRshow
1.000 UL
LTb
LCb setrgbcolor
1.000 UL
LTa
LCa setrgbcolor
1200 7049 M
12598 0 V
stroke
LTb
LCb setrgbcolor
1200 7049 M
63 0 V
12535 0 R
-63 0 V
stroke
1080 7049 M
[ [(Times) 200.0 0.0 true true 0 ( 450)]
] -66.7 MRshow
1.000 UL
LTb
LCb setrgbcolor
1.000 UL
LTa
LCa setrgbcolor
1200 3493 M
0 3556 V
stroke
LTb
LCb setrgbcolor
1200 3493 M
0 63 V
0 3493 R
0 -63 V
stroke
1200 3373 M
currentpoint gsave translate -45 rotate 0 0 moveto
[ [(Times) 200.0 0.0 true true 0 ( 0)]
] -66.7 MLshow
grestore
1.000 UL
LTb
LCb setrgbcolor
1.000 UL
LTa
LCa setrgbcolor
2775 3493 M
0 3556 V
stroke
LTb
LCb setrgbcolor
2775 3493 M
0 63 V
0 3493 R
0 -63 V
stroke
2775 3373 M
currentpoint gsave translate -45 rotate 0 0 moveto
[ [(Times) 200.0 0.0 true true 0 ( 500)]
] -66.7 MLshow
grestore
1.000 UL
LTb
LCb setrgbcolor
1.000 UL
LTa
LCa setrgbcolor
4350 3493 M
0 3556 V
stroke
LTb
LCb setrgbcolor
4350 3493 M
0 63 V
0 3493 R
0 -63 V
stroke
4350 3373 M
currentpoint gsave translate -45 rotate 0 0 moveto
[ [(Times) 200.0 0.0 true true 0 ( 1000)]
] -66.7 MLshow
grestore
1.000 UL
LTb
LCb setrgbcolor
1.000 UL
LTa
LCa setrgbcolor
5924 3493 M
0 3556 V
stroke
LTb
LCb setrgbcolor
5924 3493 M
0 63 V
0 3493 R
0 -63 V
stroke
5924 3373 M
currentpoint gsave translate -45 rotate 0 0 moveto
[ [(Times) 200.0 0.0 true true 0 ( 1500)]
] -66.7 MLshow
grestore
1.000 UL
LTb
LCb setrgbcolor
1.000 UL
LTa
LCa setrgbcolor
7499 3493 M
0 3556 V
stroke
LTb
LCb setrgbcolor
7499 3493 M
0 63 V
0 3493 R
0 -63 V
stroke
7499 3373 M
currentpoint gsave translate -45 rotate 0 0 moveto
[ [(Times) 200.0 0.0 true true 0 ( 2000)]
] -66.7 MLshow
grestore
1.000 UL
LTb
LCb setrgbcolor
1.000 UL
LTa
LCa setrgbcolor
9074 3493 M
0 3556 V
stroke
LTb
LCb setrgbcolor
9074 3493 M
0 63 V
0 3493 R
0 -63 V
stroke
9074 3373 M
currentpoint gsave translate -45 rotate 0 0 moveto
[ [(Times) 200.0 0.0 true true 0 ( 2500)]
] -66.7 MLshow
grestore
1.000 UL
LTb
LCb setrgbcolor
1.000 UL
LTa
LCa setrgbcolor
10649 3493 M
0 3556 V
stroke
LTb
LCb setrgbcolor
10649 3493 M
0 63 V
0 3493 R
0 -63 V
stroke
10649 3373 M
currentpoint gsave translate -45 rotate 0 0 moveto
[ [(Times) 200.0 0.0 true true 0 ( 3000)]
] -66.7 MLshow
grestore
1.000 UL
LTb
LCb setrgbcolor
1.000 UL
LTa
LCa setrgbcolor
12223 3493 M
0 3556 V
stroke
LTb
LCb setrgbcolor
12223 3493 M
0 63 V
0 3493 R
0 -63 V
stroke
12223 3373 M
currentpoint gsave translate -45 rotate 0 0 moveto
[ [(Times) 200.0 0.0 true true 0 ( 3500)]
] -66.7 MLshow
grestore
1.000 UL
LTb
LCb setrgbcolor
1.000 UL
LTa
LCa setrgbcolor
13798 3493 M
0 3556 V
stroke
LTb
LCb setrgbcolor
13798 3493 M
0 63 V
0 3493 R
0 -63 V
stroke
13798 3373 M
currentpoint gsave translate -45 rotate 0 0 moveto
[ [(Times) 200.0 0.0 true true 0 ( 4000)]
] -66.7 MLshow
grestore
1.000 UL
LTb
LCb setrgbcolor
1.000 UL
LTb
LCb setrgbcolor
1200 7049 N
0 -3556 V
12598 0 V
0 3556 V
-12598 0 V
Z stroke
LCb setrgbcolor
380 5271 M
currentpoint gsave translate -270 rotate 0 0 moveto
[ [(Times) 200.0 0.0 true true 0 (Duration [sec])]
] -66.7 MCshow
grestore
LTb
LCb setrgbcolor
7499 2769 M
[ [(Times) 200.0 0.0 true true 0 (Time [sec])]
] -66.7 MCshow
LTb
7499 7349 M
[ [(Times) 200.0 0.0 true true 0 (src port 80, repeating connections sorted by start time)]
] -66.7 MCshow
1.000 UP
1.000 UL
LTb
LCb setrgbcolor
1.000 UL
LT8
LC8 setrgbcolor
7108 63 N
782 0 V
-782 0 V
Z stroke
% Begin plot #1
1.000 UP
1.000 UL
LT8
0.00 0.00 1.00 C 1200 3496 M
63 -2 V
0 105 V
0 554 V
3 389 V
1524 3495 L
148 0 V
67 0 V
182 1183 V
73 -1183 V
0 212 V
352 788 V
111 -462 V
12 -540 V
0 2 V
13 381 V
0 395 V
50 -769 V
101 -5 V
22 7 V
41 133 V
107 20 V
0 2381 V
19 -2542 V
0 2201 V
13 -1578 V
0 1791 V
0 831 V
3036 3495 L
347 234 V
88 -39 V
236 2692 V
44 -2889 V
85 1 V
129 274 V
10 -275 V
50 3 V
0 2581 V
6 -2583 V
130 -1 V
0 2801 V
4334 3493 L
453 158 V
107 -54 V
89 -103 V
113 540 V
31 -227 V
70 1498 V
82 -1812 V
0 30 V
0 -1 V
3 -29 V
6 0 V
3 27 V
0 23 V
6 -50 V
4 0 V
3 0 V
3 0 V
3 0 V
3 0 V
3 0 V
4 0 V
3 0 V
9 0 V
13 0 V
3 5 V
3 -5 V
6 1 V
10 1736 V
19 -1737 V
9 0 V
79 0 V
3 1081 V
3 -1081 V
123 0 V
13 1 V
214 527 V
0 152 V
214 -679 V
69 209 V
19 -199 V
35 198 V
129 -206 V
110 981 V
117 -981 V
78 -3 V
32 1 V
472 1114 V
70 -303 V
59 -812 V
0 3 V
0 1 V
4 7 V
0 1 V
6 -11 V
0 6 V
0 582 V
3 -587 V
25 8 V
0 2 V
3 -10 V
10 4 V
9 -5 V
7 0 V
0 1 V
9 2 V
22 -1 V
63 2747 V
0 64 V
16 -388 V
7666 3706 L
145 -210 V
25 3036 V
6 -804 V
8079 3494 L
0 6 V
0 1 V
0 -1 V
85 2445 V
9 -2450 V
0 2045 V
28 -1605 V
57 -380 V
44 2364 V
54 -2424 V
3 672 V
6 -480 V
57 -184 V
6 -9 V
0 1 V
76 1084 V
204 589 V
8819 3497 L
248 2 V
4 112 V
63 -116 V
0 3 V
9 -5 V
126 1 V
88 0 V
13 836 V
12 -834 V
183 603 V
186 -605 V
28 2406 V
88 -2406 V
32 93 V
22 -84 V
0 950 V
35 -959 V
94 1797 V
0 941 V
32 -1609 V
22 734 V
296 -1186 V
19 -677 V
12 23 V
10 -21 V
0 1 V
3 -3 V
31 98 V
0 1285 V
101 -1384 V
208 1 V
53 1077 V
26 -1064 V
0 21 V
3 -33 V
0 13 V
0 1 V
9 1548 V
32 -1559 V
19 -4 V
0 2 V
167 -2 V
34 1319 V
158 90 V
0 224 V
0 116 V
0 269 V
56 -1954 V
19 1296 V
13 -472 V
3 -888 V
0 1 V
0 1 V
0 1 V
0 2 V
3 -4 V
0 1 V
0 1253 V
0 1000 V
110 -2219 V
7 -31 V
0 17 V
0 1 V
9 -23 V
0 827 V
63 -828 V
85 1156 V
110 -1155 V
73 0 V
0 2 V
12 -2 V
0 1 V
51 42 V
19 -43 V
9 2 V
0 163 V
0 529 V
88 1172 V
142 -1852 V
0 465 V
0 393 V
51 -124 V
12 -153 V
69 -594 V
95 580 V
19 -581 V
28 1 V
73 13 V
3 -2 V
69 456 V
195 -468 V
1200 3496 TriUF
1263 3494 TriUF
1263 3494 TriUF
1263 3599 TriUF
1263 4153 TriUF
1266 4542 TriUF
1524 3495 TriUF
1672 3495 TriUF
1739 3495 TriUF
1921 4678 TriUF
1994 3495 TriUF
1994 3707 TriUF
2346 4495 TriUF
2346 4495 TriUF
2457 4033 TriUF
2469 3493 TriUF
2469 3495 TriUF
2482 3876 TriUF
2482 4271 TriUF
2532 3502 TriUF
2633 3497 TriUF
2655 3504 TriUF
2696 3637 TriUF
2803 3657 TriUF
2803 6038 TriUF
2822 3496 TriUF
2822 5697 TriUF
2835 4119 TriUF
2835 5910 TriUF
2835 6741 TriUF
3036 3495 TriUF
3383 3729 TriUF
3471 3690 TriUF
3707 6382 TriUF
3751 3493 TriUF
3836 3494 TriUF
3965 3768 TriUF
3975 3493 TriUF
4025 3496 TriUF
4025 6077 TriUF
4031 3494 TriUF
4031 3494 TriUF
4031 3494 TriUF
4161 3493 TriUF
4161 6294 TriUF
4161 6294 TriUF
4334 3493 TriUF
4334 3493 TriUF
4787 3651 TriUF
4894 3597 TriUF
4983 3494 TriUF
5096 4034 TriUF
5127 3807 TriUF
5197 5305 TriUF
5279 3493 TriUF
5279 3493 TriUF
5279 3493 TriUF
5279 3523 TriUF
5279 3523 TriUF
5279 3523 TriUF
5279 3522 TriUF
5279 3522 TriUF
5279 3522 TriUF
5279 3522 TriUF
5279 3522 TriUF
5279 3522 TriUF
5282 3493 TriUF
5288 3493 TriUF
5291 3520 TriUF
5291 3520 TriUF
5291 3520 TriUF
5291 3520 TriUF
5291 3520 TriUF
5291 3520 TriUF
5291 3543 TriUF
5297 3493 TriUF
5301 3493 TriUF
5301 3493 TriUF
5301 3493 TriUF
5301 3493 TriUF
5301 3493 TriUF
5301 3493 TriUF
5304 3493 TriUF
5304 3493 TriUF
5304 3493 TriUF
5304 3493 TriUF
5304 3493 TriUF
5304 3493 TriUF
5307 3493 TriUF
5307 3493 TriUF
5307 3493 TriUF
5307 3493 TriUF
5307 3493 TriUF
5307 3493 TriUF
5310 3493 TriUF
5310 3493 TriUF
5310 3493 TriUF
5310 3493 TriUF
5310 3493 TriUF
5310 3493 TriUF
5310 3493 TriUF
5313 3493 TriUF
5316 3493 TriUF
5320 3493 TriUF
5323 3493 TriUF
5323 3493 TriUF
5323 3493 TriUF
5323 3493 TriUF
5323 3493 TriUF
5323 3493 TriUF
5332 3493 TriUF
5345 3493 TriUF
5345 3493 TriUF
5345 3493 TriUF
5345 3493 TriUF
5345 3493 TriUF
5345 3493 TriUF
5348 3498 TriUF
5351 3493 TriUF
5357 3494 TriUF
5367 5230 TriUF
5386 3493 TriUF
5386 3493 TriUF
5386 3493 TriUF
5386 3493 TriUF
5386 3493 TriUF
5386 3493 TriUF
5395 3493 TriUF
5474 3493 TriUF
5477 4574 TriUF
5480 3493 TriUF
5603 3493 TriUF
5616 3494 TriUF
5830 4021 TriUF
5830 4173 TriUF
6044 3494 TriUF
6044 3494 TriUF
6113 3703 TriUF
6132 3504 TriUF
6167 3702 TriUF
6296 3496 TriUF
6406 4477 TriUF
6523 3496 TriUF
6601 3493 TriUF
6633 3494 TriUF
7105 4608 TriUF
7175 4305 TriUF
7234 3493 TriUF
7234 3496 TriUF
7234 3497 TriUF
7238 3504 TriUF
7238 3505 TriUF
7244 3494 TriUF
7244 3494 TriUF
7244 3500 TriUF
7244 4082 TriUF
7247 3495 TriUF
7272 3503 TriUF
7272 3505 TriUF
7275 3495 TriUF
7285 3499 TriUF
7294 3494 TriUF
7301 3494 TriUF
7301 3495 TriUF
7310 3497 TriUF
7332 3496 TriUF
7395 6243 TriUF
7395 6307 TriUF
7411 5919 TriUF
7666 3706 TriUF
7811 3496 TriUF
7836 6532 TriUF
7842 5728 TriUF
8079 3494 TriUF
8079 3500 TriUF
8079 3501 TriUF
8079 3500 TriUF
8164 5945 TriUF
8173 3495 TriUF
8173 5540 TriUF
8201 3935 TriUF
8258 3555 TriUF
8258 3555 TriUF
8302 5919 TriUF
8356 3495 TriUF
8359 4167 TriUF
8365 3687 TriUF
8422 3503 TriUF
8428 3494 TriUF
8428 3495 TriUF
8504 4579 TriUF
8708 5168 TriUF
8819 3497 TriUF
9067 3499 TriUF
9071 3611 TriUF
9134 3495 TriUF
9134 3498 TriUF
9143 3493 TriUF
9143 3493 TriUF
9269 3494 TriUF
9269 3494 TriUF
9357 3494 TriUF
9370 4330 TriUF
9382 3496 TriUF
9565 4099 TriUF
9751 3494 TriUF
9779 5900 TriUF
9867 3494 TriUF
9899 3587 TriUF
9921 3503 TriUF
9921 4453 TriUF
9956 3494 TriUF
10050 5291 TriUF
10050 6232 TriUF
10082 4623 TriUF
10104 5357 TriUF
10400 4171 TriUF
10419 3494 TriUF
10431 3517 TriUF
10441 3496 TriUF
10441 3496 TriUF
10441 3497 TriUF
10441 3497 TriUF
10444 3494 TriUF
10475 3592 TriUF
10475 4877 TriUF
10576 3493 TriUF
10784 3494 TriUF
10837 4571 TriUF
10863 3507 TriUF
10863 3528 TriUF
10866 3495 TriUF
10866 3495 TriUF
10866 3508 TriUF
10866 3509 TriUF
10875 5057 TriUF
10907 3498 TriUF
10926 3494 TriUF
10926 3494 TriUF
10926 3494 TriUF
10926 3496 TriUF
11093 3494 TriUF
11127 4813 TriUF
11285 4903 TriUF
11285 5127 TriUF
11285 5243 TriUF
11285 5512 TriUF
11341 3558 TriUF
11360 4854 TriUF
11373 4382 TriUF
11376 3494 TriUF
11376 3495 TriUF
11376 3496 TriUF
11376 3497 TriUF
11376 3499 TriUF
11379 3495 TriUF
11379 3495 TriUF
11379 3496 TriUF
11379 4749 TriUF
11379 5749 TriUF
11489 3530 TriUF
11496 3499 TriUF
11496 3516 TriUF
11496 3517 TriUF
11505 3494 TriUF
11505 4321 TriUF
11568 3493 TriUF
11653 4649 TriUF
11763 3494 TriUF
11836 3494 TriUF
11836 3494 TriUF
11836 3494 TriUF
11836 3496 TriUF
11848 3494 TriUF
11848 3494 TriUF
11848 3495 TriUF
11848 3495 TriUF
11899 3537 TriUF
11918 3494 TriUF
11927 3496 TriUF
11927 3659 TriUF
11927 4188 TriUF
12015 5360 TriUF
12157 3508 TriUF
12157 3973 TriUF
12157 4366 TriUF
12208 4242 TriUF
12220 4089 TriUF
12289 3495 TriUF
12384 4075 TriUF
12403 3494 TriUF
12431 3495 TriUF
12504 3508 TriUF
12507 3506 TriUF
12576 3962 TriUF
12771 3494 TriUF
% End plot #1
1.000 UL
LTb
LCb setrgbcolor
1200 7049 N
0 -3556 V
12598 0 V
0 3556 V
-12598 0 V
Z stroke
1.000 UP
1.000 UL
LTb
LCb setrgbcolor
stroke
grestore
end
showpage
%%Page: 2 2
gnudict begin
gsave
doclip
50 50 translate
0.050 0.050 scale
0 setgray
newpath
(Times) findfont 200 scalefont setfont
BackgroundColor 0 lt 3 1 roll 0 lt exch 0 lt or or not {BackgroundColor C 1.000 0 0 14400.00 10080.00 BoxColFill} if
1.000 UL
LTb
LCb setrgbcolor
1.000 UL
LTa
LCa setrgbcolor
600 3408 M
12598 0 V
stroke
LTb
LCb setrgbcolor
600 3408 M
63 0 V
12535 0 R
-63 0 V
stroke
480 3408 M
[ [(Times) 200.0 0.0 true true 0 ( 0)]
] -66.7 MRshow
1.000 UL
LTb
LCb setrgbcolor
1.000 UL
LTa
LCa setrgbcolor
600 3863 M
12598 0 V
stroke
LTb
LCb setrgbcolor
600 3863 M
63 0 V
12535 0 R
-63 0 V
stroke
480 3863 M
[ [(Times) 200.0 0.0 true true 0 ( 20000)]
] -66.7 MRshow
1.000 UL
LTb
LCb setrgbcolor
1.000 UL
LTa
LCa setrgbcolor
600 4318 M
12598 0 V
stroke
LTb
LCb setrgbcolor
600 4318 M
63 0 V
12535 0 R
-63 0 V
stroke
480 4318 M
[ [(Times) 200.0 0.0 true true 0 ( 40000)]
] -66.7 MRshow
1.000 UL
LTb
LCb setrgbcolor
1.000 UL
LTa
LCa setrgbcolor
600 4773 M
12598 0 V
stroke
LTb
LCb setrgbcolor
600 4773 M
63 0 V
12535 0 R
-63 0 V
stroke
480 4773 M
[ [(Times) 200.0 0.0 true true 0 ( 60000)]
] -66.7 MRshow
1.000 UL
LTb
LCb setrgbcolor
1.000 UL
LTa
LCa setrgbcolor
600 5229 M
12598 0 V
stroke
LTb
LCb setrgbcolor
600 5229 M
63 0 V
12535 0 R
-63 0 V
stroke
480 5229 M
[ [(Times) 200.0 0.0 true true 0 ( 80000)]
] -66.7 MRshow
1.000 UL
LTb
LCb setrgbcolor
1.000 UL
LTa
LCa setrgbcolor
600 5684 M
12598 0 V
stroke
LTb
LCb setrgbcolor
600 5684 M
63 0 V
12535 0 R
-63 0 V
stroke
480 5684 M
[ [(Times) 200.0 0.0 true true 0 ( 100000)]
] -66.7 MRshow
1.000 UL
LTb
LCb setrgbcolor
1.000 UL
LTa
LCa setrgbcolor
600 6139 M
12598 0 V
stroke
LTb
LCb setrgbcolor
600 6139 M
63 0 V
12535 0 R
-63 0 V
stroke
480 6139 M
[ [(Times) 200.0 0.0 true true 0 ( 120000)]
] -66.7 MRshow
1.000 UL
LTb
LCb setrgbcolor
1.000 UL
LTa
LCa setrgbcolor
600 6594 M
12598 0 V
stroke
LTb
LCb setrgbcolor
600 6594 M
63 0 V
12535 0 R
-63 0 V
stroke
480 6594 M
[ [(Times) 200.0 0.0 true true 0 ( 140000)]
] -66.7 MRshow
1.000 UL
LTb
LCb setrgbcolor
1.000 UL
LTa
LCa setrgbcolor
600 7049 M
12598 0 V
stroke
LTb
LCb setrgbcolor
600 7049 M
63 0 V
12535 0 R
-63 0 V
stroke
480 7049 M
[ [(Times) 200.0 0.0 true true 0 ( 160000)]
] -66.7 MRshow
1.000 UL
LTb
LCb setrgbcolor
1.000 UL
LTa
LCa setrgbcolor
600 3408 M
0 3641 V
stroke
LTb
LCb setrgbcolor
600 3408 M
0 63 V
0 3578 R
0 -63 V
stroke
600 3288 M
currentpoint gsave translate -45 rotate 0 0 moveto
[ [(Times) 200.0 0.0 true true 0 ( 0)]
] -66.7 MLshow
grestore
1.000 UL
LTb
LCb setrgbcolor
1.000 UL
LTa
LCa setrgbcolor
2000 3408 M
0 3641 V
stroke
LTb
LCb setrgbcolor
2000 3408 M
0 63 V
0 3578 R
0 -63 V
stroke
2000 3288 M
currentpoint gsave translate -45 rotate 0 0 moveto
[ [(Times) 200.0 0.0 true true 0 ( 50)]
] -66.7 MLshow
grestore
1.000 UL
LTb
LCb setrgbcolor
1.000 UL
LTa
LCa setrgbcolor
3400 3408 M
0 3641 V
stroke
LTb
LCb setrgbcolor
3400 3408 M
0 63 V
0 3578 R
0 -63 V
stroke
3400 3288 M
currentpoint gsave translate -45 rotate 0 0 moveto
[ [(Times) 200.0 0.0 true true 0 ( 100)]
] -66.7 MLshow
grestore
1.000 UL
LTb
LCb setrgbcolor
1.000 UL
LTa
LCa setrgbcolor
4799 3408 M
0 3641 V
stroke
LTb
LCb setrgbcolor
4799 3408 M
0 63 V
0 3578 R
0 -63 V
stroke
4799 3288 M
currentpoint gsave translate -45 rotate 0 0 moveto
[ [(Times) 200.0 0.0 true true 0 ( 150)]
] -66.7 MLshow
grestore
1.000 UL
LTb
LCb setrgbcolor
1.000 UL
LTa
LCa setrgbcolor
6199 3408 M
0 3641 V
stroke
LTb
LCb setrgbcolor
6199 3408 M
0 63 V
0 3578 R
0 -63 V
stroke
6199 3288 M
currentpoint gsave translate -45 rotate 0 0 moveto
[ [(Times) 200.0 0.0 true true 0 ( 200)]
] -66.7 MLshow
grestore
1.000 UL
LTb
LCb setrgbcolor
1.000 UL
LTa
LCa setrgbcolor
7599 3408 M
0 3641 V
stroke
LTb
LCb setrgbcolor
7599 3408 M
0 63 V
0 3578 R
0 -63 V
stroke
7599 3288 M
currentpoint gsave translate -45 rotate 0 0 moveto
[ [(Times) 200.0 0.0 true true 0 ( 250)]
] -66.7 MLshow
grestore
1.000 UL
LTb
LCb setrgbcolor
1.000 UL
LTa
LCa setrgbcolor
8999 3408 M
0 3641 V
stroke
LTb
LCb setrgbcolor
8999 3408 M
0 63 V
0 3578 R
0 -63 V
stroke
8999 3288 M
currentpoint gsave translate -45 rotate 0 0 moveto
[ [(Times) 200.0 0.0 true true 0 ( 300)]
] -66.7 MLshow
grestore
1.000 UL
LTb
LCb setrgbcolor
1.000 UL
LTa
LCa setrgbcolor
10398 3408 M
0 3641 V
stroke
LTb
LCb setrgbcolor
10398 3408 M
0 63 V
0 3578 R
0 -63 V
stroke
10398 3288 M
currentpoint gsave translate -45 rotate 0 0 moveto
[ [(Times) 200.0 0.0 true true 0 ( 350)]
] -66.7 MLshow
grestore
1.000 UL
LTb
LCb setrgbcolor
1.000 UL
LTa
LCa setrgbcolor
11798 3408 M
0 3641 V
stroke
LTb
LCb setrgbcolor
11798 3408 M
0 63 V
0 3578 R
0 -63 V
stroke
11798 3288 M
currentpoint gsave translate -45 rotate 0 0 moveto
[ [(Times) 200.0 0.0 true true 0 ( 400)]
] -66.7 MLshow
grestore
1.000 UL
LTb
LCb setrgbcolor
1.000 UL
LTa
LCa setrgbcolor
13198 3408 M
0 3641 V
stroke
LTb
LCb setrgbcolor
13198 3408 M
0 63 V
0 3578 R
0 -63 V
stroke
13198 3288 M
currentpoint gsave translate -45 rotate 0 0 moveto
[ [(Times) 200.0 0.0 true true 0 ( 450)]
] -66.7 MLshow
grestore
1.000 UL
LTb
LCb setrgbcolor
1.000 UL
LTb
LCb setrgbcolor
600 7049 N
0 -3641 V
12598 0 V
0 3641 V
600 7049 L
Z stroke
LCb setrgbcolor
-580 5228 M
currentpoint gsave translate -270 rotate 0 0 moveto
[ [(Times) 200.0 0.0 true true 0 (Flow size [bytes])]
] -66.7 MCshow
grestore
LTb
LCb setrgbcolor
6899 2769 M
[ [(Times) 200.0 0.0 true true 0 (Duration [sec])]
] -66.7 MCshow
LTb
6899 7349 M
[ [(Times) 200.0 0.0 true true 0 (src port 80, repeating connections sorted by duration)]
] -66.7 MCshow
1.000 UP
1.000 UL
LTb
LCb setrgbcolor
1.000 UL
LT8
LC8 setrgbcolor
6508 63 N
782 0 V
-782 0 V
Z stroke
% Begin plot #1
1.000 UP
1.000 UL
LT8
1.00 0.00 0.00 C 600 3409 TriUF
600 3409 TriUF
600 3409 TriUF
600 3409 TriUF
600 3409 TriUF
600 3409 TriUF
600 3409 TriUF
600 3409 TriUF
600 3409 TriUF
600 3409 TriUF
600 3409 TriUF
600 3409 TriUF
600 3409 TriUF
600 3409 TriUF
600 3409 TriUF
600 3409 TriUF
600 3409 TriUF
600 3409 TriUF
600 3409 TriUF
600 3409 TriUF
600 3409 TriUF
600 3409 TriUF
600 3409 TriUF
600 3409 TriUF
600 3409 TriUF
600 3409 TriUF
600 3409 TriUF
600 3409 TriUF
600 3409 TriUF
600 3409 TriUF
600 3409 TriUF
600 3409 TriUF
600 3409 TriUF
600 3409 TriUF
600 3409 TriUF
600 3409 TriUF
600 3409 TriUF
600 3409 TriUF
600 3409 TriUF
600 3409 TriUF
600 3409 TriUF
600 3409 TriUF
600 3409 TriUF
600 3409 TriUF
600 3409 TriUF
600 3409 TriUF
600 3409 TriUF
600 3409 TriUF
600 3409 TriUF
600 3409 TriUF
600 3409 TriUF
600 3409 TriUF
600 3409 TriUF
600 3409 TriUF
600 3409 TriUF
600 3409 TriUF
600 3409 TriUF
600 3409 TriUF
600 3409 TriUF
601 3523 TriUF
601 3507 TriUF
601 3513 TriUF
601 3536 TriUF
601 3600 TriUF
601 3576 TriUF
602 3717 TriUF
602 3586 TriUF
602 3644 TriUF
602 3538 TriUF
602 3923 TriUF
602 3871 TriUF
602 3708 TriUF
602 3470 TriUF
602 3654 TriUF
602 3570 TriUF
602 3552 TriUF
602 3553 TriUF
602 3544 TriUF
602 3608 TriUF
602 3591 TriUF
602 3550 TriUF
602 3666 TriUF
602 3667 TriUF
603 3525 TriUF
603 3843 TriUF
603 3618 TriUF
603 3683 TriUF
603 3919 TriUF
603 3534 TriUF
603 3683 TriUF
603 3572 TriUF
603 3591 TriUF
604 3556 TriUF
604 3545 TriUF
604 3569 TriUF
604 3593 TriUF
604 3613 TriUF
604 3606 TriUF
604 4309 TriUF
604 3558 TriUF
604 3497 TriUF
604 3491 TriUF
604 3540 TriUF
605 3667 TriUF
605 3659 TriUF
605 3558 TriUF
605 3627 TriUF
605 3586 TriUF
605 5007 TriUF
605 3597 TriUF
605 3651 TriUF
605 3658 TriUF
605 3529 TriUF
605 3632 TriUF
605 3576 TriUF
606 3525 TriUF
606 3708 TriUF
606 3769 TriUF
606 3609 TriUF
606 3847 TriUF
606 3678 TriUF
606 3728 TriUF
606 3592 TriUF
607 4463 TriUF
607 4104 TriUF
607 4034 TriUF
607 3757 TriUF
607 3557 TriUF
607 3649 TriUF
607 3858 TriUF
608 3598 TriUF
608 3813 TriUF
608 3599 TriUF
609 3765 TriUF
609 4257 TriUF
610 3612 TriUF
610 3545 TriUF
610 3613 TriUF
610 3683 TriUF
610 3924 TriUF
610 5178 TriUF
610 3587 TriUF
611 3642 TriUF
611 3696 TriUF
611 3629 TriUF
611 3506 TriUF
612 3598 TriUF
612 3534 TriUF
612 3895 TriUF
612 3558 TriUF
613 3699 TriUF
614 3642 TriUF
614 3866 TriUF
614 4455 TriUF
615 4032 TriUF
615 3608 TriUF
615 3548 TriUF
616 5734 TriUF
616 4164 TriUF
617 3552 TriUF
620 4169 TriUF
620 4015 TriUF
621 3853 TriUF
621 3836 TriUF
625 3473 TriUF
625 3484 TriUF
626 4163 TriUF
630 3569 TriUF
631 3655 TriUF
634 3752 TriUF
636 3633 TriUF
637 3914 TriUF
637 3584 TriUF
640 5458 TriUF
640 3767 TriUF
641 4017 TriUF
643 3936 TriUF
647 3548 TriUF
648 3815 TriUF
652 4095 TriUF
653 3668 TriUF
654 3549 TriUF
656 3832 TriUF
683 3904 TriUF
685 4368 TriUF
686 4142 TriUF
696 3538 TriUF
696 3763 TriUF
696 3570 TriUF
696 3515 TriUF
696 3581 TriUF
697 3578 TriUF
704 3548 TriUF
704 3648 TriUF
704 3688 TriUF
704 3646 TriUF
704 3590 TriUF
704 3643 TriUF
705 3641 TriUF
705 3653 TriUF
705 3613 TriUF
725 4096 TriUF
730 3898 TriUF
756 4162 TriUF
777 3649 TriUF
821 3480 TriUF
821 3481 TriUF
830 3596 TriUF
934 4136 TriUF
950 4484 TriUF
969 3631 TriUF
975 4913 TriUF
1018 3553 TriUF
1111 3482 TriUF
1159 3740 TriUF
1181 4301 TriUF
1189 3634 TriUF
1287 4591 TriUF
1299 6279 TriUF
1339 3671 TriUF
1344 3722 TriUF
1354 3586 TriUF
1358 5043 TriUF
1436 3763 TriUF
1573 3756 TriUF
1712 4701 TriUF
1958 4000 TriUF
2167 3782 TriUF
2262 3668 TriUF
2300 5083 TriUF
2470 3700 TriUF
2512 3474 TriUF
2517 3525 TriUF
2662 3676 TriUF
2686 3953 TriUF
2710 4165 TriUF
2746 3526 TriUF
2818 3734 TriUF
2937 3731 TriUF
2986 3917 TriUF
3002 5325 TriUF
3011 3818 TriUF
3063 4170 TriUF
3254 4718 TriUF
3358 5624 TriUF
3477 4468 TriUF
3534 3938 TriUF
3564 3728 TriUF
3694 3746 TriUF
3749 3680 TriUF
4001 3538 TriUF
4085 4189 TriUF
4151 4033 TriUF
4152 3900 TriUF
4316 4861 TriUF
4420 3939 TriUF
4430 5418 TriUF
4447 3885 TriUF
4550 4207 TriUF
4605 3686 TriUF
4695 3542 TriUF
4800 4206 TriUF
5048 3464 TriUF
5277 3878 TriUF
5423 4383 TriUF
5503 3775 TriUF
5597 3471 TriUF
6139 4155 TriUF
6388 3652 TriUF
6533 4930 TriUF
6753 3517 TriUF
6800 4212 TriUF
6969 3618 TriUF
7020 3695 TriUF
7205 4170 TriUF
7214 3985 TriUF
7752 4500 TriUF
7851 3980 TriUF
8408 3967 TriUF
8518 6999 TriUF
8591 3649 TriUF
9129 3485 TriUF
9163 3475 TriUF
9193 3475 TriUF
9196 3474 TriUF
9287 3482 TriUF
9616 3809 TriUF
9754 3939 TriUF
10304 3599 TriUF
10342 3602 TriUF
10522 4118 TriUF
10523 4232 TriUF
10569 3635 TriUF
10835 3602 TriUF
11366 6377 TriUF
12105 3844 TriUF
% End plot #1
1.000 UL
LTb
LCb setrgbcolor
600 7049 N
0 -3641 V
12598 0 V
0 3641 V
600 7049 L
Z stroke
1.000 UP
1.000 UL
LTb
LCb setrgbcolor
stroke
grestore
end
showpage
%%Trailer
%%DocumentFonts: Times
