%!PS-Adobe-2.0 EPSF-2.0
%%Title: repeating_conn_1375810740_191844413.eps
%%Creator: gnuplot 4.6 patchlevel 2
%%CreationDate: Tue Apr  8 12:44:24 2014
%%DocumentFonts: (atend)
%%BoundingBox: 50 50 770 554
%%EndComments
%%BeginProlog
/gnudict 256 dict def
gnudict begin
%
% The following true/false flags may be edited by hand if desired.
% The unit line width and grayscale image gamma correction may also be changed.
%
/Color true def
/Blacktext false def
/Solid false def
/Dashlength 1 def
/Landscape false def
/Level1 false def
/Rounded false def
/ClipToBoundingBox false def
/SuppressPDFMark false def
/TransparentPatterns false def
/gnulinewidth 5.000 def
/userlinewidth gnulinewidth def
/Gamma 1.0 def
/BackgroundColor {-1.000 -1.000 -1.000} def
%
/vshift -66 def
/dl1 {
  10.0 Dashlength mul mul
  Rounded { currentlinewidth 0.75 mul sub dup 0 le { pop 0.01 } if } if
} def
/dl2 {
  10.0 Dashlength mul mul
  Rounded { currentlinewidth 0.75 mul add } if
} def
/hpt_ 31.5 def
/vpt_ 31.5 def
/hpt hpt_ def
/vpt vpt_ def
/doclip {
  ClipToBoundingBox {
    newpath 50 50 moveto 770 50 lineto 770 554 lineto 50 554 lineto closepath
    clip
  } if
} def
%
% Gnuplot Prolog Version 4.6 (September 2012)
%
%/SuppressPDFMark true def
%
/M {moveto} bind def
/L {lineto} bind def
/R {rmoveto} bind def
/V {rlineto} bind def
/N {newpath moveto} bind def
/Z {closepath} bind def
/C {setrgbcolor} bind def
/f {rlineto fill} bind def
/g {setgray} bind def
/Gshow {show} def   % May be redefined later in the file to support UTF-8
/vpt2 vpt 2 mul def
/hpt2 hpt 2 mul def
/Lshow {currentpoint stroke M 0 vshift R 
	Blacktext {gsave 0 setgray show grestore} {show} ifelse} def
/Rshow {currentpoint stroke M dup stringwidth pop neg vshift R
	Blacktext {gsave 0 setgray show grestore} {show} ifelse} def
/Cshow {currentpoint stroke M dup stringwidth pop -2 div vshift R 
	Blacktext {gsave 0 setgray show grestore} {show} ifelse} def
/UP {dup vpt_ mul /vpt exch def hpt_ mul /hpt exch def
  /hpt2 hpt 2 mul def /vpt2 vpt 2 mul def} def
/DL {Color {setrgbcolor Solid {pop []} if 0 setdash}
 {pop pop pop 0 setgray Solid {pop []} if 0 setdash} ifelse} def
/BL {stroke userlinewidth 2 mul setlinewidth
	Rounded {1 setlinejoin 1 setlinecap} if} def
/AL {stroke userlinewidth 2 div setlinewidth
	Rounded {1 setlinejoin 1 setlinecap} if} def
/UL {dup gnulinewidth mul /userlinewidth exch def
	dup 1 lt {pop 1} if 10 mul /udl exch def} def
/PL {stroke userlinewidth setlinewidth
	Rounded {1 setlinejoin 1 setlinecap} if} def
3.8 setmiterlimit
% Default Line colors
/LCw {1 1 1} def
/LCb {0 0 0} def
/LCa {0 0 0} def
/LC0 {1 0 0} def
/LC1 {0 1 0} def
/LC2 {0 0 1} def
/LC3 {1 0 1} def
/LC4 {0 1 1} def
/LC5 {1 1 0} def
/LC6 {0 0 0} def
/LC7 {1 0.3 0} def
/LC8 {0.5 0.5 0.5} def
% Default Line Types
/LTw {PL [] 1 setgray} def
/LTb {BL [] LCb DL} def
/LTa {AL [1 udl mul 2 udl mul] 0 setdash LCa setrgbcolor} def
/LT0 {PL [] LC0 DL} def
/LT1 {PL [4 dl1 2 dl2] LC1 DL} def
/LT2 {PL [2 dl1 3 dl2] LC2 DL} def
/LT3 {PL [1 dl1 1.5 dl2] LC3 DL} def
/LT4 {PL [6 dl1 2 dl2 1 dl1 2 dl2] LC4 DL} def
/LT5 {PL [3 dl1 3 dl2 1 dl1 3 dl2] LC5 DL} def
/LT6 {PL [2 dl1 2 dl2 2 dl1 6 dl2] LC6 DL} def
/LT7 {PL [1 dl1 2 dl2 6 dl1 2 dl2 1 dl1 2 dl2] LC7 DL} def
/LT8 {PL [2 dl1 2 dl2 2 dl1 2 dl2 2 dl1 2 dl2 2 dl1 4 dl2] LC8 DL} def
/Pnt {stroke [] 0 setdash gsave 1 setlinecap M 0 0 V stroke grestore} def
/Dia {stroke [] 0 setdash 2 copy vpt add M
  hpt neg vpt neg V hpt vpt neg V
  hpt vpt V hpt neg vpt V closepath stroke
  Pnt} def
/Pls {stroke [] 0 setdash vpt sub M 0 vpt2 V
  currentpoint stroke M
  hpt neg vpt neg R hpt2 0 V stroke
 } def
/Box {stroke [] 0 setdash 2 copy exch hpt sub exch vpt add M
  0 vpt2 neg V hpt2 0 V 0 vpt2 V
  hpt2 neg 0 V closepath stroke
  Pnt} def
/Crs {stroke [] 0 setdash exch hpt sub exch vpt add M
  hpt2 vpt2 neg V currentpoint stroke M
  hpt2 neg 0 R hpt2 vpt2 V stroke} def
/TriU {stroke [] 0 setdash 2 copy vpt 1.12 mul add M
  hpt neg vpt -1.62 mul V
  hpt 2 mul 0 V
  hpt neg vpt 1.62 mul V closepath stroke
  Pnt} def
/Star {2 copy Pls Crs} def
/BoxF {stroke [] 0 setdash exch hpt sub exch vpt add M
  0 vpt2 neg V hpt2 0 V 0 vpt2 V
  hpt2 neg 0 V closepath fill} def
/TriUF {stroke [] 0 setdash vpt 1.12 mul add M
  hpt neg vpt -1.62 mul V
  hpt 2 mul 0 V
  hpt neg vpt 1.62 mul V closepath fill} def
/TriD {stroke [] 0 setdash 2 copy vpt 1.12 mul sub M
  hpt neg vpt 1.62 mul V
  hpt 2 mul 0 V
  hpt neg vpt -1.62 mul V closepath stroke
  Pnt} def
/TriDF {stroke [] 0 setdash vpt 1.12 mul sub M
  hpt neg vpt 1.62 mul V
  hpt 2 mul 0 V
  hpt neg vpt -1.62 mul V closepath fill} def
/DiaF {stroke [] 0 setdash vpt add M
  hpt neg vpt neg V hpt vpt neg V
  hpt vpt V hpt neg vpt V closepath fill} def
/Pent {stroke [] 0 setdash 2 copy gsave
  translate 0 hpt M 4 {72 rotate 0 hpt L} repeat
  closepath stroke grestore Pnt} def
/PentF {stroke [] 0 setdash gsave
  translate 0 hpt M 4 {72 rotate 0 hpt L} repeat
  closepath fill grestore} def
/Circle {stroke [] 0 setdash 2 copy
  hpt 0 360 arc stroke Pnt} def
/CircleF {stroke [] 0 setdash hpt 0 360 arc fill} def
/C0 {BL [] 0 setdash 2 copy moveto vpt 90 450 arc} bind def
/C1 {BL [] 0 setdash 2 copy moveto
	2 copy vpt 0 90 arc closepath fill
	vpt 0 360 arc closepath} bind def
/C2 {BL [] 0 setdash 2 copy moveto
	2 copy vpt 90 180 arc closepath fill
	vpt 0 360 arc closepath} bind def
/C3 {BL [] 0 setdash 2 copy moveto
	2 copy vpt 0 180 arc closepath fill
	vpt 0 360 arc closepath} bind def
/C4 {BL [] 0 setdash 2 copy moveto
	2 copy vpt 180 270 arc closepath fill
	vpt 0 360 arc closepath} bind def
/C5 {BL [] 0 setdash 2 copy moveto
	2 copy vpt 0 90 arc
	2 copy moveto
	2 copy vpt 180 270 arc closepath fill
	vpt 0 360 arc} bind def
/C6 {BL [] 0 setdash 2 copy moveto
	2 copy vpt 90 270 arc closepath fill
	vpt 0 360 arc closepath} bind def
/C7 {BL [] 0 setdash 2 copy moveto
	2 copy vpt 0 270 arc closepath fill
	vpt 0 360 arc closepath} bind def
/C8 {BL [] 0 setdash 2 copy moveto
	2 copy vpt 270 360 arc closepath fill
	vpt 0 360 arc closepath} bind def
/C9 {BL [] 0 setdash 2 copy moveto
	2 copy vpt 270 450 arc closepath fill
	vpt 0 360 arc closepath} bind def
/C10 {BL [] 0 setdash 2 copy 2 copy moveto vpt 270 360 arc closepath fill
	2 copy moveto
	2 copy vpt 90 180 arc closepath fill
	vpt 0 360 arc closepath} bind def
/C11 {BL [] 0 setdash 2 copy moveto
	2 copy vpt 0 180 arc closepath fill
	2 copy moveto
	2 copy vpt 270 360 arc closepath fill
	vpt 0 360 arc closepath} bind def
/C12 {BL [] 0 setdash 2 copy moveto
	2 copy vpt 180 360 arc closepath fill
	vpt 0 360 arc closepath} bind def
/C13 {BL [] 0 setdash 2 copy moveto
	2 copy vpt 0 90 arc closepath fill
	2 copy moveto
	2 copy vpt 180 360 arc closepath fill
	vpt 0 360 arc closepath} bind def
/C14 {BL [] 0 setdash 2 copy moveto
	2 copy vpt 90 360 arc closepath fill
	vpt 0 360 arc} bind def
/C15 {BL [] 0 setdash 2 copy vpt 0 360 arc closepath fill
	vpt 0 360 arc closepath} bind def
/Rec {newpath 4 2 roll moveto 1 index 0 rlineto 0 exch rlineto
	neg 0 rlineto closepath} bind def
/Square {dup Rec} bind def
/Bsquare {vpt sub exch vpt sub exch vpt2 Square} bind def
/S0 {BL [] 0 setdash 2 copy moveto 0 vpt rlineto BL Bsquare} bind def
/S1 {BL [] 0 setdash 2 copy vpt Square fill Bsquare} bind def
/S2 {BL [] 0 setdash 2 copy exch vpt sub exch vpt Square fill Bsquare} bind def
/S3 {BL [] 0 setdash 2 copy exch vpt sub exch vpt2 vpt Rec fill Bsquare} bind def
/S4 {BL [] 0 setdash 2 copy exch vpt sub exch vpt sub vpt Square fill Bsquare} bind def
/S5 {BL [] 0 setdash 2 copy 2 copy vpt Square fill
	exch vpt sub exch vpt sub vpt Square fill Bsquare} bind def
/S6 {BL [] 0 setdash 2 copy exch vpt sub exch vpt sub vpt vpt2 Rec fill Bsquare} bind def
/S7 {BL [] 0 setdash 2 copy exch vpt sub exch vpt sub vpt vpt2 Rec fill
	2 copy vpt Square fill Bsquare} bind def
/S8 {BL [] 0 setdash 2 copy vpt sub vpt Square fill Bsquare} bind def
/S9 {BL [] 0 setdash 2 copy vpt sub vpt vpt2 Rec fill Bsquare} bind def
/S10 {BL [] 0 setdash 2 copy vpt sub vpt Square fill 2 copy exch vpt sub exch vpt Square fill
	Bsquare} bind def
/S11 {BL [] 0 setdash 2 copy vpt sub vpt Square fill 2 copy exch vpt sub exch vpt2 vpt Rec fill
	Bsquare} bind def
/S12 {BL [] 0 setdash 2 copy exch vpt sub exch vpt sub vpt2 vpt Rec fill Bsquare} bind def
/S13 {BL [] 0 setdash 2 copy exch vpt sub exch vpt sub vpt2 vpt Rec fill
	2 copy vpt Square fill Bsquare} bind def
/S14 {BL [] 0 setdash 2 copy exch vpt sub exch vpt sub vpt2 vpt Rec fill
	2 copy exch vpt sub exch vpt Square fill Bsquare} bind def
/S15 {BL [] 0 setdash 2 copy Bsquare fill Bsquare} bind def
/D0 {gsave translate 45 rotate 0 0 S0 stroke grestore} bind def
/D1 {gsave translate 45 rotate 0 0 S1 stroke grestore} bind def
/D2 {gsave translate 45 rotate 0 0 S2 stroke grestore} bind def
/D3 {gsave translate 45 rotate 0 0 S3 stroke grestore} bind def
/D4 {gsave translate 45 rotate 0 0 S4 stroke grestore} bind def
/D5 {gsave translate 45 rotate 0 0 S5 stroke grestore} bind def
/D6 {gsave translate 45 rotate 0 0 S6 stroke grestore} bind def
/D7 {gsave translate 45 rotate 0 0 S7 stroke grestore} bind def
/D8 {gsave translate 45 rotate 0 0 S8 stroke grestore} bind def
/D9 {gsave translate 45 rotate 0 0 S9 stroke grestore} bind def
/D10 {gsave translate 45 rotate 0 0 S10 stroke grestore} bind def
/D11 {gsave translate 45 rotate 0 0 S11 stroke grestore} bind def
/D12 {gsave translate 45 rotate 0 0 S12 stroke grestore} bind def
/D13 {gsave translate 45 rotate 0 0 S13 stroke grestore} bind def
/D14 {gsave translate 45 rotate 0 0 S14 stroke grestore} bind def
/D15 {gsave translate 45 rotate 0 0 S15 stroke grestore} bind def
/DiaE {stroke [] 0 setdash vpt add M
  hpt neg vpt neg V hpt vpt neg V
  hpt vpt V hpt neg vpt V closepath stroke} def
/BoxE {stroke [] 0 setdash exch hpt sub exch vpt add M
  0 vpt2 neg V hpt2 0 V 0 vpt2 V
  hpt2 neg 0 V closepath stroke} def
/TriUE {stroke [] 0 setdash vpt 1.12 mul add M
  hpt neg vpt -1.62 mul V
  hpt 2 mul 0 V
  hpt neg vpt 1.62 mul V closepath stroke} def
/TriDE {stroke [] 0 setdash vpt 1.12 mul sub M
  hpt neg vpt 1.62 mul V
  hpt 2 mul 0 V
  hpt neg vpt -1.62 mul V closepath stroke} def
/PentE {stroke [] 0 setdash gsave
  translate 0 hpt M 4 {72 rotate 0 hpt L} repeat
  closepath stroke grestore} def
/CircE {stroke [] 0 setdash 
  hpt 0 360 arc stroke} def
/Opaque {gsave closepath 1 setgray fill grestore 0 setgray closepath} def
/DiaW {stroke [] 0 setdash vpt add M
  hpt neg vpt neg V hpt vpt neg V
  hpt vpt V hpt neg vpt V Opaque stroke} def
/BoxW {stroke [] 0 setdash exch hpt sub exch vpt add M
  0 vpt2 neg V hpt2 0 V 0 vpt2 V
  hpt2 neg 0 V Opaque stroke} def
/TriUW {stroke [] 0 setdash vpt 1.12 mul add M
  hpt neg vpt -1.62 mul V
  hpt 2 mul 0 V
  hpt neg vpt 1.62 mul V Opaque stroke} def
/TriDW {stroke [] 0 setdash vpt 1.12 mul sub M
  hpt neg vpt 1.62 mul V
  hpt 2 mul 0 V
  hpt neg vpt -1.62 mul V Opaque stroke} def
/PentW {stroke [] 0 setdash gsave
  translate 0 hpt M 4 {72 rotate 0 hpt L} repeat
  Opaque stroke grestore} def
/CircW {stroke [] 0 setdash 
  hpt 0 360 arc Opaque stroke} def
/BoxFill {gsave Rec 1 setgray fill grestore} def
/Density {
  /Fillden exch def
  currentrgbcolor
  /ColB exch def /ColG exch def /ColR exch def
  /ColR ColR Fillden mul Fillden sub 1 add def
  /ColG ColG Fillden mul Fillden sub 1 add def
  /ColB ColB Fillden mul Fillden sub 1 add def
  ColR ColG ColB setrgbcolor} def
/BoxColFill {gsave Rec PolyFill} def
/PolyFill {gsave Density fill grestore grestore} def
/h {rlineto rlineto rlineto gsave closepath fill grestore} bind def
%
% PostScript Level 1 Pattern Fill routine for rectangles
% Usage: x y w h s a XX PatternFill
%	x,y = lower left corner of box to be filled
%	w,h = width and height of box
%	  a = angle in degrees between lines and x-axis
%	 XX = 0/1 for no/yes cross-hatch
%
/PatternFill {gsave /PFa [ 9 2 roll ] def
  PFa 0 get PFa 2 get 2 div add PFa 1 get PFa 3 get 2 div add translate
  PFa 2 get -2 div PFa 3 get -2 div PFa 2 get PFa 3 get Rec
  TransparentPatterns {} {gsave 1 setgray fill grestore} ifelse
  clip
  currentlinewidth 0.5 mul setlinewidth
  /PFs PFa 2 get dup mul PFa 3 get dup mul add sqrt def
  0 0 M PFa 5 get rotate PFs -2 div dup translate
  0 1 PFs PFa 4 get div 1 add floor cvi
	{PFa 4 get mul 0 M 0 PFs V} for
  0 PFa 6 get ne {
	0 1 PFs PFa 4 get div 1 add floor cvi
	{PFa 4 get mul 0 2 1 roll M PFs 0 V} for
 } if
  stroke grestore} def
%
/languagelevel where
 {pop languagelevel} {1} ifelse
 2 lt
	{/InterpretLevel1 true def}
	{/InterpretLevel1 Level1 def}
 ifelse
%
% PostScript level 2 pattern fill definitions
%
/Level2PatternFill {
/Tile8x8 {/PaintType 2 /PatternType 1 /TilingType 1 /BBox [0 0 8 8] /XStep 8 /YStep 8}
	bind def
/KeepColor {currentrgbcolor [/Pattern /DeviceRGB] setcolorspace} bind def
<< Tile8x8
 /PaintProc {0.5 setlinewidth pop 0 0 M 8 8 L 0 8 M 8 0 L stroke} 
>> matrix makepattern
/Pat1 exch def
<< Tile8x8
 /PaintProc {0.5 setlinewidth pop 0 0 M 8 8 L 0 8 M 8 0 L stroke
	0 4 M 4 8 L 8 4 L 4 0 L 0 4 L stroke}
>> matrix makepattern
/Pat2 exch def
<< Tile8x8
 /PaintProc {0.5 setlinewidth pop 0 0 M 0 8 L
	8 8 L 8 0 L 0 0 L fill}
>> matrix makepattern
/Pat3 exch def
<< Tile8x8
 /PaintProc {0.5 setlinewidth pop -4 8 M 8 -4 L
	0 12 M 12 0 L stroke}
>> matrix makepattern
/Pat4 exch def
<< Tile8x8
 /PaintProc {0.5 setlinewidth pop -4 0 M 8 12 L
	0 -4 M 12 8 L stroke}
>> matrix makepattern
/Pat5 exch def
<< Tile8x8
 /PaintProc {0.5 setlinewidth pop -2 8 M 4 -4 L
	0 12 M 8 -4 L 4 12 M 10 0 L stroke}
>> matrix makepattern
/Pat6 exch def
<< Tile8x8
 /PaintProc {0.5 setlinewidth pop -2 0 M 4 12 L
	0 -4 M 8 12 L 4 -4 M 10 8 L stroke}
>> matrix makepattern
/Pat7 exch def
<< Tile8x8
 /PaintProc {0.5 setlinewidth pop 8 -2 M -4 4 L
	12 0 M -4 8 L 12 4 M 0 10 L stroke}
>> matrix makepattern
/Pat8 exch def
<< Tile8x8
 /PaintProc {0.5 setlinewidth pop 0 -2 M 12 4 L
	-4 0 M 12 8 L -4 4 M 8 10 L stroke}
>> matrix makepattern
/Pat9 exch def
/Pattern1 {PatternBgnd KeepColor Pat1 setpattern} bind def
/Pattern2 {PatternBgnd KeepColor Pat2 setpattern} bind def
/Pattern3 {PatternBgnd KeepColor Pat3 setpattern} bind def
/Pattern4 {PatternBgnd KeepColor Landscape {Pat5} {Pat4} ifelse setpattern} bind def
/Pattern5 {PatternBgnd KeepColor Landscape {Pat4} {Pat5} ifelse setpattern} bind def
/Pattern6 {PatternBgnd KeepColor Landscape {Pat9} {Pat6} ifelse setpattern} bind def
/Pattern7 {PatternBgnd KeepColor Landscape {Pat8} {Pat7} ifelse setpattern} bind def
} def
%
%
%End of PostScript Level 2 code
%
/PatternBgnd {
  TransparentPatterns {} {gsave 1 setgray fill grestore} ifelse
} def
%
% Substitute for Level 2 pattern fill codes with
% grayscale if Level 2 support is not selected.
%
/Level1PatternFill {
/Pattern1 {0.250 Density} bind def
/Pattern2 {0.500 Density} bind def
/Pattern3 {0.750 Density} bind def
/Pattern4 {0.125 Density} bind def
/Pattern5 {0.375 Density} bind def
/Pattern6 {0.625 Density} bind def
/Pattern7 {0.875 Density} bind def
} def
%
% Now test for support of Level 2 code
%
Level1 {Level1PatternFill} {Level2PatternFill} ifelse
%
/Symbol-Oblique /Symbol findfont [1 0 .167 1 0 0] makefont
dup length dict begin {1 index /FID eq {pop pop} {def} ifelse} forall
currentdict end definefont pop
/MFshow {
   { dup 5 get 3 ge
     { 5 get 3 eq {gsave} {grestore} ifelse }
     {dup dup 0 get findfont exch 1 get scalefont setfont
     [ currentpoint ] exch dup 2 get 0 exch R dup 5 get 2 ne {dup dup 6
     get exch 4 get {Gshow} {stringwidth pop 0 R} ifelse }if dup 5 get 0 eq
     {dup 3 get {2 get neg 0 exch R pop} {pop aload pop M} ifelse} {dup 5
     get 1 eq {dup 2 get exch dup 3 get exch 6 get stringwidth pop -2 div
     dup 0 R} {dup 6 get stringwidth pop -2 div 0 R 6 get
     show 2 index {aload pop M neg 3 -1 roll neg R pop pop} {pop pop pop
     pop aload pop M} ifelse }ifelse }ifelse }
     ifelse }
   forall} def
/Gswidth {dup type /stringtype eq {stringwidth} {pop (n) stringwidth} ifelse} def
/MFwidth {0 exch { dup 5 get 3 ge { 5 get 3 eq { 0 } { pop } ifelse }
 {dup 3 get{dup dup 0 get findfont exch 1 get scalefont setfont
     6 get Gswidth pop add} {pop} ifelse} ifelse} forall} def
/MLshow { currentpoint stroke M
  0 exch R
  Blacktext {gsave 0 setgray MFshow grestore} {MFshow} ifelse } bind def
/MRshow { currentpoint stroke M
  exch dup MFwidth neg 3 -1 roll R
  Blacktext {gsave 0 setgray MFshow grestore} {MFshow} ifelse } bind def
/MCshow { currentpoint stroke M
  exch dup MFwidth -2 div 3 -1 roll R
  Blacktext {gsave 0 setgray MFshow grestore} {MFshow} ifelse } bind def
/XYsave    { [( ) 1 2 true false 3 ()] } bind def
/XYrestore { [( ) 1 2 true false 4 ()] } bind def
Level1 SuppressPDFMark or 
{} {
/SDict 10 dict def
systemdict /pdfmark known not {
  userdict /pdfmark systemdict /cleartomark get put
} if
SDict begin [
  /Title (repeating_conn_1375810740_191844413.eps)
  /Subject (gnuplot plot)
  /Creator (gnuplot 4.6 patchlevel 2)
  /Author (olgabo)
%  /Producer (gnuplot)
%  /Keywords ()
  /CreationDate (Tue Apr  8 12:44:24 2014)
  /DOCINFO pdfmark
end
} ifelse
end
%%EndProlog
%%Page: 1 1
gnudict begin
gsave
doclip
50 50 translate
0.050 0.050 scale
0 setgray
newpath
(Times) findfont 200 scalefont setfont
BackgroundColor 0 lt 3 1 roll 0 lt exch 0 lt or or not {BackgroundColor C 1.000 0 0 14400.00 10080.00 BoxColFill} if
1.000 UL
LTb
LCb setrgbcolor
1.000 UL
LTa
LCa setrgbcolor
1200 3493 M
12598 0 V
stroke
LTb
LCb setrgbcolor
1200 3493 M
63 0 V
12535 0 R
-63 0 V
stroke
1080 3493 M
[ [(Times) 200.0 0.0 true true 0 ( 0)]
] -66.7 MRshow
1.000 UL
LTb
LCb setrgbcolor
1.000 UL
LTa
LCa setrgbcolor
1200 3849 M
12598 0 V
stroke
LTb
LCb setrgbcolor
1200 3849 M
63 0 V
12535 0 R
-63 0 V
stroke
1080 3849 M
[ [(Times) 200.0 0.0 true true 0 ( 2)]
] -66.7 MRshow
1.000 UL
LTb
LCb setrgbcolor
1.000 UL
LTa
LCa setrgbcolor
1200 4204 M
12598 0 V
stroke
LTb
LCb setrgbcolor
1200 4204 M
63 0 V
12535 0 R
-63 0 V
stroke
1080 4204 M
[ [(Times) 200.0 0.0 true true 0 ( 4)]
] -66.7 MRshow
1.000 UL
LTb
LCb setrgbcolor
1.000 UL
LTa
LCa setrgbcolor
1200 4560 M
12598 0 V
stroke
LTb
LCb setrgbcolor
1200 4560 M
63 0 V
12535 0 R
-63 0 V
stroke
1080 4560 M
[ [(Times) 200.0 0.0 true true 0 ( 6)]
] -66.7 MRshow
1.000 UL
LTb
LCb setrgbcolor
1.000 UL
LTa
LCa setrgbcolor
1200 4915 M
12598 0 V
stroke
LTb
LCb setrgbcolor
1200 4915 M
63 0 V
12535 0 R
-63 0 V
stroke
1080 4915 M
[ [(Times) 200.0 0.0 true true 0 ( 8)]
] -66.7 MRshow
1.000 UL
LTb
LCb setrgbcolor
1.000 UL
LTa
LCa setrgbcolor
1200 5271 M
12598 0 V
stroke
LTb
LCb setrgbcolor
1200 5271 M
63 0 V
12535 0 R
-63 0 V
stroke
1080 5271 M
[ [(Times) 200.0 0.0 true true 0 ( 10)]
] -66.7 MRshow
1.000 UL
LTb
LCb setrgbcolor
1.000 UL
LTa
LCa setrgbcolor
1200 5627 M
12598 0 V
stroke
LTb
LCb setrgbcolor
1200 5627 M
63 0 V
12535 0 R
-63 0 V
stroke
1080 5627 M
[ [(Times) 200.0 0.0 true true 0 ( 12)]
] -66.7 MRshow
1.000 UL
LTb
LCb setrgbcolor
1.000 UL
LTa
LCa setrgbcolor
1200 5982 M
12598 0 V
stroke
LTb
LCb setrgbcolor
1200 5982 M
63 0 V
12535 0 R
-63 0 V
stroke
1080 5982 M
[ [(Times) 200.0 0.0 true true 0 ( 14)]
] -66.7 MRshow
1.000 UL
LTb
LCb setrgbcolor
1.000 UL
LTa
LCa setrgbcolor
1200 6338 M
12598 0 V
stroke
LTb
LCb setrgbcolor
1200 6338 M
63 0 V
12535 0 R
-63 0 V
stroke
1080 6338 M
[ [(Times) 200.0 0.0 true true 0 ( 16)]
] -66.7 MRshow
1.000 UL
LTb
LCb setrgbcolor
1.000 UL
LTa
LCa setrgbcolor
1200 6693 M
12598 0 V
stroke
LTb
LCb setrgbcolor
1200 6693 M
63 0 V
12535 0 R
-63 0 V
stroke
1080 6693 M
[ [(Times) 200.0 0.0 true true 0 ( 18)]
] -66.7 MRshow
1.000 UL
LTb
LCb setrgbcolor
1.000 UL
LTa
LCa setrgbcolor
1200 7049 M
12598 0 V
stroke
LTb
LCb setrgbcolor
1200 7049 M
63 0 V
12535 0 R
-63 0 V
stroke
1080 7049 M
[ [(Times) 200.0 0.0 true true 0 ( 20)]
] -66.7 MRshow
1.000 UL
LTb
LCb setrgbcolor
1.000 UL
LTa
LCa setrgbcolor
1200 3493 M
0 3556 V
stroke
LTb
LCb setrgbcolor
1200 3493 M
0 63 V
0 3493 R
0 -63 V
stroke
1200 3373 M
currentpoint gsave translate -45 rotate 0 0 moveto
[ [(Times) 200.0 0.0 true true 0 ( 0)]
] -66.7 MLshow
grestore
1.000 UL
LTb
LCb setrgbcolor
1.000 UL
LTa
LCa setrgbcolor
2775 3493 M
0 3556 V
stroke
LTb
LCb setrgbcolor
2775 3493 M
0 63 V
0 3493 R
0 -63 V
stroke
2775 3373 M
currentpoint gsave translate -45 rotate 0 0 moveto
[ [(Times) 200.0 0.0 true true 0 ( 500)]
] -66.7 MLshow
grestore
1.000 UL
LTb
LCb setrgbcolor
1.000 UL
LTa
LCa setrgbcolor
4350 3493 M
0 3556 V
stroke
LTb
LCb setrgbcolor
4350 3493 M
0 63 V
0 3493 R
0 -63 V
stroke
4350 3373 M
currentpoint gsave translate -45 rotate 0 0 moveto
[ [(Times) 200.0 0.0 true true 0 ( 1000)]
] -66.7 MLshow
grestore
1.000 UL
LTb
LCb setrgbcolor
1.000 UL
LTa
LCa setrgbcolor
5924 3493 M
0 3556 V
stroke
LTb
LCb setrgbcolor
5924 3493 M
0 63 V
0 3493 R
0 -63 V
stroke
5924 3373 M
currentpoint gsave translate -45 rotate 0 0 moveto
[ [(Times) 200.0 0.0 true true 0 ( 1500)]
] -66.7 MLshow
grestore
1.000 UL
LTb
LCb setrgbcolor
1.000 UL
LTa
LCa setrgbcolor
7499 3493 M
0 3556 V
stroke
LTb
LCb setrgbcolor
7499 3493 M
0 63 V
0 3493 R
0 -63 V
stroke
7499 3373 M
currentpoint gsave translate -45 rotate 0 0 moveto
[ [(Times) 200.0 0.0 true true 0 ( 2000)]
] -66.7 MLshow
grestore
1.000 UL
LTb
LCb setrgbcolor
1.000 UL
LTa
LCa setrgbcolor
9074 3493 M
0 3556 V
stroke
LTb
LCb setrgbcolor
9074 3493 M
0 63 V
0 3493 R
0 -63 V
stroke
9074 3373 M
currentpoint gsave translate -45 rotate 0 0 moveto
[ [(Times) 200.0 0.0 true true 0 ( 2500)]
] -66.7 MLshow
grestore
1.000 UL
LTb
LCb setrgbcolor
1.000 UL
LTa
LCa setrgbcolor
10649 3493 M
0 3556 V
stroke
LTb
LCb setrgbcolor
10649 3493 M
0 63 V
0 3493 R
0 -63 V
stroke
10649 3373 M
currentpoint gsave translate -45 rotate 0 0 moveto
[ [(Times) 200.0 0.0 true true 0 ( 3000)]
] -66.7 MLshow
grestore
1.000 UL
LTb
LCb setrgbcolor
1.000 UL
LTa
LCa setrgbcolor
12223 3493 M
0 3556 V
stroke
LTb
LCb setrgbcolor
12223 3493 M
0 63 V
0 3493 R
0 -63 V
stroke
12223 3373 M
currentpoint gsave translate -45 rotate 0 0 moveto
[ [(Times) 200.0 0.0 true true 0 ( 3500)]
] -66.7 MLshow
grestore
1.000 UL
LTb
LCb setrgbcolor
1.000 UL
LTa
LCa setrgbcolor
13798 3493 M
0 3556 V
stroke
LTb
LCb setrgbcolor
13798 3493 M
0 63 V
0 3493 R
0 -63 V
stroke
13798 3373 M
currentpoint gsave translate -45 rotate 0 0 moveto
[ [(Times) 200.0 0.0 true true 0 ( 4000)]
] -66.7 MLshow
grestore
1.000 UL
LTb
LCb setrgbcolor
1.000 UL
LTb
LCb setrgbcolor
1200 7049 N
0 -3556 V
12598 0 V
0 3556 V
-12598 0 V
Z stroke
LCb setrgbcolor
500 5271 M
currentpoint gsave translate -270 rotate 0 0 moveto
[ [(Times) 200.0 0.0 true true 0 (Duration [sec])]
] -66.7 MCshow
grestore
LTb
LCb setrgbcolor
7499 2769 M
[ [(Times) 200.0 0.0 true true 0 (Time [sec])]
] -66.7 MCshow
LTb
7499 7349 M
[ [(Times) 200.0 0.0 true true 0 (src port 80, repeating connections sorted by start time)]
] -66.7 MCshow
1.000 UP
1.000 UL
LTb
LCb setrgbcolor
1.000 UL
LT8
LC8 setrgbcolor
7108 63 N
782 0 V
-782 0 V
Z stroke
% Begin plot #1
1.000 UP
1.000 UL
LT8
0.00 0.00 1.00 C 1200 3569 M
6 839 V
38 -863 V
25 236 V
3 43 V
10 246 V
69 -565 V
19 549 V
25 -532 V
0 442 V
10 -379 V
15 224 V
10 -299 V
9 163 V
13 -165 V
69 373 V
22 978 V
3 -1334 V
26 953 V
396 142 V
4 -87 V
28 -1024 V
0 27 V
0 306 V
9 -342 V
10 106 V
31 4 V
4 -99 V
6 238 V
16 465 V
3 -132 V
6 588 V
32 -1098 V
9 -55 V
13 264 V
9 -250 V
3 1522 V
25 -961 V
3 64 V
7 483 V
56 -915 V
23 580 V
12 -467 V
3 -231 V
3 353 V
7 -112 V
9 439 V
3 1865 V
44 -1462 V
70 -936 V
56 1702 V
19 -1919 V
51 538 V
19 -20 V
50 -343 V
22 285 V
19 818 V
2831 3535 L
4 319 V
22 131 V
97 -238 V
16 -234 V
0 391 V
32 -260 V
56 12 V
0 102 V
10 -112 V
0 54 V
0 369 V
3 -498 V
9 3275 V
3 -3151 V
38 384 V
29 -256 V
6 954 V
19 -1182 V
6 67 V
32 -128 V
53 -25 V
13 324 V
3 108 V
63 -267 V
6 925 V
22 -1078 V
10 5 V
31 509 V
22 -496 V
16 27 V
12 988 V
4 -1029 V
28 127 V
19 424 V
75 -549 V
0 478 V
13 371 V
3 -710 V
7 192 V
6 -328 V
6 1003 V
25 -1003 V
13 -27 V
50 0 V
48 16 V
22 -16 V
0 66 V
63 666 V
34 -607 V
3 -89 V
0 164 V
303 405 V
6 -460 V
32 294 V
0 96 V
44 1223 V
15 -1672 V
10 1128 V
12 -427 V
26 -598 V
3 1111 V
31 -789 V
13 -505 V
9 107 V
0 -116 V
3 235 V
10 -232 V
3 47 V
0 7 V
13 1241 V
12 -780 V
19 -393 V
10 -103 V
22 600 V
19 -608 V
0 294 V
12 -282 V
54 64 V
12 -85 V
29 604 V
31 540 V
28 -630 V
0 190 V
400 -382 V
19 -13 V
29 -310 V
28 786 V
41 -789 V
0 105 V
16 -92 V
3 16 V
47 -14 V
13 -1 V
50 -13 V
3 524 V
13 -268 V
6 -220 V
28 -23 V
7 184 V
6 303 V
13 155 V
15 -581 V
29 -69 V
19 120 V
stroke 5449 3627 M
12 -96 V
10 -24 V
0 685 V
15 -682 V
0 61 V
35 -6 V
32 986 V
9 -32 V
13 -983 V
3 2224 V
12 -1809 V
38 557 V
10 -781 V
19 -193 V
12 122 V
0 236 V
13 -357 V
12 88 V
22 53 V
7 -164 V
0 42 V
3 140 V
16 145 V
25 -333 V
0 359 V
3 -36 V
13 199 V
22 -486 V
3 802 V
12 -821 V
26 159 V
12 -104 V
0 15 V
0 460 V
10 -314 V
22 -206 V
6 -29 V
0 53 V
50 88 V
66 979 V
26 -1114 V
3 316 V
0 236 V
12 -193 V
7 -83 V
3 -280 V
6 -3 V
16 83 V
35 -77 V
25 45 V
3 0 V
3 137 V
22 663 V
19 -838 V
31 1275 V
85 -1138 V
51 172 V
41 -270 V
116 416 V
7 -295 V
12 453 V
3 -591 V
16 271 V
6 -269 V
10 867 V
66 -752 V
0 195 V
161 705 V
12 -1038 V
10 -15 V
44 274 V
12 391 V
22 -618 V
19 458 V
117 -348 V
19 -118 V
9 133 V
35 784 V
9 -721 V
35 -28 V
3 -199 V
3 575 V
16 -193 V
9 929 V
22 -895 V
19 -175 V
54 359 V
16 -540 V
0 1255 V
60 -1171 V
18 388 V
10 -289 V
6 -241 V
22 1605 V
41 -1071 V
13 -473 V
6 -38 V
22 1542 V
32 -1556 V
18 7 V
13 338 V
3 -358 V
66 -2 V
44 611 V
stroke 7656 4117 M
29 -584 V
34 532 V
79 -551 V
41 95 V
38 -93 V
145 1015 V
0 1406 V
44 -2376 V
53 122 V
29 769 V
16 -911 V
9 17 V
3 -13 V
6 15 V
63 -55 V
22 351 V
29 -336 V
0 116 V
3 93 V
117 -220 V
18 184 V
126 27 V
26 163 V
6 1198 V
19 -883 V
113 -248 V
10 -441 V
47 574 V
104 300 V
154 -788 V
3 191 V
44 -277 V
3 378 V
0 550 V
174 -927 V
3 187 V
19 428 V
25 -439 V
3 -183 V
98 433 V
12 88 V
79 627 V
16 -28 V
31 -1067 V
10 -46 V
16 263 V
3 603 V
41 -672 V
3 638 V
19 506 V
82 -1133 V
31 1583 V
277 -1247 V
0 307 V
16 -501 V
9 -350 V
63 220 V
44 256 V
29 -132 V
9 219 V
79 441 V
3 -592 V
6 1688 V
4 -2092 V
25 408 V
56 -104 V
7 -313 V
0 96 V
12 69 V
0 671 V
7 -792 V
63 328 V
19 -50 V
28 -277 V
104 2358 V
60 -2396 V
19 545 V
15 -403 V
7 1189 V
25 -1197 V
66 303 V
3 -432 V
10 86 V
0 605 V
12 -146 V
16 -489 V
3 2213 V
19 -2166 V
6 -21 V
7 -81 V
0 2467 V
12 -1598 V
19 -668 V
13 -75 V
6 -116 V
0 49 V
0 664 V
16 1441 V
19 -1701 V
41 -189 V
12 -170 V
10 372 V
3 -321 V
6 -36 V
stroke 11039 3638 M
6 609 V
48 70 V
18 -234 V
13 -213 V
0 162 V
25 -446 V
57 -60 V
3 260 V
73 -277 V
78 46 V
41 -54 V
3 8 V
16 342 V
35 106 V
28 -391 V
3 -65 V
0 14 V
19 -14 V
79 6 V
3 436 V
50 -261 V
16 81 V
10 451 V
63 -87 V
6 -27 V
3 -311 V
6 -273 V
54 38 V
88 -44 V
3 349 V
22 -70 V
16 -251 V
6 202 V
7 75 V
3 1502 V
3 -1425 V
9 65 V
41 -427 V
26 186 V
9 1621 V
9 -1591 V
0 1608 V
63 -1099 V
16 -197 V
13 -516 V
6 360 V
16 -400 V
31 292 V
7 1542 V
3 -1733 V
19 487 V
15 -80 V
44 -500 V
0 -7 V
26 72 V
3 741 V
50 -625 V
13 475 V
41 2537 V
1200 3569 TriUF
1206 4408 TriUF
1244 3545 TriUF
1269 3781 TriUF
1272 3824 TriUF
1282 4070 TriUF
1351 3505 TriUF
1370 4054 TriUF
1395 3522 TriUF
1395 3964 TriUF
1405 3585 TriUF
1420 3809 TriUF
1430 3510 TriUF
1439 3673 TriUF
1452 3508 TriUF
1521 3881 TriUF
1543 4859 TriUF
1546 3525 TriUF
1572 4478 TriUF
1968 4620 TriUF
1972 4533 TriUF
2000 3509 TriUF
2000 3536 TriUF
2000 3842 TriUF
2009 3500 TriUF
2019 3606 TriUF
2050 3610 TriUF
2054 3511 TriUF
2060 3749 TriUF
2076 4214 TriUF
2079 4082 TriUF
2085 4670 TriUF
2117 3572 TriUF
2126 3517 TriUF
2139 3781 TriUF
2148 3531 TriUF
2151 5053 TriUF
2176 4092 TriUF
2179 4156 TriUF
2186 4639 TriUF
2242 3724 TriUF
2265 4304 TriUF
2277 3837 TriUF
2280 3606 TriUF
2283 3959 TriUF
2290 3847 TriUF
2299 4286 TriUF
2302 6151 TriUF
2346 4689 TriUF
2416 3753 TriUF
2472 5455 TriUF
2491 3536 TriUF
2542 4074 TriUF
2561 4054 TriUF
2611 3711 TriUF
2633 3996 TriUF
2652 4814 TriUF
2831 3535 TriUF
2835 3854 TriUF
2857 3985 TriUF
2954 3747 TriUF
2970 3513 TriUF
2970 3904 TriUF
3002 3644 TriUF
3058 3656 TriUF
3058 3758 TriUF
3068 3646 TriUF
3068 3700 TriUF
3068 4069 TriUF
3071 3571 TriUF
3080 6846 TriUF
3083 3695 TriUF
3121 4079 TriUF
3150 3823 TriUF
3156 4777 TriUF
3175 3595 TriUF
3181 3662 TriUF
3213 3534 TriUF
3266 3509 TriUF
3279 3833 TriUF
3282 3941 TriUF
3345 3674 TriUF
3351 4599 TriUF
3373 3521 TriUF
3383 3526 TriUF
3414 4035 TriUF
3436 3539 TriUF
3452 3566 TriUF
3464 4554 TriUF
3468 3525 TriUF
3496 3652 TriUF
3515 4076 TriUF
3590 3527 TriUF
3590 4005 TriUF
3603 4376 TriUF
3606 3666 TriUF
3613 3858 TriUF
3619 3530 TriUF
3625 4533 TriUF
3650 3530 TriUF
3663 3503 TriUF
3713 3503 TriUF
3761 3519 TriUF
3783 3503 TriUF
3783 3569 TriUF
3846 4235 TriUF
3880 3628 TriUF
3883 3539 TriUF
3883 3703 TriUF
4186 4108 TriUF
4192 3648 TriUF
4224 3942 TriUF
4224 4038 TriUF
4268 5261 TriUF
4283 3589 TriUF
4293 4717 TriUF
4305 4290 TriUF
4331 3692 TriUF
4334 4803 TriUF
4365 4014 TriUF
4378 3509 TriUF
4387 3616 TriUF
4387 3500 TriUF
4390 3735 TriUF
4400 3503 TriUF
4403 3550 TriUF
4403 3557 TriUF
4416 4798 TriUF
4428 4018 TriUF
4447 3625 TriUF
4457 3522 TriUF
4479 4122 TriUF
4498 3514 TriUF
4498 3808 TriUF
4510 3526 TriUF
4564 3590 TriUF
4576 3505 TriUF
4605 4109 TriUF
4636 4649 TriUF
4664 4019 TriUF
4664 4209 TriUF
5064 3827 TriUF
5083 3814 TriUF
5112 3504 TriUF
5140 4290 TriUF
5181 3501 TriUF
5181 3606 TriUF
5197 3514 TriUF
5200 3530 TriUF
5247 3516 TriUF
5260 3515 TriUF
5310 3502 TriUF
5313 4026 TriUF
5326 3758 TriUF
5332 3538 TriUF
5360 3515 TriUF
5367 3699 TriUF
5373 4002 TriUF
5386 4157 TriUF
5401 3576 TriUF
5430 3507 TriUF
5449 3627 TriUF
5461 3531 TriUF
5471 3507 TriUF
5471 4192 TriUF
5486 3510 TriUF
5486 3571 TriUF
5521 3565 TriUF
5553 4551 TriUF
5562 4519 TriUF
5575 3536 TriUF
5578 5760 TriUF
5590 3951 TriUF
5628 4508 TriUF
5638 3727 TriUF
5657 3534 TriUF
5669 3656 TriUF
5669 3892 TriUF
5682 3535 TriUF
5694 3623 TriUF
5716 3676 TriUF
5723 3512 TriUF
5723 3554 TriUF
5726 3694 TriUF
5742 3839 TriUF
5767 3506 TriUF
5767 3865 TriUF
5770 3829 TriUF
5783 4028 TriUF
5805 3542 TriUF
5808 4344 TriUF
5820 3523 TriUF
5846 3682 TriUF
5858 3578 TriUF
5858 3593 TriUF
5858 4053 TriUF
5868 3739 TriUF
5890 3533 TriUF
5896 3504 TriUF
5896 3557 TriUF
5946 3645 TriUF
6012 4624 TriUF
6038 3510 TriUF
6041 3826 TriUF
6041 4062 TriUF
6053 3869 TriUF
6060 3786 TriUF
6063 3506 TriUF
6069 3503 TriUF
6085 3586 TriUF
6120 3509 TriUF
6145 3554 TriUF
6148 3554 TriUF
6151 3691 TriUF
6173 4354 TriUF
6192 3516 TriUF
6223 4791 TriUF
6308 3653 TriUF
6359 3825 TriUF
6400 3555 TriUF
6516 3971 TriUF
6523 3676 TriUF
6535 4129 TriUF
6538 3538 TriUF
6554 3809 TriUF
6560 3540 TriUF
6570 4407 TriUF
6636 3655 TriUF
6636 3850 TriUF
6797 4555 TriUF
6809 3517 TriUF
6819 3502 TriUF
6863 3776 TriUF
6875 4167 TriUF
6897 3549 TriUF
6916 4007 TriUF
7033 3659 TriUF
7052 3541 TriUF
7061 3674 TriUF
7096 4458 TriUF
7105 3737 TriUF
7140 3709 TriUF
7143 3510 TriUF
7146 4085 TriUF
7162 3892 TriUF
7171 4821 TriUF
7193 3926 TriUF
7212 3751 TriUF
7266 4110 TriUF
7282 3570 TriUF
7282 4825 TriUF
7342 3654 TriUF
7360 4042 TriUF
7370 3753 TriUF
7376 3512 TriUF
7398 5117 TriUF
7439 4046 TriUF
7452 3573 TriUF
7458 3535 TriUF
7480 5077 TriUF
7512 3521 TriUF
7530 3528 TriUF
7543 3866 TriUF
7546 3508 TriUF
7612 3506 TriUF
7656 4117 TriUF
7685 3533 TriUF
7719 4065 TriUF
7798 3514 TriUF
7839 3609 TriUF
7877 3516 TriUF
8022 4531 TriUF
8022 5937 TriUF
8066 3561 TriUF
8119 3683 TriUF
8148 4452 TriUF
8164 3541 TriUF
8173 3558 TriUF
8176 3545 TriUF
8182 3560 TriUF
8245 3505 TriUF
8267 3856 TriUF
8296 3520 TriUF
8296 3636 TriUF
8299 3729 TriUF
8416 3509 TriUF
8434 3693 TriUF
8560 3720 TriUF
8586 3883 TriUF
8592 5081 TriUF
8611 4198 TriUF
8724 3950 TriUF
8734 3509 TriUF
8781 4083 TriUF
8885 4383 TriUF
9039 3595 TriUF
9042 3786 TriUF
9086 3509 TriUF
9089 3887 TriUF
9089 4437 TriUF
9263 3510 TriUF
9266 3697 TriUF
9285 4125 TriUF
9310 3686 TriUF
9313 3503 TriUF
9411 3936 TriUF
9423 4024 TriUF
9502 4651 TriUF
9518 4623 TriUF
9549 3556 TriUF
9559 3510 TriUF
9575 3773 TriUF
9578 4376 TriUF
9619 3704 TriUF
9622 4342 TriUF
9641 4848 TriUF
9723 3715 TriUF
9754 5298 TriUF
10031 4051 TriUF
10031 4358 TriUF
10047 3857 TriUF
10056 3507 TriUF
10119 3727 TriUF
10163 3983 TriUF
10192 3851 TriUF
10201 4070 TriUF
10280 4511 TriUF
10283 3919 TriUF
10289 5607 TriUF
10293 3515 TriUF
10318 3923 TriUF
10374 3819 TriUF
10381 3506 TriUF
10381 3602 TriUF
10393 3671 TriUF
10393 4342 TriUF
10400 3550 TriUF
10463 3878 TriUF
10482 3828 TriUF
10510 3551 TriUF
10614 5909 TriUF
10674 3513 TriUF
10693 4058 TriUF
10708 3655 TriUF
10715 4844 TriUF
10740 3647 TriUF
10806 3950 TriUF
10809 3518 TriUF
10819 3604 TriUF
10819 4209 TriUF
10831 4063 TriUF
10847 3574 TriUF
10850 5787 TriUF
10869 3621 TriUF
10875 3600 TriUF
10882 3519 TriUF
10882 5986 TriUF
10894 4388 TriUF
10913 3720 TriUF
10926 3645 TriUF
10932 3529 TriUF
10932 3578 TriUF
10932 4242 TriUF
10948 5683 TriUF
10967 3982 TriUF
11008 3793 TriUF
11020 3623 TriUF
11030 3995 TriUF
11033 3674 TriUF
11039 3638 TriUF
11045 4247 TriUF
11093 4317 TriUF
11111 4083 TriUF
11124 3870 TriUF
11124 4032 TriUF
11149 3586 TriUF
11206 3526 TriUF
11209 3786 TriUF
11282 3509 TriUF
11360 3555 TriUF
11401 3501 TriUF
11404 3509 TriUF
11420 3851 TriUF
11455 3957 TriUF
11483 3566 TriUF
11486 3501 TriUF
11486 3515 TriUF
11505 3501 TriUF
11584 3507 TriUF
11587 3943 TriUF
11637 3682 TriUF
11653 3763 TriUF
11663 4214 TriUF
11726 4127 TriUF
11732 4100 TriUF
11735 3789 TriUF
11741 3516 TriUF
11795 3554 TriUF
11883 3510 TriUF
11886 3859 TriUF
11908 3789 TriUF
11924 3538 TriUF
11930 3740 TriUF
11937 3815 TriUF
11940 5317 TriUF
11943 3892 TriUF
11952 3957 TriUF
11993 3530 TriUF
12019 3716 TriUF
12028 5337 TriUF
12037 3746 TriUF
12037 5354 TriUF
12100 4255 TriUF
12116 4058 TriUF
12129 3542 TriUF
12135 3902 TriUF
12151 3502 TriUF
12182 3794 TriUF
12189 5336 TriUF
12192 3603 TriUF
12211 4090 TriUF
12226 4010 TriUF
12270 3510 TriUF
12270 3503 TriUF
12296 3575 TriUF
12299 4316 TriUF
12349 3691 TriUF
12362 4166 TriUF
12403 6703 TriUF
% End plot #1
1.000 UL
LTb
LCb setrgbcolor
1200 7049 N
0 -3556 V
12598 0 V
0 3556 V
-12598 0 V
Z stroke
1.000 UP
1.000 UL
LTb
LCb setrgbcolor
stroke
grestore
end
showpage
%%Page: 2 2
gnudict begin
gsave
doclip
50 50 translate
0.050 0.050 scale
0 setgray
newpath
(Times) findfont 200 scalefont setfont
BackgroundColor 0 lt 3 1 roll 0 lt exch 0 lt or or not {BackgroundColor C 1.000 0 0 14400.00 10080.00 BoxColFill} if
1.000 UL
LTb
LCb setrgbcolor
1.000 UL
LTa
LCa setrgbcolor
600 3323 M
12598 0 V
stroke
LTb
LCb setrgbcolor
600 3323 M
63 0 V
12535 0 R
-63 0 V
stroke
480 3323 M
[ [(Times) 200.0 0.0 true true 0 ( 0)]
] -66.7 MRshow
1.000 UL
LTb
LCb setrgbcolor
1.000 UL
LTa
LCa setrgbcolor
600 3789 M
12598 0 V
stroke
LTb
LCb setrgbcolor
600 3789 M
63 0 V
12535 0 R
-63 0 V
stroke
480 3789 M
[ [(Times) 200.0 0.0 true true 0 ( 50000)]
] -66.7 MRshow
1.000 UL
LTb
LCb setrgbcolor
1.000 UL
LTa
LCa setrgbcolor
600 4255 M
12598 0 V
stroke
LTb
LCb setrgbcolor
600 4255 M
63 0 V
12535 0 R
-63 0 V
stroke
480 4255 M
[ [(Times) 200.0 0.0 true true 0 ( 100000)]
] -66.7 MRshow
1.000 UL
LTb
LCb setrgbcolor
1.000 UL
LTa
LCa setrgbcolor
600 4720 M
12598 0 V
stroke
LTb
LCb setrgbcolor
600 4720 M
63 0 V
12535 0 R
-63 0 V
stroke
480 4720 M
[ [(Times) 200.0 0.0 true true 0 ( 150000)]
] -66.7 MRshow
1.000 UL
LTb
LCb setrgbcolor
1.000 UL
LTa
LCa setrgbcolor
600 5186 M
12598 0 V
stroke
LTb
LCb setrgbcolor
600 5186 M
63 0 V
12535 0 R
-63 0 V
stroke
480 5186 M
[ [(Times) 200.0 0.0 true true 0 ( 200000)]
] -66.7 MRshow
1.000 UL
LTb
LCb setrgbcolor
1.000 UL
LTa
LCa setrgbcolor
600 5652 M
12598 0 V
stroke
LTb
LCb setrgbcolor
600 5652 M
63 0 V
12535 0 R
-63 0 V
stroke
480 5652 M
[ [(Times) 200.0 0.0 true true 0 ( 250000)]
] -66.7 MRshow
1.000 UL
LTb
LCb setrgbcolor
1.000 UL
LTa
LCa setrgbcolor
600 6118 M
12598 0 V
stroke
LTb
LCb setrgbcolor
600 6118 M
63 0 V
12535 0 R
-63 0 V
stroke
480 6118 M
[ [(Times) 200.0 0.0 true true 0 ( 300000)]
] -66.7 MRshow
1.000 UL
LTb
LCb setrgbcolor
1.000 UL
LTa
LCa setrgbcolor
600 6583 M
12598 0 V
stroke
LTb
LCb setrgbcolor
600 6583 M
63 0 V
12535 0 R
-63 0 V
stroke
480 6583 M
[ [(Times) 200.0 0.0 true true 0 ( 350000)]
] -66.7 MRshow
1.000 UL
LTb
LCb setrgbcolor
1.000 UL
LTa
LCa setrgbcolor
600 7049 M
12598 0 V
stroke
LTb
LCb setrgbcolor
600 7049 M
63 0 V
12535 0 R
-63 0 V
stroke
480 7049 M
[ [(Times) 200.0 0.0 true true 0 ( 400000)]
] -66.7 MRshow
1.000 UL
LTb
LCb setrgbcolor
1.000 UL
LTa
LCa setrgbcolor
600 3323 M
0 3726 V
stroke
LTb
LCb setrgbcolor
600 3323 M
0 63 V
0 3663 R
0 -63 V
stroke
600 3203 M
currentpoint gsave translate -45 rotate 0 0 moveto
[ [(Times) 200.0 0.0 true true 0 ( 0)]
] -66.7 MLshow
grestore
1.000 UL
LTb
LCb setrgbcolor
1.000 UL
LTa
LCa setrgbcolor
1860 3323 M
0 3726 V
stroke
LTb
LCb setrgbcolor
1860 3323 M
0 63 V
0 3663 R
0 -63 V
stroke
1860 3203 M
currentpoint gsave translate -45 rotate 0 0 moveto
[ [(Times) 200.0 0.0 true true 0 ( 2)]
] -66.7 MLshow
grestore
1.000 UL
LTb
LCb setrgbcolor
1.000 UL
LTa
LCa setrgbcolor
3120 3323 M
0 3726 V
stroke
LTb
LCb setrgbcolor
3120 3323 M
0 63 V
0 3663 R
0 -63 V
stroke
3120 3203 M
currentpoint gsave translate -45 rotate 0 0 moveto
[ [(Times) 200.0 0.0 true true 0 ( 4)]
] -66.7 MLshow
grestore
1.000 UL
LTb
LCb setrgbcolor
1.000 UL
LTa
LCa setrgbcolor
4379 3323 M
0 3726 V
stroke
LTb
LCb setrgbcolor
4379 3323 M
0 63 V
0 3663 R
0 -63 V
stroke
4379 3203 M
currentpoint gsave translate -45 rotate 0 0 moveto
[ [(Times) 200.0 0.0 true true 0 ( 6)]
] -66.7 MLshow
grestore
1.000 UL
LTb
LCb setrgbcolor
1.000 UL
LTa
LCa setrgbcolor
5639 3323 M
0 3726 V
stroke
LTb
LCb setrgbcolor
5639 3323 M
0 63 V
0 3663 R
0 -63 V
stroke
5639 3203 M
currentpoint gsave translate -45 rotate 0 0 moveto
[ [(Times) 200.0 0.0 true true 0 ( 8)]
] -66.7 MLshow
grestore
1.000 UL
LTb
LCb setrgbcolor
1.000 UL
LTa
LCa setrgbcolor
6899 3323 M
0 3726 V
stroke
LTb
LCb setrgbcolor
6899 3323 M
0 63 V
0 3663 R
0 -63 V
stroke
6899 3203 M
currentpoint gsave translate -45 rotate 0 0 moveto
[ [(Times) 200.0 0.0 true true 0 ( 10)]
] -66.7 MLshow
grestore
1.000 UL
LTb
LCb setrgbcolor
1.000 UL
LTa
LCa setrgbcolor
8159 3323 M
0 3726 V
stroke
LTb
LCb setrgbcolor
8159 3323 M
0 63 V
0 3663 R
0 -63 V
stroke
8159 3203 M
currentpoint gsave translate -45 rotate 0 0 moveto
[ [(Times) 200.0 0.0 true true 0 ( 12)]
] -66.7 MLshow
grestore
1.000 UL
LTb
LCb setrgbcolor
1.000 UL
LTa
LCa setrgbcolor
9419 3323 M
0 3726 V
stroke
LTb
LCb setrgbcolor
9419 3323 M
0 63 V
0 3663 R
0 -63 V
stroke
9419 3203 M
currentpoint gsave translate -45 rotate 0 0 moveto
[ [(Times) 200.0 0.0 true true 0 ( 14)]
] -66.7 MLshow
grestore
1.000 UL
LTb
LCb setrgbcolor
1.000 UL
LTa
LCa setrgbcolor
10678 3323 M
0 3726 V
stroke
LTb
LCb setrgbcolor
10678 3323 M
0 63 V
0 3663 R
0 -63 V
stroke
10678 3203 M
currentpoint gsave translate -45 rotate 0 0 moveto
[ [(Times) 200.0 0.0 true true 0 ( 16)]
] -66.7 MLshow
grestore
1.000 UL
LTb
LCb setrgbcolor
1.000 UL
LTa
LCa setrgbcolor
11938 3323 M
0 3726 V
stroke
LTb
LCb setrgbcolor
11938 3323 M
0 63 V
0 3663 R
0 -63 V
stroke
11938 3203 M
currentpoint gsave translate -45 rotate 0 0 moveto
[ [(Times) 200.0 0.0 true true 0 ( 18)]
] -66.7 MLshow
grestore
1.000 UL
LTb
LCb setrgbcolor
1.000 UL
LTa
LCa setrgbcolor
13198 3323 M
0 3726 V
stroke
LTb
LCb setrgbcolor
13198 3323 M
0 63 V
0 3663 R
0 -63 V
stroke
13198 3203 M
currentpoint gsave translate -45 rotate 0 0 moveto
[ [(Times) 200.0 0.0 true true 0 ( 20)]
] -66.7 MLshow
grestore
1.000 UL
LTb
LCb setrgbcolor
1.000 UL
LTb
LCb setrgbcolor
600 7049 N
0 -3726 V
12598 0 V
0 3726 V
600 7049 L
Z stroke
LCb setrgbcolor
-580 5186 M
currentpoint gsave translate -270 rotate 0 0 moveto
[ [(Times) 200.0 0.0 true true 0 (Flow size [bytes])]
] -66.7 MCshow
grestore
LTb
LCb setrgbcolor
6899 2769 M
[ [(Times) 200.0 0.0 true true 0 (Duration [sec])]
] -66.7 MCshow
LTb
6899 7349 M
[ [(Times) 200.0 0.0 true true 0 (src port 80, repeating connections sorted by duration)]
] -66.7 MCshow
1.000 UP
1.000 UL
LTb
LCb setrgbcolor
1.000 UL
LT8
LC8 setrgbcolor
6508 63 N
782 0 V
-782 0 V
Z stroke
% Begin plot #1
1.000 UP
1.000 UL
LT8
1.00 0.00 0.00 C 625 3367 TriUF
626 3344 TriUF
627 3370 TriUF
628 3370 TriUF
629 3345 TriUF
629 3344 TriUF
632 3364 TriUF
632 3368 TriUF
633 3375 TriUF
634 3361 TriUF
634 3347 TriUF
634 3338 TriUF
635 3366 TriUF
635 3374 TriUF
635 3347 TriUF
636 3375 TriUF
638 3365 TriUF
640 3353 TriUF
641 3376 TriUF
643 3387 TriUF
644 3401 TriUF
645 3347 TriUF
646 3392 TriUF
647 3346 TriUF
647 3357 TriUF
648 3423 TriUF
649 3356 TriUF
651 3372 TriUF
651 3408 TriUF
652 3368 TriUF
654 3425 TriUF
655 3423 TriUF
656 3393 TriUF
656 3409 TriUF
656 3393 TriUF
656 3371 TriUF
657 3430 TriUF
657 3344 TriUF
658 3413 TriUF
658 3372 TriUF
659 3409 TriUF
659 3388 TriUF
659 3360 TriUF
659 3390 TriUF
660 3372 TriUF
660 3422 TriUF
662 3381 TriUF
662 3365 TriUF
665 3387 TriUF
666 3350 TriUF
668 3448 TriUF
669 3440 TriUF
672 3362 TriUF
673 3348 TriUF
673 3376 TriUF
675 3404 TriUF
676 3444 TriUF
678 3383 TriUF
678 3449 TriUF
678 3408 TriUF
680 3376 TriUF
680 3343 TriUF
681 3464 TriUF
682 3362 TriUF
685 3488 TriUF
685 3368 TriUF
690 3438 TriUF
690 3412 TriUF
693 3408 TriUF
697 3417 TriUF
698 3435 TriUF
699 3481 TriUF
702 3414 TriUF
702 3347 TriUF
705 3431 TriUF
712 3443 TriUF
715 3344 TriUF
716 3494 TriUF
717 3510 TriUF
718 3427 TriUF
721 3395 TriUF
726 3512 TriUF
726 3605 TriUF
729 3418 TriUF
730 3380 TriUF
732 3459 TriUF
733 3574 TriUF
733 3438 TriUF
734 3544 TriUF
741 3621 TriUF
742 3653 TriUF
745 3509 TriUF
746 3439 TriUF
749 3386 TriUF
749 3530 TriUF
749 3374 TriUF
753 3511 TriUF
754 3416 TriUF
754 3643 TriUF
760 3613 TriUF
760 3778 TriUF
760 3525 TriUF
763 3445 TriUF
765 3649 TriUF
766 3594 TriUF
770 3629 TriUF
771 3663 TriUF
774 3544 TriUF
775 3670 TriUF
783 3388 TriUF
785 3778 TriUF
797 3530 TriUF
802 3382 TriUF
804 3794 TriUF
807 3838 TriUF
814 3979 TriUF
815 3468 TriUF
815 3471 TriUF
816 3864 TriUF
819 3504 TriUF
820 3954 TriUF
824 3773 TriUF
825 3437 TriUF
828 3653 TriUF
830 3571 TriUF
837 3748 TriUF
840 3717 TriUF
854 3476 TriUF
858 3564 TriUF
860 3710 TriUF
869 3483 TriUF
869 3607 TriUF
872 3812 TriUF
878 3637 TriUF
878 3600 TriUF
880 3536 TriUF
884 4260 TriUF
887 3692 TriUF
889 3664 TriUF
893 3452 TriUF
901 3661 TriUF
901 4101 TriUF
925 3398 TriUF
928 3406 TriUF
928 3629 TriUF
941 3495 TriUF
945 3716 TriUF
954 3517 TriUF
960 3403 TriUF
962 3392 TriUF
979 3619 TriUF
987 3788 TriUF
991 3424 TriUF
992 3523 TriUF
999 3643 TriUF
999 3554 TriUF
1000 3490 TriUF
1010 3427 TriUF
1016 3700 TriUF
1037 3618 TriUF
1055 3525 TriUF
1059 3780 TriUF
1062 3668 TriUF
1067 3472 TriUF
1073 3733 TriUF
1078 4118 TriUF
1107 3751 TriUF
1112 3867 TriUF
1136 3438 TriUF
1137 3655 TriUF
1140 3578 TriUF
1142 3698 TriUF
1146 3561 TriUF
1149 3755 TriUF
1165 3624 TriUF
1168 3400 TriUF
1170 3902 TriUF
1172 3433 TriUF
1175 3547 TriUF
1177 3670 TriUF
1177 3614 TriUF
1189 3576 TriUF
1198 3573 TriUF
1211 5143 TriUF
1230 3949 TriUF
1239 3704 TriUF
1240 3853 TriUF
1241 3426 TriUF
1243 3888 TriUF
1249 3875 TriUF
1249 3505 TriUF
1271 3702 TriUF
1271 3710 TriUF
1271 3520 TriUF
1284 3539 TriUF
1301 3832 TriUF
1303 4094 TriUF
1306 3438 TriUF
1308 3964 TriUF
1311 4272 TriUF
1315 4152 TriUF
1323 3880 TriUF
1329 3884 TriUF
1334 4608 TriUF
1344 3942 TriUF
1347 3636 TriUF
1365 3814 TriUF
1373 3582 TriUF
1386 3729 TriUF
1390 3870 TriUF
1405 3464 TriUF
1406 3736 TriUF
1420 3942 TriUF
1430 3863 TriUF
1430 4108 TriUF
1437 3460 TriUF
1458 3692 TriUF
1463 3730 TriUF
1473 3613 TriUF
1476 3712 TriUF
1498 4846 TriUF
1500 3705 TriUF
1505 4155 TriUF
1514 3582 TriUF
1519 4000 TriUF
1521 3987 TriUF
1538 3565 TriUF
1539 3712 TriUF
1558 3804 TriUF
1592 3864 TriUF
1602 3463 TriUF
1620 3544 TriUF
1620 3979 TriUF
1637 3725 TriUF
1638 3457 TriUF
1639 3812 TriUF
1647 4264 TriUF
1650 3647 TriUF
1663 3591 TriUF
1666 3721 TriUF
1715 3593 TriUF
1719 3840 TriUF
1719 3482 TriUF
1738 3481 TriUF
1742 3536 TriUF
1753 3599 TriUF
1767 3592 TriUF
1772 4309 TriUF
1774 3725 TriUF
1779 3702 TriUF
1785 3935 TriUF
1786 4406 TriUF
1790 3594 TriUF
1805 4493 TriUF
1818 4165 TriUF
1825 3674 TriUF
1837 3495 TriUF
1853 3972 TriUF
1866 3880 TriUF
1867 3660 TriUF
1868 3483 TriUF
1877 3546 TriUF
1888 4105 TriUF
1889 4215 TriUF
1893 3609 TriUF
1898 4077 TriUF
1917 3536 TriUF
1922 4164 TriUF
1934 3765 TriUF
1935 3993 TriUF
1965 3683 TriUF
1976 4432 TriUF
1982 4063 TriUF
1994 3849 TriUF
2012 3709 TriUF
2012 3624 TriUF
2015 3536 TriUF
2049 4043 TriUF
2056 4166 TriUF
2109 3507 TriUF
2125 3614 TriUF
2132 4060 TriUF
2168 3473 TriUF
2187 4624 TriUF
2190 3879 TriUF
2193 3619 TriUF
2217 3910 TriUF
2220 3602 TriUF
2224 3975 TriUF
2244 4210 TriUF
2244 4180 TriUF
2251 4768 TriUF
2267 3670 TriUF
2292 4391 TriUF
2333 4244 TriUF
2335 3818 TriUF
2344 4729 TriUF
2377 3507 TriUF
2382 4086 TriUF
2403 3980 TriUF
2413 4252 TriUF
2421 3994 TriUF
2433 3757 TriUF
2447 4885 TriUF
2461 4333 TriUF
2462 4601 TriUF
2479 3660 TriUF
2490 3641 TriUF
2496 3939 TriUF
2508 3634 TriUF
2521 3703 TriUF
2529 3640 TriUF
2547 5024 TriUF
2559 3607 TriUF
2577 4372 TriUF
2584 4237 TriUF
2586 4345 TriUF
2588 4285 TriUF
2603 3745 TriUF
2603 3691 TriUF
2616 4210 TriUF
2618 4816 TriUF
2625 4835 TriUF
2641 4427 TriUF
2644 4186 TriUF
2644 3954 TriUF
2660 5141 TriUF
2666 3723 TriUF
2677 3929 TriUF
2687 3822 TriUF
2690 4015 TriUF
2690 4132 TriUF
2696 3419 TriUF
2714 3938 TriUF
2724 3486 TriUF
2751 3952 TriUF
2779 5159 TriUF
2782 4033 TriUF
2786 4067 TriUF
2810 3874 TriUF
2829 3655 TriUF
2839 4036 TriUF
2848 3596 TriUF
2853 4621 TriUF
2948 4466 TriUF
2951 4582 TriUF
2985 4159 TriUF
2989 3713 TriUF
3075 4178 TriUF
3096 3807 TriUF
3137 3641 TriUF
3138 3965 TriUF
3153 3711 TriUF
3154 3745 TriUF
3228 3768 TriUF
3252 3844 TriUF
3270 5248 TriUF
3298 3695 TriUF
3408 3932 TriUF
3424 3964 TriUF
3425 4901 TriUF
3472 4723 TriUF
3514 3976 TriUF
3517 4186 TriUF
3606 5013 TriUF
3609 4179 TriUF
3616 4430 TriUF
3651 4221 TriUF
3666 4581 TriUF
3729 3886 TriUF
3730 4065 TriUF
3753 3458 TriUF
3772 4922 TriUF
3838 3971 TriUF
3843 3780 TriUF
3944 4388 TriUF
3999 4621 TriUF
4018 5788 TriUF
4090 5610 TriUF
4195 4280 TriUF
4206 4796 TriUF
4235 4643 TriUF
4278 4812 TriUF
4284 4729 TriUF
4284 3835 TriUF
4347 3865 TriUF
4359 3790 TriUF
4362 4585 TriUF
4518 4211 TriUF
4592 4011 TriUF
4602 5390 TriUF
4608 4525 TriUF
4659 3883 TriUF
4697 4394 TriUF
4702 3648 TriUF
4771 4505 TriUF
4836 4498 TriUF
4938 4130 TriUF
5148 4229 TriUF
5198 4181 TriUF
5223 4365 TriUF
5241 5183 TriUF
5280 3658 TriUF
5304 4825 TriUF
5319 5093 TriUF
5386 4265 TriUF
5400 4408 TriUF
5439 6136 TriUF
6126 3765 TriUF
6211 4672 TriUF
6227 5229 TriUF
6354 4616 TriUF
6864 5344 TriUF
6995 4421 TriUF
7061 5402 TriUF
7128 4285 TriUF
7134 5175 TriUF
7193 4378 TriUF
7553 4790 TriUF
8089 5273 TriUF
8358 4825 TriUF
8631 6184 TriUF
8728 5652 TriUF
9159 5200 TriUF
9258 5111 TriUF
9433 6456 TriUF
10016 5363 TriUF
11972 3929 TriUF
12479 6790 TriUF
% End plot #1
1.000 UL
LTb
LCb setrgbcolor
600 7049 N
0 -3726 V
12598 0 V
0 3726 V
600 7049 L
Z stroke
1.000 UP
1.000 UL
LTb
LCb setrgbcolor
stroke
grestore
end
showpage
%%Trailer
%%DocumentFonts: Times
