%!PS-Adobe-2.0 EPSF-2.0
%%Title: repeating_conn_36574648_3724726160.eps
%%Creator: gnuplot 4.6 patchlevel 2
%%CreationDate: Tue Apr  8 12:24:36 2014
%%DocumentFonts: (atend)
%%BoundingBox: 50 50 770 554
%%EndComments
%%BeginProlog
/gnudict 256 dict def
gnudict begin
%
% The following true/false flags may be edited by hand if desired.
% The unit line width and grayscale image gamma correction may also be changed.
%
/Color true def
/Blacktext false def
/Solid false def
/Dashlength 1 def
/Landscape false def
/Level1 false def
/Rounded false def
/ClipToBoundingBox false def
/SuppressPDFMark false def
/TransparentPatterns false def
/gnulinewidth 5.000 def
/userlinewidth gnulinewidth def
/Gamma 1.0 def
/BackgroundColor {-1.000 -1.000 -1.000} def
%
/vshift -66 def
/dl1 {
  10.0 Dashlength mul mul
  Rounded { currentlinewidth 0.75 mul sub dup 0 le { pop 0.01 } if } if
} def
/dl2 {
  10.0 Dashlength mul mul
  Rounded { currentlinewidth 0.75 mul add } if
} def
/hpt_ 31.5 def
/vpt_ 31.5 def
/hpt hpt_ def
/vpt vpt_ def
/doclip {
  ClipToBoundingBox {
    newpath 50 50 moveto 770 50 lineto 770 554 lineto 50 554 lineto closepath
    clip
  } if
} def
%
% Gnuplot Prolog Version 4.6 (September 2012)
%
%/SuppressPDFMark true def
%
/M {moveto} bind def
/L {lineto} bind def
/R {rmoveto} bind def
/V {rlineto} bind def
/N {newpath moveto} bind def
/Z {closepath} bind def
/C {setrgbcolor} bind def
/f {rlineto fill} bind def
/g {setgray} bind def
/Gshow {show} def   % May be redefined later in the file to support UTF-8
/vpt2 vpt 2 mul def
/hpt2 hpt 2 mul def
/Lshow {currentpoint stroke M 0 vshift R 
	Blacktext {gsave 0 setgray show grestore} {show} ifelse} def
/Rshow {currentpoint stroke M dup stringwidth pop neg vshift R
	Blacktext {gsave 0 setgray show grestore} {show} ifelse} def
/Cshow {currentpoint stroke M dup stringwidth pop -2 div vshift R 
	Blacktext {gsave 0 setgray show grestore} {show} ifelse} def
/UP {dup vpt_ mul /vpt exch def hpt_ mul /hpt exch def
  /hpt2 hpt 2 mul def /vpt2 vpt 2 mul def} def
/DL {Color {setrgbcolor Solid {pop []} if 0 setdash}
 {pop pop pop 0 setgray Solid {pop []} if 0 setdash} ifelse} def
/BL {stroke userlinewidth 2 mul setlinewidth
	Rounded {1 setlinejoin 1 setlinecap} if} def
/AL {stroke userlinewidth 2 div setlinewidth
	Rounded {1 setlinejoin 1 setlinecap} if} def
/UL {dup gnulinewidth mul /userlinewidth exch def
	dup 1 lt {pop 1} if 10 mul /udl exch def} def
/PL {stroke userlinewidth setlinewidth
	Rounded {1 setlinejoin 1 setlinecap} if} def
3.8 setmiterlimit
% Default Line colors
/LCw {1 1 1} def
/LCb {0 0 0} def
/LCa {0 0 0} def
/LC0 {1 0 0} def
/LC1 {0 1 0} def
/LC2 {0 0 1} def
/LC3 {1 0 1} def
/LC4 {0 1 1} def
/LC5 {1 1 0} def
/LC6 {0 0 0} def
/LC7 {1 0.3 0} def
/LC8 {0.5 0.5 0.5} def
% Default Line Types
/LTw {PL [] 1 setgray} def
/LTb {BL [] LCb DL} def
/LTa {AL [1 udl mul 2 udl mul] 0 setdash LCa setrgbcolor} def
/LT0 {PL [] LC0 DL} def
/LT1 {PL [4 dl1 2 dl2] LC1 DL} def
/LT2 {PL [2 dl1 3 dl2] LC2 DL} def
/LT3 {PL [1 dl1 1.5 dl2] LC3 DL} def
/LT4 {PL [6 dl1 2 dl2 1 dl1 2 dl2] LC4 DL} def
/LT5 {PL [3 dl1 3 dl2 1 dl1 3 dl2] LC5 DL} def
/LT6 {PL [2 dl1 2 dl2 2 dl1 6 dl2] LC6 DL} def
/LT7 {PL [1 dl1 2 dl2 6 dl1 2 dl2 1 dl1 2 dl2] LC7 DL} def
/LT8 {PL [2 dl1 2 dl2 2 dl1 2 dl2 2 dl1 2 dl2 2 dl1 4 dl2] LC8 DL} def
/Pnt {stroke [] 0 setdash gsave 1 setlinecap M 0 0 V stroke grestore} def
/Dia {stroke [] 0 setdash 2 copy vpt add M
  hpt neg vpt neg V hpt vpt neg V
  hpt vpt V hpt neg vpt V closepath stroke
  Pnt} def
/Pls {stroke [] 0 setdash vpt sub M 0 vpt2 V
  currentpoint stroke M
  hpt neg vpt neg R hpt2 0 V stroke
 } def
/Box {stroke [] 0 setdash 2 copy exch hpt sub exch vpt add M
  0 vpt2 neg V hpt2 0 V 0 vpt2 V
  hpt2 neg 0 V closepath stroke
  Pnt} def
/Crs {stroke [] 0 setdash exch hpt sub exch vpt add M
  hpt2 vpt2 neg V currentpoint stroke M
  hpt2 neg 0 R hpt2 vpt2 V stroke} def
/TriU {stroke [] 0 setdash 2 copy vpt 1.12 mul add M
  hpt neg vpt -1.62 mul V
  hpt 2 mul 0 V
  hpt neg vpt 1.62 mul V closepath stroke
  Pnt} def
/Star {2 copy Pls Crs} def
/BoxF {stroke [] 0 setdash exch hpt sub exch vpt add M
  0 vpt2 neg V hpt2 0 V 0 vpt2 V
  hpt2 neg 0 V closepath fill} def
/TriUF {stroke [] 0 setdash vpt 1.12 mul add M
  hpt neg vpt -1.62 mul V
  hpt 2 mul 0 V
  hpt neg vpt 1.62 mul V closepath fill} def
/TriD {stroke [] 0 setdash 2 copy vpt 1.12 mul sub M
  hpt neg vpt 1.62 mul V
  hpt 2 mul 0 V
  hpt neg vpt -1.62 mul V closepath stroke
  Pnt} def
/TriDF {stroke [] 0 setdash vpt 1.12 mul sub M
  hpt neg vpt 1.62 mul V
  hpt 2 mul 0 V
  hpt neg vpt -1.62 mul V closepath fill} def
/DiaF {stroke [] 0 setdash vpt add M
  hpt neg vpt neg V hpt vpt neg V
  hpt vpt V hpt neg vpt V closepath fill} def
/Pent {stroke [] 0 setdash 2 copy gsave
  translate 0 hpt M 4 {72 rotate 0 hpt L} repeat
  closepath stroke grestore Pnt} def
/PentF {stroke [] 0 setdash gsave
  translate 0 hpt M 4 {72 rotate 0 hpt L} repeat
  closepath fill grestore} def
/Circle {stroke [] 0 setdash 2 copy
  hpt 0 360 arc stroke Pnt} def
/CircleF {stroke [] 0 setdash hpt 0 360 arc fill} def
/C0 {BL [] 0 setdash 2 copy moveto vpt 90 450 arc} bind def
/C1 {BL [] 0 setdash 2 copy moveto
	2 copy vpt 0 90 arc closepath fill
	vpt 0 360 arc closepath} bind def
/C2 {BL [] 0 setdash 2 copy moveto
	2 copy vpt 90 180 arc closepath fill
	vpt 0 360 arc closepath} bind def
/C3 {BL [] 0 setdash 2 copy moveto
	2 copy vpt 0 180 arc closepath fill
	vpt 0 360 arc closepath} bind def
/C4 {BL [] 0 setdash 2 copy moveto
	2 copy vpt 180 270 arc closepath fill
	vpt 0 360 arc closepath} bind def
/C5 {BL [] 0 setdash 2 copy moveto
	2 copy vpt 0 90 arc
	2 copy moveto
	2 copy vpt 180 270 arc closepath fill
	vpt 0 360 arc} bind def
/C6 {BL [] 0 setdash 2 copy moveto
	2 copy vpt 90 270 arc closepath fill
	vpt 0 360 arc closepath} bind def
/C7 {BL [] 0 setdash 2 copy moveto
	2 copy vpt 0 270 arc closepath fill
	vpt 0 360 arc closepath} bind def
/C8 {BL [] 0 setdash 2 copy moveto
	2 copy vpt 270 360 arc closepath fill
	vpt 0 360 arc closepath} bind def
/C9 {BL [] 0 setdash 2 copy moveto
	2 copy vpt 270 450 arc closepath fill
	vpt 0 360 arc closepath} bind def
/C10 {BL [] 0 setdash 2 copy 2 copy moveto vpt 270 360 arc closepath fill
	2 copy moveto
	2 copy vpt 90 180 arc closepath fill
	vpt 0 360 arc closepath} bind def
/C11 {BL [] 0 setdash 2 copy moveto
	2 copy vpt 0 180 arc closepath fill
	2 copy moveto
	2 copy vpt 270 360 arc closepath fill
	vpt 0 360 arc closepath} bind def
/C12 {BL [] 0 setdash 2 copy moveto
	2 copy vpt 180 360 arc closepath fill
	vpt 0 360 arc closepath} bind def
/C13 {BL [] 0 setdash 2 copy moveto
	2 copy vpt 0 90 arc closepath fill
	2 copy moveto
	2 copy vpt 180 360 arc closepath fill
	vpt 0 360 arc closepath} bind def
/C14 {BL [] 0 setdash 2 copy moveto
	2 copy vpt 90 360 arc closepath fill
	vpt 0 360 arc} bind def
/C15 {BL [] 0 setdash 2 copy vpt 0 360 arc closepath fill
	vpt 0 360 arc closepath} bind def
/Rec {newpath 4 2 roll moveto 1 index 0 rlineto 0 exch rlineto
	neg 0 rlineto closepath} bind def
/Square {dup Rec} bind def
/Bsquare {vpt sub exch vpt sub exch vpt2 Square} bind def
/S0 {BL [] 0 setdash 2 copy moveto 0 vpt rlineto BL Bsquare} bind def
/S1 {BL [] 0 setdash 2 copy vpt Square fill Bsquare} bind def
/S2 {BL [] 0 setdash 2 copy exch vpt sub exch vpt Square fill Bsquare} bind def
/S3 {BL [] 0 setdash 2 copy exch vpt sub exch vpt2 vpt Rec fill Bsquare} bind def
/S4 {BL [] 0 setdash 2 copy exch vpt sub exch vpt sub vpt Square fill Bsquare} bind def
/S5 {BL [] 0 setdash 2 copy 2 copy vpt Square fill
	exch vpt sub exch vpt sub vpt Square fill Bsquare} bind def
/S6 {BL [] 0 setdash 2 copy exch vpt sub exch vpt sub vpt vpt2 Rec fill Bsquare} bind def
/S7 {BL [] 0 setdash 2 copy exch vpt sub exch vpt sub vpt vpt2 Rec fill
	2 copy vpt Square fill Bsquare} bind def
/S8 {BL [] 0 setdash 2 copy vpt sub vpt Square fill Bsquare} bind def
/S9 {BL [] 0 setdash 2 copy vpt sub vpt vpt2 Rec fill Bsquare} bind def
/S10 {BL [] 0 setdash 2 copy vpt sub vpt Square fill 2 copy exch vpt sub exch vpt Square fill
	Bsquare} bind def
/S11 {BL [] 0 setdash 2 copy vpt sub vpt Square fill 2 copy exch vpt sub exch vpt2 vpt Rec fill
	Bsquare} bind def
/S12 {BL [] 0 setdash 2 copy exch vpt sub exch vpt sub vpt2 vpt Rec fill Bsquare} bind def
/S13 {BL [] 0 setdash 2 copy exch vpt sub exch vpt sub vpt2 vpt Rec fill
	2 copy vpt Square fill Bsquare} bind def
/S14 {BL [] 0 setdash 2 copy exch vpt sub exch vpt sub vpt2 vpt Rec fill
	2 copy exch vpt sub exch vpt Square fill Bsquare} bind def
/S15 {BL [] 0 setdash 2 copy Bsquare fill Bsquare} bind def
/D0 {gsave translate 45 rotate 0 0 S0 stroke grestore} bind def
/D1 {gsave translate 45 rotate 0 0 S1 stroke grestore} bind def
/D2 {gsave translate 45 rotate 0 0 S2 stroke grestore} bind def
/D3 {gsave translate 45 rotate 0 0 S3 stroke grestore} bind def
/D4 {gsave translate 45 rotate 0 0 S4 stroke grestore} bind def
/D5 {gsave translate 45 rotate 0 0 S5 stroke grestore} bind def
/D6 {gsave translate 45 rotate 0 0 S6 stroke grestore} bind def
/D7 {gsave translate 45 rotate 0 0 S7 stroke grestore} bind def
/D8 {gsave translate 45 rotate 0 0 S8 stroke grestore} bind def
/D9 {gsave translate 45 rotate 0 0 S9 stroke grestore} bind def
/D10 {gsave translate 45 rotate 0 0 S10 stroke grestore} bind def
/D11 {gsave translate 45 rotate 0 0 S11 stroke grestore} bind def
/D12 {gsave translate 45 rotate 0 0 S12 stroke grestore} bind def
/D13 {gsave translate 45 rotate 0 0 S13 stroke grestore} bind def
/D14 {gsave translate 45 rotate 0 0 S14 stroke grestore} bind def
/D15 {gsave translate 45 rotate 0 0 S15 stroke grestore} bind def
/DiaE {stroke [] 0 setdash vpt add M
  hpt neg vpt neg V hpt vpt neg V
  hpt vpt V hpt neg vpt V closepath stroke} def
/BoxE {stroke [] 0 setdash exch hpt sub exch vpt add M
  0 vpt2 neg V hpt2 0 V 0 vpt2 V
  hpt2 neg 0 V closepath stroke} def
/TriUE {stroke [] 0 setdash vpt 1.12 mul add M
  hpt neg vpt -1.62 mul V
  hpt 2 mul 0 V
  hpt neg vpt 1.62 mul V closepath stroke} def
/TriDE {stroke [] 0 setdash vpt 1.12 mul sub M
  hpt neg vpt 1.62 mul V
  hpt 2 mul 0 V
  hpt neg vpt -1.62 mul V closepath stroke} def
/PentE {stroke [] 0 setdash gsave
  translate 0 hpt M 4 {72 rotate 0 hpt L} repeat
  closepath stroke grestore} def
/CircE {stroke [] 0 setdash 
  hpt 0 360 arc stroke} def
/Opaque {gsave closepath 1 setgray fill grestore 0 setgray closepath} def
/DiaW {stroke [] 0 setdash vpt add M
  hpt neg vpt neg V hpt vpt neg V
  hpt vpt V hpt neg vpt V Opaque stroke} def
/BoxW {stroke [] 0 setdash exch hpt sub exch vpt add M
  0 vpt2 neg V hpt2 0 V 0 vpt2 V
  hpt2 neg 0 V Opaque stroke} def
/TriUW {stroke [] 0 setdash vpt 1.12 mul add M
  hpt neg vpt -1.62 mul V
  hpt 2 mul 0 V
  hpt neg vpt 1.62 mul V Opaque stroke} def
/TriDW {stroke [] 0 setdash vpt 1.12 mul sub M
  hpt neg vpt 1.62 mul V
  hpt 2 mul 0 V
  hpt neg vpt -1.62 mul V Opaque stroke} def
/PentW {stroke [] 0 setdash gsave
  translate 0 hpt M 4 {72 rotate 0 hpt L} repeat
  Opaque stroke grestore} def
/CircW {stroke [] 0 setdash 
  hpt 0 360 arc Opaque stroke} def
/BoxFill {gsave Rec 1 setgray fill grestore} def
/Density {
  /Fillden exch def
  currentrgbcolor
  /ColB exch def /ColG exch def /ColR exch def
  /ColR ColR Fillden mul Fillden sub 1 add def
  /ColG ColG Fillden mul Fillden sub 1 add def
  /ColB ColB Fillden mul Fillden sub 1 add def
  ColR ColG ColB setrgbcolor} def
/BoxColFill {gsave Rec PolyFill} def
/PolyFill {gsave Density fill grestore grestore} def
/h {rlineto rlineto rlineto gsave closepath fill grestore} bind def
%
% PostScript Level 1 Pattern Fill routine for rectangles
% Usage: x y w h s a XX PatternFill
%	x,y = lower left corner of box to be filled
%	w,h = width and height of box
%	  a = angle in degrees between lines and x-axis
%	 XX = 0/1 for no/yes cross-hatch
%
/PatternFill {gsave /PFa [ 9 2 roll ] def
  PFa 0 get PFa 2 get 2 div add PFa 1 get PFa 3 get 2 div add translate
  PFa 2 get -2 div PFa 3 get -2 div PFa 2 get PFa 3 get Rec
  TransparentPatterns {} {gsave 1 setgray fill grestore} ifelse
  clip
  currentlinewidth 0.5 mul setlinewidth
  /PFs PFa 2 get dup mul PFa 3 get dup mul add sqrt def
  0 0 M PFa 5 get rotate PFs -2 div dup translate
  0 1 PFs PFa 4 get div 1 add floor cvi
	{PFa 4 get mul 0 M 0 PFs V} for
  0 PFa 6 get ne {
	0 1 PFs PFa 4 get div 1 add floor cvi
	{PFa 4 get mul 0 2 1 roll M PFs 0 V} for
 } if
  stroke grestore} def
%
/languagelevel where
 {pop languagelevel} {1} ifelse
 2 lt
	{/InterpretLevel1 true def}
	{/InterpretLevel1 Level1 def}
 ifelse
%
% PostScript level 2 pattern fill definitions
%
/Level2PatternFill {
/Tile8x8 {/PaintType 2 /PatternType 1 /TilingType 1 /BBox [0 0 8 8] /XStep 8 /YStep 8}
	bind def
/KeepColor {currentrgbcolor [/Pattern /DeviceRGB] setcolorspace} bind def
<< Tile8x8
 /PaintProc {0.5 setlinewidth pop 0 0 M 8 8 L 0 8 M 8 0 L stroke} 
>> matrix makepattern
/Pat1 exch def
<< Tile8x8
 /PaintProc {0.5 setlinewidth pop 0 0 M 8 8 L 0 8 M 8 0 L stroke
	0 4 M 4 8 L 8 4 L 4 0 L 0 4 L stroke}
>> matrix makepattern
/Pat2 exch def
<< Tile8x8
 /PaintProc {0.5 setlinewidth pop 0 0 M 0 8 L
	8 8 L 8 0 L 0 0 L fill}
>> matrix makepattern
/Pat3 exch def
<< Tile8x8
 /PaintProc {0.5 setlinewidth pop -4 8 M 8 -4 L
	0 12 M 12 0 L stroke}
>> matrix makepattern
/Pat4 exch def
<< Tile8x8
 /PaintProc {0.5 setlinewidth pop -4 0 M 8 12 L
	0 -4 M 12 8 L stroke}
>> matrix makepattern
/Pat5 exch def
<< Tile8x8
 /PaintProc {0.5 setlinewidth pop -2 8 M 4 -4 L
	0 12 M 8 -4 L 4 12 M 10 0 L stroke}
>> matrix makepattern
/Pat6 exch def
<< Tile8x8
 /PaintProc {0.5 setlinewidth pop -2 0 M 4 12 L
	0 -4 M 8 12 L 4 -4 M 10 8 L stroke}
>> matrix makepattern
/Pat7 exch def
<< Tile8x8
 /PaintProc {0.5 setlinewidth pop 8 -2 M -4 4 L
	12 0 M -4 8 L 12 4 M 0 10 L stroke}
>> matrix makepattern
/Pat8 exch def
<< Tile8x8
 /PaintProc {0.5 setlinewidth pop 0 -2 M 12 4 L
	-4 0 M 12 8 L -4 4 M 8 10 L stroke}
>> matrix makepattern
/Pat9 exch def
/Pattern1 {PatternBgnd KeepColor Pat1 setpattern} bind def
/Pattern2 {PatternBgnd KeepColor Pat2 setpattern} bind def
/Pattern3 {PatternBgnd KeepColor Pat3 setpattern} bind def
/Pattern4 {PatternBgnd KeepColor Landscape {Pat5} {Pat4} ifelse setpattern} bind def
/Pattern5 {PatternBgnd KeepColor Landscape {Pat4} {Pat5} ifelse setpattern} bind def
/Pattern6 {PatternBgnd KeepColor Landscape {Pat9} {Pat6} ifelse setpattern} bind def
/Pattern7 {PatternBgnd KeepColor Landscape {Pat8} {Pat7} ifelse setpattern} bind def
} def
%
%
%End of PostScript Level 2 code
%
/PatternBgnd {
  TransparentPatterns {} {gsave 1 setgray fill grestore} ifelse
} def
%
% Substitute for Level 2 pattern fill codes with
% grayscale if Level 2 support is not selected.
%
/Level1PatternFill {
/Pattern1 {0.250 Density} bind def
/Pattern2 {0.500 Density} bind def
/Pattern3 {0.750 Density} bind def
/Pattern4 {0.125 Density} bind def
/Pattern5 {0.375 Density} bind def
/Pattern6 {0.625 Density} bind def
/Pattern7 {0.875 Density} bind def
} def
%
% Now test for support of Level 2 code
%
Level1 {Level1PatternFill} {Level2PatternFill} ifelse
%
/Symbol-Oblique /Symbol findfont [1 0 .167 1 0 0] makefont
dup length dict begin {1 index /FID eq {pop pop} {def} ifelse} forall
currentdict end definefont pop
/MFshow {
   { dup 5 get 3 ge
     { 5 get 3 eq {gsave} {grestore} ifelse }
     {dup dup 0 get findfont exch 1 get scalefont setfont
     [ currentpoint ] exch dup 2 get 0 exch R dup 5 get 2 ne {dup dup 6
     get exch 4 get {Gshow} {stringwidth pop 0 R} ifelse }if dup 5 get 0 eq
     {dup 3 get {2 get neg 0 exch R pop} {pop aload pop M} ifelse} {dup 5
     get 1 eq {dup 2 get exch dup 3 get exch 6 get stringwidth pop -2 div
     dup 0 R} {dup 6 get stringwidth pop -2 div 0 R 6 get
     show 2 index {aload pop M neg 3 -1 roll neg R pop pop} {pop pop pop
     pop aload pop M} ifelse }ifelse }ifelse }
     ifelse }
   forall} def
/Gswidth {dup type /stringtype eq {stringwidth} {pop (n) stringwidth} ifelse} def
/MFwidth {0 exch { dup 5 get 3 ge { 5 get 3 eq { 0 } { pop } ifelse }
 {dup 3 get{dup dup 0 get findfont exch 1 get scalefont setfont
     6 get Gswidth pop add} {pop} ifelse} ifelse} forall} def
/MLshow { currentpoint stroke M
  0 exch R
  Blacktext {gsave 0 setgray MFshow grestore} {MFshow} ifelse } bind def
/MRshow { currentpoint stroke M
  exch dup MFwidth neg 3 -1 roll R
  Blacktext {gsave 0 setgray MFshow grestore} {MFshow} ifelse } bind def
/MCshow { currentpoint stroke M
  exch dup MFwidth -2 div 3 -1 roll R
  Blacktext {gsave 0 setgray MFshow grestore} {MFshow} ifelse } bind def
/XYsave    { [( ) 1 2 true false 3 ()] } bind def
/XYrestore { [( ) 1 2 true false 4 ()] } bind def
Level1 SuppressPDFMark or 
{} {
/SDict 10 dict def
systemdict /pdfmark known not {
  userdict /pdfmark systemdict /cleartomark get put
} if
SDict begin [
  /Title (repeating_conn_36574648_3724726160.eps)
  /Subject (gnuplot plot)
  /Creator (gnuplot 4.6 patchlevel 2)
  /Author (olgabo)
%  /Producer (gnuplot)
%  /Keywords ()
  /CreationDate (Tue Apr  8 12:24:36 2014)
  /DOCINFO pdfmark
end
} ifelse
end
%%EndProlog
%%Page: 1 1
gnudict begin
gsave
doclip
50 50 translate
0.050 0.050 scale
0 setgray
newpath
(Times) findfont 200 scalefont setfont
BackgroundColor 0 lt 3 1 roll 0 lt exch 0 lt or or not {BackgroundColor C 1.000 0 0 14400.00 10080.00 BoxColFill} if
1.000 UL
LTb
LCb setrgbcolor
1.000 UL
LTa
LCa setrgbcolor
1200 3493 M
12598 0 V
stroke
LTb
LCb setrgbcolor
1200 3493 M
63 0 V
12535 0 R
-63 0 V
stroke
1080 3493 M
[ [(Times) 200.0 0.0 true true 0 ( 0)]
] -66.7 MRshow
1.000 UL
LTb
LCb setrgbcolor
1.000 UL
LTa
LCa setrgbcolor
1200 4086 M
12598 0 V
stroke
LTb
LCb setrgbcolor
1200 4086 M
63 0 V
12535 0 R
-63 0 V
stroke
1080 4086 M
[ [(Times) 200.0 0.0 true true 0 ( 200)]
] -66.7 MRshow
1.000 UL
LTb
LCb setrgbcolor
1.000 UL
LTa
LCa setrgbcolor
1200 4678 M
12598 0 V
stroke
LTb
LCb setrgbcolor
1200 4678 M
63 0 V
12535 0 R
-63 0 V
stroke
1080 4678 M
[ [(Times) 200.0 0.0 true true 0 ( 400)]
] -66.7 MRshow
1.000 UL
LTb
LCb setrgbcolor
1.000 UL
LTa
LCa setrgbcolor
1200 5271 M
12598 0 V
stroke
LTb
LCb setrgbcolor
1200 5271 M
63 0 V
12535 0 R
-63 0 V
stroke
1080 5271 M
[ [(Times) 200.0 0.0 true true 0 ( 600)]
] -66.7 MRshow
1.000 UL
LTb
LCb setrgbcolor
1.000 UL
LTa
LCa setrgbcolor
1200 5864 M
12598 0 V
stroke
LTb
LCb setrgbcolor
1200 5864 M
63 0 V
12535 0 R
-63 0 V
stroke
1080 5864 M
[ [(Times) 200.0 0.0 true true 0 ( 800)]
] -66.7 MRshow
1.000 UL
LTb
LCb setrgbcolor
1.000 UL
LTa
LCa setrgbcolor
1200 6456 M
12598 0 V
stroke
LTb
LCb setrgbcolor
1200 6456 M
63 0 V
12535 0 R
-63 0 V
stroke
1080 6456 M
[ [(Times) 200.0 0.0 true true 0 ( 1000)]
] -66.7 MRshow
1.000 UL
LTb
LCb setrgbcolor
1.000 UL
LTa
LCa setrgbcolor
1200 7049 M
12598 0 V
stroke
LTb
LCb setrgbcolor
1200 7049 M
63 0 V
12535 0 R
-63 0 V
stroke
1080 7049 M
[ [(Times) 200.0 0.0 true true 0 ( 1200)]
] -66.7 MRshow
1.000 UL
LTb
LCb setrgbcolor
1.000 UL
LTa
LCa setrgbcolor
1200 3493 M
0 3556 V
stroke
LTb
LCb setrgbcolor
1200 3493 M
0 63 V
0 3493 R
0 -63 V
stroke
1200 3373 M
currentpoint gsave translate -45 rotate 0 0 moveto
[ [(Times) 200.0 0.0 true true 0 ( 0)]
] -66.7 MLshow
grestore
1.000 UL
LTb
LCb setrgbcolor
1.000 UL
LTa
LCa setrgbcolor
3720 3493 M
0 3556 V
stroke
LTb
LCb setrgbcolor
3720 3493 M
0 63 V
0 3493 R
0 -63 V
stroke
3720 3373 M
currentpoint gsave translate -45 rotate 0 0 moveto
[ [(Times) 200.0 0.0 true true 0 ( 500)]
] -66.7 MLshow
grestore
1.000 UL
LTb
LCb setrgbcolor
1.000 UL
LTa
LCa setrgbcolor
6239 3493 M
0 3556 V
stroke
LTb
LCb setrgbcolor
6239 3493 M
0 63 V
0 3493 R
0 -63 V
stroke
6239 3373 M
currentpoint gsave translate -45 rotate 0 0 moveto
[ [(Times) 200.0 0.0 true true 0 ( 1000)]
] -66.7 MLshow
grestore
1.000 UL
LTb
LCb setrgbcolor
1.000 UL
LTa
LCa setrgbcolor
8759 3493 M
0 3556 V
stroke
LTb
LCb setrgbcolor
8759 3493 M
0 63 V
0 3493 R
0 -63 V
stroke
8759 3373 M
currentpoint gsave translate -45 rotate 0 0 moveto
[ [(Times) 200.0 0.0 true true 0 ( 1500)]
] -66.7 MLshow
grestore
1.000 UL
LTb
LCb setrgbcolor
1.000 UL
LTa
LCa setrgbcolor
11278 3493 M
0 3556 V
stroke
LTb
LCb setrgbcolor
11278 3493 M
0 63 V
0 3493 R
0 -63 V
stroke
11278 3373 M
currentpoint gsave translate -45 rotate 0 0 moveto
[ [(Times) 200.0 0.0 true true 0 ( 2000)]
] -66.7 MLshow
grestore
1.000 UL
LTb
LCb setrgbcolor
1.000 UL
LTa
LCa setrgbcolor
13798 3493 M
0 3556 V
stroke
LTb
LCb setrgbcolor
13798 3493 M
0 63 V
0 3493 R
0 -63 V
stroke
13798 3373 M
currentpoint gsave translate -45 rotate 0 0 moveto
[ [(Times) 200.0 0.0 true true 0 ( 2500)]
] -66.7 MLshow
grestore
1.000 UL
LTb
LCb setrgbcolor
1.000 UL
LTb
LCb setrgbcolor
1200 7049 N
0 -3556 V
12598 0 V
0 3556 V
-12598 0 V
Z stroke
LCb setrgbcolor
260 5271 M
currentpoint gsave translate -270 rotate 0 0 moveto
[ [(Times) 200.0 0.0 true true 0 (Duration [sec])]
] -66.7 MCshow
grestore
LTb
LCb setrgbcolor
7499 2769 M
[ [(Times) 200.0 0.0 true true 0 (Time [sec])]
] -66.7 MCshow
LTb
7499 7349 M
[ [(Times) 200.0 0.0 true true 0 (src port 80, repeating connections sorted by start time)]
] -66.7 MCshow
1.000 UP
1.000 UL
LTb
LCb setrgbcolor
1.000 UL
LT8
LC8 setrgbcolor
7108 63 N
782 0 V
-782 0 V
Z stroke
% Begin plot #1
1.000 UP
1.000 UL
LT8
0.00 0.00 1.00 C 1200 5041 M
0 -143 V
0 493 V
3014 3499 L
30 0 V
10 0 V
26 0 V
30 0 V
10 0 V
126 14 V
161 -14 V
10 0 V
15 0 V
51 0 V
5 0 V
50 0 V
10 0 V
31 0 V
5 0 V
5 0 V
20 0 V
10 0 V
20 0 V
10 -1 V
0 -1 V
5 1 V
10 1 V
5 0 V
10 0 V
10 0 V
10 0 V
5 0 V
16 0 V
10 0 V
15 0 V
10 -1 V
5 1 V
5 0 V
30 0 V
25 0 V
5 0 V
16 0 V
10 1 V
10 -1 V
5 0 V
10 0 V
15 0 V
10 0 V
20 0 V
5 -1 V
15 1 V
5 0 V
5 0 V
5 0 V
5 0 V
6 0 V
10 -1 V
5 1 V
15 -1 V
10 1 V
15 0 V
25 0 V
10 0 V
10 0 V
5 0 V
10 0 V
11 0 V
5 0 V
15 0 V
45 0 V
71 0 V
20 8 V
5 -4 V
20 -6 V
10 5 V
5 0 V
20 -3 V
5 -1 V
10 1 V
10 -1 V
0 13 V
5 -12 V
11 0 V
10 -1 V
5 0 V
15 1 V
20 0 V
15 2 V
5 -3 V
35 0 V
10 -1 V
0 1 V
10 1 V
6 0 V
10 -1 V
10 9 V
10 -8 V
5 -1 V
5 -1 V
5 2 V
5 -1 V
10 1 V
10 0 V
5 -1 V
5 0 V
10 1 V
10 0 V
10 0 V
stroke 4591 3499 M
0 15 V
10 -16 V
5 1 V
11 8 V
20 -8 V
5 -6 V
25 4 V
5 1 V
121 1473 V
6078 6606 L
10 -31 V
6214 3512 L
40 68 V
71 2023 V
6673 3499 L
15 1 V
0 19 V
20 -19 V
25 -1 V
15 0 V
5 -2 V
56 3 V
10 0 V
15 9 V
5 -9 V
10 -1 V
5 0 V
45 0 V
10 0 V
5 0 V
21 1 V
10 -1 V
10 0 V
20 1 V
10 0 V
10 0 V
10 0 V
15 -1 V
20 1 V
0 -1 V
26 0 V
10 0 V
5 0 V
60 0 V
10 13 V
10 -13 V
5 0 V
21 0 V
20 3 V
45 -1 V
10 -2 V
0 9 V
20 -8 V
15 -1 V
26 0 V
5 0 V
10 0 V
0 4 V
10 -3 V
20 -1 V
45 0 V
10 3 V
21 -2 V
20 12 V
20 0 V
40 -13 V
5 0 V
5 1 V
5 -7 V
10 7 V
21 0 V
5 0 V
50 0 V
35 0 V
30 -4 V
0 3 V
46 1 V
10 0 V
15 -1 V
5 0 V
10 0 V
5 0 V
5 -6 V
5 7 V
10 -1 V
10 0 V
16 1 V
20 -2 V
20 1 V
15 9 V
20 -9 V
5 0 V
5 0 V
15 0 V
36 0 V
10 1 V
5 -1 V
5 0 V
20 0 V
15 0 V
5 0 V
15 0 V
10 0 V
5 0 V
5 0 V
10 0 V
5 1 V
26 0 V
10 0 V
0 1 V
15 -2 V
0 1 V
10 -1 V
5 0 V
10 0 V
5 0 V
20 0 V
10 0 V
5 1 V
stroke 8189 3500 M
10 0 V
26 0 V
20 -1 V
25 0 V
5 0 V
30 10 V
25 -10 V
6 0 V
5 0 V
5 0 V
10 0 V
0 1 V
25 -1 V
5 1 V
5 0 V
10 -3 V
0 3 V
25 0 V
5 -1 V
5 0 V
5 0 V
10 1 V
0 5 V
16 4 V
5 -10 V
5 -3 V
10 3 V
40 0 V
91 2 V
20 13 V
40 -13 V
15 -1 V
5 -1 V
10 1 V
36 10 V
10 -10 V
10 -1 V
15 1 V
10 1 V
35 -2 V
15 1 V
11 -1 V
10 1 V
10 -1 V
10 2 V
5 -1 V
10 -1 V
35 8 V
40 -8 V
5 0 V
16 2 V
15 -1 V
20 -1 V
40 1 V
5 0 V
41 -1 V
25 0 V
10 0 V
5 14 V
5 -14 V
20 0 V
30 0 V
5 0 V
61 9 V
30 5 V
25 -13 V
15 9 V
26 -10 V
15 0 V
85 0 V
56 0 V
15 0 V
10 0 V
10 0 V
61 1 V
60 -1 V
10 0 V
20 0 V
25 0 V
21 0 V
25 0 V
25 0 V
10 9 V
25 -9 V
25 0 V
11 0 V
20 0 V
10 -3 V
15 3 V
5 -6 V
5 6 V
25 0 V
35 1 V
10 -1 V
6 0 V
5 0 V
15 0 V
10 0 V
15 0 V
20 0 V
10 0 V
10 0 V
10 0 V
5 0 V
stroke 10109 3499 M
26 0 V
0 9 V
5 -9 V
30 0 V
30 1 V
10 -1 V
10 9 V
5 -9 V
30 0 V
5 0 V
31 0 V
0 1 V
0 9 V
5 -9 V
5 0 V
5 -1 V
0 9 V
10 -8 V
0 -1 V
30 -2 V
0 2 V
5 0 V
15 0 V
15 0 V
16 0 V
5 0 V
5 0 V
5 0 V
25 0 V
5 0 V
15 0 V
5 0 V
5 0 V
20 0 V
30 9 V
6 0 V
15 -9 V
10 0 V
20 0 V
35 2 V
5 -2 V
46 7 V
35 -7 V
50 -2 V
15 11 V
10 -9 V
56 12 V
35 -12 V
5 0 V
5 0 V
10 0 V
15 -6 V
15 6 V
11 -1 V
5 1 V
20 0 V
5 1 V
5 -1 V
15 0 V
15 0 V
25 0 V
10 0 V
10 0 V
5 0 V
6 0 V
10 0 V
10 0 V
20 0 V
20 0 V
5 0 V
5 0 V
5 10 V
25 -10 V
5 0 V
5 0 V
15 0 V
16 0 V
5 0 V
5 0 V
5 0 V
5 0 V
0 9 V
5 0 V
5 -9 V
0 10 V
15 -10 V
5 0 V
5 0 V
5 -1 V
5 1 V
5 0 V
5 0 V
5 -1 V
10 1 V
15 0 V
11 0 V
10 -1 V
5 1 V
15 -1 V
5 1 V
10 -1 V
5 0 V
10 1 V
0 8 V
stroke 11354 3507 M
5 -8 V
5 -1 V
10 9 V
10 -8 V
20 0 V
5 0 V
5 -1 V
11 1 V
5 0 V
15 -1 V
15 1 V
5 -2 V
0 2 V
5 -2 V
5 2 V
5 0 V
10 -1 V
0 1 V
5 0 V
15 11 V
5 -10 V
5 0 V
10 -1 V
0 -1 V
0 1 V
5 0 V
0 14 V
5 -15 V
11 9 V
15 -7 V
5 14 V
5 -11 V
5 7 V
15 12 V
35 -23 V
10 10 V
30 -13 V
21 1 V
5 1 V
5 0 V
5 0 V
15 -1 V
0 3 V
1200 5041 TriUF
1200 4898 TriUF
1200 5391 TriUF
3014 3499 TriUF
3044 3499 TriUF
3054 3499 TriUF
3080 3499 TriUF
3110 3499 TriUF
3120 3499 TriUF
3246 3513 TriUF
3407 3499 TriUF
3417 3499 TriUF
3432 3499 TriUF
3483 3499 TriUF
3488 3499 TriUF
3538 3499 TriUF
3548 3499 TriUF
3579 3499 TriUF
3584 3499 TriUF
3589 3499 TriUF
3609 3499 TriUF
3619 3499 TriUF
3619 3499 TriUF
3639 3499 TriUF
3649 3498 TriUF
3649 3497 TriUF
3654 3498 TriUF
3664 3499 TriUF
3669 3499 TriUF
3679 3499 TriUF
3679 3499 TriUF
3689 3499 TriUF
3699 3499 TriUF
3704 3499 TriUF
3720 3499 TriUF
3720 3499 TriUF
3730 3499 TriUF
3730 3499 TriUF
3745 3499 TriUF
3755 3498 TriUF
3760 3499 TriUF
3765 3499 TriUF
3795 3499 TriUF
3820 3499 TriUF
3825 3499 TriUF
3825 3499 TriUF
3841 3499 TriUF
3851 3500 TriUF
3861 3499 TriUF
3866 3499 TriUF
3876 3499 TriUF
3891 3499 TriUF
3891 3499 TriUF
3901 3499 TriUF
3901 3499 TriUF
3921 3499 TriUF
3926 3498 TriUF
3941 3499 TriUF
3941 3499 TriUF
3946 3499 TriUF
3951 3499 TriUF
3956 3499 TriUF
3961 3499 TriUF
3967 3499 TriUF
3977 3498 TriUF
3982 3499 TriUF
3997 3498 TriUF
4007 3499 TriUF
4022 3499 TriUF
4047 3499 TriUF
4057 3499 TriUF
4057 3499 TriUF
4067 3499 TriUF
4067 3499 TriUF
4072 3499 TriUF
4082 3499 TriUF
4082 3499 TriUF
4093 3499 TriUF
4098 3499 TriUF
4113 3499 TriUF
4158 3499 TriUF
4229 3499 TriUF
4229 3499 TriUF
4249 3507 TriUF
4254 3503 TriUF
4274 3497 TriUF
4274 3497 TriUF
4284 3502 TriUF
4289 3502 TriUF
4309 3499 TriUF
4314 3498 TriUF
4324 3499 TriUF
4324 3499 TriUF
4334 3498 TriUF
4334 3511 TriUF
4339 3499 TriUF
4350 3499 TriUF
4360 3498 TriUF
4360 3498 TriUF
4365 3498 TriUF
4380 3499 TriUF
4400 3499 TriUF
4415 3501 TriUF
4420 3498 TriUF
4420 3498 TriUF
4455 3498 TriUF
4465 3497 TriUF
4465 3498 TriUF
4475 3499 TriUF
4481 3499 TriUF
4491 3498 TriUF
4501 3507 TriUF
4511 3499 TriUF
4516 3498 TriUF
4516 3498 TriUF
4516 3498 TriUF
4516 3498 TriUF
4521 3497 TriUF
4526 3499 TriUF
4526 3499 TriUF
4531 3498 TriUF
4541 3499 TriUF
4551 3499 TriUF
4556 3498 TriUF
4561 3498 TriUF
4571 3499 TriUF
4571 3499 TriUF
4571 3499 TriUF
4581 3499 TriUF
4581 3499 TriUF
4581 3499 TriUF
4581 3499 TriUF
4591 3499 TriUF
4591 3499 TriUF
4591 3514 TriUF
4601 3498 TriUF
4601 3498 TriUF
4606 3499 TriUF
4617 3507 TriUF
4637 3499 TriUF
4642 3493 TriUF
4667 3497 TriUF
4672 3498 TriUF
4793 4971 TriUF
6078 6606 TriUF
6088 6575 TriUF
6214 3512 TriUF
6254 3580 TriUF
6325 5603 TriUF
6673 3499 TriUF
6688 3500 TriUF
6688 3519 TriUF
6708 3500 TriUF
6733 3499 TriUF
6748 3499 TriUF
6753 3497 TriUF
6809 3500 TriUF
6819 3500 TriUF
6834 3509 TriUF
6839 3500 TriUF
6849 3499 TriUF
6854 3499 TriUF
6899 3499 TriUF
6909 3499 TriUF
6914 3499 TriUF
6935 3500 TriUF
6945 3499 TriUF
6955 3499 TriUF
6975 3500 TriUF
6985 3500 TriUF
6995 3500 TriUF
7005 3500 TriUF
7020 3499 TriUF
7020 3499 TriUF
7040 3500 TriUF
7040 3499 TriUF
7066 3499 TriUF
7076 3499 TriUF
7081 3499 TriUF
7141 3499 TriUF
7151 3512 TriUF
7161 3499 TriUF
7166 3499 TriUF
7187 3499 TriUF
7207 3502 TriUF
7252 3501 TriUF
7262 3499 TriUF
7262 3508 TriUF
7282 3500 TriUF
7297 3499 TriUF
7323 3499 TriUF
7323 3499 TriUF
7328 3499 TriUF
7338 3499 TriUF
7338 3503 TriUF
7348 3500 TriUF
7368 3499 TriUF
7413 3499 TriUF
7423 3502 TriUF
7444 3500 TriUF
7464 3512 TriUF
7484 3512 TriUF
7524 3499 TriUF
7529 3499 TriUF
7534 3500 TriUF
7539 3493 TriUF
7549 3500 TriUF
7570 3500 TriUF
7575 3500 TriUF
7625 3500 TriUF
7660 3500 TriUF
7690 3496 TriUF
7690 3499 TriUF
7736 3500 TriUF
7746 3500 TriUF
7761 3499 TriUF
7766 3499 TriUF
7776 3499 TriUF
7781 3499 TriUF
7781 3499 TriUF
7786 3493 TriUF
7791 3500 TriUF
7801 3499 TriUF
7801 3499 TriUF
7801 3499 TriUF
7811 3499 TriUF
7811 3499 TriUF
7827 3500 TriUF
7847 3498 TriUF
7867 3499 TriUF
7882 3508 TriUF
7902 3499 TriUF
7907 3499 TriUF
7912 3499 TriUF
7912 3499 TriUF
7927 3499 TriUF
7963 3499 TriUF
7973 3500 TriUF
7978 3499 TriUF
7983 3499 TriUF
8003 3499 TriUF
8003 3499 TriUF
8018 3499 TriUF
8018 3499 TriUF
8023 3499 TriUF
8038 3499 TriUF
8038 3499 TriUF
8048 3499 TriUF
8053 3499 TriUF
8058 3499 TriUF
8068 3499 TriUF
8068 3499 TriUF
8073 3500 TriUF
8099 3500 TriUF
8099 3500 TriUF
8109 3500 TriUF
8109 3501 TriUF
8124 3499 TriUF
8124 3500 TriUF
8134 3499 TriUF
8139 3499 TriUF
8149 3499 TriUF
8154 3499 TriUF
8174 3499 TriUF
8184 3499 TriUF
8184 3499 TriUF
8189 3500 TriUF
8199 3500 TriUF
8225 3500 TriUF
8245 3499 TriUF
8270 3499 TriUF
8275 3499 TriUF
8275 3499 TriUF
8305 3509 TriUF
8305 3509 TriUF
8330 3499 TriUF
8336 3499 TriUF
8341 3499 TriUF
8341 3499 TriUF
8346 3499 TriUF
8346 3499 TriUF
8356 3499 TriUF
8356 3499 TriUF
8356 3500 TriUF
8381 3499 TriUF
8381 3499 TriUF
8386 3500 TriUF
8391 3500 TriUF
8401 3497 TriUF
8401 3500 TriUF
8426 3500 TriUF
8431 3499 TriUF
8436 3499 TriUF
8441 3499 TriUF
8441 3499 TriUF
8451 3500 TriUF
8451 3505 TriUF
8467 3509 TriUF
8472 3499 TriUF
8477 3496 TriUF
8487 3499 TriUF
8527 3499 TriUF
8618 3501 TriUF
8638 3514 TriUF
8678 3501 TriUF
8693 3500 TriUF
8698 3499 TriUF
8708 3500 TriUF
8744 3510 TriUF
8754 3500 TriUF
8764 3499 TriUF
8779 3500 TriUF
8789 3501 TriUF
8824 3499 TriUF
8839 3500 TriUF
8850 3499 TriUF
8860 3500 TriUF
8870 3499 TriUF
8880 3501 TriUF
8885 3500 TriUF
8895 3499 TriUF
8930 3507 TriUF
8970 3499 TriUF
8975 3499 TriUF
8991 3501 TriUF
8991 3501 TriUF
9006 3500 TriUF
9026 3499 TriUF
9066 3500 TriUF
9071 3500 TriUF
9112 3499 TriUF
9137 3499 TriUF
9147 3499 TriUF
9152 3513 TriUF
9157 3499 TriUF
9177 3499 TriUF
9207 3499 TriUF
9212 3499 TriUF
9273 3508 TriUF
9303 3513 TriUF
9328 3500 TriUF
9343 3509 TriUF
9369 3499 TriUF
9384 3499 TriUF
9469 3499 TriUF
9525 3499 TriUF
9540 3499 TriUF
9550 3499 TriUF
9560 3499 TriUF
9621 3500 TriUF
9681 3499 TriUF
9691 3499 TriUF
9711 3499 TriUF
9736 3499 TriUF
9757 3499 TriUF
9782 3499 TriUF
9782 3499 TriUF
9807 3499 TriUF
9817 3508 TriUF
9842 3499 TriUF
9867 3499 TriUF
9867 3499 TriUF
9878 3499 TriUF
9898 3499 TriUF
9908 3496 TriUF
9923 3499 TriUF
9923 3499 TriUF
9928 3493 TriUF
9933 3499 TriUF
9958 3499 TriUF
9993 3500 TriUF
10003 3499 TriUF
10009 3499 TriUF
10014 3499 TriUF
10029 3499 TriUF
10039 3499 TriUF
10054 3499 TriUF
10074 3499 TriUF
10074 3499 TriUF
10084 3499 TriUF
10094 3499 TriUF
10104 3499 TriUF
10109 3499 TriUF
10135 3499 TriUF
10135 3508 TriUF
10140 3499 TriUF
10170 3499 TriUF
10200 3500 TriUF
10210 3499 TriUF
10220 3508 TriUF
10225 3499 TriUF
10255 3499 TriUF
10260 3499 TriUF
10291 3499 TriUF
10291 3500 TriUF
10291 3500 TriUF
10291 3509 TriUF
10296 3500 TriUF
10301 3500 TriUF
10306 3499 TriUF
10306 3508 TriUF
10316 3500 TriUF
10316 3500 TriUF
10316 3499 TriUF
10316 3499 TriUF
10346 3497 TriUF
10346 3499 TriUF
10346 3499 TriUF
10351 3499 TriUF
10366 3499 TriUF
10381 3499 TriUF
10381 3499 TriUF
10397 3499 TriUF
10402 3499 TriUF
10407 3499 TriUF
10407 3499 TriUF
10412 3499 TriUF
10437 3499 TriUF
10442 3499 TriUF
10457 3499 TriUF
10457 3499 TriUF
10462 3499 TriUF
10467 3499 TriUF
10487 3499 TriUF
10517 3508 TriUF
10523 3508 TriUF
10538 3499 TriUF
10548 3499 TriUF
10568 3499 TriUF
10603 3501 TriUF
10608 3499 TriUF
10654 3506 TriUF
10689 3499 TriUF
10739 3497 TriUF
10754 3508 TriUF
10764 3499 TriUF
10820 3511 TriUF
10855 3499 TriUF
10860 3499 TriUF
10865 3499 TriUF
10875 3499 TriUF
10875 3499 TriUF
10890 3493 TriUF
10905 3499 TriUF
10916 3498 TriUF
10921 3499 TriUF
10941 3499 TriUF
10946 3500 TriUF
10951 3499 TriUF
10966 3499 TriUF
10981 3499 TriUF
10981 3499 TriUF
11006 3499 TriUF
11016 3499 TriUF
11016 3499 TriUF
11026 3499 TriUF
11031 3499 TriUF
11037 3499 TriUF
11037 3499 TriUF
11037 3499 TriUF
11047 3499 TriUF
11057 3499 TriUF
11077 3499 TriUF
11097 3499 TriUF
11102 3499 TriUF
11107 3499 TriUF
11107 3499 TriUF
11112 3509 TriUF
11137 3499 TriUF
11142 3499 TriUF
11147 3499 TriUF
11147 3499 TriUF
11162 3499 TriUF
11178 3499 TriUF
11183 3499 TriUF
11183 3499 TriUF
11188 3499 TriUF
11193 3499 TriUF
11198 3499 TriUF
11198 3508 TriUF
11203 3508 TriUF
11208 3499 TriUF
11208 3509 TriUF
11223 3499 TriUF
11223 3499 TriUF
11228 3499 TriUF
11233 3499 TriUF
11238 3498 TriUF
11243 3499 TriUF
11248 3499 TriUF
11253 3499 TriUF
11258 3498 TriUF
11258 3498 TriUF
11268 3499 TriUF
11283 3499 TriUF
11294 3499 TriUF
11294 3499 TriUF
11304 3498 TriUF
11309 3499 TriUF
11324 3498 TriUF
11329 3499 TriUF
11339 3498 TriUF
11339 3498 TriUF
11339 3498 TriUF
11339 3498 TriUF
11344 3498 TriUF
11344 3498 TriUF
11354 3499 TriUF
11354 3499 TriUF
11354 3499 TriUF
11354 3507 TriUF
11359 3499 TriUF
11359 3499 TriUF
11359 3499 TriUF
11364 3498 TriUF
11364 3498 TriUF
11374 3507 TriUF
11384 3499 TriUF
11404 3499 TriUF
11404 3499 TriUF
11404 3499 TriUF
11409 3499 TriUF
11414 3498 TriUF
11425 3499 TriUF
11430 3499 TriUF
11445 3498 TriUF
11460 3499 TriUF
11460 3499 TriUF
11465 3497 TriUF
11465 3499 TriUF
11470 3497 TriUF
11475 3499 TriUF
11480 3499 TriUF
11480 3499 TriUF
11490 3498 TriUF
11490 3499 TriUF
11490 3499 TriUF
11495 3499 TriUF
11495 3499 TriUF
11510 3510 TriUF
11515 3500 TriUF
11520 3500 TriUF
11520 3500 TriUF
11520 3500 TriUF
11530 3499 TriUF
11530 3498 TriUF
11530 3499 TriUF
11535 3499 TriUF
11535 3499 TriUF
11535 3513 TriUF
11540 3498 TriUF
11551 3507 TriUF
11566 3500 TriUF
11571 3514 TriUF
11576 3503 TriUF
11581 3510 TriUF
11596 3522 TriUF
11631 3499 TriUF
11641 3509 TriUF
11671 3496 TriUF
11671 3496 TriUF
11692 3497 TriUF
11697 3498 TriUF
11702 3498 TriUF
11707 3498 TriUF
11707 3498 TriUF
11722 3497 TriUF
11722 3500 TriUF
% End plot #1
1.000 UL
LTb
LCb setrgbcolor
1200 7049 N
0 -3556 V
12598 0 V
0 3556 V
-12598 0 V
Z stroke
1.000 UP
1.000 UL
LTb
LCb setrgbcolor
stroke
grestore
end
showpage
%%Page: 2 2
gnudict begin
gsave
doclip
50 50 translate
0.050 0.050 scale
0 setgray
newpath
(Times) findfont 200 scalefont setfont
BackgroundColor 0 lt 3 1 roll 0 lt exch 0 lt or or not {BackgroundColor C 1.000 0 0 14400.00 10080.00 BoxColFill} if
1.000 UL
LTb
LCb setrgbcolor
1.000 UL
LTa
LCa setrgbcolor
600 3493 M
12598 0 V
stroke
LTb
LCb setrgbcolor
600 3493 M
63 0 V
12535 0 R
-63 0 V
stroke
480 3493 M
[ [(Times) 200.0 0.0 true true 0 ( 0)]
] -66.7 MRshow
1.000 UL
LTb
LCb setrgbcolor
1.000 UL
LTa
LCa setrgbcolor
600 4086 M
12598 0 V
stroke
LTb
LCb setrgbcolor
600 4086 M
63 0 V
12535 0 R
-63 0 V
stroke
480 4086 M
[ [(Times) 200.0 0.0 true true 0 ( 2e+06)]
] -66.7 MRshow
1.000 UL
LTb
LCb setrgbcolor
1.000 UL
LTa
LCa setrgbcolor
600 4678 M
12598 0 V
stroke
LTb
LCb setrgbcolor
600 4678 M
63 0 V
12535 0 R
-63 0 V
stroke
480 4678 M
[ [(Times) 200.0 0.0 true true 0 ( 4e+06)]
] -66.7 MRshow
1.000 UL
LTb
LCb setrgbcolor
1.000 UL
LTa
LCa setrgbcolor
600 5271 M
12598 0 V
stroke
LTb
LCb setrgbcolor
600 5271 M
63 0 V
12535 0 R
-63 0 V
stroke
480 5271 M
[ [(Times) 200.0 0.0 true true 0 ( 6e+06)]
] -66.7 MRshow
1.000 UL
LTb
LCb setrgbcolor
1.000 UL
LTa
LCa setrgbcolor
600 5864 M
12598 0 V
stroke
LTb
LCb setrgbcolor
600 5864 M
63 0 V
12535 0 R
-63 0 V
stroke
480 5864 M
[ [(Times) 200.0 0.0 true true 0 ( 8e+06)]
] -66.7 MRshow
1.000 UL
LTb
LCb setrgbcolor
1.000 UL
LTa
LCa setrgbcolor
600 6456 M
12598 0 V
stroke
LTb
LCb setrgbcolor
600 6456 M
63 0 V
12535 0 R
-63 0 V
stroke
480 6456 M
[ [(Times) 200.0 0.0 true true 0 ( 1e+07)]
] -66.7 MRshow
1.000 UL
LTb
LCb setrgbcolor
1.000 UL
LTa
LCa setrgbcolor
600 7049 M
12598 0 V
stroke
LTb
LCb setrgbcolor
600 7049 M
63 0 V
12535 0 R
-63 0 V
stroke
480 7049 M
[ [(Times) 200.0 0.0 true true 0 ( 1.2e+07)]
] -66.7 MRshow
1.000 UL
LTb
LCb setrgbcolor
1.000 UL
LTa
LCa setrgbcolor
600 3493 M
0 3556 V
stroke
LTb
LCb setrgbcolor
600 3493 M
0 63 V
0 3493 R
0 -63 V
stroke
600 3373 M
currentpoint gsave translate -45 rotate 0 0 moveto
[ [(Times) 200.0 0.0 true true 0 ( 0)]
] -66.7 MLshow
grestore
1.000 UL
LTb
LCb setrgbcolor
1.000 UL
LTa
LCa setrgbcolor
2700 3493 M
0 3556 V
stroke
LTb
LCb setrgbcolor
2700 3493 M
0 63 V
0 3493 R
0 -63 V
stroke
2700 3373 M
currentpoint gsave translate -45 rotate 0 0 moveto
[ [(Times) 200.0 0.0 true true 0 ( 200)]
] -66.7 MLshow
grestore
1.000 UL
LTb
LCb setrgbcolor
1.000 UL
LTa
LCa setrgbcolor
4799 3493 M
0 3556 V
stroke
LTb
LCb setrgbcolor
4799 3493 M
0 63 V
0 3493 R
0 -63 V
stroke
4799 3373 M
currentpoint gsave translate -45 rotate 0 0 moveto
[ [(Times) 200.0 0.0 true true 0 ( 400)]
] -66.7 MLshow
grestore
1.000 UL
LTb
LCb setrgbcolor
1.000 UL
LTa
LCa setrgbcolor
6899 3493 M
0 3556 V
stroke
LTb
LCb setrgbcolor
6899 3493 M
0 63 V
0 3493 R
0 -63 V
stroke
6899 3373 M
currentpoint gsave translate -45 rotate 0 0 moveto
[ [(Times) 200.0 0.0 true true 0 ( 600)]
] -66.7 MLshow
grestore
1.000 UL
LTb
LCb setrgbcolor
1.000 UL
LTa
LCa setrgbcolor
8999 3493 M
0 3556 V
stroke
LTb
LCb setrgbcolor
8999 3493 M
0 63 V
0 3493 R
0 -63 V
stroke
8999 3373 M
currentpoint gsave translate -45 rotate 0 0 moveto
[ [(Times) 200.0 0.0 true true 0 ( 800)]
] -66.7 MLshow
grestore
1.000 UL
LTb
LCb setrgbcolor
1.000 UL
LTa
LCa setrgbcolor
11098 3493 M
0 3556 V
stroke
LTb
LCb setrgbcolor
11098 3493 M
0 63 V
0 3493 R
0 -63 V
stroke
11098 3373 M
currentpoint gsave translate -45 rotate 0 0 moveto
[ [(Times) 200.0 0.0 true true 0 ( 1000)]
] -66.7 MLshow
grestore
1.000 UL
LTb
LCb setrgbcolor
1.000 UL
LTa
LCa setrgbcolor
13198 3493 M
0 3556 V
stroke
LTb
LCb setrgbcolor
13198 3493 M
0 63 V
0 3493 R
0 -63 V
stroke
13198 3373 M
currentpoint gsave translate -45 rotate 0 0 moveto
[ [(Times) 200.0 0.0 true true 0 ( 1200)]
] -66.7 MLshow
grestore
1.000 UL
LTb
LCb setrgbcolor
1.000 UL
LTb
LCb setrgbcolor
600 7049 N
0 -3556 V
12598 0 V
0 3556 V
600 7049 L
Z stroke
LCb setrgbcolor
-700 5271 M
currentpoint gsave translate -270 rotate 0 0 moveto
[ [(Times) 200.0 0.0 true true 0 (Flow size [bytes])]
] -66.7 MCshow
grestore
LTb
LCb setrgbcolor
6899 2769 M
[ [(Times) 200.0 0.0 true true 0 (Duration [sec])]
] -66.7 MCshow
LTb
6899 7349 M
[ [(Times) 200.0 0.0 true true 0 (src port 80, repeating connections sorted by duration)]
] -66.7 MCshow
1.000 UP
1.000 UL
LTb
LCb setrgbcolor
1.000 UL
LT8
LC8 setrgbcolor
6508 63 N
782 0 V
-782 0 V
Z stroke
% Begin plot #1
1.000 UP
1.000 UL
LT8
1.00 0.00 0.00 C 600 3493 TriUF
600 3493 TriUF
600 3493 TriUF
600 3493 TriUF
600 3493 TriUF
609 3493 TriUF
610 3493 TriUF
612 3493 TriUF
612 3493 TriUF
612 3493 TriUF
613 3493 TriUF
613 3493 TriUF
614 3494 TriUF
614 3493 TriUF
614 3493 TriUF
615 3493 TriUF
615 3493 TriUF
615 3493 TriUF
615 3493 TriUF
615 3493 TriUF
616 3493 TriUF
616 3493 TriUF
616 3493 TriUF
616 3493 TriUF
616 3493 TriUF
616 3493 TriUF
616 3493 TriUF
616 3493 TriUF
617 3493 TriUF
617 3493 TriUF
617 3493 TriUF
617 3493 TriUF
617 3493 TriUF
617 3493 TriUF
617 3493 TriUF
617 3493 TriUF
617 3493 TriUF
617 3493 TriUF
617 3493 TriUF
618 3493 TriUF
618 3493 TriUF
618 3493 TriUF
618 3493 TriUF
618 3493 TriUF
618 3493 TriUF
618 3493 TriUF
618 3493 TriUF
618 3493 TriUF
618 3493 TriUF
618 3493 TriUF
618 3493 TriUF
618 3493 TriUF
618 3493 TriUF
618 3493 TriUF
618 3493 TriUF
618 3493 TriUF
618 3493 TriUF
619 3493 TriUF
619 3493 TriUF
619 3493 TriUF
619 3493 TriUF
619 3493 TriUF
619 3493 TriUF
619 3493 TriUF
619 3493 TriUF
619 3493 TriUF
619 3493 TriUF
619 3493 TriUF
619 3493 TriUF
619 3493 TriUF
619 3493 TriUF
619 3493 TriUF
619 3493 TriUF
619 3493 TriUF
620 3493 TriUF
620 3493 TriUF
620 3493 TriUF
620 3493 TriUF
620 3493 TriUF
620 3493 TriUF
620 3493 TriUF
620 3493 TriUF
620 3493 TriUF
620 3493 TriUF
620 3493 TriUF
620 3493 TriUF
620 3493 TriUF
620 3493 TriUF
620 3493 TriUF
620 3493 TriUF
620 3493 TriUF
620 3493 TriUF
620 3493 TriUF
620 3493 TriUF
620 3493 TriUF
620 3493 TriUF
620 3493 TriUF
620 3493 TriUF
620 3493 TriUF
620 3493 TriUF
620 3493 TriUF
620 3493 TriUF
620 3493 TriUF
620 3493 TriUF
620 3493 TriUF
620 3493 TriUF
620 3493 TriUF
620 3493 TriUF
620 3493 TriUF
620 3493 TriUF
620 3493 TriUF
620 3493 TriUF
620 3493 TriUF
620 3493 TriUF
620 3493 TriUF
620 3493 TriUF
620 3493 TriUF
620 3493 TriUF
620 3493 TriUF
620 3493 TriUF
620 3493 TriUF
620 3493 TriUF
620 3493 TriUF
620 3493 TriUF
620 3493 TriUF
620 3493 TriUF
620 3493 TriUF
620 3493 TriUF
620 3493 TriUF
620 3493 TriUF
620 3493 TriUF
621 3493 TriUF
621 3493 TriUF
621 3493 TriUF
621 3493 TriUF
621 3493 TriUF
621 3493 TriUF
621 3493 TriUF
621 3493 TriUF
621 3493 TriUF
621 3493 TriUF
621 3493 TriUF
621 3493 TriUF
621 3493 TriUF
621 3493 TriUF
621 3493 TriUF
621 3493 TriUF
621 3493 TriUF
621 3493 TriUF
621 3493 TriUF
621 3493 TriUF
621 3493 TriUF
621 3493 TriUF
621 3493 TriUF
621 3493 TriUF
621 3493 TriUF
621 3493 TriUF
621 3493 TriUF
621 3493 TriUF
621 3493 TriUF
621 3493 TriUF
621 3493 TriUF
621 3493 TriUF
621 3493 TriUF
621 3493 TriUF
621 3493 TriUF
621 3493 TriUF
621 3493 TriUF
621 3493 TriUF
621 3493 TriUF
621 3493 TriUF
621 3493 TriUF
621 3493 TriUF
621 3493 TriUF
621 3493 TriUF
621 3493 TriUF
621 3493 TriUF
621 3493 TriUF
621 3493 TriUF
621 3493 TriUF
621 3493 TriUF
621 3493 TriUF
621 3493 TriUF
621 3493 TriUF
621 3493 TriUF
621 3493 TriUF
621 3493 TriUF
621 3493 TriUF
621 3493 TriUF
621 3493 TriUF
621 3493 TriUF
621 3493 TriUF
621 3493 TriUF
621 3493 TriUF
621 3493 TriUF
621 3493 TriUF
621 3493 TriUF
621 3493 TriUF
621 3493 TriUF
621 3493 TriUF
621 3493 TriUF
621 3493 TriUF
621 3493 TriUF
621 3493 TriUF
621 3493 TriUF
621 3493 TriUF
621 3493 TriUF
621 3493 TriUF
621 3493 TriUF
621 3493 TriUF
621 3493 TriUF
621 3493 TriUF
621 3493 TriUF
621 3493 TriUF
621 3493 TriUF
621 3493 TriUF
622 3493 TriUF
622 3493 TriUF
622 3493 TriUF
622 3493 TriUF
622 3493 TriUF
622 3493 TriUF
622 3493 TriUF
622 3493 TriUF
622 3493 TriUF
622 3493 TriUF
622 3493 TriUF
622 3493 TriUF
622 3493 TriUF
622 3493 TriUF
622 3493 TriUF
622 3493 TriUF
622 3493 TriUF
622 3493 TriUF
622 3493 TriUF
622 3493 TriUF
622 3493 TriUF
622 3493 TriUF
622 3493 TriUF
622 3493 TriUF
622 3493 TriUF
622 3493 TriUF
622 3493 TriUF
622 3493 TriUF
622 3493 TriUF
622 3493 TriUF
622 3493 TriUF
622 3493 TriUF
622 3493 TriUF
622 3493 TriUF
622 3493 TriUF
622 3493 TriUF
622 3493 TriUF
622 3493 TriUF
622 3493 TriUF
622 3493 TriUF
622 3493 TriUF
622 3493 TriUF
622 3493 TriUF
622 3493 TriUF
622 3493 TriUF
622 3493 TriUF
622 3493 TriUF
622 3493 TriUF
622 3493 TriUF
622 3493 TriUF
622 3493 TriUF
622 3493 TriUF
622 3493 TriUF
622 3493 TriUF
622 3493 TriUF
622 3493 TriUF
622 3493 TriUF
622 3493 TriUF
622 3493 TriUF
622 3493 TriUF
622 3493 TriUF
622 3493 TriUF
622 3493 TriUF
622 3493 TriUF
622 3493 TriUF
622 3493 TriUF
622 3493 TriUF
622 3493 TriUF
622 3493 TriUF
622 3493 TriUF
622 3493 TriUF
622 3493 TriUF
622 3493 TriUF
622 3493 TriUF
622 3493 TriUF
622 3493 TriUF
622 3493 TriUF
622 3493 TriUF
622 3493 TriUF
622 3493 TriUF
622 3493 TriUF
622 3493 TriUF
622 3493 TriUF
622 3493 TriUF
622 3493 TriUF
622 3493 TriUF
622 3493 TriUF
622 3493 TriUF
622 3493 TriUF
622 3493 TriUF
622 3493 TriUF
622 3493 TriUF
622 3493 TriUF
622 3493 TriUF
622 3493 TriUF
622 3493 TriUF
622 3493 TriUF
622 3493 TriUF
622 3493 TriUF
622 3493 TriUF
622 3493 TriUF
622 3493 TriUF
622 3493 TriUF
622 3493 TriUF
622 3493 TriUF
622 3493 TriUF
622 3493 TriUF
622 3493 TriUF
622 3493 TriUF
622 3493 TriUF
622 3493 TriUF
622 3493 TriUF
622 3493 TriUF
622 3493 TriUF
622 3493 TriUF
622 3493 TriUF
622 3493 TriUF
622 3493 TriUF
622 3493 TriUF
622 3493 TriUF
622 3493 TriUF
622 3493 TriUF
622 3493 TriUF
622 3493 TriUF
622 3493 TriUF
622 3493 TriUF
622 3493 TriUF
622 3493 TriUF
622 3493 TriUF
622 3493 TriUF
622 3493 TriUF
622 3493 TriUF
622 3493 TriUF
622 3493 TriUF
622 3493 TriUF
622 3493 TriUF
622 3493 TriUF
622 3493 TriUF
622 3493 TriUF
622 3493 TriUF
622 3493 TriUF
622 3493 TriUF
623 3493 TriUF
623 3493 TriUF
623 3493 TriUF
623 3493 TriUF
623 3493 TriUF
623 3493 TriUF
623 3493 TriUF
623 3493 TriUF
623 3493 TriUF
623 3493 TriUF
623 3493 TriUF
623 3493 TriUF
623 3493 TriUF
623 3493 TriUF
623 3493 TriUF
623 3493 TriUF
623 3493 TriUF
623 3493 TriUF
623 3493 TriUF
623 3493 TriUF
623 3493 TriUF
623 3493 TriUF
623 3493 TriUF
623 3493 TriUF
623 3493 TriUF
623 3493 TriUF
623 3493 TriUF
623 3493 TriUF
623 3493 TriUF
623 3493 TriUF
623 3493 TriUF
623 3493 TriUF
623 3493 TriUF
623 3493 TriUF
623 3493 TriUF
623 3493 TriUF
623 3493 TriUF
623 3493 TriUF
623 3493 TriUF
623 3493 TriUF
623 3493 TriUF
623 3493 TriUF
623 3493 TriUF
623 3493 TriUF
623 3493 TriUF
623 3493 TriUF
623 3493 TriUF
623 3493 TriUF
623 3493 TriUF
623 3493 TriUF
623 3493 TriUF
623 3493 TriUF
623 3493 TriUF
623 3493 TriUF
623 3493 TriUF
623 3493 TriUF
623 3493 TriUF
623 3493 TriUF
623 3493 TriUF
623 3493 TriUF
623 3493 TriUF
623 3493 TriUF
623 3493 TriUF
623 3493 TriUF
623 3493 TriUF
623 3493 TriUF
623 3493 TriUF
623 3493 TriUF
623 3493 TriUF
623 3493 TriUF
623 3493 TriUF
623 3493 TriUF
623 3493 TriUF
623 3493 TriUF
623 3493 TriUF
623 3493 TriUF
623 3493 TriUF
623 3493 TriUF
623 3493 TriUF
623 3493 TriUF
623 3493 TriUF
623 3493 TriUF
623 3493 TriUF
623 3493 TriUF
623 3493 TriUF
623 3493 TriUF
623 3493 TriUF
623 3493 TriUF
623 3493 TriUF
623 3493 TriUF
623 3493 TriUF
623 3493 TriUF
623 3493 TriUF
623 3493 TriUF
623 3493 TriUF
623 3493 TriUF
623 3493 TriUF
623 3493 TriUF
623 3493 TriUF
623 3493 TriUF
624 3493 TriUF
624 3493 TriUF
624 3493 TriUF
624 3493 TriUF
624 3493 TriUF
624 3493 TriUF
624 3493 TriUF
624 3493 TriUF
624 3493 TriUF
624 3493 TriUF
624 3493 TriUF
624 3493 TriUF
624 3493 TriUF
624 3493 TriUF
624 3493 TriUF
624 3493 TriUF
624 3493 TriUF
624 3493 TriUF
624 3493 TriUF
624 3493 TriUF
624 3493 TriUF
624 3493 TriUF
624 3493 TriUF
624 3493 TriUF
625 3493 TriUF
625 3493 TriUF
625 3493 TriUF
625 3493 TriUF
625 3493 TriUF
625 3493 TriUF
626 3493 TriUF
626 3493 TriUF
626 3493 TriUF
626 3493 TriUF
626 3493 TriUF
626 3493 TriUF
627 3493 TriUF
627 3493 TriUF
627 3493 TriUF
627 3493 TriUF
627 3493 TriUF
627 3493 TriUF
627 3493 TriUF
628 3493 TriUF
628 3493 TriUF
629 3493 TriUF
630 3493 TriUF
631 3493 TriUF
631 3493 TriUF
633 3493 TriUF
633 3493 TriUF
635 3493 TriUF
635 3493 TriUF
636 3493 TriUF
644 3493 TriUF
647 3493 TriUF
648 3493 TriUF
649 3493 TriUF
650 3493 TriUF
650 3493 TriUF
651 3493 TriUF
651 3493 TriUF
651 3493 TriUF
652 3493 TriUF
652 3493 TriUF
652 3493 TriUF
652 3493 TriUF
652 3493 TriUF
653 3493 TriUF
653 3493 TriUF
654 3493 TriUF
654 3493 TriUF
654 3493 TriUF
654 3493 TriUF
654 3493 TriUF
655 3493 TriUF
655 3493 TriUF
656 3493 TriUF
656 3493 TriUF
656 3493 TriUF
657 3493 TriUF
658 3493 TriUF
658 3493 TriUF
658 3493 TriUF
660 3493 TriUF
661 3493 TriUF
662 3493 TriUF
664 3502 TriUF
665 3493 TriUF
666 3493 TriUF
666 3501 TriUF
667 3493 TriUF
668 3493 TriUF
670 3493 TriUF
671 3493 TriUF
671 3493 TriUF
672 3493 TriUF
675 3494 TriUF
675 3493 TriUF
676 3493 TriUF
693 3502 TriUF
702 3493 TriUF
907 3650 TriUF
5577 6269 TriUF
5835 6952 TriUF
6083 6740 TriUF
7324 7047 TriUF
8077 6998 TriUF
11519 7028 TriUF
11630 7039 TriUF
% End plot #1
1.000 UL
LTb
LCb setrgbcolor
600 7049 N
0 -3556 V
12598 0 V
0 3556 V
600 7049 L
Z stroke
1.000 UP
1.000 UL
LTb
LCb setrgbcolor
stroke
grestore
end
showpage
%%Trailer
%%DocumentFonts: Times
