%!PS-Adobe-2.0 EPSF-2.0
%%Title: id1.eps
%%Creator: gnuplot 4.6 patchlevel 2
%%CreationDate: Tue Apr  8 14:40:13 2014
%%DocumentFonts: (atend)
%%BoundingBox: 50 50 770 554
%%EndComments
%%BeginProlog
/gnudict 256 dict def
gnudict begin
%
% The following true/false flags may be edited by hand if desired.
% The unit line width and grayscale image gamma correction may also be changed.
%
/Color true def
/Blacktext false def
/Solid false def
/Dashlength 1 def
/Landscape false def
/Level1 false def
/Rounded false def
/ClipToBoundingBox false def
/SuppressPDFMark false def
/TransparentPatterns false def
/gnulinewidth 5.000 def
/userlinewidth gnulinewidth def
/Gamma 1.0 def
/BackgroundColor {-1.000 -1.000 -1.000} def
%
/vshift -100 def
/dl1 {
  10.0 Dashlength mul mul
  Rounded { currentlinewidth 0.75 mul sub dup 0 le { pop 0.01 } if } if
} def
/dl2 {
  10.0 Dashlength mul mul
  Rounded { currentlinewidth 0.75 mul add } if
} def
/hpt_ 31.5 def
/vpt_ 31.5 def
/hpt hpt_ def
/vpt vpt_ def
/doclip {
  ClipToBoundingBox {
    newpath 50 50 moveto 770 50 lineto 770 554 lineto 50 554 lineto closepath
    clip
  } if
} def
%
% Gnuplot Prolog Version 4.6 (September 2012)
%
%/SuppressPDFMark true def
%
/M {moveto} bind def
/L {lineto} bind def
/R {rmoveto} bind def
/V {rlineto} bind def
/N {newpath moveto} bind def
/Z {closepath} bind def
/C {setrgbcolor} bind def
/f {rlineto fill} bind def
/g {setgray} bind def
/Gshow {show} def   % May be redefined later in the file to support UTF-8
/vpt2 vpt 2 mul def
/hpt2 hpt 2 mul def
/Lshow {currentpoint stroke M 0 vshift R 
	Blacktext {gsave 0 setgray show grestore} {show} ifelse} def
/Rshow {currentpoint stroke M dup stringwidth pop neg vshift R
	Blacktext {gsave 0 setgray show grestore} {show} ifelse} def
/Cshow {currentpoint stroke M dup stringwidth pop -2 div vshift R 
	Blacktext {gsave 0 setgray show grestore} {show} ifelse} def
/UP {dup vpt_ mul /vpt exch def hpt_ mul /hpt exch def
  /hpt2 hpt 2 mul def /vpt2 vpt 2 mul def} def
/DL {Color {setrgbcolor Solid {pop []} if 0 setdash}
 {pop pop pop 0 setgray Solid {pop []} if 0 setdash} ifelse} def
/BL {stroke userlinewidth 2 mul setlinewidth
	Rounded {1 setlinejoin 1 setlinecap} if} def
/AL {stroke userlinewidth 2 div setlinewidth
	Rounded {1 setlinejoin 1 setlinecap} if} def
/UL {dup gnulinewidth mul /userlinewidth exch def
	dup 1 lt {pop 1} if 10 mul /udl exch def} def
/PL {stroke userlinewidth setlinewidth
	Rounded {1 setlinejoin 1 setlinecap} if} def
3.8 setmiterlimit
% Default Line colors
/LCw {1 1 1} def
/LCb {0 0 0} def
/LCa {0 0 0} def
/LC0 {1 0 0} def
/LC1 {0 1 0} def
/LC2 {0 0 1} def
/LC3 {1 0 1} def
/LC4 {0 1 1} def
/LC5 {1 1 0} def
/LC6 {0 0 0} def
/LC7 {1 0.3 0} def
/LC8 {0.5 0.5 0.5} def
% Default Line Types
/LTw {PL [] 1 setgray} def
/LTb {BL [] LCb DL} def
/LTa {AL [1 udl mul 2 udl mul] 0 setdash LCa setrgbcolor} def
/LT0 {PL [] LC0 DL} def
/LT1 {PL [4 dl1 2 dl2] LC1 DL} def
/LT2 {PL [2 dl1 3 dl2] LC2 DL} def
/LT3 {PL [1 dl1 1.5 dl2] LC3 DL} def
/LT4 {PL [6 dl1 2 dl2 1 dl1 2 dl2] LC4 DL} def
/LT5 {PL [3 dl1 3 dl2 1 dl1 3 dl2] LC5 DL} def
/LT6 {PL [2 dl1 2 dl2 2 dl1 6 dl2] LC6 DL} def
/LT7 {PL [1 dl1 2 dl2 6 dl1 2 dl2 1 dl1 2 dl2] LC7 DL} def
/LT8 {PL [2 dl1 2 dl2 2 dl1 2 dl2 2 dl1 2 dl2 2 dl1 4 dl2] LC8 DL} def
/Pnt {stroke [] 0 setdash gsave 1 setlinecap M 0 0 V stroke grestore} def
/Dia {stroke [] 0 setdash 2 copy vpt add M
  hpt neg vpt neg V hpt vpt neg V
  hpt vpt V hpt neg vpt V closepath stroke
  Pnt} def
/Pls {stroke [] 0 setdash vpt sub M 0 vpt2 V
  currentpoint stroke M
  hpt neg vpt neg R hpt2 0 V stroke
 } def
/Box {stroke [] 0 setdash 2 copy exch hpt sub exch vpt add M
  0 vpt2 neg V hpt2 0 V 0 vpt2 V
  hpt2 neg 0 V closepath stroke
  Pnt} def
/Crs {stroke [] 0 setdash exch hpt sub exch vpt add M
  hpt2 vpt2 neg V currentpoint stroke M
  hpt2 neg 0 R hpt2 vpt2 V stroke} def
/TriU {stroke [] 0 setdash 2 copy vpt 1.12 mul add M
  hpt neg vpt -1.62 mul V
  hpt 2 mul 0 V
  hpt neg vpt 1.62 mul V closepath stroke
  Pnt} def
/Star {2 copy Pls Crs} def
/BoxF {stroke [] 0 setdash exch hpt sub exch vpt add M
  0 vpt2 neg V hpt2 0 V 0 vpt2 V
  hpt2 neg 0 V closepath fill} def
/TriUF {stroke [] 0 setdash vpt 1.12 mul add M
  hpt neg vpt -1.62 mul V
  hpt 2 mul 0 V
  hpt neg vpt 1.62 mul V closepath fill} def
/TriD {stroke [] 0 setdash 2 copy vpt 1.12 mul sub M
  hpt neg vpt 1.62 mul V
  hpt 2 mul 0 V
  hpt neg vpt -1.62 mul V closepath stroke
  Pnt} def
/TriDF {stroke [] 0 setdash vpt 1.12 mul sub M
  hpt neg vpt 1.62 mul V
  hpt 2 mul 0 V
  hpt neg vpt -1.62 mul V closepath fill} def
/DiaF {stroke [] 0 setdash vpt add M
  hpt neg vpt neg V hpt vpt neg V
  hpt vpt V hpt neg vpt V closepath fill} def
/Pent {stroke [] 0 setdash 2 copy gsave
  translate 0 hpt M 4 {72 rotate 0 hpt L} repeat
  closepath stroke grestore Pnt} def
/PentF {stroke [] 0 setdash gsave
  translate 0 hpt M 4 {72 rotate 0 hpt L} repeat
  closepath fill grestore} def
/Circle {stroke [] 0 setdash 2 copy
  hpt 0 360 arc stroke Pnt} def
/CircleF {stroke [] 0 setdash hpt 0 360 arc fill} def
/C0 {BL [] 0 setdash 2 copy moveto vpt 90 450 arc} bind def
/C1 {BL [] 0 setdash 2 copy moveto
	2 copy vpt 0 90 arc closepath fill
	vpt 0 360 arc closepath} bind def
/C2 {BL [] 0 setdash 2 copy moveto
	2 copy vpt 90 180 arc closepath fill
	vpt 0 360 arc closepath} bind def
/C3 {BL [] 0 setdash 2 copy moveto
	2 copy vpt 0 180 arc closepath fill
	vpt 0 360 arc closepath} bind def
/C4 {BL [] 0 setdash 2 copy moveto
	2 copy vpt 180 270 arc closepath fill
	vpt 0 360 arc closepath} bind def
/C5 {BL [] 0 setdash 2 copy moveto
	2 copy vpt 0 90 arc
	2 copy moveto
	2 copy vpt 180 270 arc closepath fill
	vpt 0 360 arc} bind def
/C6 {BL [] 0 setdash 2 copy moveto
	2 copy vpt 90 270 arc closepath fill
	vpt 0 360 arc closepath} bind def
/C7 {BL [] 0 setdash 2 copy moveto
	2 copy vpt 0 270 arc closepath fill
	vpt 0 360 arc closepath} bind def
/C8 {BL [] 0 setdash 2 copy moveto
	2 copy vpt 270 360 arc closepath fill
	vpt 0 360 arc closepath} bind def
/C9 {BL [] 0 setdash 2 copy moveto
	2 copy vpt 270 450 arc closepath fill
	vpt 0 360 arc closepath} bind def
/C10 {BL [] 0 setdash 2 copy 2 copy moveto vpt 270 360 arc closepath fill
	2 copy moveto
	2 copy vpt 90 180 arc closepath fill
	vpt 0 360 arc closepath} bind def
/C11 {BL [] 0 setdash 2 copy moveto
	2 copy vpt 0 180 arc closepath fill
	2 copy moveto
	2 copy vpt 270 360 arc closepath fill
	vpt 0 360 arc closepath} bind def
/C12 {BL [] 0 setdash 2 copy moveto
	2 copy vpt 180 360 arc closepath fill
	vpt 0 360 arc closepath} bind def
/C13 {BL [] 0 setdash 2 copy moveto
	2 copy vpt 0 90 arc closepath fill
	2 copy moveto
	2 copy vpt 180 360 arc closepath fill
	vpt 0 360 arc closepath} bind def
/C14 {BL [] 0 setdash 2 copy moveto
	2 copy vpt 90 360 arc closepath fill
	vpt 0 360 arc} bind def
/C15 {BL [] 0 setdash 2 copy vpt 0 360 arc closepath fill
	vpt 0 360 arc closepath} bind def
/Rec {newpath 4 2 roll moveto 1 index 0 rlineto 0 exch rlineto
	neg 0 rlineto closepath} bind def
/Square {dup Rec} bind def
/Bsquare {vpt sub exch vpt sub exch vpt2 Square} bind def
/S0 {BL [] 0 setdash 2 copy moveto 0 vpt rlineto BL Bsquare} bind def
/S1 {BL [] 0 setdash 2 copy vpt Square fill Bsquare} bind def
/S2 {BL [] 0 setdash 2 copy exch vpt sub exch vpt Square fill Bsquare} bind def
/S3 {BL [] 0 setdash 2 copy exch vpt sub exch vpt2 vpt Rec fill Bsquare} bind def
/S4 {BL [] 0 setdash 2 copy exch vpt sub exch vpt sub vpt Square fill Bsquare} bind def
/S5 {BL [] 0 setdash 2 copy 2 copy vpt Square fill
	exch vpt sub exch vpt sub vpt Square fill Bsquare} bind def
/S6 {BL [] 0 setdash 2 copy exch vpt sub exch vpt sub vpt vpt2 Rec fill Bsquare} bind def
/S7 {BL [] 0 setdash 2 copy exch vpt sub exch vpt sub vpt vpt2 Rec fill
	2 copy vpt Square fill Bsquare} bind def
/S8 {BL [] 0 setdash 2 copy vpt sub vpt Square fill Bsquare} bind def
/S9 {BL [] 0 setdash 2 copy vpt sub vpt vpt2 Rec fill Bsquare} bind def
/S10 {BL [] 0 setdash 2 copy vpt sub vpt Square fill 2 copy exch vpt sub exch vpt Square fill
	Bsquare} bind def
/S11 {BL [] 0 setdash 2 copy vpt sub vpt Square fill 2 copy exch vpt sub exch vpt2 vpt Rec fill
	Bsquare} bind def
/S12 {BL [] 0 setdash 2 copy exch vpt sub exch vpt sub vpt2 vpt Rec fill Bsquare} bind def
/S13 {BL [] 0 setdash 2 copy exch vpt sub exch vpt sub vpt2 vpt Rec fill
	2 copy vpt Square fill Bsquare} bind def
/S14 {BL [] 0 setdash 2 copy exch vpt sub exch vpt sub vpt2 vpt Rec fill
	2 copy exch vpt sub exch vpt Square fill Bsquare} bind def
/S15 {BL [] 0 setdash 2 copy Bsquare fill Bsquare} bind def
/D0 {gsave translate 45 rotate 0 0 S0 stroke grestore} bind def
/D1 {gsave translate 45 rotate 0 0 S1 stroke grestore} bind def
/D2 {gsave translate 45 rotate 0 0 S2 stroke grestore} bind def
/D3 {gsave translate 45 rotate 0 0 S3 stroke grestore} bind def
/D4 {gsave translate 45 rotate 0 0 S4 stroke grestore} bind def
/D5 {gsave translate 45 rotate 0 0 S5 stroke grestore} bind def
/D6 {gsave translate 45 rotate 0 0 S6 stroke grestore} bind def
/D7 {gsave translate 45 rotate 0 0 S7 stroke grestore} bind def
/D8 {gsave translate 45 rotate 0 0 S8 stroke grestore} bind def
/D9 {gsave translate 45 rotate 0 0 S9 stroke grestore} bind def
/D10 {gsave translate 45 rotate 0 0 S10 stroke grestore} bind def
/D11 {gsave translate 45 rotate 0 0 S11 stroke grestore} bind def
/D12 {gsave translate 45 rotate 0 0 S12 stroke grestore} bind def
/D13 {gsave translate 45 rotate 0 0 S13 stroke grestore} bind def
/D14 {gsave translate 45 rotate 0 0 S14 stroke grestore} bind def
/D15 {gsave translate 45 rotate 0 0 S15 stroke grestore} bind def
/DiaE {stroke [] 0 setdash vpt add M
  hpt neg vpt neg V hpt vpt neg V
  hpt vpt V hpt neg vpt V closepath stroke} def
/BoxE {stroke [] 0 setdash exch hpt sub exch vpt add M
  0 vpt2 neg V hpt2 0 V 0 vpt2 V
  hpt2 neg 0 V closepath stroke} def
/TriUE {stroke [] 0 setdash vpt 1.12 mul add M
  hpt neg vpt -1.62 mul V
  hpt 2 mul 0 V
  hpt neg vpt 1.62 mul V closepath stroke} def
/TriDE {stroke [] 0 setdash vpt 1.12 mul sub M
  hpt neg vpt 1.62 mul V
  hpt 2 mul 0 V
  hpt neg vpt -1.62 mul V closepath stroke} def
/PentE {stroke [] 0 setdash gsave
  translate 0 hpt M 4 {72 rotate 0 hpt L} repeat
  closepath stroke grestore} def
/CircE {stroke [] 0 setdash 
  hpt 0 360 arc stroke} def
/Opaque {gsave closepath 1 setgray fill grestore 0 setgray closepath} def
/DiaW {stroke [] 0 setdash vpt add M
  hpt neg vpt neg V hpt vpt neg V
  hpt vpt V hpt neg vpt V Opaque stroke} def
/BoxW {stroke [] 0 setdash exch hpt sub exch vpt add M
  0 vpt2 neg V hpt2 0 V 0 vpt2 V
  hpt2 neg 0 V Opaque stroke} def
/TriUW {stroke [] 0 setdash vpt 1.12 mul add M
  hpt neg vpt -1.62 mul V
  hpt 2 mul 0 V
  hpt neg vpt 1.62 mul V Opaque stroke} def
/TriDW {stroke [] 0 setdash vpt 1.12 mul sub M
  hpt neg vpt 1.62 mul V
  hpt 2 mul 0 V
  hpt neg vpt -1.62 mul V Opaque stroke} def
/PentW {stroke [] 0 setdash gsave
  translate 0 hpt M 4 {72 rotate 0 hpt L} repeat
  Opaque stroke grestore} def
/CircW {stroke [] 0 setdash 
  hpt 0 360 arc Opaque stroke} def
/BoxFill {gsave Rec 1 setgray fill grestore} def
/Density {
  /Fillden exch def
  currentrgbcolor
  /ColB exch def /ColG exch def /ColR exch def
  /ColR ColR Fillden mul Fillden sub 1 add def
  /ColG ColG Fillden mul Fillden sub 1 add def
  /ColB ColB Fillden mul Fillden sub 1 add def
  ColR ColG ColB setrgbcolor} def
/BoxColFill {gsave Rec PolyFill} def
/PolyFill {gsave Density fill grestore grestore} def
/h {rlineto rlineto rlineto gsave closepath fill grestore} bind def
%
% PostScript Level 1 Pattern Fill routine for rectangles
% Usage: x y w h s a XX PatternFill
%	x,y = lower left corner of box to be filled
%	w,h = width and height of box
%	  a = angle in degrees between lines and x-axis
%	 XX = 0/1 for no/yes cross-hatch
%
/PatternFill {gsave /PFa [ 9 2 roll ] def
  PFa 0 get PFa 2 get 2 div add PFa 1 get PFa 3 get 2 div add translate
  PFa 2 get -2 div PFa 3 get -2 div PFa 2 get PFa 3 get Rec
  TransparentPatterns {} {gsave 1 setgray fill grestore} ifelse
  clip
  currentlinewidth 0.5 mul setlinewidth
  /PFs PFa 2 get dup mul PFa 3 get dup mul add sqrt def
  0 0 M PFa 5 get rotate PFs -2 div dup translate
  0 1 PFs PFa 4 get div 1 add floor cvi
	{PFa 4 get mul 0 M 0 PFs V} for
  0 PFa 6 get ne {
	0 1 PFs PFa 4 get div 1 add floor cvi
	{PFa 4 get mul 0 2 1 roll M PFs 0 V} for
 } if
  stroke grestore} def
%
/languagelevel where
 {pop languagelevel} {1} ifelse
 2 lt
	{/InterpretLevel1 true def}
	{/InterpretLevel1 Level1 def}
 ifelse
%
% PostScript level 2 pattern fill definitions
%
/Level2PatternFill {
/Tile8x8 {/PaintType 2 /PatternType 1 /TilingType 1 /BBox [0 0 8 8] /XStep 8 /YStep 8}
	bind def
/KeepColor {currentrgbcolor [/Pattern /DeviceRGB] setcolorspace} bind def
<< Tile8x8
 /PaintProc {0.5 setlinewidth pop 0 0 M 8 8 L 0 8 M 8 0 L stroke} 
>> matrix makepattern
/Pat1 exch def
<< Tile8x8
 /PaintProc {0.5 setlinewidth pop 0 0 M 8 8 L 0 8 M 8 0 L stroke
	0 4 M 4 8 L 8 4 L 4 0 L 0 4 L stroke}
>> matrix makepattern
/Pat2 exch def
<< Tile8x8
 /PaintProc {0.5 setlinewidth pop 0 0 M 0 8 L
	8 8 L 8 0 L 0 0 L fill}
>> matrix makepattern
/Pat3 exch def
<< Tile8x8
 /PaintProc {0.5 setlinewidth pop -4 8 M 8 -4 L
	0 12 M 12 0 L stroke}
>> matrix makepattern
/Pat4 exch def
<< Tile8x8
 /PaintProc {0.5 setlinewidth pop -4 0 M 8 12 L
	0 -4 M 12 8 L stroke}
>> matrix makepattern
/Pat5 exch def
<< Tile8x8
 /PaintProc {0.5 setlinewidth pop -2 8 M 4 -4 L
	0 12 M 8 -4 L 4 12 M 10 0 L stroke}
>> matrix makepattern
/Pat6 exch def
<< Tile8x8
 /PaintProc {0.5 setlinewidth pop -2 0 M 4 12 L
	0 -4 M 8 12 L 4 -4 M 10 8 L stroke}
>> matrix makepattern
/Pat7 exch def
<< Tile8x8
 /PaintProc {0.5 setlinewidth pop 8 -2 M -4 4 L
	12 0 M -4 8 L 12 4 M 0 10 L stroke}
>> matrix makepattern
/Pat8 exch def
<< Tile8x8
 /PaintProc {0.5 setlinewidth pop 0 -2 M 12 4 L
	-4 0 M 12 8 L -4 4 M 8 10 L stroke}
>> matrix makepattern
/Pat9 exch def
/Pattern1 {PatternBgnd KeepColor Pat1 setpattern} bind def
/Pattern2 {PatternBgnd KeepColor Pat2 setpattern} bind def
/Pattern3 {PatternBgnd KeepColor Pat3 setpattern} bind def
/Pattern4 {PatternBgnd KeepColor Landscape {Pat5} {Pat4} ifelse setpattern} bind def
/Pattern5 {PatternBgnd KeepColor Landscape {Pat4} {Pat5} ifelse setpattern} bind def
/Pattern6 {PatternBgnd KeepColor Landscape {Pat9} {Pat6} ifelse setpattern} bind def
/Pattern7 {PatternBgnd KeepColor Landscape {Pat8} {Pat7} ifelse setpattern} bind def
} def
%
%
%End of PostScript Level 2 code
%
/PatternBgnd {
  TransparentPatterns {} {gsave 1 setgray fill grestore} ifelse
} def
%
% Substitute for Level 2 pattern fill codes with
% grayscale if Level 2 support is not selected.
%
/Level1PatternFill {
/Pattern1 {0.250 Density} bind def
/Pattern2 {0.500 Density} bind def
/Pattern3 {0.750 Density} bind def
/Pattern4 {0.125 Density} bind def
/Pattern5 {0.375 Density} bind def
/Pattern6 {0.625 Density} bind def
/Pattern7 {0.875 Density} bind def
} def
%
% Now test for support of Level 2 code
%
Level1 {Level1PatternFill} {Level2PatternFill} ifelse
%
/Symbol-Oblique /Symbol findfont [1 0 .167 1 0 0] makefont
dup length dict begin {1 index /FID eq {pop pop} {def} ifelse} forall
currentdict end definefont pop
/MFshow {
   { dup 5 get 3 ge
     { 5 get 3 eq {gsave} {grestore} ifelse }
     {dup dup 0 get findfont exch 1 get scalefont setfont
     [ currentpoint ] exch dup 2 get 0 exch R dup 5 get 2 ne {dup dup 6
     get exch 4 get {Gshow} {stringwidth pop 0 R} ifelse }if dup 5 get 0 eq
     {dup 3 get {2 get neg 0 exch R pop} {pop aload pop M} ifelse} {dup 5
     get 1 eq {dup 2 get exch dup 3 get exch 6 get stringwidth pop -2 div
     dup 0 R} {dup 6 get stringwidth pop -2 div 0 R 6 get
     show 2 index {aload pop M neg 3 -1 roll neg R pop pop} {pop pop pop
     pop aload pop M} ifelse }ifelse }ifelse }
     ifelse }
   forall} def
/Gswidth {dup type /stringtype eq {stringwidth} {pop (n) stringwidth} ifelse} def
/MFwidth {0 exch { dup 5 get 3 ge { 5 get 3 eq { 0 } { pop } ifelse }
 {dup 3 get{dup dup 0 get findfont exch 1 get scalefont setfont
     6 get Gswidth pop add} {pop} ifelse} ifelse} forall} def
/MLshow { currentpoint stroke M
  0 exch R
  Blacktext {gsave 0 setgray MFshow grestore} {MFshow} ifelse } bind def
/MRshow { currentpoint stroke M
  exch dup MFwidth neg 3 -1 roll R
  Blacktext {gsave 0 setgray MFshow grestore} {MFshow} ifelse } bind def
/MCshow { currentpoint stroke M
  exch dup MFwidth -2 div 3 -1 roll R
  Blacktext {gsave 0 setgray MFshow grestore} {MFshow} ifelse } bind def
/XYsave    { [( ) 1 2 true false 3 ()] } bind def
/XYrestore { [( ) 1 2 true false 4 ()] } bind def
Level1 SuppressPDFMark or 
{} {
/SDict 10 dict def
systemdict /pdfmark known not {
  userdict /pdfmark systemdict /cleartomark get put
} if
SDict begin [
  /Title (id1.eps)
  /Subject (gnuplot plot)
  /Creator (gnuplot 4.6 patchlevel 2)
  /Author (olgabo)
%  /Producer (gnuplot)
%  /Keywords ()
  /CreationDate (Tue Apr  8 14:40:13 2014)
  /DOCINFO pdfmark
end
} ifelse
end
%%EndProlog
%%Page: 1 1
gnudict begin
gsave
doclip
50 50 translate
0.050 0.050 scale
0 setgray
newpath
(Times) findfont 300 scalefont setfont
BackgroundColor 0 lt 3 1 roll 0 lt exch 0 lt or or not {BackgroundColor C 1.000 0 0 14400.00 10080.00 BoxColFill} if
1.000 UL
LTb
LCb setrgbcolor
1.000 UL
LTa
LCa setrgbcolor
1650 4327 M
12208 0 V
stroke
LTb
LCb setrgbcolor
1650 4327 M
63 0 V
12145 0 R
-63 0 V
stroke
1470 4327 M
[ [(Times) 300.0 0.0 true true 0 ( 0)]
] -100.0 MRshow
1.000 UL
LTb
LCb setrgbcolor
1.000 UL
LTa
LCa setrgbcolor
1650 4606 M
12208 0 V
stroke
LTb
LCb setrgbcolor
1650 4606 M
63 0 V
12145 0 R
-63 0 V
stroke
1470 4606 M
[ [(Times) 300.0 0.0 true true 0 ( 1000)]
] -100.0 MRshow
1.000 UL
LTb
LCb setrgbcolor
1.000 UL
LTa
LCa setrgbcolor
1650 4885 M
12208 0 V
stroke
LTb
LCb setrgbcolor
1650 4885 M
63 0 V
12145 0 R
-63 0 V
stroke
1470 4885 M
[ [(Times) 300.0 0.0 true true 0 ( 2000)]
] -100.0 MRshow
1.000 UL
LTb
LCb setrgbcolor
1.000 UL
LTa
LCa setrgbcolor
1650 5164 M
12208 0 V
stroke
LTb
LCb setrgbcolor
1650 5164 M
63 0 V
12145 0 R
-63 0 V
stroke
1470 5164 M
[ [(Times) 300.0 0.0 true true 0 ( 3000)]
] -100.0 MRshow
1.000 UL
LTb
LCb setrgbcolor
1.000 UL
LTa
LCa setrgbcolor
1650 5444 M
12208 0 V
stroke
LTb
LCb setrgbcolor
1650 5444 M
63 0 V
12145 0 R
-63 0 V
stroke
1470 5444 M
[ [(Times) 300.0 0.0 true true 0 ( 4000)]
] -100.0 MRshow
1.000 UL
LTb
LCb setrgbcolor
1.000 UL
LTa
LCa setrgbcolor
1650 5723 M
12208 0 V
stroke
LTb
LCb setrgbcolor
1650 5723 M
63 0 V
12145 0 R
-63 0 V
stroke
1470 5723 M
[ [(Times) 300.0 0.0 true true 0 ( 5000)]
] -100.0 MRshow
1.000 UL
LTb
LCb setrgbcolor
1.000 UL
LTa
LCa setrgbcolor
1650 6002 M
12208 0 V
stroke
LTb
LCb setrgbcolor
1650 6002 M
63 0 V
12145 0 R
-63 0 V
stroke
1470 6002 M
[ [(Times) 300.0 0.0 true true 0 ( 6000)]
] -100.0 MRshow
1.000 UL
LTb
LCb setrgbcolor
1.000 UL
LTa
LCa setrgbcolor
1650 6281 M
12208 0 V
stroke
LTb
LCb setrgbcolor
1650 6281 M
63 0 V
12145 0 R
-63 0 V
stroke
1470 6281 M
[ [(Times) 300.0 0.0 true true 0 ( 7000)]
] -100.0 MRshow
1.000 UL
LTb
LCb setrgbcolor
1.000 UL
LTa
LCa setrgbcolor
1650 6560 M
12208 0 V
stroke
LTb
LCb setrgbcolor
1650 6560 M
63 0 V
12145 0 R
-63 0 V
stroke
1470 6560 M
[ [(Times) 300.0 0.0 true true 0 ( 8000)]
] -100.0 MRshow
1.000 UL
LTb
LCb setrgbcolor
1.000 UL
LTa
LCa setrgbcolor
1650 4327 M
0 2233 V
stroke
LTb
LCb setrgbcolor
1650 4327 M
0 63 V
0 2170 R
0 -63 V
stroke
1650 4147 M
currentpoint gsave translate -45 rotate 0 0 moveto
[ [(Times) 300.0 0.0 true true 0 ( 0)]
] -100.0 MLshow
grestore
1.000 UL
LTb
LCb setrgbcolor
1.000 UL
LTa
LCa setrgbcolor
3176 4327 M
0 2233 V
stroke
LTb
LCb setrgbcolor
3176 4327 M
0 63 V
0 2170 R
0 -63 V
stroke
3176 4147 M
currentpoint gsave translate -45 rotate 0 0 moveto
[ [(Times) 300.0 0.0 true true 0 ( 20)]
] -100.0 MLshow
grestore
1.000 UL
LTb
LCb setrgbcolor
1.000 UL
LTa
LCa setrgbcolor
4702 4327 M
0 2233 V
stroke
LTb
LCb setrgbcolor
4702 4327 M
0 63 V
0 2170 R
0 -63 V
stroke
4702 4147 M
currentpoint gsave translate -45 rotate 0 0 moveto
[ [(Times) 300.0 0.0 true true 0 ( 40)]
] -100.0 MLshow
grestore
1.000 UL
LTb
LCb setrgbcolor
1.000 UL
LTa
LCa setrgbcolor
6228 4327 M
0 2233 V
stroke
LTb
LCb setrgbcolor
6228 4327 M
0 63 V
0 2170 R
0 -63 V
stroke
6228 4147 M
currentpoint gsave translate -45 rotate 0 0 moveto
[ [(Times) 300.0 0.0 true true 0 ( 60)]
] -100.0 MLshow
grestore
1.000 UL
LTb
LCb setrgbcolor
1.000 UL
LTa
LCa setrgbcolor
7754 4327 M
0 2233 V
stroke
LTb
LCb setrgbcolor
7754 4327 M
0 63 V
0 2170 R
0 -63 V
stroke
7754 4147 M
currentpoint gsave translate -45 rotate 0 0 moveto
[ [(Times) 300.0 0.0 true true 0 ( 80)]
] -100.0 MLshow
grestore
1.000 UL
LTb
LCb setrgbcolor
1.000 UL
LTa
LCa setrgbcolor
9280 4327 M
0 2233 V
stroke
LTb
LCb setrgbcolor
9280 4327 M
0 63 V
0 2170 R
0 -63 V
stroke
9280 4147 M
currentpoint gsave translate -45 rotate 0 0 moveto
[ [(Times) 300.0 0.0 true true 0 ( 100)]
] -100.0 MLshow
grestore
1.000 UL
LTb
LCb setrgbcolor
1.000 UL
LTa
LCa setrgbcolor
10806 4327 M
0 2233 V
stroke
LTb
LCb setrgbcolor
10806 4327 M
0 63 V
0 2170 R
0 -63 V
stroke
10806 4147 M
currentpoint gsave translate -45 rotate 0 0 moveto
[ [(Times) 300.0 0.0 true true 0 ( 120)]
] -100.0 MLshow
grestore
1.000 UL
LTb
LCb setrgbcolor
1.000 UL
LTa
LCa setrgbcolor
12332 4327 M
0 2233 V
stroke
LTb
LCb setrgbcolor
12332 4327 M
0 63 V
0 2170 R
0 -63 V
stroke
12332 4147 M
currentpoint gsave translate -45 rotate 0 0 moveto
[ [(Times) 300.0 0.0 true true 0 ( 140)]
] -100.0 MLshow
grestore
1.000 UL
LTb
LCb setrgbcolor
1.000 UL
LTa
LCa setrgbcolor
13858 4327 M
0 2233 V
stroke
LTb
LCb setrgbcolor
13858 4327 M
0 63 V
0 2170 R
0 -63 V
stroke
13858 4147 M
currentpoint gsave translate -45 rotate 0 0 moveto
[ [(Times) 300.0 0.0 true true 0 ( 160)]
] -100.0 MLshow
grestore
1.000 UL
LTb
LCb setrgbcolor
1.000 UL
LTb
LCb setrgbcolor
1650 6560 N
0 -2233 V
12208 0 V
0 2233 V
-12208 0 V
Z stroke
LCb setrgbcolor
240 5443 M
currentpoint gsave translate -270 rotate 0 0 moveto
[ [(Times) 300.0 0.0 true true 0 (Interarrival time [ms] / Payload size [bytes])]
] -100.0 MCshow
grestore
LTb
LCb setrgbcolor
7754 3368 M
[ [(Times) 300.0 0.0 true true 0 (Packet nr)]
] -100.0 MCshow
LTb
1.000 UP
1.000 UL
LTb
LCb setrgbcolor
% Begin plot #1
1.500 UP
5.000 UL
LT0
0.00 0.38 0.68 C 1650 4327 M
76 0 V
77 0 V
76 0 V
76 16 V
77 -16 V
76 0 V
76 0 V
76 0 V
77 16 V
76 -16 V
76 0 V
77 0 V
76 0 V
76 0 V
77 0 V
76 16 V
76 -16 V
76 0 V
77 0 V
76 0 V
76 0 V
77 0 V
76 0 V
76 0 V
77 0 V
76 3 V
76 10 V
76 -13 V
77 0 V
76 0 V
76 0 V
77 0 V
76 0 V
76 0 V
77 0 V
76 0 V
76 0 V
76 1 V
77 -1 V
76 2007 V
76 -2007 V
77 0 V
76 0 V
76 16 V
77 -16 V
76 0 V
76 0 V
76 16 V
77 -16 V
76 0 V
76 0 V
77 0 V
76 0 V
76 16 V
77 -16 V
76 0 V
76 0 V
76 0 V
77 0 V
76 0 V
76 0 V
77 16 V
76 -16 V
76 0 V
77 0 V
76 0 V
76 0 V
76 0 V
77 0 V
76 0 V
76 0 V
77 0 V
76 16 V
76 -16 V
77 0 V
76 0 V
76 0 V
76 0 V
77 0 V
76 0 V
76 0 V
77 0 V
76 0 V
76 0 V
77 0 V
76 3 V
76 -3 V
76 13 V
77 -13 V
76 0 V
76 0 V
77 0 V
76 0 V
76 0 V
77 0 V
76 0 V
76 0 V
76 0 V
77 372 V
76 -372 V
76 0 V
77 0 V
76 16 V
76 -16 V
stroke 9585 4327 M
77 0 V
76 0 V
76 16 V
76 -16 V
77 0 V
76 0 V
76 0 V
77 16 V
76 -16 V
76 0 V
77 0 V
76 0 V
76 0 V
76 0 V
77 16 V
76 -16 V
76 0 V
77 0 V
76 0 V
76 0 V
77 0 V
76 11 V
76 -11 V
76 5 V
77 -5 V
76 0 V
76 0 V
77 0 V
76 0 V
76 0 V
77 0 V
76 0 V
76 0 V
76 3 V
77 5 V
76 -8 V
76 0 V
77 0 V
76 5 V
76 -5 V
77 0 V
76 14 V
76 -14 V
76 0 V
77 0 V
76 0 V
76 0 V
stroke
LCw setrgbcolor
1.000 UP
1650 4327 CircleF
1.500 UP
5.000 UL
LT0
0.00 0.38 0.68 C 1650 4327 CircleF
LCw setrgbcolor
1.000 UP
1726 4327 CircleF
1.500 UP
5.000 UL
LT0
0.00 0.38 0.68 C 1726 4327 CircleF
LCw setrgbcolor
1.000 UP
1803 4327 CircleF
1.500 UP
5.000 UL
LT0
0.00 0.38 0.68 C 1803 4327 CircleF
LCw setrgbcolor
1.000 UP
1879 4327 CircleF
1.500 UP
5.000 UL
LT0
0.00 0.38 0.68 C 1879 4327 CircleF
LCw setrgbcolor
1.000 UP
1955 4343 CircleF
1.500 UP
5.000 UL
LT0
0.00 0.38 0.68 C 1955 4343 CircleF
LCw setrgbcolor
1.000 UP
2032 4327 CircleF
1.500 UP
5.000 UL
LT0
0.00 0.38 0.68 C 2032 4327 CircleF
LCw setrgbcolor
1.000 UP
2108 4327 CircleF
1.500 UP
5.000 UL
LT0
0.00 0.38 0.68 C 2108 4327 CircleF
LCw setrgbcolor
1.000 UP
2184 4327 CircleF
1.500 UP
5.000 UL
LT0
0.00 0.38 0.68 C 2184 4327 CircleF
LCw setrgbcolor
1.000 UP
2260 4327 CircleF
1.500 UP
5.000 UL
LT0
0.00 0.38 0.68 C 2260 4327 CircleF
LCw setrgbcolor
1.000 UP
2337 4343 CircleF
1.500 UP
5.000 UL
LT0
0.00 0.38 0.68 C 2337 4343 CircleF
LCw setrgbcolor
1.000 UP
2413 4327 CircleF
1.500 UP
5.000 UL
LT0
0.00 0.38 0.68 C 2413 4327 CircleF
LCw setrgbcolor
1.000 UP
2489 4327 CircleF
1.500 UP
5.000 UL
LT0
0.00 0.38 0.68 C 2489 4327 CircleF
LCw setrgbcolor
1.000 UP
2566 4327 CircleF
1.500 UP
5.000 UL
LT0
0.00 0.38 0.68 C 2566 4327 CircleF
LCw setrgbcolor
1.000 UP
2642 4327 CircleF
1.500 UP
5.000 UL
LT0
0.00 0.38 0.68 C 2642 4327 CircleF
LCw setrgbcolor
1.000 UP
2718 4327 CircleF
1.500 UP
5.000 UL
LT0
0.00 0.38 0.68 C 2718 4327 CircleF
LCw setrgbcolor
1.000 UP
2795 4327 CircleF
1.500 UP
5.000 UL
LT0
0.00 0.38 0.68 C 2795 4327 CircleF
LCw setrgbcolor
1.000 UP
2871 4343 CircleF
1.500 UP
5.000 UL
LT0
0.00 0.38 0.68 C 2871 4343 CircleF
LCw setrgbcolor
1.000 UP
2947 4327 CircleF
1.500 UP
5.000 UL
LT0
0.00 0.38 0.68 C 2947 4327 CircleF
LCw setrgbcolor
1.000 UP
3023 4327 CircleF
1.500 UP
5.000 UL
LT0
0.00 0.38 0.68 C 3023 4327 CircleF
LCw setrgbcolor
1.000 UP
3100 4327 CircleF
1.500 UP
5.000 UL
LT0
0.00 0.38 0.68 C 3100 4327 CircleF
LCw setrgbcolor
1.000 UP
3176 4327 CircleF
1.500 UP
5.000 UL
LT0
0.00 0.38 0.68 C 3176 4327 CircleF
LCw setrgbcolor
1.000 UP
3252 4327 CircleF
1.500 UP
5.000 UL
LT0
0.00 0.38 0.68 C 3252 4327 CircleF
LCw setrgbcolor
1.000 UP
3329 4327 CircleF
1.500 UP
5.000 UL
LT0
0.00 0.38 0.68 C 3329 4327 CircleF
LCw setrgbcolor
1.000 UP
3405 4327 CircleF
1.500 UP
5.000 UL
LT0
0.00 0.38 0.68 C 3405 4327 CircleF
LCw setrgbcolor
1.000 UP
3481 4327 CircleF
1.500 UP
5.000 UL
LT0
0.00 0.38 0.68 C 3481 4327 CircleF
LCw setrgbcolor
1.000 UP
3558 4327 CircleF
1.500 UP
5.000 UL
LT0
0.00 0.38 0.68 C 3558 4327 CircleF
LCw setrgbcolor
1.000 UP
3634 4330 CircleF
1.500 UP
5.000 UL
LT0
0.00 0.38 0.68 C 3634 4330 CircleF
LCw setrgbcolor
1.000 UP
3710 4340 CircleF
1.500 UP
5.000 UL
LT0
0.00 0.38 0.68 C 3710 4340 CircleF
LCw setrgbcolor
1.000 UP
3786 4327 CircleF
1.500 UP
5.000 UL
LT0
0.00 0.38 0.68 C 3786 4327 CircleF
LCw setrgbcolor
1.000 UP
3863 4327 CircleF
1.500 UP
5.000 UL
LT0
0.00 0.38 0.68 C 3863 4327 CircleF
LCw setrgbcolor
1.000 UP
3939 4327 CircleF
1.500 UP
5.000 UL
LT0
0.00 0.38 0.68 C 3939 4327 CircleF
LCw setrgbcolor
1.000 UP
4015 4327 CircleF
1.500 UP
5.000 UL
LT0
0.00 0.38 0.68 C 4015 4327 CircleF
LCw setrgbcolor
1.000 UP
4092 4327 CircleF
1.500 UP
5.000 UL
LT0
0.00 0.38 0.68 C 4092 4327 CircleF
LCw setrgbcolor
1.000 UP
4168 4327 CircleF
1.500 UP
5.000 UL
LT0
0.00 0.38 0.68 C 4168 4327 CircleF
LCw setrgbcolor
1.000 UP
4244 4327 CircleF
1.500 UP
5.000 UL
LT0
0.00 0.38 0.68 C 4244 4327 CircleF
LCw setrgbcolor
1.000 UP
4321 4327 CircleF
1.500 UP
5.000 UL
LT0
0.00 0.38 0.68 C 4321 4327 CircleF
LCw setrgbcolor
1.000 UP
4397 4327 CircleF
1.500 UP
5.000 UL
LT0
0.00 0.38 0.68 C 4397 4327 CircleF
LCw setrgbcolor
1.000 UP
4473 4327 CircleF
1.500 UP
5.000 UL
LT0
0.00 0.38 0.68 C 4473 4327 CircleF
LCw setrgbcolor
1.000 UP
4549 4328 CircleF
1.500 UP
5.000 UL
LT0
0.00 0.38 0.68 C 4549 4328 CircleF
LCw setrgbcolor
1.000 UP
4626 4327 CircleF
1.500 UP
5.000 UL
LT0
0.00 0.38 0.68 C 4626 4327 CircleF
LCw setrgbcolor
1.000 UP
4702 6334 CircleF
1.500 UP
5.000 UL
LT0
0.00 0.38 0.68 C 4702 6334 CircleF
LCw setrgbcolor
1.000 UP
4778 4327 CircleF
1.500 UP
5.000 UL
LT0
0.00 0.38 0.68 C 4778 4327 CircleF
LCw setrgbcolor
1.000 UP
4855 4327 CircleF
1.500 UP
5.000 UL
LT0
0.00 0.38 0.68 C 4855 4327 CircleF
LCw setrgbcolor
1.000 UP
4931 4327 CircleF
1.500 UP
5.000 UL
LT0
0.00 0.38 0.68 C 4931 4327 CircleF
LCw setrgbcolor
1.000 UP
5007 4343 CircleF
1.500 UP
5.000 UL
LT0
0.00 0.38 0.68 C 5007 4343 CircleF
LCw setrgbcolor
1.000 UP
5084 4327 CircleF
1.500 UP
5.000 UL
LT0
0.00 0.38 0.68 C 5084 4327 CircleF
LCw setrgbcolor
1.000 UP
5160 4327 CircleF
1.500 UP
5.000 UL
LT0
0.00 0.38 0.68 C 5160 4327 CircleF
LCw setrgbcolor
1.000 UP
5236 4327 CircleF
1.500 UP
5.000 UL
LT0
0.00 0.38 0.68 C 5236 4327 CircleF
LCw setrgbcolor
1.000 UP
5312 4343 CircleF
1.500 UP
5.000 UL
LT0
0.00 0.38 0.68 C 5312 4343 CircleF
LCw setrgbcolor
1.000 UP
5389 4327 CircleF
1.500 UP
5.000 UL
LT0
0.00 0.38 0.68 C 5389 4327 CircleF
LCw setrgbcolor
1.000 UP
5465 4327 CircleF
1.500 UP
5.000 UL
LT0
0.00 0.38 0.68 C 5465 4327 CircleF
LCw setrgbcolor
1.000 UP
5541 4327 CircleF
1.500 UP
5.000 UL
LT0
0.00 0.38 0.68 C 5541 4327 CircleF
LCw setrgbcolor
1.000 UP
5618 4327 CircleF
1.500 UP
5.000 UL
LT0
0.00 0.38 0.68 C 5618 4327 CircleF
LCw setrgbcolor
1.000 UP
5694 4327 CircleF
1.500 UP
5.000 UL
LT0
0.00 0.38 0.68 C 5694 4327 CircleF
LCw setrgbcolor
1.000 UP
5770 4343 CircleF
1.500 UP
5.000 UL
LT0
0.00 0.38 0.68 C 5770 4343 CircleF
LCw setrgbcolor
1.000 UP
5847 4327 CircleF
1.500 UP
5.000 UL
LT0
0.00 0.38 0.68 C 5847 4327 CircleF
LCw setrgbcolor
1.000 UP
5923 4327 CircleF
1.500 UP
5.000 UL
LT0
0.00 0.38 0.68 C 5923 4327 CircleF
LCw setrgbcolor
1.000 UP
5999 4327 CircleF
1.500 UP
5.000 UL
LT0
0.00 0.38 0.68 C 5999 4327 CircleF
LCw setrgbcolor
1.000 UP
6075 4327 CircleF
1.500 UP
5.000 UL
LT0
0.00 0.38 0.68 C 6075 4327 CircleF
LCw setrgbcolor
1.000 UP
6152 4327 CircleF
1.500 UP
5.000 UL
LT0
0.00 0.38 0.68 C 6152 4327 CircleF
LCw setrgbcolor
1.000 UP
6228 4327 CircleF
1.500 UP
5.000 UL
LT0
0.00 0.38 0.68 C 6228 4327 CircleF
LCw setrgbcolor
1.000 UP
6304 4327 CircleF
1.500 UP
5.000 UL
LT0
0.00 0.38 0.68 C 6304 4327 CircleF
LCw setrgbcolor
1.000 UP
6381 4343 CircleF
1.500 UP
5.000 UL
LT0
0.00 0.38 0.68 C 6381 4343 CircleF
LCw setrgbcolor
1.000 UP
6457 4327 CircleF
1.500 UP
5.000 UL
LT0
0.00 0.38 0.68 C 6457 4327 CircleF
LCw setrgbcolor
1.000 UP
6533 4327 CircleF
1.500 UP
5.000 UL
LT0
0.00 0.38 0.68 C 6533 4327 CircleF
LCw setrgbcolor
1.000 UP
6610 4327 CircleF
1.500 UP
5.000 UL
LT0
0.00 0.38 0.68 C 6610 4327 CircleF
LCw setrgbcolor
1.000 UP
6686 4327 CircleF
1.500 UP
5.000 UL
LT0
0.00 0.38 0.68 C 6686 4327 CircleF
LCw setrgbcolor
1.000 UP
6762 4327 CircleF
1.500 UP
5.000 UL
LT0
0.00 0.38 0.68 C 6762 4327 CircleF
LCw setrgbcolor
1.000 UP
6838 4327 CircleF
1.500 UP
5.000 UL
LT0
0.00 0.38 0.68 C 6838 4327 CircleF
LCw setrgbcolor
1.000 UP
6915 4327 CircleF
1.500 UP
5.000 UL
LT0
0.00 0.38 0.68 C 6915 4327 CircleF
LCw setrgbcolor
1.000 UP
6991 4327 CircleF
1.500 UP
5.000 UL
LT0
0.00 0.38 0.68 C 6991 4327 CircleF
LCw setrgbcolor
1.000 UP
7067 4327 CircleF
1.500 UP
5.000 UL
LT0
0.00 0.38 0.68 C 7067 4327 CircleF
LCw setrgbcolor
1.000 UP
7144 4327 CircleF
1.500 UP
5.000 UL
LT0
0.00 0.38 0.68 C 7144 4327 CircleF
LCw setrgbcolor
1.000 UP
7220 4343 CircleF
1.500 UP
5.000 UL
LT0
0.00 0.38 0.68 C 7220 4343 CircleF
LCw setrgbcolor
1.000 UP
7296 4327 CircleF
1.500 UP
5.000 UL
LT0
0.00 0.38 0.68 C 7296 4327 CircleF
LCw setrgbcolor
1.000 UP
7373 4327 CircleF
1.500 UP
5.000 UL
LT0
0.00 0.38 0.68 C 7373 4327 CircleF
LCw setrgbcolor
1.000 UP
7449 4327 CircleF
1.500 UP
5.000 UL
LT0
0.00 0.38 0.68 C 7449 4327 CircleF
LCw setrgbcolor
1.000 UP
7525 4327 CircleF
1.500 UP
5.000 UL
LT0
0.00 0.38 0.68 C 7525 4327 CircleF
LCw setrgbcolor
1.000 UP
7601 4327 CircleF
1.500 UP
5.000 UL
LT0
0.00 0.38 0.68 C 7601 4327 CircleF
LCw setrgbcolor
1.000 UP
7678 4327 CircleF
1.500 UP
5.000 UL
LT0
0.00 0.38 0.68 C 7678 4327 CircleF
LCw setrgbcolor
1.000 UP
7754 4327 CircleF
1.500 UP
5.000 UL
LT0
0.00 0.38 0.68 C 7754 4327 CircleF
LCw setrgbcolor
1.000 UP
7830 4327 CircleF
1.500 UP
5.000 UL
LT0
0.00 0.38 0.68 C 7830 4327 CircleF
LCw setrgbcolor
1.000 UP
7907 4327 CircleF
1.500 UP
5.000 UL
LT0
0.00 0.38 0.68 C 7907 4327 CircleF
LCw setrgbcolor
1.000 UP
7983 4327 CircleF
1.500 UP
5.000 UL
LT0
0.00 0.38 0.68 C 7983 4327 CircleF
LCw setrgbcolor
1.000 UP
8059 4327 CircleF
1.500 UP
5.000 UL
LT0
0.00 0.38 0.68 C 8059 4327 CircleF
LCw setrgbcolor
1.000 UP
8136 4327 CircleF
1.500 UP
5.000 UL
LT0
0.00 0.38 0.68 C 8136 4327 CircleF
LCw setrgbcolor
1.000 UP
8212 4330 CircleF
1.500 UP
5.000 UL
LT0
0.00 0.38 0.68 C 8212 4330 CircleF
LCw setrgbcolor
1.000 UP
8288 4327 CircleF
1.500 UP
5.000 UL
LT0
0.00 0.38 0.68 C 8288 4327 CircleF
LCw setrgbcolor
1.000 UP
8364 4340 CircleF
1.500 UP
5.000 UL
LT0
0.00 0.38 0.68 C 8364 4340 CircleF
LCw setrgbcolor
1.000 UP
8441 4327 CircleF
1.500 UP
5.000 UL
LT0
0.00 0.38 0.68 C 8441 4327 CircleF
LCw setrgbcolor
1.000 UP
8517 4327 CircleF
1.500 UP
5.000 UL
LT0
0.00 0.38 0.68 C 8517 4327 CircleF
LCw setrgbcolor
1.000 UP
8593 4327 CircleF
1.500 UP
5.000 UL
LT0
0.00 0.38 0.68 C 8593 4327 CircleF
LCw setrgbcolor
1.000 UP
8670 4327 CircleF
1.500 UP
5.000 UL
LT0
0.00 0.38 0.68 C 8670 4327 CircleF
LCw setrgbcolor
1.000 UP
8746 4327 CircleF
1.500 UP
5.000 UL
LT0
0.00 0.38 0.68 C 8746 4327 CircleF
LCw setrgbcolor
1.000 UP
8822 4327 CircleF
1.500 UP
5.000 UL
LT0
0.00 0.38 0.68 C 8822 4327 CircleF
LCw setrgbcolor
1.000 UP
8899 4327 CircleF
1.500 UP
5.000 UL
LT0
0.00 0.38 0.68 C 8899 4327 CircleF
LCw setrgbcolor
1.000 UP
8975 4327 CircleF
1.500 UP
5.000 UL
LT0
0.00 0.38 0.68 C 8975 4327 CircleF
LCw setrgbcolor
1.000 UP
9051 4327 CircleF
1.500 UP
5.000 UL
LT0
0.00 0.38 0.68 C 9051 4327 CircleF
LCw setrgbcolor
1.000 UP
9127 4327 CircleF
1.500 UP
5.000 UL
LT0
0.00 0.38 0.68 C 9127 4327 CircleF
LCw setrgbcolor
1.000 UP
9204 4699 CircleF
1.500 UP
5.000 UL
LT0
0.00 0.38 0.68 C 9204 4699 CircleF
LCw setrgbcolor
1.000 UP
9280 4327 CircleF
1.500 UP
5.000 UL
LT0
0.00 0.38 0.68 C 9280 4327 CircleF
LCw setrgbcolor
1.000 UP
9356 4327 CircleF
1.500 UP
5.000 UL
LT0
0.00 0.38 0.68 C 9356 4327 CircleF
LCw setrgbcolor
1.000 UP
9433 4327 CircleF
1.500 UP
5.000 UL
LT0
0.00 0.38 0.68 C 9433 4327 CircleF
LCw setrgbcolor
1.000 UP
9509 4343 CircleF
1.500 UP
5.000 UL
LT0
0.00 0.38 0.68 C 9509 4343 CircleF
LCw setrgbcolor
1.000 UP
9585 4327 CircleF
1.500 UP
5.000 UL
LT0
0.00 0.38 0.68 C 9585 4327 CircleF
LCw setrgbcolor
1.000 UP
9662 4327 CircleF
1.500 UP
5.000 UL
LT0
0.00 0.38 0.68 C 9662 4327 CircleF
LCw setrgbcolor
1.000 UP
9738 4327 CircleF
1.500 UP
5.000 UL
LT0
0.00 0.38 0.68 C 9738 4327 CircleF
LCw setrgbcolor
1.000 UP
9814 4343 CircleF
1.500 UP
5.000 UL
LT0
0.00 0.38 0.68 C 9814 4343 CircleF
LCw setrgbcolor
1.000 UP
9890 4327 CircleF
1.500 UP
5.000 UL
LT0
0.00 0.38 0.68 C 9890 4327 CircleF
LCw setrgbcolor
1.000 UP
9967 4327 CircleF
1.500 UP
5.000 UL
LT0
0.00 0.38 0.68 C 9967 4327 CircleF
LCw setrgbcolor
1.000 UP
10043 4327 CircleF
1.500 UP
5.000 UL
LT0
0.00 0.38 0.68 C 10043 4327 CircleF
LCw setrgbcolor
1.000 UP
10119 4327 CircleF
1.500 UP
5.000 UL
LT0
0.00 0.38 0.68 C 10119 4327 CircleF
LCw setrgbcolor
1.000 UP
10196 4343 CircleF
1.500 UP
5.000 UL
LT0
0.00 0.38 0.68 C 10196 4343 CircleF
LCw setrgbcolor
1.000 UP
10272 4327 CircleF
1.500 UP
5.000 UL
LT0
0.00 0.38 0.68 C 10272 4327 CircleF
LCw setrgbcolor
1.000 UP
10348 4327 CircleF
1.500 UP
5.000 UL
LT0
0.00 0.38 0.68 C 10348 4327 CircleF
LCw setrgbcolor
1.000 UP
10425 4327 CircleF
1.500 UP
5.000 UL
LT0
0.00 0.38 0.68 C 10425 4327 CircleF
LCw setrgbcolor
1.000 UP
10501 4327 CircleF
1.500 UP
5.000 UL
LT0
0.00 0.38 0.68 C 10501 4327 CircleF
LCw setrgbcolor
1.000 UP
10577 4327 CircleF
1.500 UP
5.000 UL
LT0
0.00 0.38 0.68 C 10577 4327 CircleF
LCw setrgbcolor
1.000 UP
10653 4327 CircleF
1.500 UP
5.000 UL
LT0
0.00 0.38 0.68 C 10653 4327 CircleF
LCw setrgbcolor
1.000 UP
10730 4343 CircleF
1.500 UP
5.000 UL
LT0
0.00 0.38 0.68 C 10730 4343 CircleF
LCw setrgbcolor
1.000 UP
10806 4327 CircleF
1.500 UP
5.000 UL
LT0
0.00 0.38 0.68 C 10806 4327 CircleF
LCw setrgbcolor
1.000 UP
10882 4327 CircleF
1.500 UP
5.000 UL
LT0
0.00 0.38 0.68 C 10882 4327 CircleF
LCw setrgbcolor
1.000 UP
10959 4327 CircleF
1.500 UP
5.000 UL
LT0
0.00 0.38 0.68 C 10959 4327 CircleF
LCw setrgbcolor
1.000 UP
11035 4327 CircleF
1.500 UP
5.000 UL
LT0
0.00 0.38 0.68 C 11035 4327 CircleF
LCw setrgbcolor
1.000 UP
11111 4327 CircleF
1.500 UP
5.000 UL
LT0
0.00 0.38 0.68 C 11111 4327 CircleF
LCw setrgbcolor
1.000 UP
11188 4327 CircleF
1.500 UP
5.000 UL
LT0
0.00 0.38 0.68 C 11188 4327 CircleF
LCw setrgbcolor
1.000 UP
11264 4338 CircleF
1.500 UP
5.000 UL
LT0
0.00 0.38 0.68 C 11264 4338 CircleF
LCw setrgbcolor
1.000 UP
11340 4327 CircleF
1.500 UP
5.000 UL
LT0
0.00 0.38 0.68 C 11340 4327 CircleF
LCw setrgbcolor
1.000 UP
11416 4332 CircleF
1.500 UP
5.000 UL
LT0
0.00 0.38 0.68 C 11416 4332 CircleF
LCw setrgbcolor
1.000 UP
11493 4327 CircleF
1.500 UP
5.000 UL
LT0
0.00 0.38 0.68 C 11493 4327 CircleF
LCw setrgbcolor
1.000 UP
11569 4327 CircleF
1.500 UP
5.000 UL
LT0
0.00 0.38 0.68 C 11569 4327 CircleF
LCw setrgbcolor
1.000 UP
11645 4327 CircleF
1.500 UP
5.000 UL
LT0
0.00 0.38 0.68 C 11645 4327 CircleF
LCw setrgbcolor
1.000 UP
11722 4327 CircleF
1.500 UP
5.000 UL
LT0
0.00 0.38 0.68 C 11722 4327 CircleF
LCw setrgbcolor
1.000 UP
11798 4327 CircleF
1.500 UP
5.000 UL
LT0
0.00 0.38 0.68 C 11798 4327 CircleF
LCw setrgbcolor
1.000 UP
11874 4327 CircleF
1.500 UP
5.000 UL
LT0
0.00 0.38 0.68 C 11874 4327 CircleF
LCw setrgbcolor
1.000 UP
11951 4327 CircleF
1.500 UP
5.000 UL
LT0
0.00 0.38 0.68 C 11951 4327 CircleF
LCw setrgbcolor
1.000 UP
12027 4327 CircleF
1.500 UP
5.000 UL
LT0
0.00 0.38 0.68 C 12027 4327 CircleF
LCw setrgbcolor
1.000 UP
12103 4327 CircleF
1.500 UP
5.000 UL
LT0
0.00 0.38 0.68 C 12103 4327 CircleF
LCw setrgbcolor
1.000 UP
12179 4330 CircleF
1.500 UP
5.000 UL
LT0
0.00 0.38 0.68 C 12179 4330 CircleF
LCw setrgbcolor
1.000 UP
12256 4335 CircleF
1.500 UP
5.000 UL
LT0
0.00 0.38 0.68 C 12256 4335 CircleF
LCw setrgbcolor
1.000 UP
12332 4327 CircleF
1.500 UP
5.000 UL
LT0
0.00 0.38 0.68 C 12332 4327 CircleF
LCw setrgbcolor
1.000 UP
12408 4327 CircleF
1.500 UP
5.000 UL
LT0
0.00 0.38 0.68 C 12408 4327 CircleF
LCw setrgbcolor
1.000 UP
12485 4327 CircleF
1.500 UP
5.000 UL
LT0
0.00 0.38 0.68 C 12485 4327 CircleF
LCw setrgbcolor
1.000 UP
12561 4332 CircleF
1.500 UP
5.000 UL
LT0
0.00 0.38 0.68 C 12561 4332 CircleF
LCw setrgbcolor
1.000 UP
12637 4327 CircleF
1.500 UP
5.000 UL
LT0
0.00 0.38 0.68 C 12637 4327 CircleF
LCw setrgbcolor
1.000 UP
12714 4327 CircleF
1.500 UP
5.000 UL
LT0
0.00 0.38 0.68 C 12714 4327 CircleF
LCw setrgbcolor
1.000 UP
12790 4341 CircleF
1.500 UP
5.000 UL
LT0
0.00 0.38 0.68 C 12790 4341 CircleF
LCw setrgbcolor
1.000 UP
12866 4327 CircleF
1.500 UP
5.000 UL
LT0
0.00 0.38 0.68 C 12866 4327 CircleF
LCw setrgbcolor
1.000 UP
12942 4327 CircleF
1.500 UP
5.000 UL
LT0
0.00 0.38 0.68 C 12942 4327 CircleF
LCw setrgbcolor
1.000 UP
13019 4327 CircleF
1.500 UP
5.000 UL
LT0
0.00 0.38 0.68 C 13019 4327 CircleF
LCw setrgbcolor
1.000 UP
13095 4327 CircleF
1.500 UP
5.000 UL
LT0
0.00 0.38 0.68 C 13095 4327 CircleF
LCw setrgbcolor
1.000 UP
13171 4327 CircleF
1.500 UP
5.000 UL
LT0
0.00 0.38 0.68 C 13171 4327 CircleF
% End plot #1
% Begin plot #2
1.500 UP
5.000 UL
LT0
1.00 0.00 0.00 C 1650 4731 CircleF
1726 4331 CircleF
1803 4731 CircleF
1879 4731 CircleF
1955 4731 CircleF
2032 4731 CircleF
2108 4731 CircleF
2184 4731 CircleF
2260 4731 CircleF
2337 4731 CircleF
2413 4731 CircleF
2489 4731 CircleF
2566 4731 CircleF
2642 4731 CircleF
2718 4731 CircleF
2795 4731 CircleF
2871 4731 CircleF
2947 4731 CircleF
3023 4731 CircleF
3100 4731 CircleF
3176 4731 CircleF
3252 4731 CircleF
3329 4731 CircleF
3405 4731 CircleF
3481 4731 CircleF
3558 4731 CircleF
3634 4731 CircleF
3710 4731 CircleF
3786 4731 CircleF
3863 4731 CircleF
3939 4731 CircleF
4015 4731 CircleF
4092 4731 CircleF
4168 4731 CircleF
4244 4731 CircleF
4321 4731 CircleF
4397 4731 CircleF
4473 4731 CircleF
4549 4731 CircleF
4626 4542 CircleF
4702 4731 CircleF
4778 4731 CircleF
4855 4731 CircleF
4931 4338 CircleF
5007 4731 CircleF
5084 4731 CircleF
5160 4731 CircleF
5236 4731 CircleF
5312 4731 CircleF
5389 4731 CircleF
5465 4731 CircleF
5541 4731 CircleF
5618 4731 CircleF
5694 4731 CircleF
5770 4731 CircleF
5847 4731 CircleF
5923 4731 CircleF
5999 4731 CircleF
6075 4731 CircleF
6152 4731 CircleF
6228 4731 CircleF
6304 4731 CircleF
6381 4731 CircleF
6457 4731 CircleF
6533 4731 CircleF
6610 4731 CircleF
6686 4731 CircleF
6762 4731 CircleF
6838 4731 CircleF
6915 4731 CircleF
6991 4731 CircleF
7067 4731 CircleF
7144 4731 CircleF
7220 4731 CircleF
7296 4731 CircleF
7373 4731 CircleF
7449 4731 CircleF
7525 4731 CircleF
7601 4731 CircleF
7678 4731 CircleF
7754 4731 CircleF
7830 4731 CircleF
7907 4731 CircleF
7983 4731 CircleF
8059 4731 CircleF
8136 4731 CircleF
8212 4731 CircleF
8288 4731 CircleF
8364 4731 CircleF
8441 4731 CircleF
8517 4731 CircleF
8593 4731 CircleF
8670 4731 CircleF
8746 4731 CircleF
8822 4731 CircleF
8899 4731 CircleF
8975 4731 CircleF
9051 4731 CircleF
9127 4491 CircleF
9204 4731 CircleF
9280 4731 CircleF
9356 4731 CircleF
9433 4331 CircleF
9509 4731 CircleF
9585 4731 CircleF
9662 4731 CircleF
9738 4731 CircleF
9814 4731 CircleF
9890 4731 CircleF
9967 4731 CircleF
10043 4731 CircleF
10119 4731 CircleF
10196 4731 CircleF
10272 4731 CircleF
10348 4731 CircleF
10425 4731 CircleF
10501 4731 CircleF
10577 4731 CircleF
10653 4731 CircleF
10730 4731 CircleF
10806 4731 CircleF
10882 4731 CircleF
10959 4731 CircleF
11035 4731 CircleF
11111 4731 CircleF
11188 4731 CircleF
11264 4731 CircleF
11340 4731 CircleF
11416 4731 CircleF
11493 4731 CircleF
11569 4731 CircleF
11645 4731 CircleF
11722 4731 CircleF
11798 4731 CircleF
11874 4731 CircleF
11951 4731 CircleF
12027 4731 CircleF
12103 4731 CircleF
12179 4731 CircleF
12256 4731 CircleF
12332 4731 CircleF
12408 4731 CircleF
12485 4731 CircleF
12561 4731 CircleF
12637 4731 CircleF
12714 4512 CircleF
12790 4731 CircleF
12866 4731 CircleF
12942 4731 CircleF
13019 4731 CircleF
13095 4731 CircleF
13171 4358 CircleF
% End plot #2
1.000 UL
LTb
LCb setrgbcolor
1650 6560 N
0 -2233 V
12208 0 V
0 2233 V
-12208 0 V
Z stroke
1.000 UP
1.000 UL
LTb
LCb setrgbcolor
stroke
grestore
end
showpage
%%Trailer
%%DocumentFonts: Times
