%!PS-Adobe-2.0 EPSF-2.0
%%Title: id13.eps
%%Creator: gnuplot 4.6 patchlevel 2
%%CreationDate: Tue Apr  8 14:40:13 2014
%%DocumentFonts: (atend)
%%BoundingBox: 50 50 770 554
%%EndComments
%%BeginProlog
/gnudict 256 dict def
gnudict begin
%
% The following true/false flags may be edited by hand if desired.
% The unit line width and grayscale image gamma correction may also be changed.
%
/Color true def
/Blacktext false def
/Solid false def
/Dashlength 1 def
/Landscape false def
/Level1 false def
/Rounded false def
/ClipToBoundingBox false def
/SuppressPDFMark false def
/TransparentPatterns false def
/gnulinewidth 5.000 def
/userlinewidth gnulinewidth def
/Gamma 1.0 def
/BackgroundColor {-1.000 -1.000 -1.000} def
%
/vshift -100 def
/dl1 {
  10.0 Dashlength mul mul
  Rounded { currentlinewidth 0.75 mul sub dup 0 le { pop 0.01 } if } if
} def
/dl2 {
  10.0 Dashlength mul mul
  Rounded { currentlinewidth 0.75 mul add } if
} def
/hpt_ 31.5 def
/vpt_ 31.5 def
/hpt hpt_ def
/vpt vpt_ def
/doclip {
  ClipToBoundingBox {
    newpath 50 50 moveto 770 50 lineto 770 554 lineto 50 554 lineto closepath
    clip
  } if
} def
%
% Gnuplot Prolog Version 4.6 (September 2012)
%
%/SuppressPDFMark true def
%
/M {moveto} bind def
/L {lineto} bind def
/R {rmoveto} bind def
/V {rlineto} bind def
/N {newpath moveto} bind def
/Z {closepath} bind def
/C {setrgbcolor} bind def
/f {rlineto fill} bind def
/g {setgray} bind def
/Gshow {show} def   % May be redefined later in the file to support UTF-8
/vpt2 vpt 2 mul def
/hpt2 hpt 2 mul def
/Lshow {currentpoint stroke M 0 vshift R 
	Blacktext {gsave 0 setgray show grestore} {show} ifelse} def
/Rshow {currentpoint stroke M dup stringwidth pop neg vshift R
	Blacktext {gsave 0 setgray show grestore} {show} ifelse} def
/Cshow {currentpoint stroke M dup stringwidth pop -2 div vshift R 
	Blacktext {gsave 0 setgray show grestore} {show} ifelse} def
/UP {dup vpt_ mul /vpt exch def hpt_ mul /hpt exch def
  /hpt2 hpt 2 mul def /vpt2 vpt 2 mul def} def
/DL {Color {setrgbcolor Solid {pop []} if 0 setdash}
 {pop pop pop 0 setgray Solid {pop []} if 0 setdash} ifelse} def
/BL {stroke userlinewidth 2 mul setlinewidth
	Rounded {1 setlinejoin 1 setlinecap} if} def
/AL {stroke userlinewidth 2 div setlinewidth
	Rounded {1 setlinejoin 1 setlinecap} if} def
/UL {dup gnulinewidth mul /userlinewidth exch def
	dup 1 lt {pop 1} if 10 mul /udl exch def} def
/PL {stroke userlinewidth setlinewidth
	Rounded {1 setlinejoin 1 setlinecap} if} def
3.8 setmiterlimit
% Default Line colors
/LCw {1 1 1} def
/LCb {0 0 0} def
/LCa {0 0 0} def
/LC0 {1 0 0} def
/LC1 {0 1 0} def
/LC2 {0 0 1} def
/LC3 {1 0 1} def
/LC4 {0 1 1} def
/LC5 {1 1 0} def
/LC6 {0 0 0} def
/LC7 {1 0.3 0} def
/LC8 {0.5 0.5 0.5} def
% Default Line Types
/LTw {PL [] 1 setgray} def
/LTb {BL [] LCb DL} def
/LTa {AL [1 udl mul 2 udl mul] 0 setdash LCa setrgbcolor} def
/LT0 {PL [] LC0 DL} def
/LT1 {PL [4 dl1 2 dl2] LC1 DL} def
/LT2 {PL [2 dl1 3 dl2] LC2 DL} def
/LT3 {PL [1 dl1 1.5 dl2] LC3 DL} def
/LT4 {PL [6 dl1 2 dl2 1 dl1 2 dl2] LC4 DL} def
/LT5 {PL [3 dl1 3 dl2 1 dl1 3 dl2] LC5 DL} def
/LT6 {PL [2 dl1 2 dl2 2 dl1 6 dl2] LC6 DL} def
/LT7 {PL [1 dl1 2 dl2 6 dl1 2 dl2 1 dl1 2 dl2] LC7 DL} def
/LT8 {PL [2 dl1 2 dl2 2 dl1 2 dl2 2 dl1 2 dl2 2 dl1 4 dl2] LC8 DL} def
/Pnt {stroke [] 0 setdash gsave 1 setlinecap M 0 0 V stroke grestore} def
/Dia {stroke [] 0 setdash 2 copy vpt add M
  hpt neg vpt neg V hpt vpt neg V
  hpt vpt V hpt neg vpt V closepath stroke
  Pnt} def
/Pls {stroke [] 0 setdash vpt sub M 0 vpt2 V
  currentpoint stroke M
  hpt neg vpt neg R hpt2 0 V stroke
 } def
/Box {stroke [] 0 setdash 2 copy exch hpt sub exch vpt add M
  0 vpt2 neg V hpt2 0 V 0 vpt2 V
  hpt2 neg 0 V closepath stroke
  Pnt} def
/Crs {stroke [] 0 setdash exch hpt sub exch vpt add M
  hpt2 vpt2 neg V currentpoint stroke M
  hpt2 neg 0 R hpt2 vpt2 V stroke} def
/TriU {stroke [] 0 setdash 2 copy vpt 1.12 mul add M
  hpt neg vpt -1.62 mul V
  hpt 2 mul 0 V
  hpt neg vpt 1.62 mul V closepath stroke
  Pnt} def
/Star {2 copy Pls Crs} def
/BoxF {stroke [] 0 setdash exch hpt sub exch vpt add M
  0 vpt2 neg V hpt2 0 V 0 vpt2 V
  hpt2 neg 0 V closepath fill} def
/TriUF {stroke [] 0 setdash vpt 1.12 mul add M
  hpt neg vpt -1.62 mul V
  hpt 2 mul 0 V
  hpt neg vpt 1.62 mul V closepath fill} def
/TriD {stroke [] 0 setdash 2 copy vpt 1.12 mul sub M
  hpt neg vpt 1.62 mul V
  hpt 2 mul 0 V
  hpt neg vpt -1.62 mul V closepath stroke
  Pnt} def
/TriDF {stroke [] 0 setdash vpt 1.12 mul sub M
  hpt neg vpt 1.62 mul V
  hpt 2 mul 0 V
  hpt neg vpt -1.62 mul V closepath fill} def
/DiaF {stroke [] 0 setdash vpt add M
  hpt neg vpt neg V hpt vpt neg V
  hpt vpt V hpt neg vpt V closepath fill} def
/Pent {stroke [] 0 setdash 2 copy gsave
  translate 0 hpt M 4 {72 rotate 0 hpt L} repeat
  closepath stroke grestore Pnt} def
/PentF {stroke [] 0 setdash gsave
  translate 0 hpt M 4 {72 rotate 0 hpt L} repeat
  closepath fill grestore} def
/Circle {stroke [] 0 setdash 2 copy
  hpt 0 360 arc stroke Pnt} def
/CircleF {stroke [] 0 setdash hpt 0 360 arc fill} def
/C0 {BL [] 0 setdash 2 copy moveto vpt 90 450 arc} bind def
/C1 {BL [] 0 setdash 2 copy moveto
	2 copy vpt 0 90 arc closepath fill
	vpt 0 360 arc closepath} bind def
/C2 {BL [] 0 setdash 2 copy moveto
	2 copy vpt 90 180 arc closepath fill
	vpt 0 360 arc closepath} bind def
/C3 {BL [] 0 setdash 2 copy moveto
	2 copy vpt 0 180 arc closepath fill
	vpt 0 360 arc closepath} bind def
/C4 {BL [] 0 setdash 2 copy moveto
	2 copy vpt 180 270 arc closepath fill
	vpt 0 360 arc closepath} bind def
/C5 {BL [] 0 setdash 2 copy moveto
	2 copy vpt 0 90 arc
	2 copy moveto
	2 copy vpt 180 270 arc closepath fill
	vpt 0 360 arc} bind def
/C6 {BL [] 0 setdash 2 copy moveto
	2 copy vpt 90 270 arc closepath fill
	vpt 0 360 arc closepath} bind def
/C7 {BL [] 0 setdash 2 copy moveto
	2 copy vpt 0 270 arc closepath fill
	vpt 0 360 arc closepath} bind def
/C8 {BL [] 0 setdash 2 copy moveto
	2 copy vpt 270 360 arc closepath fill
	vpt 0 360 arc closepath} bind def
/C9 {BL [] 0 setdash 2 copy moveto
	2 copy vpt 270 450 arc closepath fill
	vpt 0 360 arc closepath} bind def
/C10 {BL [] 0 setdash 2 copy 2 copy moveto vpt 270 360 arc closepath fill
	2 copy moveto
	2 copy vpt 90 180 arc closepath fill
	vpt 0 360 arc closepath} bind def
/C11 {BL [] 0 setdash 2 copy moveto
	2 copy vpt 0 180 arc closepath fill
	2 copy moveto
	2 copy vpt 270 360 arc closepath fill
	vpt 0 360 arc closepath} bind def
/C12 {BL [] 0 setdash 2 copy moveto
	2 copy vpt 180 360 arc closepath fill
	vpt 0 360 arc closepath} bind def
/C13 {BL [] 0 setdash 2 copy moveto
	2 copy vpt 0 90 arc closepath fill
	2 copy moveto
	2 copy vpt 180 360 arc closepath fill
	vpt 0 360 arc closepath} bind def
/C14 {BL [] 0 setdash 2 copy moveto
	2 copy vpt 90 360 arc closepath fill
	vpt 0 360 arc} bind def
/C15 {BL [] 0 setdash 2 copy vpt 0 360 arc closepath fill
	vpt 0 360 arc closepath} bind def
/Rec {newpath 4 2 roll moveto 1 index 0 rlineto 0 exch rlineto
	neg 0 rlineto closepath} bind def
/Square {dup Rec} bind def
/Bsquare {vpt sub exch vpt sub exch vpt2 Square} bind def
/S0 {BL [] 0 setdash 2 copy moveto 0 vpt rlineto BL Bsquare} bind def
/S1 {BL [] 0 setdash 2 copy vpt Square fill Bsquare} bind def
/S2 {BL [] 0 setdash 2 copy exch vpt sub exch vpt Square fill Bsquare} bind def
/S3 {BL [] 0 setdash 2 copy exch vpt sub exch vpt2 vpt Rec fill Bsquare} bind def
/S4 {BL [] 0 setdash 2 copy exch vpt sub exch vpt sub vpt Square fill Bsquare} bind def
/S5 {BL [] 0 setdash 2 copy 2 copy vpt Square fill
	exch vpt sub exch vpt sub vpt Square fill Bsquare} bind def
/S6 {BL [] 0 setdash 2 copy exch vpt sub exch vpt sub vpt vpt2 Rec fill Bsquare} bind def
/S7 {BL [] 0 setdash 2 copy exch vpt sub exch vpt sub vpt vpt2 Rec fill
	2 copy vpt Square fill Bsquare} bind def
/S8 {BL [] 0 setdash 2 copy vpt sub vpt Square fill Bsquare} bind def
/S9 {BL [] 0 setdash 2 copy vpt sub vpt vpt2 Rec fill Bsquare} bind def
/S10 {BL [] 0 setdash 2 copy vpt sub vpt Square fill 2 copy exch vpt sub exch vpt Square fill
	Bsquare} bind def
/S11 {BL [] 0 setdash 2 copy vpt sub vpt Square fill 2 copy exch vpt sub exch vpt2 vpt Rec fill
	Bsquare} bind def
/S12 {BL [] 0 setdash 2 copy exch vpt sub exch vpt sub vpt2 vpt Rec fill Bsquare} bind def
/S13 {BL [] 0 setdash 2 copy exch vpt sub exch vpt sub vpt2 vpt Rec fill
	2 copy vpt Square fill Bsquare} bind def
/S14 {BL [] 0 setdash 2 copy exch vpt sub exch vpt sub vpt2 vpt Rec fill
	2 copy exch vpt sub exch vpt Square fill Bsquare} bind def
/S15 {BL [] 0 setdash 2 copy Bsquare fill Bsquare} bind def
/D0 {gsave translate 45 rotate 0 0 S0 stroke grestore} bind def
/D1 {gsave translate 45 rotate 0 0 S1 stroke grestore} bind def
/D2 {gsave translate 45 rotate 0 0 S2 stroke grestore} bind def
/D3 {gsave translate 45 rotate 0 0 S3 stroke grestore} bind def
/D4 {gsave translate 45 rotate 0 0 S4 stroke grestore} bind def
/D5 {gsave translate 45 rotate 0 0 S5 stroke grestore} bind def
/D6 {gsave translate 45 rotate 0 0 S6 stroke grestore} bind def
/D7 {gsave translate 45 rotate 0 0 S7 stroke grestore} bind def
/D8 {gsave translate 45 rotate 0 0 S8 stroke grestore} bind def
/D9 {gsave translate 45 rotate 0 0 S9 stroke grestore} bind def
/D10 {gsave translate 45 rotate 0 0 S10 stroke grestore} bind def
/D11 {gsave translate 45 rotate 0 0 S11 stroke grestore} bind def
/D12 {gsave translate 45 rotate 0 0 S12 stroke grestore} bind def
/D13 {gsave translate 45 rotate 0 0 S13 stroke grestore} bind def
/D14 {gsave translate 45 rotate 0 0 S14 stroke grestore} bind def
/D15 {gsave translate 45 rotate 0 0 S15 stroke grestore} bind def
/DiaE {stroke [] 0 setdash vpt add M
  hpt neg vpt neg V hpt vpt neg V
  hpt vpt V hpt neg vpt V closepath stroke} def
/BoxE {stroke [] 0 setdash exch hpt sub exch vpt add M
  0 vpt2 neg V hpt2 0 V 0 vpt2 V
  hpt2 neg 0 V closepath stroke} def
/TriUE {stroke [] 0 setdash vpt 1.12 mul add M
  hpt neg vpt -1.62 mul V
  hpt 2 mul 0 V
  hpt neg vpt 1.62 mul V closepath stroke} def
/TriDE {stroke [] 0 setdash vpt 1.12 mul sub M
  hpt neg vpt 1.62 mul V
  hpt 2 mul 0 V
  hpt neg vpt -1.62 mul V closepath stroke} def
/PentE {stroke [] 0 setdash gsave
  translate 0 hpt M 4 {72 rotate 0 hpt L} repeat
  closepath stroke grestore} def
/CircE {stroke [] 0 setdash 
  hpt 0 360 arc stroke} def
/Opaque {gsave closepath 1 setgray fill grestore 0 setgray closepath} def
/DiaW {stroke [] 0 setdash vpt add M
  hpt neg vpt neg V hpt vpt neg V
  hpt vpt V hpt neg vpt V Opaque stroke} def
/BoxW {stroke [] 0 setdash exch hpt sub exch vpt add M
  0 vpt2 neg V hpt2 0 V 0 vpt2 V
  hpt2 neg 0 V Opaque stroke} def
/TriUW {stroke [] 0 setdash vpt 1.12 mul add M
  hpt neg vpt -1.62 mul V
  hpt 2 mul 0 V
  hpt neg vpt 1.62 mul V Opaque stroke} def
/TriDW {stroke [] 0 setdash vpt 1.12 mul sub M
  hpt neg vpt 1.62 mul V
  hpt 2 mul 0 V
  hpt neg vpt -1.62 mul V Opaque stroke} def
/PentW {stroke [] 0 setdash gsave
  translate 0 hpt M 4 {72 rotate 0 hpt L} repeat
  Opaque stroke grestore} def
/CircW {stroke [] 0 setdash 
  hpt 0 360 arc Opaque stroke} def
/BoxFill {gsave Rec 1 setgray fill grestore} def
/Density {
  /Fillden exch def
  currentrgbcolor
  /ColB exch def /ColG exch def /ColR exch def
  /ColR ColR Fillden mul Fillden sub 1 add def
  /ColG ColG Fillden mul Fillden sub 1 add def
  /ColB ColB Fillden mul Fillden sub 1 add def
  ColR ColG ColB setrgbcolor} def
/BoxColFill {gsave Rec PolyFill} def
/PolyFill {gsave Density fill grestore grestore} def
/h {rlineto rlineto rlineto gsave closepath fill grestore} bind def
%
% PostScript Level 1 Pattern Fill routine for rectangles
% Usage: x y w h s a XX PatternFill
%	x,y = lower left corner of box to be filled
%	w,h = width and height of box
%	  a = angle in degrees between lines and x-axis
%	 XX = 0/1 for no/yes cross-hatch
%
/PatternFill {gsave /PFa [ 9 2 roll ] def
  PFa 0 get PFa 2 get 2 div add PFa 1 get PFa 3 get 2 div add translate
  PFa 2 get -2 div PFa 3 get -2 div PFa 2 get PFa 3 get Rec
  TransparentPatterns {} {gsave 1 setgray fill grestore} ifelse
  clip
  currentlinewidth 0.5 mul setlinewidth
  /PFs PFa 2 get dup mul PFa 3 get dup mul add sqrt def
  0 0 M PFa 5 get rotate PFs -2 div dup translate
  0 1 PFs PFa 4 get div 1 add floor cvi
	{PFa 4 get mul 0 M 0 PFs V} for
  0 PFa 6 get ne {
	0 1 PFs PFa 4 get div 1 add floor cvi
	{PFa 4 get mul 0 2 1 roll M PFs 0 V} for
 } if
  stroke grestore} def
%
/languagelevel where
 {pop languagelevel} {1} ifelse
 2 lt
	{/InterpretLevel1 true def}
	{/InterpretLevel1 Level1 def}
 ifelse
%
% PostScript level 2 pattern fill definitions
%
/Level2PatternFill {
/Tile8x8 {/PaintType 2 /PatternType 1 /TilingType 1 /BBox [0 0 8 8] /XStep 8 /YStep 8}
	bind def
/KeepColor {currentrgbcolor [/Pattern /DeviceRGB] setcolorspace} bind def
<< Tile8x8
 /PaintProc {0.5 setlinewidth pop 0 0 M 8 8 L 0 8 M 8 0 L stroke} 
>> matrix makepattern
/Pat1 exch def
<< Tile8x8
 /PaintProc {0.5 setlinewidth pop 0 0 M 8 8 L 0 8 M 8 0 L stroke
	0 4 M 4 8 L 8 4 L 4 0 L 0 4 L stroke}
>> matrix makepattern
/Pat2 exch def
<< Tile8x8
 /PaintProc {0.5 setlinewidth pop 0 0 M 0 8 L
	8 8 L 8 0 L 0 0 L fill}
>> matrix makepattern
/Pat3 exch def
<< Tile8x8
 /PaintProc {0.5 setlinewidth pop -4 8 M 8 -4 L
	0 12 M 12 0 L stroke}
>> matrix makepattern
/Pat4 exch def
<< Tile8x8
 /PaintProc {0.5 setlinewidth pop -4 0 M 8 12 L
	0 -4 M 12 8 L stroke}
>> matrix makepattern
/Pat5 exch def
<< Tile8x8
 /PaintProc {0.5 setlinewidth pop -2 8 M 4 -4 L
	0 12 M 8 -4 L 4 12 M 10 0 L stroke}
>> matrix makepattern
/Pat6 exch def
<< Tile8x8
 /PaintProc {0.5 setlinewidth pop -2 0 M 4 12 L
	0 -4 M 8 12 L 4 -4 M 10 8 L stroke}
>> matrix makepattern
/Pat7 exch def
<< Tile8x8
 /PaintProc {0.5 setlinewidth pop 8 -2 M -4 4 L
	12 0 M -4 8 L 12 4 M 0 10 L stroke}
>> matrix makepattern
/Pat8 exch def
<< Tile8x8
 /PaintProc {0.5 setlinewidth pop 0 -2 M 12 4 L
	-4 0 M 12 8 L -4 4 M 8 10 L stroke}
>> matrix makepattern
/Pat9 exch def
/Pattern1 {PatternBgnd KeepColor Pat1 setpattern} bind def
/Pattern2 {PatternBgnd KeepColor Pat2 setpattern} bind def
/Pattern3 {PatternBgnd KeepColor Pat3 setpattern} bind def
/Pattern4 {PatternBgnd KeepColor Landscape {Pat5} {Pat4} ifelse setpattern} bind def
/Pattern5 {PatternBgnd KeepColor Landscape {Pat4} {Pat5} ifelse setpattern} bind def
/Pattern6 {PatternBgnd KeepColor Landscape {Pat9} {Pat6} ifelse setpattern} bind def
/Pattern7 {PatternBgnd KeepColor Landscape {Pat8} {Pat7} ifelse setpattern} bind def
} def
%
%
%End of PostScript Level 2 code
%
/PatternBgnd {
  TransparentPatterns {} {gsave 1 setgray fill grestore} ifelse
} def
%
% Substitute for Level 2 pattern fill codes with
% grayscale if Level 2 support is not selected.
%
/Level1PatternFill {
/Pattern1 {0.250 Density} bind def
/Pattern2 {0.500 Density} bind def
/Pattern3 {0.750 Density} bind def
/Pattern4 {0.125 Density} bind def
/Pattern5 {0.375 Density} bind def
/Pattern6 {0.625 Density} bind def
/Pattern7 {0.875 Density} bind def
} def
%
% Now test for support of Level 2 code
%
Level1 {Level1PatternFill} {Level2PatternFill} ifelse
%
/Symbol-Oblique /Symbol findfont [1 0 .167 1 0 0] makefont
dup length dict begin {1 index /FID eq {pop pop} {def} ifelse} forall
currentdict end definefont pop
/MFshow {
   { dup 5 get 3 ge
     { 5 get 3 eq {gsave} {grestore} ifelse }
     {dup dup 0 get findfont exch 1 get scalefont setfont
     [ currentpoint ] exch dup 2 get 0 exch R dup 5 get 2 ne {dup dup 6
     get exch 4 get {Gshow} {stringwidth pop 0 R} ifelse }if dup 5 get 0 eq
     {dup 3 get {2 get neg 0 exch R pop} {pop aload pop M} ifelse} {dup 5
     get 1 eq {dup 2 get exch dup 3 get exch 6 get stringwidth pop -2 div
     dup 0 R} {dup 6 get stringwidth pop -2 div 0 R 6 get
     show 2 index {aload pop M neg 3 -1 roll neg R pop pop} {pop pop pop
     pop aload pop M} ifelse }ifelse }ifelse }
     ifelse }
   forall} def
/Gswidth {dup type /stringtype eq {stringwidth} {pop (n) stringwidth} ifelse} def
/MFwidth {0 exch { dup 5 get 3 ge { 5 get 3 eq { 0 } { pop } ifelse }
 {dup 3 get{dup dup 0 get findfont exch 1 get scalefont setfont
     6 get Gswidth pop add} {pop} ifelse} ifelse} forall} def
/MLshow { currentpoint stroke M
  0 exch R
  Blacktext {gsave 0 setgray MFshow grestore} {MFshow} ifelse } bind def
/MRshow { currentpoint stroke M
  exch dup MFwidth neg 3 -1 roll R
  Blacktext {gsave 0 setgray MFshow grestore} {MFshow} ifelse } bind def
/MCshow { currentpoint stroke M
  exch dup MFwidth -2 div 3 -1 roll R
  Blacktext {gsave 0 setgray MFshow grestore} {MFshow} ifelse } bind def
/XYsave    { [( ) 1 2 true false 3 ()] } bind def
/XYrestore { [( ) 1 2 true false 4 ()] } bind def
Level1 SuppressPDFMark or 
{} {
/SDict 10 dict def
systemdict /pdfmark known not {
  userdict /pdfmark systemdict /cleartomark get put
} if
SDict begin [
  /Title (id13.eps)
  /Subject (gnuplot plot)
  /Creator (gnuplot 4.6 patchlevel 2)
  /Author (olgabo)
%  /Producer (gnuplot)
%  /Keywords ()
  /CreationDate (Tue Apr  8 14:40:13 2014)
  /DOCINFO pdfmark
end
} ifelse
end
%%EndProlog
%%Page: 1 1
gnudict begin
gsave
doclip
50 50 translate
0.050 0.050 scale
0 setgray
newpath
(Times) findfont 300 scalefont setfont
BackgroundColor 0 lt 3 1 roll 0 lt exch 0 lt or or not {BackgroundColor C 1.000 0 0 14400.00 10080.00 BoxColFill} if
1.000 UL
LTb
LCb setrgbcolor
1.000 UL
LTa
LCa setrgbcolor
1650 4327 M
12208 0 V
stroke
LTb
LCb setrgbcolor
1650 4327 M
63 0 V
12145 0 R
-63 0 V
stroke
1470 4327 M
[ [(Times) 300.0 0.0 true true 0 ( 0)]
] -100.0 MRshow
1.000 UL
LTb
LCb setrgbcolor
1.000 UL
LTa
LCa setrgbcolor
1650 4699 M
12208 0 V
stroke
LTb
LCb setrgbcolor
1650 4699 M
63 0 V
12145 0 R
-63 0 V
stroke
1470 4699 M
[ [(Times) 300.0 0.0 true true 0 ( 500)]
] -100.0 MRshow
1.000 UL
LTb
LCb setrgbcolor
1.000 UL
LTa
LCa setrgbcolor
1650 5071 M
12208 0 V
stroke
LTb
LCb setrgbcolor
1650 5071 M
63 0 V
12145 0 R
-63 0 V
stroke
1470 5071 M
[ [(Times) 300.0 0.0 true true 0 ( 1000)]
] -100.0 MRshow
1.000 UL
LTb
LCb setrgbcolor
1.000 UL
LTa
LCa setrgbcolor
1650 5444 M
12208 0 V
stroke
LTb
LCb setrgbcolor
1650 5444 M
63 0 V
12145 0 R
-63 0 V
stroke
1470 5444 M
[ [(Times) 300.0 0.0 true true 0 ( 1500)]
] -100.0 MRshow
1.000 UL
LTb
LCb setrgbcolor
1.000 UL
LTa
LCa setrgbcolor
1650 5816 M
12208 0 V
stroke
LTb
LCb setrgbcolor
1650 5816 M
63 0 V
12145 0 R
-63 0 V
stroke
1470 5816 M
[ [(Times) 300.0 0.0 true true 0 ( 2000)]
] -100.0 MRshow
1.000 UL
LTb
LCb setrgbcolor
1.000 UL
LTa
LCa setrgbcolor
1650 6188 M
12208 0 V
stroke
LTb
LCb setrgbcolor
1650 6188 M
63 0 V
12145 0 R
-63 0 V
stroke
1470 6188 M
[ [(Times) 300.0 0.0 true true 0 ( 2500)]
] -100.0 MRshow
1.000 UL
LTb
LCb setrgbcolor
1.000 UL
LTa
LCa setrgbcolor
1650 6560 M
12208 0 V
stroke
LTb
LCb setrgbcolor
1650 6560 M
63 0 V
12145 0 R
-63 0 V
stroke
1470 6560 M
[ [(Times) 300.0 0.0 true true 0 ( 3000)]
] -100.0 MRshow
1.000 UL
LTb
LCb setrgbcolor
1.000 UL
LTa
LCa setrgbcolor
1650 4327 M
0 2233 V
stroke
LTb
LCb setrgbcolor
1650 4327 M
0 63 V
0 2170 R
0 -63 V
stroke
1650 4147 M
currentpoint gsave translate -45 rotate 0 0 moveto
[ [(Times) 300.0 0.0 true true 0 ( 0)]
] -100.0 MLshow
grestore
1.000 UL
LTb
LCb setrgbcolor
1.000 UL
LTa
LCa setrgbcolor
3176 4327 M
0 2233 V
stroke
LTb
LCb setrgbcolor
3176 4327 M
0 63 V
0 2170 R
0 -63 V
stroke
3176 4147 M
currentpoint gsave translate -45 rotate 0 0 moveto
[ [(Times) 300.0 0.0 true true 0 ( 50)]
] -100.0 MLshow
grestore
1.000 UL
LTb
LCb setrgbcolor
1.000 UL
LTa
LCa setrgbcolor
4702 4327 M
0 2233 V
stroke
LTb
LCb setrgbcolor
4702 4327 M
0 63 V
0 2170 R
0 -63 V
stroke
4702 4147 M
currentpoint gsave translate -45 rotate 0 0 moveto
[ [(Times) 300.0 0.0 true true 0 ( 100)]
] -100.0 MLshow
grestore
1.000 UL
LTb
LCb setrgbcolor
1.000 UL
LTa
LCa setrgbcolor
6228 4327 M
0 2233 V
stroke
LTb
LCb setrgbcolor
6228 4327 M
0 63 V
0 2170 R
0 -63 V
stroke
6228 4147 M
currentpoint gsave translate -45 rotate 0 0 moveto
[ [(Times) 300.0 0.0 true true 0 ( 150)]
] -100.0 MLshow
grestore
1.000 UL
LTb
LCb setrgbcolor
1.000 UL
LTa
LCa setrgbcolor
7754 4327 M
0 2233 V
stroke
LTb
LCb setrgbcolor
7754 4327 M
0 63 V
0 2170 R
0 -63 V
stroke
7754 4147 M
currentpoint gsave translate -45 rotate 0 0 moveto
[ [(Times) 300.0 0.0 true true 0 ( 200)]
] -100.0 MLshow
grestore
1.000 UL
LTb
LCb setrgbcolor
1.000 UL
LTa
LCa setrgbcolor
9280 4327 M
0 2233 V
stroke
LTb
LCb setrgbcolor
9280 4327 M
0 63 V
0 2170 R
0 -63 V
stroke
9280 4147 M
currentpoint gsave translate -45 rotate 0 0 moveto
[ [(Times) 300.0 0.0 true true 0 ( 250)]
] -100.0 MLshow
grestore
1.000 UL
LTb
LCb setrgbcolor
1.000 UL
LTa
LCa setrgbcolor
10806 4327 M
0 2233 V
stroke
LTb
LCb setrgbcolor
10806 4327 M
0 63 V
0 2170 R
0 -63 V
stroke
10806 4147 M
currentpoint gsave translate -45 rotate 0 0 moveto
[ [(Times) 300.0 0.0 true true 0 ( 300)]
] -100.0 MLshow
grestore
1.000 UL
LTb
LCb setrgbcolor
1.000 UL
LTa
LCa setrgbcolor
12332 4327 M
0 2233 V
stroke
LTb
LCb setrgbcolor
12332 4327 M
0 63 V
0 2170 R
0 -63 V
stroke
12332 4147 M
currentpoint gsave translate -45 rotate 0 0 moveto
[ [(Times) 300.0 0.0 true true 0 ( 350)]
] -100.0 MLshow
grestore
1.000 UL
LTb
LCb setrgbcolor
1.000 UL
LTa
LCa setrgbcolor
13858 4327 M
0 2233 V
stroke
LTb
LCb setrgbcolor
13858 4327 M
0 63 V
0 2170 R
0 -63 V
stroke
13858 4147 M
currentpoint gsave translate -45 rotate 0 0 moveto
[ [(Times) 300.0 0.0 true true 0 ( 400)]
] -100.0 MLshow
grestore
1.000 UL
LTb
LCb setrgbcolor
1.000 UL
LTb
LCb setrgbcolor
1650 6560 N
0 -2233 V
12208 0 V
0 2233 V
-12208 0 V
Z stroke
LCb setrgbcolor
240 5443 M
currentpoint gsave translate -270 rotate 0 0 moveto
[ [(Times) 300.0 0.0 true true 0 (Interarrival time [ms] / Payload size [bytes])]
] -100.0 MCshow
grestore
LTb
LCb setrgbcolor
7754 3368 M
[ [(Times) 300.0 0.0 true true 0 (Packet nr)]
] -100.0 MCshow
LTb
1.000 UP
1.000 UL
LTb
LCb setrgbcolor
% Begin plot #1
1.500 UP
5.000 UL
LT0
0.00 0.38 0.68 C 1650 4327 M
31 1 V
30 74 V
31 0 V
30 224 V
31 -292 V
30 181 V
31 -180 V
30 133 V
31 -1 V
30 69 V
31 -160 V
30 104 V
31 -146 V
30 36 V
31 60 V
30 -37 V
31 8 V
30 -66 V
31 289 V
30 -290 V
31 623 V
30 -489 V
31 -16 V
30 -116 V
31 125 V
31 -63 V
30 14 V
31 202 V
30 -280 V
31 152 V
30 123 V
31 -33 V
30 -201 V
31 117 V
30 -134 V
31 141 V
30 -80 V
31 187 V
30 -262 V
31 -9 V
30 124 V
31 -125 V
30 133 V
31 -6 V
30 -91 V
31 92 V
30 -4 V
31 40 V
30 -145 V
31 153 V
31 -88 V
30 -42 V
31 182 V
30 409 V
31 -538 V
30 71 V
31 -165 V
30 178 V
31 -178 V
30 86 V
31 -47 V
30 177 V
31 -191 V
30 106 V
31 -30 V
30 -58 V
31 -7 V
30 215 V
31 -151 V
30 -100 V
31 181 V
30 -119 V
31 45 V
30 -8 V
31 -98 V
31 134 V
30 -35 V
31 -64 V
30 18 V
31 511 V
30 -353 V
31 -180 V
30 103 V
31 -135 V
30 19 V
31 87 V
30 -106 V
31 24 V
30 76 V
31 -105 V
30 105 V
31 -62 V
30 -37 V
31 55 V
30 4 V
31 -4 V
30 28 V
31 -85 V
30 17 V
31 85 V
31 -90 V
30 21 V
31 55 V
30 -77 V
stroke 4824 4345 M
31 74 V
30 -53 V
31 10 V
30 48 V
31 -89 V
30 0 V
31 54 V
30 -54 V
31 65 V
30 -51 V
31 26 V
30 5 V
31 -31 V
30 -5 V
31 123 V
30 -43 V
31 -54 V
30 64 V
31 -68 V
30 -30 V
31 94 V
31 37 V
30 -107 V
31 107 V
30 -121 V
31 5 V
30 93 V
31 -105 V
30 85 V
31 -35 V
30 -53 V
31 43 V
30 13 V
31 -42 V
30 -2 V
31 75 V
30 -71 V
31 116 V
30 -1 V
31 70 V
30 -103 V
31 -9 V
30 92 V
31 -164 V
30 -18 V
31 126 V
31 -129 V
30 131 V
31 -122 V
30 269 V
31 337 V
30 -614 V
31 135 V
30 -25 V
31 -84 V
30 -9 V
31 95 V
30 -111 V
31 125 V
30 477 V
31 -463 V
30 -145 V
31 157 V
30 -150 V
31 47 V
30 32 V
31 -75 V
30 96 V
31 -76 V
30 -29 V
31 134 V
31 -73 V
30 -40 V
31 16 V
30 36 V
31 594 V
30 -403 V
31 -267 V
30 172 V
31 -143 V
30 98 V
31 -115 V
30 119 V
31 -99 V
30 35 V
31 12 V
30 14 V
31 -63 V
30 16 V
31 46 V
30 -55 V
31 37 V
30 -25 V
31 -3 V
30 95 V
31 -69 V
31 69 V
30 -140 V
31 16 V
30 107 V
31 -83 V
30 17 V
31 24 V
30 -19 V
stroke 7998 4390 M
31 77 V
30 -59 V
31 60 V
30 -1 V
31 86 V
30 -201 V
31 119 V
30 -12 V
31 -102 V
30 69 V
31 -56 V
30 -40 V
31 137 V
30 -137 V
31 137 V
30 3 V
31 -121 V
31 119 V
30 -27 V
31 -84 V
30 80 V
31 -41 V
30 -40 V
31 86 V
30 -50 V
31 -2 V
30 57 V
31 -74 V
30 15 V
31 -39 V
30 46 V
31 4 V
30 -64 V
31 29 V
30 57 V
31 -63 V
30 110 V
31 -92 V
30 91 V
31 -62 V
30 -40 V
31 17 V
31 30 V
30 9 V
31 46 V
30 -71 V
31 22 V
30 -83 V
31 125 V
30 -99 V
31 111 V
30 -38 V
31 35 V
30 -74 V
31 -13 V
30 -27 V
31 113 V
30 -84 V
31 26 V
30 682 V
31 -765 V
30 269 V
31 -263 V
30 134 V
31 3 V
30 -23 V
31 -77 V
31 54 V
30 -76 V
31 99 V
30 -105 V
31 92 V
30 -2 V
31 -9 V
30 -37 V
31 -51 V
30 196 V
31 -159 V
30 360 V
31 -244 V
30 -153 V
31 131 V
30 -66 V
31 -47 V
30 89 V
31 -89 V
30 115 V
31 -1 V
30 1 V
31 123 V
30 -246 V
31 125 V
31 -3 V
30 566 V
31 1262 V
30 -1817 V
31 -151 V
30 0 V
31 145 V
30 -139 V
31 134 V
30 -72 V
31 72 V
30 -61 V
stroke 11172 4406 M
31 17 V
30 -59 V
31 72 V
30 -76 V
31 89 V
30 18 V
31 -67 V
30 68 V
31 -104 V
30 14 V
31 40 V
30 -27 V
31 4 V
31 72 V
30 -132 V
31 126 V
30 133 V
31 -251 V
30 143 V
31 -60 V
30 -57 V
31 99 V
30 -44 V
31 -45 V
30 -44 V
31 128 V
30 -131 V
31 131 V
30 5 V
31 0 V
30 108 V
31 -204 V
30 100 V
31 -101 V
30 -36 V
31 87 V
30 -49 V
31 64 V
31 -45 V
30 10 V
31 -10 V
30 503 V
31 -421 V
30 -31 V
31 -94 V
30 -4 V
31 122 V
30 -82 V
31 31 V
30 391 V
31 -457 V
30 68 V
31 -56 V
30 69 V
31 -62 V
30 -20 V
31 97 V
30 -51 V
31 -52 V
30 42 V
31 -38 V
30 63 V
31 -46 V
31 103 V
30 -103 V
31 440 V
30 -333 V
31 -130 V
30 34 V
31 44 V
30 -32 V
31 10 V
30 32 V
31 -52 V
30 -50 V
31 89 V
30 51 V
31 -87 V
30 48 V
31 -90 V
30 119 V
31 292 V
30 -261 V
31 -137 V
stroke
LCw setrgbcolor
1.000 UP
1650 4327 CircleF
1.500 UP
5.000 UL
LT0
0.00 0.38 0.68 C 1650 4327 CircleF
LCw setrgbcolor
1.000 UP
1681 4328 CircleF
1.500 UP
5.000 UL
LT0
0.00 0.38 0.68 C 1681 4328 CircleF
LCw setrgbcolor
1.000 UP
1711 4402 CircleF
1.500 UP
5.000 UL
LT0
0.00 0.38 0.68 C 1711 4402 CircleF
LCw setrgbcolor
1.000 UP
1742 4402 CircleF
1.500 UP
5.000 UL
LT0
0.00 0.38 0.68 C 1742 4402 CircleF
LCw setrgbcolor
1.000 UP
1772 4626 CircleF
1.500 UP
5.000 UL
LT0
0.00 0.38 0.68 C 1772 4626 CircleF
LCw setrgbcolor
1.000 UP
1803 4334 CircleF
1.500 UP
5.000 UL
LT0
0.00 0.38 0.68 C 1803 4334 CircleF
LCw setrgbcolor
1.000 UP
1833 4515 CircleF
1.500 UP
5.000 UL
LT0
0.00 0.38 0.68 C 1833 4515 CircleF
LCw setrgbcolor
1.000 UP
1864 4335 CircleF
1.500 UP
5.000 UL
LT0
0.00 0.38 0.68 C 1864 4335 CircleF
LCw setrgbcolor
1.000 UP
1894 4468 CircleF
1.500 UP
5.000 UL
LT0
0.00 0.38 0.68 C 1894 4468 CircleF
LCw setrgbcolor
1.000 UP
1925 4467 CircleF
1.500 UP
5.000 UL
LT0
0.00 0.38 0.68 C 1925 4467 CircleF
LCw setrgbcolor
1.000 UP
1955 4536 CircleF
1.500 UP
5.000 UL
LT0
0.00 0.38 0.68 C 1955 4536 CircleF
LCw setrgbcolor
1.000 UP
1986 4376 CircleF
1.500 UP
5.000 UL
LT0
0.00 0.38 0.68 C 1986 4376 CircleF
LCw setrgbcolor
1.000 UP
2016 4480 CircleF
1.500 UP
5.000 UL
LT0
0.00 0.38 0.68 C 2016 4480 CircleF
LCw setrgbcolor
1.000 UP
2047 4334 CircleF
1.500 UP
5.000 UL
LT0
0.00 0.38 0.68 C 2047 4334 CircleF
LCw setrgbcolor
1.000 UP
2077 4370 CircleF
1.500 UP
5.000 UL
LT0
0.00 0.38 0.68 C 2077 4370 CircleF
LCw setrgbcolor
1.000 UP
2108 4430 CircleF
1.500 UP
5.000 UL
LT0
0.00 0.38 0.68 C 2108 4430 CircleF
LCw setrgbcolor
1.000 UP
2138 4393 CircleF
1.500 UP
5.000 UL
LT0
0.00 0.38 0.68 C 2138 4393 CircleF
LCw setrgbcolor
1.000 UP
2169 4401 CircleF
1.500 UP
5.000 UL
LT0
0.00 0.38 0.68 C 2169 4401 CircleF
LCw setrgbcolor
1.000 UP
2199 4335 CircleF
1.500 UP
5.000 UL
LT0
0.00 0.38 0.68 C 2199 4335 CircleF
LCw setrgbcolor
1.000 UP
2230 4624 CircleF
1.500 UP
5.000 UL
LT0
0.00 0.38 0.68 C 2230 4624 CircleF
LCw setrgbcolor
1.000 UP
2260 4334 CircleF
1.500 UP
5.000 UL
LT0
0.00 0.38 0.68 C 2260 4334 CircleF
LCw setrgbcolor
1.000 UP
2291 4957 CircleF
1.500 UP
5.000 UL
LT0
0.00 0.38 0.68 C 2291 4957 CircleF
LCw setrgbcolor
1.000 UP
2321 4468 CircleF
1.500 UP
5.000 UL
LT0
0.00 0.38 0.68 C 2321 4468 CircleF
LCw setrgbcolor
1.000 UP
2352 4452 CircleF
1.500 UP
5.000 UL
LT0
0.00 0.38 0.68 C 2352 4452 CircleF
LCw setrgbcolor
1.000 UP
2382 4336 CircleF
1.500 UP
5.000 UL
LT0
0.00 0.38 0.68 C 2382 4336 CircleF
LCw setrgbcolor
1.000 UP
2413 4461 CircleF
1.500 UP
5.000 UL
LT0
0.00 0.38 0.68 C 2413 4461 CircleF
LCw setrgbcolor
1.000 UP
2444 4398 CircleF
1.500 UP
5.000 UL
LT0
0.00 0.38 0.68 C 2444 4398 CircleF
LCw setrgbcolor
1.000 UP
2474 4412 CircleF
1.500 UP
5.000 UL
LT0
0.00 0.38 0.68 C 2474 4412 CircleF
LCw setrgbcolor
1.000 UP
2505 4614 CircleF
1.500 UP
5.000 UL
LT0
0.00 0.38 0.68 C 2505 4614 CircleF
LCw setrgbcolor
1.000 UP
2535 4334 CircleF
1.500 UP
5.000 UL
LT0
0.00 0.38 0.68 C 2535 4334 CircleF
LCw setrgbcolor
1.000 UP
2566 4486 CircleF
1.500 UP
5.000 UL
LT0
0.00 0.38 0.68 C 2566 4486 CircleF
LCw setrgbcolor
1.000 UP
2596 4609 CircleF
1.500 UP
5.000 UL
LT0
0.00 0.38 0.68 C 2596 4609 CircleF
LCw setrgbcolor
1.000 UP
2627 4576 CircleF
1.500 UP
5.000 UL
LT0
0.00 0.38 0.68 C 2627 4576 CircleF
LCw setrgbcolor
1.000 UP
2657 4375 CircleF
1.500 UP
5.000 UL
LT0
0.00 0.38 0.68 C 2657 4375 CircleF
LCw setrgbcolor
1.000 UP
2688 4492 CircleF
1.500 UP
5.000 UL
LT0
0.00 0.38 0.68 C 2688 4492 CircleF
LCw setrgbcolor
1.000 UP
2718 4358 CircleF
1.500 UP
5.000 UL
LT0
0.00 0.38 0.68 C 2718 4358 CircleF
LCw setrgbcolor
1.000 UP
2749 4499 CircleF
1.500 UP
5.000 UL
LT0
0.00 0.38 0.68 C 2749 4499 CircleF
LCw setrgbcolor
1.000 UP
2779 4419 CircleF
1.500 UP
5.000 UL
LT0
0.00 0.38 0.68 C 2779 4419 CircleF
LCw setrgbcolor
1.000 UP
2810 4606 CircleF
1.500 UP
5.000 UL
LT0
0.00 0.38 0.68 C 2810 4606 CircleF
LCw setrgbcolor
1.000 UP
2840 4344 CircleF
1.500 UP
5.000 UL
LT0
0.00 0.38 0.68 C 2840 4344 CircleF
LCw setrgbcolor
1.000 UP
2871 4335 CircleF
1.500 UP
5.000 UL
LT0
0.00 0.38 0.68 C 2871 4335 CircleF
LCw setrgbcolor
1.000 UP
2901 4459 CircleF
1.500 UP
5.000 UL
LT0
0.00 0.38 0.68 C 2901 4459 CircleF
LCw setrgbcolor
1.000 UP
2932 4334 CircleF
1.500 UP
5.000 UL
LT0
0.00 0.38 0.68 C 2932 4334 CircleF
LCw setrgbcolor
1.000 UP
2962 4467 CircleF
1.500 UP
5.000 UL
LT0
0.00 0.38 0.68 C 2962 4467 CircleF
LCw setrgbcolor
1.000 UP
2993 4461 CircleF
1.500 UP
5.000 UL
LT0
0.00 0.38 0.68 C 2993 4461 CircleF
LCw setrgbcolor
1.000 UP
3023 4370 CircleF
1.500 UP
5.000 UL
LT0
0.00 0.38 0.68 C 3023 4370 CircleF
LCw setrgbcolor
1.000 UP
3054 4462 CircleF
1.500 UP
5.000 UL
LT0
0.00 0.38 0.68 C 3054 4462 CircleF
LCw setrgbcolor
1.000 UP
3084 4458 CircleF
1.500 UP
5.000 UL
LT0
0.00 0.38 0.68 C 3084 4458 CircleF
LCw setrgbcolor
1.000 UP
3115 4498 CircleF
1.500 UP
5.000 UL
LT0
0.00 0.38 0.68 C 3115 4498 CircleF
LCw setrgbcolor
1.000 UP
3145 4353 CircleF
1.500 UP
5.000 UL
LT0
0.00 0.38 0.68 C 3145 4353 CircleF
LCw setrgbcolor
1.000 UP
3176 4506 CircleF
1.500 UP
5.000 UL
LT0
0.00 0.38 0.68 C 3176 4506 CircleF
LCw setrgbcolor
1.000 UP
3207 4418 CircleF
1.500 UP
5.000 UL
LT0
0.00 0.38 0.68 C 3207 4418 CircleF
LCw setrgbcolor
1.000 UP
3237 4376 CircleF
1.500 UP
5.000 UL
LT0
0.00 0.38 0.68 C 3237 4376 CircleF
LCw setrgbcolor
1.000 UP
3268 4558 CircleF
1.500 UP
5.000 UL
LT0
0.00 0.38 0.68 C 3268 4558 CircleF
LCw setrgbcolor
1.000 UP
3298 4967 CircleF
1.500 UP
5.000 UL
LT0
0.00 0.38 0.68 C 3298 4967 CircleF
LCw setrgbcolor
1.000 UP
3329 4429 CircleF
1.500 UP
5.000 UL
LT0
0.00 0.38 0.68 C 3329 4429 CircleF
LCw setrgbcolor
1.000 UP
3359 4500 CircleF
1.500 UP
5.000 UL
LT0
0.00 0.38 0.68 C 3359 4500 CircleF
LCw setrgbcolor
1.000 UP
3390 4335 CircleF
1.500 UP
5.000 UL
LT0
0.00 0.38 0.68 C 3390 4335 CircleF
LCw setrgbcolor
1.000 UP
3420 4513 CircleF
1.500 UP
5.000 UL
LT0
0.00 0.38 0.68 C 3420 4513 CircleF
LCw setrgbcolor
1.000 UP
3451 4335 CircleF
1.500 UP
5.000 UL
LT0
0.00 0.38 0.68 C 3451 4335 CircleF
LCw setrgbcolor
1.000 UP
3481 4421 CircleF
1.500 UP
5.000 UL
LT0
0.00 0.38 0.68 C 3481 4421 CircleF
LCw setrgbcolor
1.000 UP
3512 4374 CircleF
1.500 UP
5.000 UL
LT0
0.00 0.38 0.68 C 3512 4374 CircleF
LCw setrgbcolor
1.000 UP
3542 4551 CircleF
1.500 UP
5.000 UL
LT0
0.00 0.38 0.68 C 3542 4551 CircleF
LCw setrgbcolor
1.000 UP
3573 4360 CircleF
1.500 UP
5.000 UL
LT0
0.00 0.38 0.68 C 3573 4360 CircleF
LCw setrgbcolor
1.000 UP
3603 4466 CircleF
1.500 UP
5.000 UL
LT0
0.00 0.38 0.68 C 3603 4466 CircleF
LCw setrgbcolor
1.000 UP
3634 4436 CircleF
1.500 UP
5.000 UL
LT0
0.00 0.38 0.68 C 3634 4436 CircleF
LCw setrgbcolor
1.000 UP
3664 4378 CircleF
1.500 UP
5.000 UL
LT0
0.00 0.38 0.68 C 3664 4378 CircleF
LCw setrgbcolor
1.000 UP
3695 4371 CircleF
1.500 UP
5.000 UL
LT0
0.00 0.38 0.68 C 3695 4371 CircleF
LCw setrgbcolor
1.000 UP
3725 4586 CircleF
1.500 UP
5.000 UL
LT0
0.00 0.38 0.68 C 3725 4586 CircleF
LCw setrgbcolor
1.000 UP
3756 4435 CircleF
1.500 UP
5.000 UL
LT0
0.00 0.38 0.68 C 3756 4435 CircleF
LCw setrgbcolor
1.000 UP
3786 4335 CircleF
1.500 UP
5.000 UL
LT0
0.00 0.38 0.68 C 3786 4335 CircleF
LCw setrgbcolor
1.000 UP
3817 4516 CircleF
1.500 UP
5.000 UL
LT0
0.00 0.38 0.68 C 3817 4516 CircleF
LCw setrgbcolor
1.000 UP
3847 4397 CircleF
1.500 UP
5.000 UL
LT0
0.00 0.38 0.68 C 3847 4397 CircleF
LCw setrgbcolor
1.000 UP
3878 4442 CircleF
1.500 UP
5.000 UL
LT0
0.00 0.38 0.68 C 3878 4442 CircleF
LCw setrgbcolor
1.000 UP
3908 4434 CircleF
1.500 UP
5.000 UL
LT0
0.00 0.38 0.68 C 3908 4434 CircleF
LCw setrgbcolor
1.000 UP
3939 4336 CircleF
1.500 UP
5.000 UL
LT0
0.00 0.38 0.68 C 3939 4336 CircleF
LCw setrgbcolor
1.000 UP
3970 4470 CircleF
1.500 UP
5.000 UL
LT0
0.00 0.38 0.68 C 3970 4470 CircleF
LCw setrgbcolor
1.000 UP
4000 4435 CircleF
1.500 UP
5.000 UL
LT0
0.00 0.38 0.68 C 4000 4435 CircleF
LCw setrgbcolor
1.000 UP
4031 4371 CircleF
1.500 UP
5.000 UL
LT0
0.00 0.38 0.68 C 4031 4371 CircleF
LCw setrgbcolor
1.000 UP
4061 4389 CircleF
1.500 UP
5.000 UL
LT0
0.00 0.38 0.68 C 4061 4389 CircleF
LCw setrgbcolor
1.000 UP
4092 4900 CircleF
1.500 UP
5.000 UL
LT0
0.00 0.38 0.68 C 4092 4900 CircleF
LCw setrgbcolor
1.000 UP
4122 4547 CircleF
1.500 UP
5.000 UL
LT0
0.00 0.38 0.68 C 4122 4547 CircleF
LCw setrgbcolor
1.000 UP
4153 4367 CircleF
1.500 UP
5.000 UL
LT0
0.00 0.38 0.68 C 4153 4367 CircleF
LCw setrgbcolor
1.000 UP
4183 4470 CircleF
1.500 UP
5.000 UL
LT0
0.00 0.38 0.68 C 4183 4470 CircleF
LCw setrgbcolor
1.000 UP
4214 4335 CircleF
1.500 UP
5.000 UL
LT0
0.00 0.38 0.68 C 4214 4335 CircleF
LCw setrgbcolor
1.000 UP
4244 4354 CircleF
1.500 UP
5.000 UL
LT0
0.00 0.38 0.68 C 4244 4354 CircleF
LCw setrgbcolor
1.000 UP
4275 4441 CircleF
1.500 UP
5.000 UL
LT0
0.00 0.38 0.68 C 4275 4441 CircleF
LCw setrgbcolor
1.000 UP
4305 4335 CircleF
1.500 UP
5.000 UL
LT0
0.00 0.38 0.68 C 4305 4335 CircleF
LCw setrgbcolor
1.000 UP
4336 4359 CircleF
1.500 UP
5.000 UL
LT0
0.00 0.38 0.68 C 4336 4359 CircleF
LCw setrgbcolor
1.000 UP
4366 4435 CircleF
1.500 UP
5.000 UL
LT0
0.00 0.38 0.68 C 4366 4435 CircleF
LCw setrgbcolor
1.000 UP
4397 4330 CircleF
1.500 UP
5.000 UL
LT0
0.00 0.38 0.68 C 4397 4330 CircleF
LCw setrgbcolor
1.000 UP
4427 4435 CircleF
1.500 UP
5.000 UL
LT0
0.00 0.38 0.68 C 4427 4435 CircleF
LCw setrgbcolor
1.000 UP
4458 4373 CircleF
1.500 UP
5.000 UL
LT0
0.00 0.38 0.68 C 4458 4373 CircleF
LCw setrgbcolor
1.000 UP
4488 4336 CircleF
1.500 UP
5.000 UL
LT0
0.00 0.38 0.68 C 4488 4336 CircleF
LCw setrgbcolor
1.000 UP
4519 4391 CircleF
1.500 UP
5.000 UL
LT0
0.00 0.38 0.68 C 4519 4391 CircleF
LCw setrgbcolor
1.000 UP
4549 4395 CircleF
1.500 UP
5.000 UL
LT0
0.00 0.38 0.68 C 4549 4395 CircleF
LCw setrgbcolor
1.000 UP
4580 4391 CircleF
1.500 UP
5.000 UL
LT0
0.00 0.38 0.68 C 4580 4391 CircleF
LCw setrgbcolor
1.000 UP
4610 4419 CircleF
1.500 UP
5.000 UL
LT0
0.00 0.38 0.68 C 4610 4419 CircleF
LCw setrgbcolor
1.000 UP
4641 4334 CircleF
1.500 UP
5.000 UL
LT0
0.00 0.38 0.68 C 4641 4334 CircleF
LCw setrgbcolor
1.000 UP
4671 4351 CircleF
1.500 UP
5.000 UL
LT0
0.00 0.38 0.68 C 4671 4351 CircleF
LCw setrgbcolor
1.000 UP
4702 4436 CircleF
1.500 UP
5.000 UL
LT0
0.00 0.38 0.68 C 4702 4436 CircleF
LCw setrgbcolor
1.000 UP
4733 4346 CircleF
1.500 UP
5.000 UL
LT0
0.00 0.38 0.68 C 4733 4346 CircleF
LCw setrgbcolor
1.000 UP
4763 4367 CircleF
1.500 UP
5.000 UL
LT0
0.00 0.38 0.68 C 4763 4367 CircleF
LCw setrgbcolor
1.000 UP
4794 4422 CircleF
1.500 UP
5.000 UL
LT0
0.00 0.38 0.68 C 4794 4422 CircleF
LCw setrgbcolor
1.000 UP
4824 4345 CircleF
1.500 UP
5.000 UL
LT0
0.00 0.38 0.68 C 4824 4345 CircleF
LCw setrgbcolor
1.000 UP
4855 4419 CircleF
1.500 UP
5.000 UL
LT0
0.00 0.38 0.68 C 4855 4419 CircleF
LCw setrgbcolor
1.000 UP
4885 4366 CircleF
1.500 UP
5.000 UL
LT0
0.00 0.38 0.68 C 4885 4366 CircleF
LCw setrgbcolor
1.000 UP
4916 4376 CircleF
1.500 UP
5.000 UL
LT0
0.00 0.38 0.68 C 4916 4376 CircleF
LCw setrgbcolor
1.000 UP
4946 4424 CircleF
1.500 UP
5.000 UL
LT0
0.00 0.38 0.68 C 4946 4424 CircleF
LCw setrgbcolor
1.000 UP
4977 4335 CircleF
1.500 UP
5.000 UL
LT0
0.00 0.38 0.68 C 4977 4335 CircleF
LCw setrgbcolor
1.000 UP
5007 4335 CircleF
1.500 UP
5.000 UL
LT0
0.00 0.38 0.68 C 5007 4335 CircleF
LCw setrgbcolor
1.000 UP
5038 4389 CircleF
1.500 UP
5.000 UL
LT0
0.00 0.38 0.68 C 5038 4389 CircleF
LCw setrgbcolor
1.000 UP
5068 4335 CircleF
1.500 UP
5.000 UL
LT0
0.00 0.38 0.68 C 5068 4335 CircleF
LCw setrgbcolor
1.000 UP
5099 4400 CircleF
1.500 UP
5.000 UL
LT0
0.00 0.38 0.68 C 5099 4400 CircleF
LCw setrgbcolor
1.000 UP
5129 4349 CircleF
1.500 UP
5.000 UL
LT0
0.00 0.38 0.68 C 5129 4349 CircleF
LCw setrgbcolor
1.000 UP
5160 4375 CircleF
1.500 UP
5.000 UL
LT0
0.00 0.38 0.68 C 5160 4375 CircleF
LCw setrgbcolor
1.000 UP
5190 4380 CircleF
1.500 UP
5.000 UL
LT0
0.00 0.38 0.68 C 5190 4380 CircleF
LCw setrgbcolor
1.000 UP
5221 4349 CircleF
1.500 UP
5.000 UL
LT0
0.00 0.38 0.68 C 5221 4349 CircleF
LCw setrgbcolor
1.000 UP
5251 4344 CircleF
1.500 UP
5.000 UL
LT0
0.00 0.38 0.68 C 5251 4344 CircleF
LCw setrgbcolor
1.000 UP
5282 4467 CircleF
1.500 UP
5.000 UL
LT0
0.00 0.38 0.68 C 5282 4467 CircleF
LCw setrgbcolor
1.000 UP
5312 4424 CircleF
1.500 UP
5.000 UL
LT0
0.00 0.38 0.68 C 5312 4424 CircleF
LCw setrgbcolor
1.000 UP
5343 4370 CircleF
1.500 UP
5.000 UL
LT0
0.00 0.38 0.68 C 5343 4370 CircleF
LCw setrgbcolor
1.000 UP
5373 4434 CircleF
1.500 UP
5.000 UL
LT0
0.00 0.38 0.68 C 5373 4434 CircleF
LCw setrgbcolor
1.000 UP
5404 4366 CircleF
1.500 UP
5.000 UL
LT0
0.00 0.38 0.68 C 5404 4366 CircleF
LCw setrgbcolor
1.000 UP
5434 4336 CircleF
1.500 UP
5.000 UL
LT0
0.00 0.38 0.68 C 5434 4336 CircleF
LCw setrgbcolor
1.000 UP
5465 4430 CircleF
1.500 UP
5.000 UL
LT0
0.00 0.38 0.68 C 5465 4430 CircleF
LCw setrgbcolor
1.000 UP
5496 4467 CircleF
1.500 UP
5.000 UL
LT0
0.00 0.38 0.68 C 5496 4467 CircleF
LCw setrgbcolor
1.000 UP
5526 4360 CircleF
1.500 UP
5.000 UL
LT0
0.00 0.38 0.68 C 5526 4360 CircleF
LCw setrgbcolor
1.000 UP
5557 4467 CircleF
1.500 UP
5.000 UL
LT0
0.00 0.38 0.68 C 5557 4467 CircleF
LCw setrgbcolor
1.000 UP
5587 4346 CircleF
1.500 UP
5.000 UL
LT0
0.00 0.38 0.68 C 5587 4346 CircleF
LCw setrgbcolor
1.000 UP
5618 4351 CircleF
1.500 UP
5.000 UL
LT0
0.00 0.38 0.68 C 5618 4351 CircleF
LCw setrgbcolor
1.000 UP
5648 4444 CircleF
1.500 UP
5.000 UL
LT0
0.00 0.38 0.68 C 5648 4444 CircleF
LCw setrgbcolor
1.000 UP
5679 4339 CircleF
1.500 UP
5.000 UL
LT0
0.00 0.38 0.68 C 5679 4339 CircleF
LCw setrgbcolor
1.000 UP
5709 4424 CircleF
1.500 UP
5.000 UL
LT0
0.00 0.38 0.68 C 5709 4424 CircleF
LCw setrgbcolor
1.000 UP
5740 4389 CircleF
1.500 UP
5.000 UL
LT0
0.00 0.38 0.68 C 5740 4389 CircleF
LCw setrgbcolor
1.000 UP
5770 4336 CircleF
1.500 UP
5.000 UL
LT0
0.00 0.38 0.68 C 5770 4336 CircleF
LCw setrgbcolor
1.000 UP
5801 4379 CircleF
1.500 UP
5.000 UL
LT0
0.00 0.38 0.68 C 5801 4379 CircleF
LCw setrgbcolor
1.000 UP
5831 4392 CircleF
1.500 UP
5.000 UL
LT0
0.00 0.38 0.68 C 5831 4392 CircleF
LCw setrgbcolor
1.000 UP
5862 4350 CircleF
1.500 UP
5.000 UL
LT0
0.00 0.38 0.68 C 5862 4350 CircleF
LCw setrgbcolor
1.000 UP
5892 4348 CircleF
1.500 UP
5.000 UL
LT0
0.00 0.38 0.68 C 5892 4348 CircleF
LCw setrgbcolor
1.000 UP
5923 4423 CircleF
1.500 UP
5.000 UL
LT0
0.00 0.38 0.68 C 5923 4423 CircleF
LCw setrgbcolor
1.000 UP
5953 4352 CircleF
1.500 UP
5.000 UL
LT0
0.00 0.38 0.68 C 5953 4352 CircleF
LCw setrgbcolor
1.000 UP
5984 4468 CircleF
1.500 UP
5.000 UL
LT0
0.00 0.38 0.68 C 5984 4468 CircleF
LCw setrgbcolor
1.000 UP
6014 4467 CircleF
1.500 UP
5.000 UL
LT0
0.00 0.38 0.68 C 6014 4467 CircleF
LCw setrgbcolor
1.000 UP
6045 4537 CircleF
1.500 UP
5.000 UL
LT0
0.00 0.38 0.68 C 6045 4537 CircleF
LCw setrgbcolor
1.000 UP
6075 4434 CircleF
1.500 UP
5.000 UL
LT0
0.00 0.38 0.68 C 6075 4434 CircleF
LCw setrgbcolor
1.000 UP
6106 4425 CircleF
1.500 UP
5.000 UL
LT0
0.00 0.38 0.68 C 6106 4425 CircleF
LCw setrgbcolor
1.000 UP
6136 4517 CircleF
1.500 UP
5.000 UL
LT0
0.00 0.38 0.68 C 6136 4517 CircleF
LCw setrgbcolor
1.000 UP
6167 4353 CircleF
1.500 UP
5.000 UL
LT0
0.00 0.38 0.68 C 6167 4353 CircleF
LCw setrgbcolor
1.000 UP
6197 4335 CircleF
1.500 UP
5.000 UL
LT0
0.00 0.38 0.68 C 6197 4335 CircleF
LCw setrgbcolor
1.000 UP
6228 4461 CircleF
1.500 UP
5.000 UL
LT0
0.00 0.38 0.68 C 6228 4461 CircleF
LCw setrgbcolor
1.000 UP
6259 4332 CircleF
1.500 UP
5.000 UL
LT0
0.00 0.38 0.68 C 6259 4332 CircleF
LCw setrgbcolor
1.000 UP
6289 4463 CircleF
1.500 UP
5.000 UL
LT0
0.00 0.38 0.68 C 6289 4463 CircleF
LCw setrgbcolor
1.000 UP
6320 4341 CircleF
1.500 UP
5.000 UL
LT0
0.00 0.38 0.68 C 6320 4341 CircleF
LCw setrgbcolor
1.000 UP
6350 4610 CircleF
1.500 UP
5.000 UL
LT0
0.00 0.38 0.68 C 6350 4610 CircleF
LCw setrgbcolor
1.000 UP
6381 4947 CircleF
1.500 UP
5.000 UL
LT0
0.00 0.38 0.68 C 6381 4947 CircleF
LCw setrgbcolor
1.000 UP
6411 4333 CircleF
1.500 UP
5.000 UL
LT0
0.00 0.38 0.68 C 6411 4333 CircleF
LCw setrgbcolor
1.000 UP
6442 4468 CircleF
1.500 UP
5.000 UL
LT0
0.00 0.38 0.68 C 6442 4468 CircleF
LCw setrgbcolor
1.000 UP
6472 4443 CircleF
1.500 UP
5.000 UL
LT0
0.00 0.38 0.68 C 6472 4443 CircleF
LCw setrgbcolor
1.000 UP
6503 4359 CircleF
1.500 UP
5.000 UL
LT0
0.00 0.38 0.68 C 6503 4359 CircleF
LCw setrgbcolor
1.000 UP
6533 4350 CircleF
1.500 UP
5.000 UL
LT0
0.00 0.38 0.68 C 6533 4350 CircleF
LCw setrgbcolor
1.000 UP
6564 4445 CircleF
1.500 UP
5.000 UL
LT0
0.00 0.38 0.68 C 6564 4445 CircleF
LCw setrgbcolor
1.000 UP
6594 4334 CircleF
1.500 UP
5.000 UL
LT0
0.00 0.38 0.68 C 6594 4334 CircleF
LCw setrgbcolor
1.000 UP
6625 4459 CircleF
1.500 UP
5.000 UL
LT0
0.00 0.38 0.68 C 6625 4459 CircleF
LCw setrgbcolor
1.000 UP
6655 4936 CircleF
1.500 UP
5.000 UL
LT0
0.00 0.38 0.68 C 6655 4936 CircleF
LCw setrgbcolor
1.000 UP
6686 4473 CircleF
1.500 UP
5.000 UL
LT0
0.00 0.38 0.68 C 6686 4473 CircleF
LCw setrgbcolor
1.000 UP
6716 4328 CircleF
1.500 UP
5.000 UL
LT0
0.00 0.38 0.68 C 6716 4328 CircleF
LCw setrgbcolor
1.000 UP
6747 4485 CircleF
1.500 UP
5.000 UL
LT0
0.00 0.38 0.68 C 6747 4485 CircleF
LCw setrgbcolor
1.000 UP
6777 4335 CircleF
1.500 UP
5.000 UL
LT0
0.00 0.38 0.68 C 6777 4335 CircleF
LCw setrgbcolor
1.000 UP
6808 4382 CircleF
1.500 UP
5.000 UL
LT0
0.00 0.38 0.68 C 6808 4382 CircleF
LCw setrgbcolor
1.000 UP
6838 4414 CircleF
1.500 UP
5.000 UL
LT0
0.00 0.38 0.68 C 6838 4414 CircleF
LCw setrgbcolor
1.000 UP
6869 4339 CircleF
1.500 UP
5.000 UL
LT0
0.00 0.38 0.68 C 6869 4339 CircleF
LCw setrgbcolor
1.000 UP
6899 4435 CircleF
1.500 UP
5.000 UL
LT0
0.00 0.38 0.68 C 6899 4435 CircleF
LCw setrgbcolor
1.000 UP
6930 4359 CircleF
1.500 UP
5.000 UL
LT0
0.00 0.38 0.68 C 6930 4359 CircleF
LCw setrgbcolor
1.000 UP
6960 4330 CircleF
1.500 UP
5.000 UL
LT0
0.00 0.38 0.68 C 6960 4330 CircleF
LCw setrgbcolor
1.000 UP
6991 4464 CircleF
1.500 UP
5.000 UL
LT0
0.00 0.38 0.68 C 6991 4464 CircleF
LCw setrgbcolor
1.000 UP
7022 4391 CircleF
1.500 UP
5.000 UL
LT0
0.00 0.38 0.68 C 7022 4391 CircleF
LCw setrgbcolor
1.000 UP
7052 4351 CircleF
1.500 UP
5.000 UL
LT0
0.00 0.38 0.68 C 7052 4351 CircleF
LCw setrgbcolor
1.000 UP
7083 4367 CircleF
1.500 UP
5.000 UL
LT0
0.00 0.38 0.68 C 7083 4367 CircleF
LCw setrgbcolor
1.000 UP
7113 4403 CircleF
1.500 UP
5.000 UL
LT0
0.00 0.38 0.68 C 7113 4403 CircleF
LCw setrgbcolor
1.000 UP
7144 4997 CircleF
1.500 UP
5.000 UL
LT0
0.00 0.38 0.68 C 7144 4997 CircleF
LCw setrgbcolor
1.000 UP
7174 4594 CircleF
1.500 UP
5.000 UL
LT0
0.00 0.38 0.68 C 7174 4594 CircleF
LCw setrgbcolor
1.000 UP
7205 4327 CircleF
1.500 UP
5.000 UL
LT0
0.00 0.38 0.68 C 7205 4327 CircleF
LCw setrgbcolor
1.000 UP
7235 4499 CircleF
1.500 UP
5.000 UL
LT0
0.00 0.38 0.68 C 7235 4499 CircleF
LCw setrgbcolor
1.000 UP
7266 4356 CircleF
1.500 UP
5.000 UL
LT0
0.00 0.38 0.68 C 7266 4356 CircleF
LCw setrgbcolor
1.000 UP
7296 4454 CircleF
1.500 UP
5.000 UL
LT0
0.00 0.38 0.68 C 7296 4454 CircleF
LCw setrgbcolor
1.000 UP
7327 4339 CircleF
1.500 UP
5.000 UL
LT0
0.00 0.38 0.68 C 7327 4339 CircleF
LCw setrgbcolor
1.000 UP
7357 4458 CircleF
1.500 UP
5.000 UL
LT0
0.00 0.38 0.68 C 7357 4458 CircleF
LCw setrgbcolor
1.000 UP
7388 4359 CircleF
1.500 UP
5.000 UL
LT0
0.00 0.38 0.68 C 7388 4359 CircleF
LCw setrgbcolor
1.000 UP
7418 4394 CircleF
1.500 UP
5.000 UL
LT0
0.00 0.38 0.68 C 7418 4394 CircleF
LCw setrgbcolor
1.000 UP
7449 4406 CircleF
1.500 UP
5.000 UL
LT0
0.00 0.38 0.68 C 7449 4406 CircleF
LCw setrgbcolor
1.000 UP
7479 4420 CircleF
1.500 UP
5.000 UL
LT0
0.00 0.38 0.68 C 7479 4420 CircleF
LCw setrgbcolor
1.000 UP
7510 4357 CircleF
1.500 UP
5.000 UL
LT0
0.00 0.38 0.68 C 7510 4357 CircleF
LCw setrgbcolor
1.000 UP
7540 4373 CircleF
1.500 UP
5.000 UL
LT0
0.00 0.38 0.68 C 7540 4373 CircleF
LCw setrgbcolor
1.000 UP
7571 4419 CircleF
1.500 UP
5.000 UL
LT0
0.00 0.38 0.68 C 7571 4419 CircleF
LCw setrgbcolor
1.000 UP
7601 4364 CircleF
1.500 UP
5.000 UL
LT0
0.00 0.38 0.68 C 7601 4364 CircleF
LCw setrgbcolor
1.000 UP
7632 4401 CircleF
1.500 UP
5.000 UL
LT0
0.00 0.38 0.68 C 7632 4401 CircleF
LCw setrgbcolor
1.000 UP
7662 4376 CircleF
1.500 UP
5.000 UL
LT0
0.00 0.38 0.68 C 7662 4376 CircleF
LCw setrgbcolor
1.000 UP
7693 4373 CircleF
1.500 UP
5.000 UL
LT0
0.00 0.38 0.68 C 7693 4373 CircleF
LCw setrgbcolor
1.000 UP
7723 4468 CircleF
1.500 UP
5.000 UL
LT0
0.00 0.38 0.68 C 7723 4468 CircleF
LCw setrgbcolor
1.000 UP
7754 4399 CircleF
1.500 UP
5.000 UL
LT0
0.00 0.38 0.68 C 7754 4399 CircleF
LCw setrgbcolor
1.000 UP
7785 4468 CircleF
1.500 UP
5.000 UL
LT0
0.00 0.38 0.68 C 7785 4468 CircleF
LCw setrgbcolor
1.000 UP
7815 4328 CircleF
1.500 UP
5.000 UL
LT0
0.00 0.38 0.68 C 7815 4328 CircleF
LCw setrgbcolor
1.000 UP
7846 4344 CircleF
1.500 UP
5.000 UL
LT0
0.00 0.38 0.68 C 7846 4344 CircleF
LCw setrgbcolor
1.000 UP
7876 4451 CircleF
1.500 UP
5.000 UL
LT0
0.00 0.38 0.68 C 7876 4451 CircleF
LCw setrgbcolor
1.000 UP
7907 4368 CircleF
1.500 UP
5.000 UL
LT0
0.00 0.38 0.68 C 7907 4368 CircleF
LCw setrgbcolor
1.000 UP
7937 4385 CircleF
1.500 UP
5.000 UL
LT0
0.00 0.38 0.68 C 7937 4385 CircleF
LCw setrgbcolor
1.000 UP
7968 4409 CircleF
1.500 UP
5.000 UL
LT0
0.00 0.38 0.68 C 7968 4409 CircleF
LCw setrgbcolor
1.000 UP
7998 4390 CircleF
1.500 UP
5.000 UL
LT0
0.00 0.38 0.68 C 7998 4390 CircleF
LCw setrgbcolor
1.000 UP
8029 4467 CircleF
1.500 UP
5.000 UL
LT0
0.00 0.38 0.68 C 8029 4467 CircleF
LCw setrgbcolor
1.000 UP
8059 4408 CircleF
1.500 UP
5.000 UL
LT0
0.00 0.38 0.68 C 8059 4408 CircleF
LCw setrgbcolor
1.000 UP
8090 4468 CircleF
1.500 UP
5.000 UL
LT0
0.00 0.38 0.68 C 8090 4468 CircleF
LCw setrgbcolor
1.000 UP
8120 4467 CircleF
1.500 UP
5.000 UL
LT0
0.00 0.38 0.68 C 8120 4467 CircleF
LCw setrgbcolor
1.000 UP
8151 4553 CircleF
1.500 UP
5.000 UL
LT0
0.00 0.38 0.68 C 8151 4553 CircleF
LCw setrgbcolor
1.000 UP
8181 4352 CircleF
1.500 UP
5.000 UL
LT0
0.00 0.38 0.68 C 8181 4352 CircleF
LCw setrgbcolor
1.000 UP
8212 4471 CircleF
1.500 UP
5.000 UL
LT0
0.00 0.38 0.68 C 8212 4471 CircleF
LCw setrgbcolor
1.000 UP
8242 4459 CircleF
1.500 UP
5.000 UL
LT0
0.00 0.38 0.68 C 8242 4459 CircleF
LCw setrgbcolor
1.000 UP
8273 4357 CircleF
1.500 UP
5.000 UL
LT0
0.00 0.38 0.68 C 8273 4357 CircleF
LCw setrgbcolor
1.000 UP
8303 4426 CircleF
1.500 UP
5.000 UL
LT0
0.00 0.38 0.68 C 8303 4426 CircleF
LCw setrgbcolor
1.000 UP
8334 4370 CircleF
1.500 UP
5.000 UL
LT0
0.00 0.38 0.68 C 8334 4370 CircleF
LCw setrgbcolor
1.000 UP
8364 4330 CircleF
1.500 UP
5.000 UL
LT0
0.00 0.38 0.68 C 8364 4330 CircleF
LCw setrgbcolor
1.000 UP
8395 4467 CircleF
1.500 UP
5.000 UL
LT0
0.00 0.38 0.68 C 8395 4467 CircleF
LCw setrgbcolor
1.000 UP
8425 4330 CircleF
1.500 UP
5.000 UL
LT0
0.00 0.38 0.68 C 8425 4330 CircleF
LCw setrgbcolor
1.000 UP
8456 4467 CircleF
1.500 UP
5.000 UL
LT0
0.00 0.38 0.68 C 8456 4467 CircleF
LCw setrgbcolor
1.000 UP
8486 4470 CircleF
1.500 UP
5.000 UL
LT0
0.00 0.38 0.68 C 8486 4470 CircleF
LCw setrgbcolor
1.000 UP
8517 4349 CircleF
1.500 UP
5.000 UL
LT0
0.00 0.38 0.68 C 8517 4349 CircleF
LCw setrgbcolor
1.000 UP
8548 4468 CircleF
1.500 UP
5.000 UL
LT0
0.00 0.38 0.68 C 8548 4468 CircleF
LCw setrgbcolor
1.000 UP
8578 4441 CircleF
1.500 UP
5.000 UL
LT0
0.00 0.38 0.68 C 8578 4441 CircleF
LCw setrgbcolor
1.000 UP
8609 4357 CircleF
1.500 UP
5.000 UL
LT0
0.00 0.38 0.68 C 8609 4357 CircleF
LCw setrgbcolor
1.000 UP
8639 4437 CircleF
1.500 UP
5.000 UL
LT0
0.00 0.38 0.68 C 8639 4437 CircleF
LCw setrgbcolor
1.000 UP
8670 4396 CircleF
1.500 UP
5.000 UL
LT0
0.00 0.38 0.68 C 8670 4396 CircleF
LCw setrgbcolor
1.000 UP
8700 4356 CircleF
1.500 UP
5.000 UL
LT0
0.00 0.38 0.68 C 8700 4356 CircleF
LCw setrgbcolor
1.000 UP
8731 4442 CircleF
1.500 UP
5.000 UL
LT0
0.00 0.38 0.68 C 8731 4442 CircleF
LCw setrgbcolor
1.000 UP
8761 4392 CircleF
1.500 UP
5.000 UL
LT0
0.00 0.38 0.68 C 8761 4392 CircleF
LCw setrgbcolor
1.000 UP
8792 4390 CircleF
1.500 UP
5.000 UL
LT0
0.00 0.38 0.68 C 8792 4390 CircleF
LCw setrgbcolor
1.000 UP
8822 4447 CircleF
1.500 UP
5.000 UL
LT0
0.00 0.38 0.68 C 8822 4447 CircleF
LCw setrgbcolor
1.000 UP
8853 4373 CircleF
1.500 UP
5.000 UL
LT0
0.00 0.38 0.68 C 8853 4373 CircleF
LCw setrgbcolor
1.000 UP
8883 4388 CircleF
1.500 UP
5.000 UL
LT0
0.00 0.38 0.68 C 8883 4388 CircleF
LCw setrgbcolor
1.000 UP
8914 4349 CircleF
1.500 UP
5.000 UL
LT0
0.00 0.38 0.68 C 8914 4349 CircleF
LCw setrgbcolor
1.000 UP
8944 4395 CircleF
1.500 UP
5.000 UL
LT0
0.00 0.38 0.68 C 8944 4395 CircleF
LCw setrgbcolor
1.000 UP
8975 4399 CircleF
1.500 UP
5.000 UL
LT0
0.00 0.38 0.68 C 8975 4399 CircleF
LCw setrgbcolor
1.000 UP
9005 4335 CircleF
1.500 UP
5.000 UL
LT0
0.00 0.38 0.68 C 9005 4335 CircleF
LCw setrgbcolor
1.000 UP
9036 4364 CircleF
1.500 UP
5.000 UL
LT0
0.00 0.38 0.68 C 9036 4364 CircleF
LCw setrgbcolor
1.000 UP
9066 4421 CircleF
1.500 UP
5.000 UL
LT0
0.00 0.38 0.68 C 9066 4421 CircleF
LCw setrgbcolor
1.000 UP
9097 4358 CircleF
1.500 UP
5.000 UL
LT0
0.00 0.38 0.68 C 9097 4358 CircleF
LCw setrgbcolor
1.000 UP
9127 4468 CircleF
1.500 UP
5.000 UL
LT0
0.00 0.38 0.68 C 9127 4468 CircleF
LCw setrgbcolor
1.000 UP
9158 4376 CircleF
1.500 UP
5.000 UL
LT0
0.00 0.38 0.68 C 9158 4376 CircleF
LCw setrgbcolor
1.000 UP
9188 4467 CircleF
1.500 UP
5.000 UL
LT0
0.00 0.38 0.68 C 9188 4467 CircleF
LCw setrgbcolor
1.000 UP
9219 4405 CircleF
1.500 UP
5.000 UL
LT0
0.00 0.38 0.68 C 9219 4405 CircleF
LCw setrgbcolor
1.000 UP
9249 4365 CircleF
1.500 UP
5.000 UL
LT0
0.00 0.38 0.68 C 9249 4365 CircleF
LCw setrgbcolor
1.000 UP
9280 4382 CircleF
1.500 UP
5.000 UL
LT0
0.00 0.38 0.68 C 9280 4382 CircleF
LCw setrgbcolor
1.000 UP
9311 4412 CircleF
1.500 UP
5.000 UL
LT0
0.00 0.38 0.68 C 9311 4412 CircleF
LCw setrgbcolor
1.000 UP
9341 4421 CircleF
1.500 UP
5.000 UL
LT0
0.00 0.38 0.68 C 9341 4421 CircleF
LCw setrgbcolor
1.000 UP
9372 4467 CircleF
1.500 UP
5.000 UL
LT0
0.00 0.38 0.68 C 9372 4467 CircleF
LCw setrgbcolor
1.000 UP
9402 4396 CircleF
1.500 UP
5.000 UL
LT0
0.00 0.38 0.68 C 9402 4396 CircleF
LCw setrgbcolor
1.000 UP
9433 4418 CircleF
1.500 UP
5.000 UL
LT0
0.00 0.38 0.68 C 9433 4418 CircleF
LCw setrgbcolor
1.000 UP
9463 4335 CircleF
1.500 UP
5.000 UL
LT0
0.00 0.38 0.68 C 9463 4335 CircleF
LCw setrgbcolor
1.000 UP
9494 4460 CircleF
1.500 UP
5.000 UL
LT0
0.00 0.38 0.68 C 9494 4460 CircleF
LCw setrgbcolor
1.000 UP
9524 4361 CircleF
1.500 UP
5.000 UL
LT0
0.00 0.38 0.68 C 9524 4361 CircleF
LCw setrgbcolor
1.000 UP
9555 4472 CircleF
1.500 UP
5.000 UL
LT0
0.00 0.38 0.68 C 9555 4472 CircleF
LCw setrgbcolor
1.000 UP
9585 4434 CircleF
1.500 UP
5.000 UL
LT0
0.00 0.38 0.68 C 9585 4434 CircleF
LCw setrgbcolor
1.000 UP
9616 4469 CircleF
1.500 UP
5.000 UL
LT0
0.00 0.38 0.68 C 9616 4469 CircleF
LCw setrgbcolor
1.000 UP
9646 4395 CircleF
1.500 UP
5.000 UL
LT0
0.00 0.38 0.68 C 9646 4395 CircleF
LCw setrgbcolor
1.000 UP
9677 4382 CircleF
1.500 UP
5.000 UL
LT0
0.00 0.38 0.68 C 9677 4382 CircleF
LCw setrgbcolor
1.000 UP
9707 4355 CircleF
1.500 UP
5.000 UL
LT0
0.00 0.38 0.68 C 9707 4355 CircleF
LCw setrgbcolor
1.000 UP
9738 4468 CircleF
1.500 UP
5.000 UL
LT0
0.00 0.38 0.68 C 9738 4468 CircleF
LCw setrgbcolor
1.000 UP
9768 4384 CircleF
1.500 UP
5.000 UL
LT0
0.00 0.38 0.68 C 9768 4384 CircleF
LCw setrgbcolor
1.000 UP
9799 4410 CircleF
1.500 UP
5.000 UL
LT0
0.00 0.38 0.68 C 9799 4410 CircleF
LCw setrgbcolor
1.000 UP
9829 5092 CircleF
1.500 UP
5.000 UL
LT0
0.00 0.38 0.68 C 9829 5092 CircleF
LCw setrgbcolor
1.000 UP
9860 4327 CircleF
1.500 UP
5.000 UL
LT0
0.00 0.38 0.68 C 9860 4327 CircleF
LCw setrgbcolor
1.000 UP
9890 4596 CircleF
1.500 UP
5.000 UL
LT0
0.00 0.38 0.68 C 9890 4596 CircleF
LCw setrgbcolor
1.000 UP
9921 4333 CircleF
1.500 UP
5.000 UL
LT0
0.00 0.38 0.68 C 9921 4333 CircleF
LCw setrgbcolor
1.000 UP
9951 4467 CircleF
1.500 UP
5.000 UL
LT0
0.00 0.38 0.68 C 9951 4467 CircleF
LCw setrgbcolor
1.000 UP
9982 4470 CircleF
1.500 UP
5.000 UL
LT0
0.00 0.38 0.68 C 9982 4470 CircleF
LCw setrgbcolor
1.000 UP
10012 4447 CircleF
1.500 UP
5.000 UL
LT0
0.00 0.38 0.68 C 10012 4447 CircleF
LCw setrgbcolor
1.000 UP
10043 4370 CircleF
1.500 UP
5.000 UL
LT0
0.00 0.38 0.68 C 10043 4370 CircleF
LCw setrgbcolor
1.000 UP
10074 4424 CircleF
1.500 UP
5.000 UL
LT0
0.00 0.38 0.68 C 10074 4424 CircleF
LCw setrgbcolor
1.000 UP
10104 4348 CircleF
1.500 UP
5.000 UL
LT0
0.00 0.38 0.68 C 10104 4348 CircleF
LCw setrgbcolor
1.000 UP
10135 4447 CircleF
1.500 UP
5.000 UL
LT0
0.00 0.38 0.68 C 10135 4447 CircleF
LCw setrgbcolor
1.000 UP
10165 4342 CircleF
1.500 UP
5.000 UL
LT0
0.00 0.38 0.68 C 10165 4342 CircleF
LCw setrgbcolor
1.000 UP
10196 4434 CircleF
1.500 UP
5.000 UL
LT0
0.00 0.38 0.68 C 10196 4434 CircleF
LCw setrgbcolor
1.000 UP
10226 4432 CircleF
1.500 UP
5.000 UL
LT0
0.00 0.38 0.68 C 10226 4432 CircleF
LCw setrgbcolor
1.000 UP
10257 4423 CircleF
1.500 UP
5.000 UL
LT0
0.00 0.38 0.68 C 10257 4423 CircleF
LCw setrgbcolor
1.000 UP
10287 4386 CircleF
1.500 UP
5.000 UL
LT0
0.00 0.38 0.68 C 10287 4386 CircleF
LCw setrgbcolor
1.000 UP
10318 4335 CircleF
1.500 UP
5.000 UL
LT0
0.00 0.38 0.68 C 10318 4335 CircleF
LCw setrgbcolor
1.000 UP
10348 4531 CircleF
1.500 UP
5.000 UL
LT0
0.00 0.38 0.68 C 10348 4531 CircleF
LCw setrgbcolor
1.000 UP
10379 4372 CircleF
1.500 UP
5.000 UL
LT0
0.00 0.38 0.68 C 10379 4372 CircleF
LCw setrgbcolor
1.000 UP
10409 4732 CircleF
1.500 UP
5.000 UL
LT0
0.00 0.38 0.68 C 10409 4732 CircleF
LCw setrgbcolor
1.000 UP
10440 4488 CircleF
1.500 UP
5.000 UL
LT0
0.00 0.38 0.68 C 10440 4488 CircleF
LCw setrgbcolor
1.000 UP
10470 4335 CircleF
1.500 UP
5.000 UL
LT0
0.00 0.38 0.68 C 10470 4335 CircleF
LCw setrgbcolor
1.000 UP
10501 4466 CircleF
1.500 UP
5.000 UL
LT0
0.00 0.38 0.68 C 10501 4466 CircleF
LCw setrgbcolor
1.000 UP
10531 4400 CircleF
1.500 UP
5.000 UL
LT0
0.00 0.38 0.68 C 10531 4400 CircleF
LCw setrgbcolor
1.000 UP
10562 4353 CircleF
1.500 UP
5.000 UL
LT0
0.00 0.38 0.68 C 10562 4353 CircleF
LCw setrgbcolor
1.000 UP
10592 4442 CircleF
1.500 UP
5.000 UL
LT0
0.00 0.38 0.68 C 10592 4442 CircleF
LCw setrgbcolor
1.000 UP
10623 4353 CircleF
1.500 UP
5.000 UL
LT0
0.00 0.38 0.68 C 10623 4353 CircleF
LCw setrgbcolor
1.000 UP
10653 4468 CircleF
1.500 UP
5.000 UL
LT0
0.00 0.38 0.68 C 10653 4468 CircleF
LCw setrgbcolor
1.000 UP
10684 4467 CircleF
1.500 UP
5.000 UL
LT0
0.00 0.38 0.68 C 10684 4467 CircleF
LCw setrgbcolor
1.000 UP
10714 4468 CircleF
1.500 UP
5.000 UL
LT0
0.00 0.38 0.68 C 10714 4468 CircleF
LCw setrgbcolor
1.000 UP
10745 4591 CircleF
1.500 UP
5.000 UL
LT0
0.00 0.38 0.68 C 10745 4591 CircleF
LCw setrgbcolor
1.000 UP
10775 4345 CircleF
1.500 UP
5.000 UL
LT0
0.00 0.38 0.68 C 10775 4345 CircleF
LCw setrgbcolor
1.000 UP
10806 4470 CircleF
1.500 UP
5.000 UL
LT0
0.00 0.38 0.68 C 10806 4470 CircleF
LCw setrgbcolor
1.000 UP
10837 4467 CircleF
1.500 UP
5.000 UL
LT0
0.00 0.38 0.68 C 10837 4467 CircleF
LCw setrgbcolor
1.000 UP
10867 5033 CircleF
1.500 UP
5.000 UL
LT0
0.00 0.38 0.68 C 10867 5033 CircleF
LCw setrgbcolor
1.000 UP
10898 6295 CircleF
1.500 UP
5.000 UL
LT0
0.00 0.38 0.68 C 10898 6295 CircleF
LCw setrgbcolor
1.000 UP
10928 4478 CircleF
1.500 UP
5.000 UL
LT0
0.00 0.38 0.68 C 10928 4478 CircleF
LCw setrgbcolor
1.000 UP
10959 4327 CircleF
1.500 UP
5.000 UL
LT0
0.00 0.38 0.68 C 10959 4327 CircleF
LCw setrgbcolor
1.000 UP
10989 4327 CircleF
1.500 UP
5.000 UL
LT0
0.00 0.38 0.68 C 10989 4327 CircleF
LCw setrgbcolor
1.000 UP
11020 4472 CircleF
1.500 UP
5.000 UL
LT0
0.00 0.38 0.68 C 11020 4472 CircleF
LCw setrgbcolor
1.000 UP
11050 4333 CircleF
1.500 UP
5.000 UL
LT0
0.00 0.38 0.68 C 11050 4333 CircleF
LCw setrgbcolor
1.000 UP
11081 4467 CircleF
1.500 UP
5.000 UL
LT0
0.00 0.38 0.68 C 11081 4467 CircleF
LCw setrgbcolor
1.000 UP
11111 4395 CircleF
1.500 UP
5.000 UL
LT0
0.00 0.38 0.68 C 11111 4395 CircleF
LCw setrgbcolor
1.000 UP
11142 4467 CircleF
1.500 UP
5.000 UL
LT0
0.00 0.38 0.68 C 11142 4467 CircleF
LCw setrgbcolor
1.000 UP
11172 4406 CircleF
1.500 UP
5.000 UL
LT0
0.00 0.38 0.68 C 11172 4406 CircleF
LCw setrgbcolor
1.000 UP
11203 4423 CircleF
1.500 UP
5.000 UL
LT0
0.00 0.38 0.68 C 11203 4423 CircleF
LCw setrgbcolor
1.000 UP
11233 4364 CircleF
1.500 UP
5.000 UL
LT0
0.00 0.38 0.68 C 11233 4364 CircleF
LCw setrgbcolor
1.000 UP
11264 4436 CircleF
1.500 UP
5.000 UL
LT0
0.00 0.38 0.68 C 11264 4436 CircleF
LCw setrgbcolor
1.000 UP
11294 4360 CircleF
1.500 UP
5.000 UL
LT0
0.00 0.38 0.68 C 11294 4360 CircleF
LCw setrgbcolor
1.000 UP
11325 4449 CircleF
1.500 UP
5.000 UL
LT0
0.00 0.38 0.68 C 11325 4449 CircleF
LCw setrgbcolor
1.000 UP
11355 4467 CircleF
1.500 UP
5.000 UL
LT0
0.00 0.38 0.68 C 11355 4467 CircleF
LCw setrgbcolor
1.000 UP
11386 4400 CircleF
1.500 UP
5.000 UL
LT0
0.00 0.38 0.68 C 11386 4400 CircleF
LCw setrgbcolor
1.000 UP
11416 4468 CircleF
1.500 UP
5.000 UL
LT0
0.00 0.38 0.68 C 11416 4468 CircleF
LCw setrgbcolor
1.000 UP
11447 4364 CircleF
1.500 UP
5.000 UL
LT0
0.00 0.38 0.68 C 11447 4364 CircleF
LCw setrgbcolor
1.000 UP
11477 4378 CircleF
1.500 UP
5.000 UL
LT0
0.00 0.38 0.68 C 11477 4378 CircleF
LCw setrgbcolor
1.000 UP
11508 4418 CircleF
1.500 UP
5.000 UL
LT0
0.00 0.38 0.68 C 11508 4418 CircleF
LCw setrgbcolor
1.000 UP
11538 4391 CircleF
1.500 UP
5.000 UL
LT0
0.00 0.38 0.68 C 11538 4391 CircleF
LCw setrgbcolor
1.000 UP
11569 4395 CircleF
1.500 UP
5.000 UL
LT0
0.00 0.38 0.68 C 11569 4395 CircleF
LCw setrgbcolor
1.000 UP
11600 4467 CircleF
1.500 UP
5.000 UL
LT0
0.00 0.38 0.68 C 11600 4467 CircleF
LCw setrgbcolor
1.000 UP
11630 4335 CircleF
1.500 UP
5.000 UL
LT0
0.00 0.38 0.68 C 11630 4335 CircleF
LCw setrgbcolor
1.000 UP
11661 4461 CircleF
1.500 UP
5.000 UL
LT0
0.00 0.38 0.68 C 11661 4461 CircleF
LCw setrgbcolor
1.000 UP
11691 4594 CircleF
1.500 UP
5.000 UL
LT0
0.00 0.38 0.68 C 11691 4594 CircleF
LCw setrgbcolor
1.000 UP
11722 4343 CircleF
1.500 UP
5.000 UL
LT0
0.00 0.38 0.68 C 11722 4343 CircleF
LCw setrgbcolor
1.000 UP
11752 4486 CircleF
1.500 UP
5.000 UL
LT0
0.00 0.38 0.68 C 11752 4486 CircleF
LCw setrgbcolor
1.000 UP
11783 4426 CircleF
1.500 UP
5.000 UL
LT0
0.00 0.38 0.68 C 11783 4426 CircleF
LCw setrgbcolor
1.000 UP
11813 4369 CircleF
1.500 UP
5.000 UL
LT0
0.00 0.38 0.68 C 11813 4369 CircleF
LCw setrgbcolor
1.000 UP
11844 4468 CircleF
1.500 UP
5.000 UL
LT0
0.00 0.38 0.68 C 11844 4468 CircleF
LCw setrgbcolor
1.000 UP
11874 4424 CircleF
1.500 UP
5.000 UL
LT0
0.00 0.38 0.68 C 11874 4424 CircleF
LCw setrgbcolor
1.000 UP
11905 4379 CircleF
1.500 UP
5.000 UL
LT0
0.00 0.38 0.68 C 11905 4379 CircleF
LCw setrgbcolor
1.000 UP
11935 4335 CircleF
1.500 UP
5.000 UL
LT0
0.00 0.38 0.68 C 11935 4335 CircleF
LCw setrgbcolor
1.000 UP
11966 4463 CircleF
1.500 UP
5.000 UL
LT0
0.00 0.38 0.68 C 11966 4463 CircleF
LCw setrgbcolor
1.000 UP
11996 4332 CircleF
1.500 UP
5.000 UL
LT0
0.00 0.38 0.68 C 11996 4332 CircleF
LCw setrgbcolor
1.000 UP
12027 4463 CircleF
1.500 UP
5.000 UL
LT0
0.00 0.38 0.68 C 12027 4463 CircleF
LCw setrgbcolor
1.000 UP
12057 4468 CircleF
1.500 UP
5.000 UL
LT0
0.00 0.38 0.68 C 12057 4468 CircleF
LCw setrgbcolor
1.000 UP
12088 4468 CircleF
1.500 UP
5.000 UL
LT0
0.00 0.38 0.68 C 12088 4468 CircleF
LCw setrgbcolor
1.000 UP
12118 4576 CircleF
1.500 UP
5.000 UL
LT0
0.00 0.38 0.68 C 12118 4576 CircleF
LCw setrgbcolor
1.000 UP
12149 4372 CircleF
1.500 UP
5.000 UL
LT0
0.00 0.38 0.68 C 12149 4372 CircleF
LCw setrgbcolor
1.000 UP
12179 4472 CircleF
1.500 UP
5.000 UL
LT0
0.00 0.38 0.68 C 12179 4472 CircleF
LCw setrgbcolor
1.000 UP
12210 4371 CircleF
1.500 UP
5.000 UL
LT0
0.00 0.38 0.68 C 12210 4371 CircleF
LCw setrgbcolor
1.000 UP
12240 4335 CircleF
1.500 UP
5.000 UL
LT0
0.00 0.38 0.68 C 12240 4335 CircleF
LCw setrgbcolor
1.000 UP
12271 4422 CircleF
1.500 UP
5.000 UL
LT0
0.00 0.38 0.68 C 12271 4422 CircleF
LCw setrgbcolor
1.000 UP
12301 4373 CircleF
1.500 UP
5.000 UL
LT0
0.00 0.38 0.68 C 12301 4373 CircleF
LCw setrgbcolor
1.000 UP
12332 4437 CircleF
1.500 UP
5.000 UL
LT0
0.00 0.38 0.68 C 12332 4437 CircleF
LCw setrgbcolor
1.000 UP
12363 4392 CircleF
1.500 UP
5.000 UL
LT0
0.00 0.38 0.68 C 12363 4392 CircleF
LCw setrgbcolor
1.000 UP
12393 4402 CircleF
1.500 UP
5.000 UL
LT0
0.00 0.38 0.68 C 12393 4402 CircleF
LCw setrgbcolor
1.000 UP
12424 4392 CircleF
1.500 UP
5.000 UL
LT0
0.00 0.38 0.68 C 12424 4392 CircleF
LCw setrgbcolor
1.000 UP
12454 4895 CircleF
1.500 UP
5.000 UL
LT0
0.00 0.38 0.68 C 12454 4895 CircleF
LCw setrgbcolor
1.000 UP
12485 4474 CircleF
1.500 UP
5.000 UL
LT0
0.00 0.38 0.68 C 12485 4474 CircleF
LCw setrgbcolor
1.000 UP
12515 4443 CircleF
1.500 UP
5.000 UL
LT0
0.00 0.38 0.68 C 12515 4443 CircleF
LCw setrgbcolor
1.000 UP
12546 4349 CircleF
1.500 UP
5.000 UL
LT0
0.00 0.38 0.68 C 12546 4349 CircleF
LCw setrgbcolor
1.000 UP
12576 4345 CircleF
1.500 UP
5.000 UL
LT0
0.00 0.38 0.68 C 12576 4345 CircleF
LCw setrgbcolor
1.000 UP
12607 4467 CircleF
1.500 UP
5.000 UL
LT0
0.00 0.38 0.68 C 12607 4467 CircleF
LCw setrgbcolor
1.000 UP
12637 4385 CircleF
1.500 UP
5.000 UL
LT0
0.00 0.38 0.68 C 12637 4385 CircleF
LCw setrgbcolor
1.000 UP
12668 4416 CircleF
1.500 UP
5.000 UL
LT0
0.00 0.38 0.68 C 12668 4416 CircleF
LCw setrgbcolor
1.000 UP
12698 4807 CircleF
1.500 UP
5.000 UL
LT0
0.00 0.38 0.68 C 12698 4807 CircleF
LCw setrgbcolor
1.000 UP
12729 4350 CircleF
1.500 UP
5.000 UL
LT0
0.00 0.38 0.68 C 12729 4350 CircleF
LCw setrgbcolor
1.000 UP
12759 4418 CircleF
1.500 UP
5.000 UL
LT0
0.00 0.38 0.68 C 12759 4418 CircleF
LCw setrgbcolor
1.000 UP
12790 4362 CircleF
1.500 UP
5.000 UL
LT0
0.00 0.38 0.68 C 12790 4362 CircleF
LCw setrgbcolor
1.000 UP
12820 4431 CircleF
1.500 UP
5.000 UL
LT0
0.00 0.38 0.68 C 12820 4431 CircleF
LCw setrgbcolor
1.000 UP
12851 4369 CircleF
1.500 UP
5.000 UL
LT0
0.00 0.38 0.68 C 12851 4369 CircleF
LCw setrgbcolor
1.000 UP
12881 4349 CircleF
1.500 UP
5.000 UL
LT0
0.00 0.38 0.68 C 12881 4349 CircleF
LCw setrgbcolor
1.000 UP
12912 4446 CircleF
1.500 UP
5.000 UL
LT0
0.00 0.38 0.68 C 12912 4446 CircleF
LCw setrgbcolor
1.000 UP
12942 4395 CircleF
1.500 UP
5.000 UL
LT0
0.00 0.38 0.68 C 12942 4395 CircleF
LCw setrgbcolor
1.000 UP
12973 4343 CircleF
1.500 UP
5.000 UL
LT0
0.00 0.38 0.68 C 12973 4343 CircleF
LCw setrgbcolor
1.000 UP
13003 4385 CircleF
1.500 UP
5.000 UL
LT0
0.00 0.38 0.68 C 13003 4385 CircleF
LCw setrgbcolor
1.000 UP
13034 4347 CircleF
1.500 UP
5.000 UL
LT0
0.00 0.38 0.68 C 13034 4347 CircleF
LCw setrgbcolor
1.000 UP
13064 4410 CircleF
1.500 UP
5.000 UL
LT0
0.00 0.38 0.68 C 13064 4410 CircleF
LCw setrgbcolor
1.000 UP
13095 4364 CircleF
1.500 UP
5.000 UL
LT0
0.00 0.38 0.68 C 13095 4364 CircleF
LCw setrgbcolor
1.000 UP
13126 4467 CircleF
1.500 UP
5.000 UL
LT0
0.00 0.38 0.68 C 13126 4467 CircleF
LCw setrgbcolor
1.000 UP
13156 4364 CircleF
1.500 UP
5.000 UL
LT0
0.00 0.38 0.68 C 13156 4364 CircleF
LCw setrgbcolor
1.000 UP
13187 4804 CircleF
1.500 UP
5.000 UL
LT0
0.00 0.38 0.68 C 13187 4804 CircleF
LCw setrgbcolor
1.000 UP
13217 4471 CircleF
1.500 UP
5.000 UL
LT0
0.00 0.38 0.68 C 13217 4471 CircleF
LCw setrgbcolor
1.000 UP
13248 4341 CircleF
1.500 UP
5.000 UL
LT0
0.00 0.38 0.68 C 13248 4341 CircleF
LCw setrgbcolor
1.000 UP
13278 4375 CircleF
1.500 UP
5.000 UL
LT0
0.00 0.38 0.68 C 13278 4375 CircleF
LCw setrgbcolor
1.000 UP
13309 4419 CircleF
1.500 UP
5.000 UL
LT0
0.00 0.38 0.68 C 13309 4419 CircleF
LCw setrgbcolor
1.000 UP
13339 4387 CircleF
1.500 UP
5.000 UL
LT0
0.00 0.38 0.68 C 13339 4387 CircleF
LCw setrgbcolor
1.000 UP
13370 4397 CircleF
1.500 UP
5.000 UL
LT0
0.00 0.38 0.68 C 13370 4397 CircleF
LCw setrgbcolor
1.000 UP
13400 4429 CircleF
1.500 UP
5.000 UL
LT0
0.00 0.38 0.68 C 13400 4429 CircleF
LCw setrgbcolor
1.000 UP
13431 4377 CircleF
1.500 UP
5.000 UL
LT0
0.00 0.38 0.68 C 13431 4377 CircleF
LCw setrgbcolor
1.000 UP
13461 4327 CircleF
1.500 UP
5.000 UL
LT0
0.00 0.38 0.68 C 13461 4327 CircleF
LCw setrgbcolor
1.000 UP
13492 4416 CircleF
1.500 UP
5.000 UL
LT0
0.00 0.38 0.68 C 13492 4416 CircleF
LCw setrgbcolor
1.000 UP
13522 4467 CircleF
1.500 UP
5.000 UL
LT0
0.00 0.38 0.68 C 13522 4467 CircleF
LCw setrgbcolor
1.000 UP
13553 4380 CircleF
1.500 UP
5.000 UL
LT0
0.00 0.38 0.68 C 13553 4380 CircleF
LCw setrgbcolor
1.000 UP
13583 4428 CircleF
1.500 UP
5.000 UL
LT0
0.00 0.38 0.68 C 13583 4428 CircleF
LCw setrgbcolor
1.000 UP
13614 4338 CircleF
1.500 UP
5.000 UL
LT0
0.00 0.38 0.68 C 13614 4338 CircleF
LCw setrgbcolor
1.000 UP
13644 4457 CircleF
1.500 UP
5.000 UL
LT0
0.00 0.38 0.68 C 13644 4457 CircleF
LCw setrgbcolor
1.000 UP
13675 4749 CircleF
1.500 UP
5.000 UL
LT0
0.00 0.38 0.68 C 13675 4749 CircleF
LCw setrgbcolor
1.000 UP
13705 4488 CircleF
1.500 UP
5.000 UL
LT0
0.00 0.38 0.68 C 13705 4488 CircleF
LCw setrgbcolor
1.000 UP
13736 4351 CircleF
1.500 UP
5.000 UL
LT0
0.00 0.38 0.68 C 13736 4351 CircleF
% End plot #1
% Begin plot #2
1.500 UP
5.000 UL
LT0
1.00 0.00 0.00 C 1650 4427 CircleF
1681 4416 CircleF
1711 4355 CircleF
1742 4459 CircleF
1772 4462 CircleF
1803 4426 CircleF
1833 4483 CircleF
1864 4368 CircleF
1894 4363 CircleF
1925 4426 CircleF
1955 4677 CircleF
1986 4437 CircleF
2016 4404 CircleF
2047 4338 CircleF
2077 4412 CircleF
2108 4410 CircleF
2138 4374 CircleF
2169 4404 CircleF
2199 4480 CircleF
2230 4453 CircleF
2260 4506 CircleF
2291 4716 CircleF
2321 4503 CircleF
2352 5005 CircleF
2382 4377 CircleF
2413 4368 CircleF
2444 4451 CircleF
2474 4508 CircleF
2505 4615 CircleF
2535 4421 CircleF
2566 4376 CircleF
2596 4789 CircleF
2627 4643 CircleF
2657 4498 CircleF
2688 4486 CircleF
2718 4404 CircleF
2749 4506 CircleF
2779 4544 CircleF
2810 4420 CircleF
2840 4448 CircleF
2871 4363 CircleF
2901 4400 CircleF
2932 4398 CircleF
2962 4404 CircleF
2993 4643 CircleF
3023 4355 CircleF
3054 4547 CircleF
3084 4507 CircleF
3115 4481 CircleF
3145 4404 CircleF
3176 4457 CircleF
3207 4413 CircleF
3237 4384 CircleF
3268 4457 CircleF
3298 5401 CircleF
3329 4423 CircleF
3359 4562 CircleF
3390 4467 CircleF
3420 4436 CircleF
3451 4459 CircleF
3481 4426 CircleF
3512 4503 CircleF
3542 4433 CircleF
3573 4436 CircleF
3603 4439 CircleF
3634 4358 CircleF
3664 4594 CircleF
3695 4457 CircleF
3725 4518 CircleF
3756 4440 CircleF
3786 4420 CircleF
3817 4558 CircleF
3847 4368 CircleF
3878 4506 CircleF
3908 4535 CircleF
3939 4372 CircleF
3970 4481 CircleF
4000 4436 CircleF
4031 4456 CircleF
4061 4369 CircleF
4092 4882 CircleF
4122 4521 CircleF
4153 4454 CircleF
4183 4454 CircleF
4214 4413 CircleF
4244 4439 CircleF
4275 4506 CircleF
4305 4486 CircleF
4336 4412 CircleF
4366 4397 CircleF
4397 4423 CircleF
4427 4436 CircleF
4458 4479 CircleF
4488 4555 CircleF
4519 4410 CircleF
4549 4426 CircleF
4580 4393 CircleF
4610 4434 CircleF
4641 4459 CircleF
4671 4412 CircleF
4702 4472 CircleF
4733 4355 CircleF
4763 4355 CircleF
4794 4451 CircleF
4824 4439 CircleF
4855 4378 CircleF
4885 4479 CircleF
4916 4363 CircleF
4946 4355 CircleF
4977 4371 CircleF
5007 4570 CircleF
5038 4454 CircleF
5068 4355 CircleF
5099 4355 CircleF
5129 4439 CircleF
5160 4506 CircleF
5190 4363 CircleF
5221 4416 CircleF
5251 4460 CircleF
5282 4428 CircleF
5312 4514 CircleF
5343 4360 CircleF
5373 4587 CircleF
5404 4442 CircleF
5434 4389 CircleF
5465 4389 CircleF
5496 4664 CircleF
5526 4462 CircleF
5557 4355 CircleF
5587 4454 CircleF
5618 4398 CircleF
5648 4435 CircleF
5679 4479 CircleF
5709 4480 CircleF
5740 4371 CircleF
5770 4413 CircleF
5801 4468 CircleF
5831 4398 CircleF
5862 4413 CircleF
5892 4463 CircleF
5923 4626 CircleF
5953 4444 CircleF
5984 4410 CircleF
6014 4526 CircleF
6045 4894 CircleF
6075 4385 CircleF
6106 4524 CircleF
6136 4398 CircleF
6167 4587 CircleF
6197 4346 CircleF
6228 4581 CircleF
6259 4491 CircleF
6289 4355 CircleF
6320 4385 CircleF
6350 4924 CircleF
6381 5248 CircleF
6411 4367 CircleF
6442 4414 CircleF
6472 4440 CircleF
6503 4628 CircleF
6533 4470 CircleF
6564 4435 CircleF
6594 4451 CircleF
6625 4427 CircleF
6655 5414 CircleF
6686 5414 CircleF
6716 4666 CircleF
6747 4355 CircleF
6777 4754 CircleF
6808 4451 CircleF
6838 4436 CircleF
6869 4394 CircleF
6899 4526 CircleF
6930 4395 CircleF
6960 4747 CircleF
6991 4686 CircleF
7022 4391 CircleF
7052 4437 CircleF
7083 4446 CircleF
7113 4649 CircleF
7144 5414 CircleF
7174 5414 CircleF
7205 4790 CircleF
7235 4453 CircleF
7266 4364 CircleF
7296 4774 CircleF
7327 4435 CircleF
7357 4858 CircleF
7388 4370 CircleF
7418 4676 CircleF
7449 4416 CircleF
7479 4363 CircleF
7510 4416 CircleF
7540 4503 CircleF
7571 4453 CircleF
7601 4364 CircleF
7632 4367 CircleF
7662 4387 CircleF
7693 4559 CircleF
7723 4416 CircleF
7754 4382 CircleF
7785 4525 CircleF
7815 4358 CircleF
7846 4371 CircleF
7876 4688 CircleF
7907 4368 CircleF
7937 4495 CircleF
7968 4778 CircleF
7998 4448 CircleF
8029 4497 CircleF
8059 4713 CircleF
8090 4375 CircleF
8120 4826 CircleF
8151 4978 CircleF
8181 4384 CircleF
8212 4509 CircleF
8242 4352 CircleF
8273 4595 CircleF
8303 4352 CircleF
8334 4369 CircleF
8364 4360 CircleF
8395 4774 CircleF
8425 4368 CircleF
8456 4925 CircleF
8486 4486 CircleF
8517 4529 CircleF
8548 4503 CircleF
8578 4416 CircleF
8609 4424 CircleF
8639 4682 CircleF
8670 4372 CircleF
8700 4374 CircleF
8731 4669 CircleF
8761 4360 CircleF
8792 4388 CircleF
8822 4408 CircleF
8853 4497 CircleF
8883 4352 CircleF
8914 4449 CircleF
8944 4358 CircleF
8975 4358 CircleF
9005 4412 CircleF
9036 4392 CircleF
9066 4657 CircleF
9097 4404 CircleF
9127 4717 CircleF
9158 4378 CircleF
9188 4937 CircleF
9219 4369 CircleF
9249 4433 CircleF
9280 4466 CircleF
9311 4442 CircleF
9341 4407 CircleF
9372 4848 CircleF
9402 4368 CircleF
9433 4570 CircleF
9463 4393 CircleF
9494 4769 CircleF
9524 4427 CircleF
9555 4595 CircleF
9585 4863 CircleF
9616 4592 CircleF
9646 4365 CircleF
9677 4352 CircleF
9707 4539 CircleF
9738 4424 CircleF
9768 4382 CircleF
9799 4540 CircleF
9829 5414 CircleF
9860 5151 CircleF
9890 5099 CircleF
9921 4364 CircleF
9951 4494 CircleF
9982 4801 CircleF
10012 4427 CircleF
10043 4424 CircleF
10074 4537 CircleF
10104 4457 CircleF
10135 4433 CircleF
10165 4368 CircleF
10196 4753 CircleF
10226 4394 CircleF
10257 4421 CircleF
10287 4384 CircleF
10318 4490 CircleF
10348 4515 CircleF
10379 4512 CircleF
10409 5414 CircleF
10440 4786 CircleF
10470 4416 CircleF
10501 4763 CircleF
10531 4366 CircleF
10562 4387 CircleF
10592 4643 CircleF
10623 4570 CircleF
10653 4413 CircleF
10684 4543 CircleF
10714 4786 CircleF
10745 5238 CircleF
10775 4419 CircleF
10806 4369 CircleF
10837 4837 CircleF
10867 5414 CircleF
10898 5414 CircleF
10928 5414 CircleF
10959 5414 CircleF
10989 5414 CircleF
11020 5414 CircleF
11050 4645 CircleF
11081 4536 CircleF
11111 4352 CircleF
11142 4550 CircleF
11172 4465 CircleF
11203 4487 CircleF
11233 4436 CircleF
11264 4340 CircleF
11294 4393 CircleF
11325 4481 CircleF
11355 4352 CircleF
11386 4512 CircleF
11416 4821 CircleF
11447 4497 CircleF
11477 4455 CircleF
11508 4474 CircleF
11538 4451 CircleF
11569 4404 CircleF
11600 4447 CircleF
11630 4331 CircleF
11661 4503 CircleF
11691 4820 CircleF
11722 4436 CircleF
11752 4355 CircleF
11783 4352 CircleF
11813 4458 CircleF
11844 4542 CircleF
11874 4589 CircleF
11905 4599 CircleF
11935 4368 CircleF
11966 4392 CircleF
11996 4412 CircleF
12027 4679 CircleF
12057 4608 CircleF
12088 4500 CircleF
12118 4681 CircleF
12149 4371 CircleF
12179 4869 CircleF
12210 4400 CircleF
12240 4404 CircleF
12271 4464 CircleF
12301 4393 CircleF
12332 4504 CircleF
12363 4512 CircleF
12393 4433 CircleF
12424 4625 CircleF
12454 5414 CircleF
12485 4613 CircleF
12515 4392 CircleF
12546 4483 CircleF
12576 4412 CircleF
12607 4713 CircleF
12637 4420 CircleF
12668 4449 CircleF
12698 5109 CircleF
12729 4451 CircleF
12759 4477 CircleF
12790 4428 CircleF
12820 4363 CircleF
12851 4416 CircleF
12881 4469 CircleF
12912 5024 CircleF
12942 4413 CircleF
12973 4501 CircleF
13003 4363 CircleF
13034 4391 CircleF
13064 4364 CircleF
13095 4427 CircleF
13126 4497 CircleF
13156 4338 CircleF
13187 5162 CircleF
13217 4559 CircleF
13248 4455 CircleF
13278 4346 CircleF
13309 4526 CircleF
13339 4433 CircleF
13370 4416 CircleF
13400 4479 CircleF
13431 4498 CircleF
13461 4333 CircleF
13492 4372 CircleF
13522 4450 CircleF
13553 4503 CircleF
13583 4521 CircleF
13614 4368 CircleF
13644 4385 CircleF
13675 5155 CircleF
13705 4479 CircleF
13736 4471 CircleF
% End plot #2
1.000 UL
LTb
LCb setrgbcolor
1650 6560 N
0 -2233 V
12208 0 V
0 2233 V
-12208 0 V
Z stroke
1.000 UP
1.000 UL
LTb
LCb setrgbcolor
stroke
grestore
end
showpage
%%Trailer
%%DocumentFonts: Times
