%!PS-Adobe-2.0 EPSF-2.0
%%Title: id4.eps
%%Creator: gnuplot 4.6 patchlevel 2
%%CreationDate: Tue Apr  8 14:40:13 2014
%%DocumentFonts: (atend)
%%BoundingBox: 50 50 770 554
%%EndComments
%%BeginProlog
/gnudict 256 dict def
gnudict begin
%
% The following true/false flags may be edited by hand if desired.
% The unit line width and grayscale image gamma correction may also be changed.
%
/Color true def
/Blacktext false def
/Solid false def
/Dashlength 1 def
/Landscape false def
/Level1 false def
/Rounded false def
/ClipToBoundingBox false def
/SuppressPDFMark false def
/TransparentPatterns false def
/gnulinewidth 5.000 def
/userlinewidth gnulinewidth def
/Gamma 1.0 def
/BackgroundColor {-1.000 -1.000 -1.000} def
%
/vshift -100 def
/dl1 {
  10.0 Dashlength mul mul
  Rounded { currentlinewidth 0.75 mul sub dup 0 le { pop 0.01 } if } if
} def
/dl2 {
  10.0 Dashlength mul mul
  Rounded { currentlinewidth 0.75 mul add } if
} def
/hpt_ 31.5 def
/vpt_ 31.5 def
/hpt hpt_ def
/vpt vpt_ def
/doclip {
  ClipToBoundingBox {
    newpath 50 50 moveto 770 50 lineto 770 554 lineto 50 554 lineto closepath
    clip
  } if
} def
%
% Gnuplot Prolog Version 4.6 (September 2012)
%
%/SuppressPDFMark true def
%
/M {moveto} bind def
/L {lineto} bind def
/R {rmoveto} bind def
/V {rlineto} bind def
/N {newpath moveto} bind def
/Z {closepath} bind def
/C {setrgbcolor} bind def
/f {rlineto fill} bind def
/g {setgray} bind def
/Gshow {show} def   % May be redefined later in the file to support UTF-8
/vpt2 vpt 2 mul def
/hpt2 hpt 2 mul def
/Lshow {currentpoint stroke M 0 vshift R 
	Blacktext {gsave 0 setgray show grestore} {show} ifelse} def
/Rshow {currentpoint stroke M dup stringwidth pop neg vshift R
	Blacktext {gsave 0 setgray show grestore} {show} ifelse} def
/Cshow {currentpoint stroke M dup stringwidth pop -2 div vshift R 
	Blacktext {gsave 0 setgray show grestore} {show} ifelse} def
/UP {dup vpt_ mul /vpt exch def hpt_ mul /hpt exch def
  /hpt2 hpt 2 mul def /vpt2 vpt 2 mul def} def
/DL {Color {setrgbcolor Solid {pop []} if 0 setdash}
 {pop pop pop 0 setgray Solid {pop []} if 0 setdash} ifelse} def
/BL {stroke userlinewidth 2 mul setlinewidth
	Rounded {1 setlinejoin 1 setlinecap} if} def
/AL {stroke userlinewidth 2 div setlinewidth
	Rounded {1 setlinejoin 1 setlinecap} if} def
/UL {dup gnulinewidth mul /userlinewidth exch def
	dup 1 lt {pop 1} if 10 mul /udl exch def} def
/PL {stroke userlinewidth setlinewidth
	Rounded {1 setlinejoin 1 setlinecap} if} def
3.8 setmiterlimit
% Default Line colors
/LCw {1 1 1} def
/LCb {0 0 0} def
/LCa {0 0 0} def
/LC0 {1 0 0} def
/LC1 {0 1 0} def
/LC2 {0 0 1} def
/LC3 {1 0 1} def
/LC4 {0 1 1} def
/LC5 {1 1 0} def
/LC6 {0 0 0} def
/LC7 {1 0.3 0} def
/LC8 {0.5 0.5 0.5} def
% Default Line Types
/LTw {PL [] 1 setgray} def
/LTb {BL [] LCb DL} def
/LTa {AL [1 udl mul 2 udl mul] 0 setdash LCa setrgbcolor} def
/LT0 {PL [] LC0 DL} def
/LT1 {PL [4 dl1 2 dl2] LC1 DL} def
/LT2 {PL [2 dl1 3 dl2] LC2 DL} def
/LT3 {PL [1 dl1 1.5 dl2] LC3 DL} def
/LT4 {PL [6 dl1 2 dl2 1 dl1 2 dl2] LC4 DL} def
/LT5 {PL [3 dl1 3 dl2 1 dl1 3 dl2] LC5 DL} def
/LT6 {PL [2 dl1 2 dl2 2 dl1 6 dl2] LC6 DL} def
/LT7 {PL [1 dl1 2 dl2 6 dl1 2 dl2 1 dl1 2 dl2] LC7 DL} def
/LT8 {PL [2 dl1 2 dl2 2 dl1 2 dl2 2 dl1 2 dl2 2 dl1 4 dl2] LC8 DL} def
/Pnt {stroke [] 0 setdash gsave 1 setlinecap M 0 0 V stroke grestore} def
/Dia {stroke [] 0 setdash 2 copy vpt add M
  hpt neg vpt neg V hpt vpt neg V
  hpt vpt V hpt neg vpt V closepath stroke
  Pnt} def
/Pls {stroke [] 0 setdash vpt sub M 0 vpt2 V
  currentpoint stroke M
  hpt neg vpt neg R hpt2 0 V stroke
 } def
/Box {stroke [] 0 setdash 2 copy exch hpt sub exch vpt add M
  0 vpt2 neg V hpt2 0 V 0 vpt2 V
  hpt2 neg 0 V closepath stroke
  Pnt} def
/Crs {stroke [] 0 setdash exch hpt sub exch vpt add M
  hpt2 vpt2 neg V currentpoint stroke M
  hpt2 neg 0 R hpt2 vpt2 V stroke} def
/TriU {stroke [] 0 setdash 2 copy vpt 1.12 mul add M
  hpt neg vpt -1.62 mul V
  hpt 2 mul 0 V
  hpt neg vpt 1.62 mul V closepath stroke
  Pnt} def
/Star {2 copy Pls Crs} def
/BoxF {stroke [] 0 setdash exch hpt sub exch vpt add M
  0 vpt2 neg V hpt2 0 V 0 vpt2 V
  hpt2 neg 0 V closepath fill} def
/TriUF {stroke [] 0 setdash vpt 1.12 mul add M
  hpt neg vpt -1.62 mul V
  hpt 2 mul 0 V
  hpt neg vpt 1.62 mul V closepath fill} def
/TriD {stroke [] 0 setdash 2 copy vpt 1.12 mul sub M
  hpt neg vpt 1.62 mul V
  hpt 2 mul 0 V
  hpt neg vpt -1.62 mul V closepath stroke
  Pnt} def
/TriDF {stroke [] 0 setdash vpt 1.12 mul sub M
  hpt neg vpt 1.62 mul V
  hpt 2 mul 0 V
  hpt neg vpt -1.62 mul V closepath fill} def
/DiaF {stroke [] 0 setdash vpt add M
  hpt neg vpt neg V hpt vpt neg V
  hpt vpt V hpt neg vpt V closepath fill} def
/Pent {stroke [] 0 setdash 2 copy gsave
  translate 0 hpt M 4 {72 rotate 0 hpt L} repeat
  closepath stroke grestore Pnt} def
/PentF {stroke [] 0 setdash gsave
  translate 0 hpt M 4 {72 rotate 0 hpt L} repeat
  closepath fill grestore} def
/Circle {stroke [] 0 setdash 2 copy
  hpt 0 360 arc stroke Pnt} def
/CircleF {stroke [] 0 setdash hpt 0 360 arc fill} def
/C0 {BL [] 0 setdash 2 copy moveto vpt 90 450 arc} bind def
/C1 {BL [] 0 setdash 2 copy moveto
	2 copy vpt 0 90 arc closepath fill
	vpt 0 360 arc closepath} bind def
/C2 {BL [] 0 setdash 2 copy moveto
	2 copy vpt 90 180 arc closepath fill
	vpt 0 360 arc closepath} bind def
/C3 {BL [] 0 setdash 2 copy moveto
	2 copy vpt 0 180 arc closepath fill
	vpt 0 360 arc closepath} bind def
/C4 {BL [] 0 setdash 2 copy moveto
	2 copy vpt 180 270 arc closepath fill
	vpt 0 360 arc closepath} bind def
/C5 {BL [] 0 setdash 2 copy moveto
	2 copy vpt 0 90 arc
	2 copy moveto
	2 copy vpt 180 270 arc closepath fill
	vpt 0 360 arc} bind def
/C6 {BL [] 0 setdash 2 copy moveto
	2 copy vpt 90 270 arc closepath fill
	vpt 0 360 arc closepath} bind def
/C7 {BL [] 0 setdash 2 copy moveto
	2 copy vpt 0 270 arc closepath fill
	vpt 0 360 arc closepath} bind def
/C8 {BL [] 0 setdash 2 copy moveto
	2 copy vpt 270 360 arc closepath fill
	vpt 0 360 arc closepath} bind def
/C9 {BL [] 0 setdash 2 copy moveto
	2 copy vpt 270 450 arc closepath fill
	vpt 0 360 arc closepath} bind def
/C10 {BL [] 0 setdash 2 copy 2 copy moveto vpt 270 360 arc closepath fill
	2 copy moveto
	2 copy vpt 90 180 arc closepath fill
	vpt 0 360 arc closepath} bind def
/C11 {BL [] 0 setdash 2 copy moveto
	2 copy vpt 0 180 arc closepath fill
	2 copy moveto
	2 copy vpt 270 360 arc closepath fill
	vpt 0 360 arc closepath} bind def
/C12 {BL [] 0 setdash 2 copy moveto
	2 copy vpt 180 360 arc closepath fill
	vpt 0 360 arc closepath} bind def
/C13 {BL [] 0 setdash 2 copy moveto
	2 copy vpt 0 90 arc closepath fill
	2 copy moveto
	2 copy vpt 180 360 arc closepath fill
	vpt 0 360 arc closepath} bind def
/C14 {BL [] 0 setdash 2 copy moveto
	2 copy vpt 90 360 arc closepath fill
	vpt 0 360 arc} bind def
/C15 {BL [] 0 setdash 2 copy vpt 0 360 arc closepath fill
	vpt 0 360 arc closepath} bind def
/Rec {newpath 4 2 roll moveto 1 index 0 rlineto 0 exch rlineto
	neg 0 rlineto closepath} bind def
/Square {dup Rec} bind def
/Bsquare {vpt sub exch vpt sub exch vpt2 Square} bind def
/S0 {BL [] 0 setdash 2 copy moveto 0 vpt rlineto BL Bsquare} bind def
/S1 {BL [] 0 setdash 2 copy vpt Square fill Bsquare} bind def
/S2 {BL [] 0 setdash 2 copy exch vpt sub exch vpt Square fill Bsquare} bind def
/S3 {BL [] 0 setdash 2 copy exch vpt sub exch vpt2 vpt Rec fill Bsquare} bind def
/S4 {BL [] 0 setdash 2 copy exch vpt sub exch vpt sub vpt Square fill Bsquare} bind def
/S5 {BL [] 0 setdash 2 copy 2 copy vpt Square fill
	exch vpt sub exch vpt sub vpt Square fill Bsquare} bind def
/S6 {BL [] 0 setdash 2 copy exch vpt sub exch vpt sub vpt vpt2 Rec fill Bsquare} bind def
/S7 {BL [] 0 setdash 2 copy exch vpt sub exch vpt sub vpt vpt2 Rec fill
	2 copy vpt Square fill Bsquare} bind def
/S8 {BL [] 0 setdash 2 copy vpt sub vpt Square fill Bsquare} bind def
/S9 {BL [] 0 setdash 2 copy vpt sub vpt vpt2 Rec fill Bsquare} bind def
/S10 {BL [] 0 setdash 2 copy vpt sub vpt Square fill 2 copy exch vpt sub exch vpt Square fill
	Bsquare} bind def
/S11 {BL [] 0 setdash 2 copy vpt sub vpt Square fill 2 copy exch vpt sub exch vpt2 vpt Rec fill
	Bsquare} bind def
/S12 {BL [] 0 setdash 2 copy exch vpt sub exch vpt sub vpt2 vpt Rec fill Bsquare} bind def
/S13 {BL [] 0 setdash 2 copy exch vpt sub exch vpt sub vpt2 vpt Rec fill
	2 copy vpt Square fill Bsquare} bind def
/S14 {BL [] 0 setdash 2 copy exch vpt sub exch vpt sub vpt2 vpt Rec fill
	2 copy exch vpt sub exch vpt Square fill Bsquare} bind def
/S15 {BL [] 0 setdash 2 copy Bsquare fill Bsquare} bind def
/D0 {gsave translate 45 rotate 0 0 S0 stroke grestore} bind def
/D1 {gsave translate 45 rotate 0 0 S1 stroke grestore} bind def
/D2 {gsave translate 45 rotate 0 0 S2 stroke grestore} bind def
/D3 {gsave translate 45 rotate 0 0 S3 stroke grestore} bind def
/D4 {gsave translate 45 rotate 0 0 S4 stroke grestore} bind def
/D5 {gsave translate 45 rotate 0 0 S5 stroke grestore} bind def
/D6 {gsave translate 45 rotate 0 0 S6 stroke grestore} bind def
/D7 {gsave translate 45 rotate 0 0 S7 stroke grestore} bind def
/D8 {gsave translate 45 rotate 0 0 S8 stroke grestore} bind def
/D9 {gsave translate 45 rotate 0 0 S9 stroke grestore} bind def
/D10 {gsave translate 45 rotate 0 0 S10 stroke grestore} bind def
/D11 {gsave translate 45 rotate 0 0 S11 stroke grestore} bind def
/D12 {gsave translate 45 rotate 0 0 S12 stroke grestore} bind def
/D13 {gsave translate 45 rotate 0 0 S13 stroke grestore} bind def
/D14 {gsave translate 45 rotate 0 0 S14 stroke grestore} bind def
/D15 {gsave translate 45 rotate 0 0 S15 stroke grestore} bind def
/DiaE {stroke [] 0 setdash vpt add M
  hpt neg vpt neg V hpt vpt neg V
  hpt vpt V hpt neg vpt V closepath stroke} def
/BoxE {stroke [] 0 setdash exch hpt sub exch vpt add M
  0 vpt2 neg V hpt2 0 V 0 vpt2 V
  hpt2 neg 0 V closepath stroke} def
/TriUE {stroke [] 0 setdash vpt 1.12 mul add M
  hpt neg vpt -1.62 mul V
  hpt 2 mul 0 V
  hpt neg vpt 1.62 mul V closepath stroke} def
/TriDE {stroke [] 0 setdash vpt 1.12 mul sub M
  hpt neg vpt 1.62 mul V
  hpt 2 mul 0 V
  hpt neg vpt -1.62 mul V closepath stroke} def
/PentE {stroke [] 0 setdash gsave
  translate 0 hpt M 4 {72 rotate 0 hpt L} repeat
  closepath stroke grestore} def
/CircE {stroke [] 0 setdash 
  hpt 0 360 arc stroke} def
/Opaque {gsave closepath 1 setgray fill grestore 0 setgray closepath} def
/DiaW {stroke [] 0 setdash vpt add M
  hpt neg vpt neg V hpt vpt neg V
  hpt vpt V hpt neg vpt V Opaque stroke} def
/BoxW {stroke [] 0 setdash exch hpt sub exch vpt add M
  0 vpt2 neg V hpt2 0 V 0 vpt2 V
  hpt2 neg 0 V Opaque stroke} def
/TriUW {stroke [] 0 setdash vpt 1.12 mul add M
  hpt neg vpt -1.62 mul V
  hpt 2 mul 0 V
  hpt neg vpt 1.62 mul V Opaque stroke} def
/TriDW {stroke [] 0 setdash vpt 1.12 mul sub M
  hpt neg vpt 1.62 mul V
  hpt 2 mul 0 V
  hpt neg vpt -1.62 mul V Opaque stroke} def
/PentW {stroke [] 0 setdash gsave
  translate 0 hpt M 4 {72 rotate 0 hpt L} repeat
  Opaque stroke grestore} def
/CircW {stroke [] 0 setdash 
  hpt 0 360 arc Opaque stroke} def
/BoxFill {gsave Rec 1 setgray fill grestore} def
/Density {
  /Fillden exch def
  currentrgbcolor
  /ColB exch def /ColG exch def /ColR exch def
  /ColR ColR Fillden mul Fillden sub 1 add def
  /ColG ColG Fillden mul Fillden sub 1 add def
  /ColB ColB Fillden mul Fillden sub 1 add def
  ColR ColG ColB setrgbcolor} def
/BoxColFill {gsave Rec PolyFill} def
/PolyFill {gsave Density fill grestore grestore} def
/h {rlineto rlineto rlineto gsave closepath fill grestore} bind def
%
% PostScript Level 1 Pattern Fill routine for rectangles
% Usage: x y w h s a XX PatternFill
%	x,y = lower left corner of box to be filled
%	w,h = width and height of box
%	  a = angle in degrees between lines and x-axis
%	 XX = 0/1 for no/yes cross-hatch
%
/PatternFill {gsave /PFa [ 9 2 roll ] def
  PFa 0 get PFa 2 get 2 div add PFa 1 get PFa 3 get 2 div add translate
  PFa 2 get -2 div PFa 3 get -2 div PFa 2 get PFa 3 get Rec
  TransparentPatterns {} {gsave 1 setgray fill grestore} ifelse
  clip
  currentlinewidth 0.5 mul setlinewidth
  /PFs PFa 2 get dup mul PFa 3 get dup mul add sqrt def
  0 0 M PFa 5 get rotate PFs -2 div dup translate
  0 1 PFs PFa 4 get div 1 add floor cvi
	{PFa 4 get mul 0 M 0 PFs V} for
  0 PFa 6 get ne {
	0 1 PFs PFa 4 get div 1 add floor cvi
	{PFa 4 get mul 0 2 1 roll M PFs 0 V} for
 } if
  stroke grestore} def
%
/languagelevel where
 {pop languagelevel} {1} ifelse
 2 lt
	{/InterpretLevel1 true def}
	{/InterpretLevel1 Level1 def}
 ifelse
%
% PostScript level 2 pattern fill definitions
%
/Level2PatternFill {
/Tile8x8 {/PaintType 2 /PatternType 1 /TilingType 1 /BBox [0 0 8 8] /XStep 8 /YStep 8}
	bind def
/KeepColor {currentrgbcolor [/Pattern /DeviceRGB] setcolorspace} bind def
<< Tile8x8
 /PaintProc {0.5 setlinewidth pop 0 0 M 8 8 L 0 8 M 8 0 L stroke} 
>> matrix makepattern
/Pat1 exch def
<< Tile8x8
 /PaintProc {0.5 setlinewidth pop 0 0 M 8 8 L 0 8 M 8 0 L stroke
	0 4 M 4 8 L 8 4 L 4 0 L 0 4 L stroke}
>> matrix makepattern
/Pat2 exch def
<< Tile8x8
 /PaintProc {0.5 setlinewidth pop 0 0 M 0 8 L
	8 8 L 8 0 L 0 0 L fill}
>> matrix makepattern
/Pat3 exch def
<< Tile8x8
 /PaintProc {0.5 setlinewidth pop -4 8 M 8 -4 L
	0 12 M 12 0 L stroke}
>> matrix makepattern
/Pat4 exch def
<< Tile8x8
 /PaintProc {0.5 setlinewidth pop -4 0 M 8 12 L
	0 -4 M 12 8 L stroke}
>> matrix makepattern
/Pat5 exch def
<< Tile8x8
 /PaintProc {0.5 setlinewidth pop -2 8 M 4 -4 L
	0 12 M 8 -4 L 4 12 M 10 0 L stroke}
>> matrix makepattern
/Pat6 exch def
<< Tile8x8
 /PaintProc {0.5 setlinewidth pop -2 0 M 4 12 L
	0 -4 M 8 12 L 4 -4 M 10 8 L stroke}
>> matrix makepattern
/Pat7 exch def
<< Tile8x8
 /PaintProc {0.5 setlinewidth pop 8 -2 M -4 4 L
	12 0 M -4 8 L 12 4 M 0 10 L stroke}
>> matrix makepattern
/Pat8 exch def
<< Tile8x8
 /PaintProc {0.5 setlinewidth pop 0 -2 M 12 4 L
	-4 0 M 12 8 L -4 4 M 8 10 L stroke}
>> matrix makepattern
/Pat9 exch def
/Pattern1 {PatternBgnd KeepColor Pat1 setpattern} bind def
/Pattern2 {PatternBgnd KeepColor Pat2 setpattern} bind def
/Pattern3 {PatternBgnd KeepColor Pat3 setpattern} bind def
/Pattern4 {PatternBgnd KeepColor Landscape {Pat5} {Pat4} ifelse setpattern} bind def
/Pattern5 {PatternBgnd KeepColor Landscape {Pat4} {Pat5} ifelse setpattern} bind def
/Pattern6 {PatternBgnd KeepColor Landscape {Pat9} {Pat6} ifelse setpattern} bind def
/Pattern7 {PatternBgnd KeepColor Landscape {Pat8} {Pat7} ifelse setpattern} bind def
} def
%
%
%End of PostScript Level 2 code
%
/PatternBgnd {
  TransparentPatterns {} {gsave 1 setgray fill grestore} ifelse
} def
%
% Substitute for Level 2 pattern fill codes with
% grayscale if Level 2 support is not selected.
%
/Level1PatternFill {
/Pattern1 {0.250 Density} bind def
/Pattern2 {0.500 Density} bind def
/Pattern3 {0.750 Density} bind def
/Pattern4 {0.125 Density} bind def
/Pattern5 {0.375 Density} bind def
/Pattern6 {0.625 Density} bind def
/Pattern7 {0.875 Density} bind def
} def
%
% Now test for support of Level 2 code
%
Level1 {Level1PatternFill} {Level2PatternFill} ifelse
%
/Symbol-Oblique /Symbol findfont [1 0 .167 1 0 0] makefont
dup length dict begin {1 index /FID eq {pop pop} {def} ifelse} forall
currentdict end definefont pop
/MFshow {
   { dup 5 get 3 ge
     { 5 get 3 eq {gsave} {grestore} ifelse }
     {dup dup 0 get findfont exch 1 get scalefont setfont
     [ currentpoint ] exch dup 2 get 0 exch R dup 5 get 2 ne {dup dup 6
     get exch 4 get {Gshow} {stringwidth pop 0 R} ifelse }if dup 5 get 0 eq
     {dup 3 get {2 get neg 0 exch R pop} {pop aload pop M} ifelse} {dup 5
     get 1 eq {dup 2 get exch dup 3 get exch 6 get stringwidth pop -2 div
     dup 0 R} {dup 6 get stringwidth pop -2 div 0 R 6 get
     show 2 index {aload pop M neg 3 -1 roll neg R pop pop} {pop pop pop
     pop aload pop M} ifelse }ifelse }ifelse }
     ifelse }
   forall} def
/Gswidth {dup type /stringtype eq {stringwidth} {pop (n) stringwidth} ifelse} def
/MFwidth {0 exch { dup 5 get 3 ge { 5 get 3 eq { 0 } { pop } ifelse }
 {dup 3 get{dup dup 0 get findfont exch 1 get scalefont setfont
     6 get Gswidth pop add} {pop} ifelse} ifelse} forall} def
/MLshow { currentpoint stroke M
  0 exch R
  Blacktext {gsave 0 setgray MFshow grestore} {MFshow} ifelse } bind def
/MRshow { currentpoint stroke M
  exch dup MFwidth neg 3 -1 roll R
  Blacktext {gsave 0 setgray MFshow grestore} {MFshow} ifelse } bind def
/MCshow { currentpoint stroke M
  exch dup MFwidth -2 div 3 -1 roll R
  Blacktext {gsave 0 setgray MFshow grestore} {MFshow} ifelse } bind def
/XYsave    { [( ) 1 2 true false 3 ()] } bind def
/XYrestore { [( ) 1 2 true false 4 ()] } bind def
Level1 SuppressPDFMark or 
{} {
/SDict 10 dict def
systemdict /pdfmark known not {
  userdict /pdfmark systemdict /cleartomark get put
} if
SDict begin [
  /Title (id4.eps)
  /Subject (gnuplot plot)
  /Creator (gnuplot 4.6 patchlevel 2)
  /Author (olgabo)
%  /Producer (gnuplot)
%  /Keywords ()
  /CreationDate (Tue Apr  8 14:40:13 2014)
  /DOCINFO pdfmark
end
} ifelse
end
%%EndProlog
%%Page: 1 1
gnudict begin
gsave
doclip
50 50 translate
0.050 0.050 scale
0 setgray
newpath
(Times) findfont 300 scalefont setfont
BackgroundColor 0 lt 3 1 roll 0 lt exch 0 lt or or not {BackgroundColor C 1.000 0 0 14400.00 10080.00 BoxColFill} if
1.000 UL
LTb
LCb setrgbcolor
1.000 UL
LTa
LCa setrgbcolor
1650 4057 M
12208 0 V
stroke
LTb
LCb setrgbcolor
1650 4057 M
63 0 V
12145 0 R
-63 0 V
stroke
1470 4057 M
[ [(Times) 300.0 0.0 true true 0 ( 0)]
] -100.0 MRshow
1.000 UL
LTb
LCb setrgbcolor
1.000 UL
LTa
LCa setrgbcolor
1650 4336 M
12208 0 V
stroke
LTb
LCb setrgbcolor
1650 4336 M
63 0 V
12145 0 R
-63 0 V
stroke
1470 4336 M
[ [(Times) 300.0 0.0 true true 0 ( 500)]
] -100.0 MRshow
1.000 UL
LTb
LCb setrgbcolor
1.000 UL
LTa
LCa setrgbcolor
1650 4615 M
12208 0 V
stroke
LTb
LCb setrgbcolor
1650 4615 M
63 0 V
12145 0 R
-63 0 V
stroke
1470 4615 M
[ [(Times) 300.0 0.0 true true 0 ( 1000)]
] -100.0 MRshow
1.000 UL
LTb
LCb setrgbcolor
1.000 UL
LTa
LCa setrgbcolor
1650 4894 M
12208 0 V
stroke
LTb
LCb setrgbcolor
1650 4894 M
63 0 V
12145 0 R
-63 0 V
stroke
1470 4894 M
[ [(Times) 300.0 0.0 true true 0 ( 1500)]
] -100.0 MRshow
1.000 UL
LTb
LCb setrgbcolor
1.000 UL
LTa
LCa setrgbcolor
1650 5174 M
12208 0 V
stroke
LTb
LCb setrgbcolor
1650 5174 M
63 0 V
12145 0 R
-63 0 V
stroke
1470 5174 M
[ [(Times) 300.0 0.0 true true 0 ( 2000)]
] -100.0 MRshow
1.000 UL
LTb
LCb setrgbcolor
1.000 UL
LTa
LCa setrgbcolor
1650 5453 M
12208 0 V
stroke
LTb
LCb setrgbcolor
1650 5453 M
63 0 V
12145 0 R
-63 0 V
stroke
1470 5453 M
[ [(Times) 300.0 0.0 true true 0 ( 2500)]
] -100.0 MRshow
1.000 UL
LTb
LCb setrgbcolor
1.000 UL
LTa
LCa setrgbcolor
1650 5732 M
12208 0 V
stroke
LTb
LCb setrgbcolor
1650 5732 M
63 0 V
12145 0 R
-63 0 V
stroke
1470 5732 M
[ [(Times) 300.0 0.0 true true 0 ( 3000)]
] -100.0 MRshow
1.000 UL
LTb
LCb setrgbcolor
1.000 UL
LTa
LCa setrgbcolor
1650 6011 M
12208 0 V
stroke
LTb
LCb setrgbcolor
1650 6011 M
63 0 V
12145 0 R
-63 0 V
stroke
1470 6011 M
[ [(Times) 300.0 0.0 true true 0 ( 3500)]
] -100.0 MRshow
1.000 UL
LTb
LCb setrgbcolor
1.000 UL
LTa
LCa setrgbcolor
1650 6290 M
12208 0 V
stroke
LTb
LCb setrgbcolor
1650 6290 M
63 0 V
12145 0 R
-63 0 V
stroke
1470 6290 M
[ [(Times) 300.0 0.0 true true 0 ( 4000)]
] -100.0 MRshow
1.000 UL
LTb
LCb setrgbcolor
1.000 UL
LTa
LCa setrgbcolor
1650 4057 M
0 2233 V
stroke
LTb
LCb setrgbcolor
1650 4057 M
0 63 V
0 2170 R
0 -63 V
stroke
1650 3877 M
currentpoint gsave translate -45 rotate 0 0 moveto
[ [(Times) 300.0 0.0 true true 0 ( 0)]
] -100.0 MLshow
grestore
1.000 UL
LTb
LCb setrgbcolor
1.000 UL
LTa
LCa setrgbcolor
3394 4057 M
0 2233 V
stroke
LTb
LCb setrgbcolor
3394 4057 M
0 63 V
0 2170 R
0 -63 V
stroke
3394 3877 M
currentpoint gsave translate -45 rotate 0 0 moveto
[ [(Times) 300.0 0.0 true true 0 ( 20)]
] -100.0 MLshow
grestore
1.000 UL
LTb
LCb setrgbcolor
1.000 UL
LTa
LCa setrgbcolor
5138 4057 M
0 2233 V
stroke
LTb
LCb setrgbcolor
5138 4057 M
0 63 V
0 2170 R
0 -63 V
stroke
5138 3877 M
currentpoint gsave translate -45 rotate 0 0 moveto
[ [(Times) 300.0 0.0 true true 0 ( 40)]
] -100.0 MLshow
grestore
1.000 UL
LTb
LCb setrgbcolor
1.000 UL
LTa
LCa setrgbcolor
6882 4057 M
0 2233 V
stroke
LTb
LCb setrgbcolor
6882 4057 M
0 63 V
0 2170 R
0 -63 V
stroke
6882 3877 M
currentpoint gsave translate -45 rotate 0 0 moveto
[ [(Times) 300.0 0.0 true true 0 ( 60)]
] -100.0 MLshow
grestore
1.000 UL
LTb
LCb setrgbcolor
1.000 UL
LTa
LCa setrgbcolor
8626 4057 M
0 2233 V
stroke
LTb
LCb setrgbcolor
8626 4057 M
0 63 V
0 2170 R
0 -63 V
stroke
8626 3877 M
currentpoint gsave translate -45 rotate 0 0 moveto
[ [(Times) 300.0 0.0 true true 0 ( 80)]
] -100.0 MLshow
grestore
1.000 UL
LTb
LCb setrgbcolor
1.000 UL
LTa
LCa setrgbcolor
10370 4057 M
0 2233 V
stroke
LTb
LCb setrgbcolor
10370 4057 M
0 63 V
0 2170 R
0 -63 V
stroke
10370 3877 M
currentpoint gsave translate -45 rotate 0 0 moveto
[ [(Times) 300.0 0.0 true true 0 ( 100)]
] -100.0 MLshow
grestore
1.000 UL
LTb
LCb setrgbcolor
1.000 UL
LTa
LCa setrgbcolor
12114 4057 M
0 2233 V
stroke
LTb
LCb setrgbcolor
12114 4057 M
0 63 V
0 2170 R
0 -63 V
stroke
12114 3877 M
currentpoint gsave translate -45 rotate 0 0 moveto
[ [(Times) 300.0 0.0 true true 0 ( 120)]
] -100.0 MLshow
grestore
1.000 UL
LTb
LCb setrgbcolor
1.000 UL
LTa
LCa setrgbcolor
13858 4057 M
0 2233 V
stroke
LTb
LCb setrgbcolor
13858 4057 M
0 63 V
0 2170 R
0 -63 V
stroke
13858 3877 M
currentpoint gsave translate -45 rotate 0 0 moveto
[ [(Times) 300.0 0.0 true true 0 ( 140)]
] -100.0 MLshow
grestore
1.000 UL
LTb
LCb setrgbcolor
1.000 UL
LTb
LCb setrgbcolor
1650 6290 N
0 -2233 V
12208 0 V
0 2233 V
-12208 0 V
Z stroke
LCb setrgbcolor
240 5173 M
currentpoint gsave translate -270 rotate 0 0 moveto
[ [(Times) 300.0 0.0 true true 0 (Interarrival time [ms] / Payload size [bytes])]
] -100.0 MCshow
grestore
LTb
LCb setrgbcolor
7754 3098 M
[ [(Times) 300.0 0.0 true true 0 (Packet nr)]
] -100.0 MCshow
LTb
7754 6740 M
[ [(Times) 300.0 0.0 true true 0 (src port 80, dst port 35670)]
] -100.0 MCshow
1.000 UP
1.000 UL
LTb
LCb setrgbcolor
% Begin plot #1
1.500 UP
5.000 UL
LT0
0.00 0.38 0.68 C 1650 4057 M
87 0 V
87 127 V
88 -127 V
87 0 V
87 0 V
87 0 V
87 0 V
88 44 V
87 826 V
87 -870 V
87 0 V
87 86 V
88 -86 V
87 1565 V
87 -1565 V
87 0 V
87 0 V
88 0 V
87 0 V
87 44 V
87 1664 V
87 -1708 V
88 1451 V
87 -1451 V
87 199 V
87 -199 V
87 0 V
88 749 V
87 -749 V
87 0 V
87 65 V
87 -65 V
88 1655 V
87 -1655 V
87 430 V
87 -430 V
87 0 V
88 1666 V
87 -1666 V
87 0 V
87 268 V
87 -268 V
88 0 V
87 0 V
87 0 V
87 2082 V
87 -2082 V
88 0 V
87 0 V
87 0 V
87 0 V
87 44 V
88 -44 V
87 82 V
87 -82 V
87 0 V
87 0 V
88 0 V
87 0 V
87 0 V
87 44 V
87 -44 V
88 0 V
87 878 V
87 -878 V
87 842 V
87 -842 V
88 0 V
87 0 V
87 0 V
87 0 V
87 44 V
88 -44 V
87 0 V
87 0 V
87 0 V
87 0 V
88 0 V
87 44 V
87 -44 V
87 0 V
87 0 V
88 1231 V
87 -1231 V
87 0 V
87 418 V
87 -418 V
88 0 V
87 1139 V
87 -1139 V
87 2140 V
87 -2140 V
88 0 V
87 0 V
87 0 V
87 0 V
87 44 V
88 -44 V
87 0 V
87 0 V
87 0 V
87 0 V
88 1035 V
87 -1035 V
stroke 10719 4057 M
87 1863 V
87 -1863 V
87 0 V
88 2232 V
87 -2232 V
87 0 V
87 125 V
87 -125 V
88 0 V
87 0 V
87 0 V
87 0 V
87 0 V
88 1894 V
87 -1894 V
87 1667 V
87 -1667 V
87 1308 V
88 -1308 V
87 91 V
87 -91 V
stroke
LCw setrgbcolor
1.000 UP
1650 4057 CircleF
1.500 UP
5.000 UL
LT0
0.00 0.38 0.68 C 1650 4057 CircleF
LCw setrgbcolor
1.000 UP
1737 4057 CircleF
1.500 UP
5.000 UL
LT0
0.00 0.38 0.68 C 1737 4057 CircleF
LCw setrgbcolor
1.000 UP
1824 4184 CircleF
1.500 UP
5.000 UL
LT0
0.00 0.38 0.68 C 1824 4184 CircleF
LCw setrgbcolor
1.000 UP
1912 4057 CircleF
1.500 UP
5.000 UL
LT0
0.00 0.38 0.68 C 1912 4057 CircleF
LCw setrgbcolor
1.000 UP
1999 4057 CircleF
1.500 UP
5.000 UL
LT0
0.00 0.38 0.68 C 1999 4057 CircleF
LCw setrgbcolor
1.000 UP
2086 4057 CircleF
1.500 UP
5.000 UL
LT0
0.00 0.38 0.68 C 2086 4057 CircleF
LCw setrgbcolor
1.000 UP
2173 4057 CircleF
1.500 UP
5.000 UL
LT0
0.00 0.38 0.68 C 2173 4057 CircleF
LCw setrgbcolor
1.000 UP
2260 4057 CircleF
1.500 UP
5.000 UL
LT0
0.00 0.38 0.68 C 2260 4057 CircleF
LCw setrgbcolor
1.000 UP
2348 4101 CircleF
1.500 UP
5.000 UL
LT0
0.00 0.38 0.68 C 2348 4101 CircleF
LCw setrgbcolor
1.000 UP
2435 4927 CircleF
1.500 UP
5.000 UL
LT0
0.00 0.38 0.68 C 2435 4927 CircleF
LCw setrgbcolor
1.000 UP
2522 4057 CircleF
1.500 UP
5.000 UL
LT0
0.00 0.38 0.68 C 2522 4057 CircleF
LCw setrgbcolor
1.000 UP
2609 4057 CircleF
1.500 UP
5.000 UL
LT0
0.00 0.38 0.68 C 2609 4057 CircleF
LCw setrgbcolor
1.000 UP
2696 4143 CircleF
1.500 UP
5.000 UL
LT0
0.00 0.38 0.68 C 2696 4143 CircleF
LCw setrgbcolor
1.000 UP
2784 4057 CircleF
1.500 UP
5.000 UL
LT0
0.00 0.38 0.68 C 2784 4057 CircleF
LCw setrgbcolor
1.000 UP
2871 5622 CircleF
1.500 UP
5.000 UL
LT0
0.00 0.38 0.68 C 2871 5622 CircleF
LCw setrgbcolor
1.000 UP
2958 4057 CircleF
1.500 UP
5.000 UL
LT0
0.00 0.38 0.68 C 2958 4057 CircleF
LCw setrgbcolor
1.000 UP
3045 4057 CircleF
1.500 UP
5.000 UL
LT0
0.00 0.38 0.68 C 3045 4057 CircleF
LCw setrgbcolor
1.000 UP
3132 4057 CircleF
1.500 UP
5.000 UL
LT0
0.00 0.38 0.68 C 3132 4057 CircleF
LCw setrgbcolor
1.000 UP
3220 4057 CircleF
1.500 UP
5.000 UL
LT0
0.00 0.38 0.68 C 3220 4057 CircleF
LCw setrgbcolor
1.000 UP
3307 4057 CircleF
1.500 UP
5.000 UL
LT0
0.00 0.38 0.68 C 3307 4057 CircleF
LCw setrgbcolor
1.000 UP
3394 4101 CircleF
1.500 UP
5.000 UL
LT0
0.00 0.38 0.68 C 3394 4101 CircleF
LCw setrgbcolor
1.000 UP
3481 5765 CircleF
1.500 UP
5.000 UL
LT0
0.00 0.38 0.68 C 3481 5765 CircleF
LCw setrgbcolor
1.000 UP
3568 4057 CircleF
1.500 UP
5.000 UL
LT0
0.00 0.38 0.68 C 3568 4057 CircleF
LCw setrgbcolor
1.000 UP
3656 5508 CircleF
1.500 UP
5.000 UL
LT0
0.00 0.38 0.68 C 3656 5508 CircleF
LCw setrgbcolor
1.000 UP
3743 4057 CircleF
1.500 UP
5.000 UL
LT0
0.00 0.38 0.68 C 3743 4057 CircleF
LCw setrgbcolor
1.000 UP
3830 4256 CircleF
1.500 UP
5.000 UL
LT0
0.00 0.38 0.68 C 3830 4256 CircleF
LCw setrgbcolor
1.000 UP
3917 4057 CircleF
1.500 UP
5.000 UL
LT0
0.00 0.38 0.68 C 3917 4057 CircleF
LCw setrgbcolor
1.000 UP
4004 4057 CircleF
1.500 UP
5.000 UL
LT0
0.00 0.38 0.68 C 4004 4057 CircleF
LCw setrgbcolor
1.000 UP
4092 4806 CircleF
1.500 UP
5.000 UL
LT0
0.00 0.38 0.68 C 4092 4806 CircleF
LCw setrgbcolor
1.000 UP
4179 4057 CircleF
1.500 UP
5.000 UL
LT0
0.00 0.38 0.68 C 4179 4057 CircleF
LCw setrgbcolor
1.000 UP
4266 4057 CircleF
1.500 UP
5.000 UL
LT0
0.00 0.38 0.68 C 4266 4057 CircleF
LCw setrgbcolor
1.000 UP
4353 4122 CircleF
1.500 UP
5.000 UL
LT0
0.00 0.38 0.68 C 4353 4122 CircleF
LCw setrgbcolor
1.000 UP
4440 4057 CircleF
1.500 UP
5.000 UL
LT0
0.00 0.38 0.68 C 4440 4057 CircleF
LCw setrgbcolor
1.000 UP
4528 5712 CircleF
1.500 UP
5.000 UL
LT0
0.00 0.38 0.68 C 4528 5712 CircleF
LCw setrgbcolor
1.000 UP
4615 4057 CircleF
1.500 UP
5.000 UL
LT0
0.00 0.38 0.68 C 4615 4057 CircleF
LCw setrgbcolor
1.000 UP
4702 4487 CircleF
1.500 UP
5.000 UL
LT0
0.00 0.38 0.68 C 4702 4487 CircleF
LCw setrgbcolor
1.000 UP
4789 4057 CircleF
1.500 UP
5.000 UL
LT0
0.00 0.38 0.68 C 4789 4057 CircleF
LCw setrgbcolor
1.000 UP
4876 4057 CircleF
1.500 UP
5.000 UL
LT0
0.00 0.38 0.68 C 4876 4057 CircleF
LCw setrgbcolor
1.000 UP
4964 5723 CircleF
1.500 UP
5.000 UL
LT0
0.00 0.38 0.68 C 4964 5723 CircleF
LCw setrgbcolor
1.000 UP
5051 4057 CircleF
1.500 UP
5.000 UL
LT0
0.00 0.38 0.68 C 5051 4057 CircleF
LCw setrgbcolor
1.000 UP
5138 4057 CircleF
1.500 UP
5.000 UL
LT0
0.00 0.38 0.68 C 5138 4057 CircleF
LCw setrgbcolor
1.000 UP
5225 4325 CircleF
1.500 UP
5.000 UL
LT0
0.00 0.38 0.68 C 5225 4325 CircleF
LCw setrgbcolor
1.000 UP
5312 4057 CircleF
1.500 UP
5.000 UL
LT0
0.00 0.38 0.68 C 5312 4057 CircleF
LCw setrgbcolor
1.000 UP
5400 4057 CircleF
1.500 UP
5.000 UL
LT0
0.00 0.38 0.68 C 5400 4057 CircleF
LCw setrgbcolor
1.000 UP
5487 4057 CircleF
1.500 UP
5.000 UL
LT0
0.00 0.38 0.68 C 5487 4057 CircleF
LCw setrgbcolor
1.000 UP
5574 4057 CircleF
1.500 UP
5.000 UL
LT0
0.00 0.38 0.68 C 5574 4057 CircleF
LCw setrgbcolor
1.000 UP
5661 6139 CircleF
1.500 UP
5.000 UL
LT0
0.00 0.38 0.68 C 5661 6139 CircleF
LCw setrgbcolor
1.000 UP
5748 4057 CircleF
1.500 UP
5.000 UL
LT0
0.00 0.38 0.68 C 5748 4057 CircleF
LCw setrgbcolor
1.000 UP
5836 4057 CircleF
1.500 UP
5.000 UL
LT0
0.00 0.38 0.68 C 5836 4057 CircleF
LCw setrgbcolor
1.000 UP
5923 4057 CircleF
1.500 UP
5.000 UL
LT0
0.00 0.38 0.68 C 5923 4057 CircleF
LCw setrgbcolor
1.000 UP
6010 4057 CircleF
1.500 UP
5.000 UL
LT0
0.00 0.38 0.68 C 6010 4057 CircleF
LCw setrgbcolor
1.000 UP
6097 4057 CircleF
1.500 UP
5.000 UL
LT0
0.00 0.38 0.68 C 6097 4057 CircleF
LCw setrgbcolor
1.000 UP
6184 4101 CircleF
1.500 UP
5.000 UL
LT0
0.00 0.38 0.68 C 6184 4101 CircleF
LCw setrgbcolor
1.000 UP
6272 4057 CircleF
1.500 UP
5.000 UL
LT0
0.00 0.38 0.68 C 6272 4057 CircleF
LCw setrgbcolor
1.000 UP
6359 4139 CircleF
1.500 UP
5.000 UL
LT0
0.00 0.38 0.68 C 6359 4139 CircleF
LCw setrgbcolor
1.000 UP
6446 4057 CircleF
1.500 UP
5.000 UL
LT0
0.00 0.38 0.68 C 6446 4057 CircleF
LCw setrgbcolor
1.000 UP
6533 4057 CircleF
1.500 UP
5.000 UL
LT0
0.00 0.38 0.68 C 6533 4057 CircleF
LCw setrgbcolor
1.000 UP
6620 4057 CircleF
1.500 UP
5.000 UL
LT0
0.00 0.38 0.68 C 6620 4057 CircleF
LCw setrgbcolor
1.000 UP
6708 4057 CircleF
1.500 UP
5.000 UL
LT0
0.00 0.38 0.68 C 6708 4057 CircleF
LCw setrgbcolor
1.000 UP
6795 4057 CircleF
1.500 UP
5.000 UL
LT0
0.00 0.38 0.68 C 6795 4057 CircleF
LCw setrgbcolor
1.000 UP
6882 4057 CircleF
1.500 UP
5.000 UL
LT0
0.00 0.38 0.68 C 6882 4057 CircleF
LCw setrgbcolor
1.000 UP
6969 4101 CircleF
1.500 UP
5.000 UL
LT0
0.00 0.38 0.68 C 6969 4101 CircleF
LCw setrgbcolor
1.000 UP
7056 4057 CircleF
1.500 UP
5.000 UL
LT0
0.00 0.38 0.68 C 7056 4057 CircleF
LCw setrgbcolor
1.000 UP
7144 4057 CircleF
1.500 UP
5.000 UL
LT0
0.00 0.38 0.68 C 7144 4057 CircleF
LCw setrgbcolor
1.000 UP
7231 4935 CircleF
1.500 UP
5.000 UL
LT0
0.00 0.38 0.68 C 7231 4935 CircleF
LCw setrgbcolor
1.000 UP
7318 4057 CircleF
1.500 UP
5.000 UL
LT0
0.00 0.38 0.68 C 7318 4057 CircleF
LCw setrgbcolor
1.000 UP
7405 4899 CircleF
1.500 UP
5.000 UL
LT0
0.00 0.38 0.68 C 7405 4899 CircleF
LCw setrgbcolor
1.000 UP
7492 4057 CircleF
1.500 UP
5.000 UL
LT0
0.00 0.38 0.68 C 7492 4057 CircleF
LCw setrgbcolor
1.000 UP
7580 4057 CircleF
1.500 UP
5.000 UL
LT0
0.00 0.38 0.68 C 7580 4057 CircleF
LCw setrgbcolor
1.000 UP
7667 4057 CircleF
1.500 UP
5.000 UL
LT0
0.00 0.38 0.68 C 7667 4057 CircleF
LCw setrgbcolor
1.000 UP
7754 4057 CircleF
1.500 UP
5.000 UL
LT0
0.00 0.38 0.68 C 7754 4057 CircleF
LCw setrgbcolor
1.000 UP
7841 4057 CircleF
1.500 UP
5.000 UL
LT0
0.00 0.38 0.68 C 7841 4057 CircleF
LCw setrgbcolor
1.000 UP
7928 4101 CircleF
1.500 UP
5.000 UL
LT0
0.00 0.38 0.68 C 7928 4101 CircleF
LCw setrgbcolor
1.000 UP
8016 4057 CircleF
1.500 UP
5.000 UL
LT0
0.00 0.38 0.68 C 8016 4057 CircleF
LCw setrgbcolor
1.000 UP
8103 4057 CircleF
1.500 UP
5.000 UL
LT0
0.00 0.38 0.68 C 8103 4057 CircleF
LCw setrgbcolor
1.000 UP
8190 4057 CircleF
1.500 UP
5.000 UL
LT0
0.00 0.38 0.68 C 8190 4057 CircleF
LCw setrgbcolor
1.000 UP
8277 4057 CircleF
1.500 UP
5.000 UL
LT0
0.00 0.38 0.68 C 8277 4057 CircleF
LCw setrgbcolor
1.000 UP
8364 4057 CircleF
1.500 UP
5.000 UL
LT0
0.00 0.38 0.68 C 8364 4057 CircleF
LCw setrgbcolor
1.000 UP
8452 4057 CircleF
1.500 UP
5.000 UL
LT0
0.00 0.38 0.68 C 8452 4057 CircleF
LCw setrgbcolor
1.000 UP
8539 4101 CircleF
1.500 UP
5.000 UL
LT0
0.00 0.38 0.68 C 8539 4101 CircleF
LCw setrgbcolor
1.000 UP
8626 4057 CircleF
1.500 UP
5.000 UL
LT0
0.00 0.38 0.68 C 8626 4057 CircleF
LCw setrgbcolor
1.000 UP
8713 4057 CircleF
1.500 UP
5.000 UL
LT0
0.00 0.38 0.68 C 8713 4057 CircleF
LCw setrgbcolor
1.000 UP
8800 4057 CircleF
1.500 UP
5.000 UL
LT0
0.00 0.38 0.68 C 8800 4057 CircleF
LCw setrgbcolor
1.000 UP
8888 5288 CircleF
1.500 UP
5.000 UL
LT0
0.00 0.38 0.68 C 8888 5288 CircleF
LCw setrgbcolor
1.000 UP
8975 4057 CircleF
1.500 UP
5.000 UL
LT0
0.00 0.38 0.68 C 8975 4057 CircleF
LCw setrgbcolor
1.000 UP
9062 4057 CircleF
1.500 UP
5.000 UL
LT0
0.00 0.38 0.68 C 9062 4057 CircleF
LCw setrgbcolor
1.000 UP
9149 4475 CircleF
1.500 UP
5.000 UL
LT0
0.00 0.38 0.68 C 9149 4475 CircleF
LCw setrgbcolor
1.000 UP
9236 4057 CircleF
1.500 UP
5.000 UL
LT0
0.00 0.38 0.68 C 9236 4057 CircleF
LCw setrgbcolor
1.000 UP
9324 4057 CircleF
1.500 UP
5.000 UL
LT0
0.00 0.38 0.68 C 9324 4057 CircleF
LCw setrgbcolor
1.000 UP
9411 5196 CircleF
1.500 UP
5.000 UL
LT0
0.00 0.38 0.68 C 9411 5196 CircleF
LCw setrgbcolor
1.000 UP
9498 4057 CircleF
1.500 UP
5.000 UL
LT0
0.00 0.38 0.68 C 9498 4057 CircleF
LCw setrgbcolor
1.000 UP
9585 6197 CircleF
1.500 UP
5.000 UL
LT0
0.00 0.38 0.68 C 9585 6197 CircleF
LCw setrgbcolor
1.000 UP
9672 4057 CircleF
1.500 UP
5.000 UL
LT0
0.00 0.38 0.68 C 9672 4057 CircleF
LCw setrgbcolor
1.000 UP
9760 4057 CircleF
1.500 UP
5.000 UL
LT0
0.00 0.38 0.68 C 9760 4057 CircleF
LCw setrgbcolor
1.000 UP
9847 4057 CircleF
1.500 UP
5.000 UL
LT0
0.00 0.38 0.68 C 9847 4057 CircleF
LCw setrgbcolor
1.000 UP
9934 4057 CircleF
1.500 UP
5.000 UL
LT0
0.00 0.38 0.68 C 9934 4057 CircleF
LCw setrgbcolor
1.000 UP
10021 4057 CircleF
1.500 UP
5.000 UL
LT0
0.00 0.38 0.68 C 10021 4057 CircleF
LCw setrgbcolor
1.000 UP
10108 4101 CircleF
1.500 UP
5.000 UL
LT0
0.00 0.38 0.68 C 10108 4101 CircleF
LCw setrgbcolor
1.000 UP
10196 4057 CircleF
1.500 UP
5.000 UL
LT0
0.00 0.38 0.68 C 10196 4057 CircleF
LCw setrgbcolor
1.000 UP
10283 4057 CircleF
1.500 UP
5.000 UL
LT0
0.00 0.38 0.68 C 10283 4057 CircleF
LCw setrgbcolor
1.000 UP
10370 4057 CircleF
1.500 UP
5.000 UL
LT0
0.00 0.38 0.68 C 10370 4057 CircleF
LCw setrgbcolor
1.000 UP
10457 4057 CircleF
1.500 UP
5.000 UL
LT0
0.00 0.38 0.68 C 10457 4057 CircleF
LCw setrgbcolor
1.000 UP
10544 4057 CircleF
1.500 UP
5.000 UL
LT0
0.00 0.38 0.68 C 10544 4057 CircleF
LCw setrgbcolor
1.000 UP
10632 5092 CircleF
1.500 UP
5.000 UL
LT0
0.00 0.38 0.68 C 10632 5092 CircleF
LCw setrgbcolor
1.000 UP
10719 4057 CircleF
1.500 UP
5.000 UL
LT0
0.00 0.38 0.68 C 10719 4057 CircleF
LCw setrgbcolor
1.000 UP
10806 5920 CircleF
1.500 UP
5.000 UL
LT0
0.00 0.38 0.68 C 10806 5920 CircleF
LCw setrgbcolor
1.000 UP
10893 4057 CircleF
1.500 UP
5.000 UL
LT0
0.00 0.38 0.68 C 10893 4057 CircleF
LCw setrgbcolor
1.000 UP
10980 4057 CircleF
1.500 UP
5.000 UL
LT0
0.00 0.38 0.68 C 10980 4057 CircleF
LCw setrgbcolor
1.000 UP
11068 6289 CircleF
1.500 UP
5.000 UL
LT0
0.00 0.38 0.68 C 11068 6289 CircleF
LCw setrgbcolor
1.000 UP
11155 4057 CircleF
1.500 UP
5.000 UL
LT0
0.00 0.38 0.68 C 11155 4057 CircleF
LCw setrgbcolor
1.000 UP
11242 4057 CircleF
1.500 UP
5.000 UL
LT0
0.00 0.38 0.68 C 11242 4057 CircleF
LCw setrgbcolor
1.000 UP
11329 4182 CircleF
1.500 UP
5.000 UL
LT0
0.00 0.38 0.68 C 11329 4182 CircleF
LCw setrgbcolor
1.000 UP
11416 4057 CircleF
1.500 UP
5.000 UL
LT0
0.00 0.38 0.68 C 11416 4057 CircleF
LCw setrgbcolor
1.000 UP
11504 4057 CircleF
1.500 UP
5.000 UL
LT0
0.00 0.38 0.68 C 11504 4057 CircleF
LCw setrgbcolor
1.000 UP
11591 4057 CircleF
1.500 UP
5.000 UL
LT0
0.00 0.38 0.68 C 11591 4057 CircleF
LCw setrgbcolor
1.000 UP
11678 4057 CircleF
1.500 UP
5.000 UL
LT0
0.00 0.38 0.68 C 11678 4057 CircleF
LCw setrgbcolor
1.000 UP
11765 4057 CircleF
1.500 UP
5.000 UL
LT0
0.00 0.38 0.68 C 11765 4057 CircleF
LCw setrgbcolor
1.000 UP
11852 4057 CircleF
1.500 UP
5.000 UL
LT0
0.00 0.38 0.68 C 11852 4057 CircleF
LCw setrgbcolor
1.000 UP
11940 5951 CircleF
1.500 UP
5.000 UL
LT0
0.00 0.38 0.68 C 11940 5951 CircleF
LCw setrgbcolor
1.000 UP
12027 4057 CircleF
1.500 UP
5.000 UL
LT0
0.00 0.38 0.68 C 12027 4057 CircleF
LCw setrgbcolor
1.000 UP
12114 5724 CircleF
1.500 UP
5.000 UL
LT0
0.00 0.38 0.68 C 12114 5724 CircleF
LCw setrgbcolor
1.000 UP
12201 4057 CircleF
1.500 UP
5.000 UL
LT0
0.00 0.38 0.68 C 12201 4057 CircleF
LCw setrgbcolor
1.000 UP
12288 5365 CircleF
1.500 UP
5.000 UL
LT0
0.00 0.38 0.68 C 12288 5365 CircleF
LCw setrgbcolor
1.000 UP
12376 4057 CircleF
1.500 UP
5.000 UL
LT0
0.00 0.38 0.68 C 12376 4057 CircleF
LCw setrgbcolor
1.000 UP
12463 4148 CircleF
1.500 UP
5.000 UL
LT0
0.00 0.38 0.68 C 12463 4148 CircleF
LCw setrgbcolor
1.000 UP
12550 4057 CircleF
1.500 UP
5.000 UL
LT0
0.00 0.38 0.68 C 12550 4057 CircleF
% End plot #1
% Begin plot #2
1.500 UP
5.000 UL
LT0
1.00 0.00 0.00 C 1650 4865 CircleF
1737 4793 CircleF
1824 4865 CircleF
1912 4865 CircleF
1999 4865 CircleF
2086 4865 CircleF
2173 4865 CircleF
2260 4865 CircleF
2348 4823 CircleF
2435 4865 CircleF
2522 4865 CircleF
2609 4116 CircleF
2696 4865 CircleF
2784 4752 CircleF
2871 4865 CircleF
2958 4865 CircleF
3045 4865 CircleF
3132 4865 CircleF
3220 4865 CircleF
3307 4865 CircleF
3394 4540 CircleF
3481 4865 CircleF
3568 4353 CircleF
3656 4865 CircleF
3743 4807 CircleF
3830 4865 CircleF
3917 4865 CircleF
4004 4107 CircleF
4092 4865 CircleF
4179 4865 CircleF
4266 4094 CircleF
4353 4865 CircleF
4440 4569 CircleF
4528 4865 CircleF
4615 4707 CircleF
4702 4865 CircleF
4789 4865 CircleF
4876 4269 CircleF
4964 4865 CircleF
5051 4865 CircleF
5138 4085 CircleF
5225 4865 CircleF
5312 4865 CircleF
5400 4865 CircleF
5487 4865 CircleF
5574 4669 CircleF
5661 4865 CircleF
5748 4865 CircleF
5836 4865 CircleF
5923 4865 CircleF
6010 4865 CircleF
6097 4865 CircleF
6184 4865 CircleF
6272 4524 CircleF
6359 4865 CircleF
6446 4865 CircleF
6533 4865 CircleF
6620 4865 CircleF
6708 4865 CircleF
6795 4865 CircleF
6882 4865 CircleF
6969 4865 CircleF
7056 4865 CircleF
7144 4208 CircleF
7231 4865 CircleF
7318 4650 CircleF
7405 4865 CircleF
7492 4865 CircleF
7580 4865 CircleF
7667 4865 CircleF
7754 4865 CircleF
7841 4865 CircleF
7928 4865 CircleF
8016 4865 CircleF
8103 4865 CircleF
8190 4865 CircleF
8277 4865 CircleF
8364 4865 CircleF
8452 4865 CircleF
8539 4865 CircleF
8626 4865 CircleF
8713 4865 CircleF
8800 4404 CircleF
8888 4865 CircleF
8975 4865 CircleF
9062 4791 CircleF
9149 4865 CircleF
9236 4865 CircleF
9324 4179 CircleF
9411 4865 CircleF
9498 4742 CircleF
9585 4865 CircleF
9672 4865 CircleF
9760 4865 CircleF
9847 4865 CircleF
9934 4865 CircleF
10021 4865 CircleF
10108 4865 CircleF
10196 4865 CircleF
10283 4865 CircleF
10370 4865 CircleF
10457 4865 CircleF
10544 4262 CircleF
10632 4865 CircleF
10719 4839 CircleF
10806 4865 CircleF
10893 4865 CircleF
10980 4304 CircleF
11068 4865 CircleF
11155 4865 CircleF
11242 4090 CircleF
11329 4865 CircleF
11416 4865 CircleF
11504 4865 CircleF
11591 4865 CircleF
11678 4865 CircleF
11765 4865 CircleF
11852 4810 CircleF
11940 4865 CircleF
12027 4738 CircleF
12114 4865 CircleF
12201 4745 CircleF
12288 4865 CircleF
12376 4628 CircleF
12463 4865 CircleF
12550 4517 CircleF
% End plot #2
1.000 UL
LTb
LCb setrgbcolor
1650 6290 N
0 -2233 V
12208 0 V
0 2233 V
-12208 0 V
Z stroke
1.000 UP
1.000 UL
LTb
LCb setrgbcolor
stroke
grestore
end
showpage
%%Trailer
%%DocumentFonts: Times
