0 0 0 1448
1 39 39 1448
2 43 4 1448
3 44 1 1448
4 68 24 1448
5 70 2 1448
6 11786 11716 1448
7 11791 5 1448
8 11793 2 1448
9 11824 31 1448
10 11829 5 1448
11 11832 3 1448
12 11930 98 1448
13 11973 43 1448
14 11978 5 1448
15 11984 6 1448
16 12002 18 1448
17 12003 1 1448
18 23562 11559 1448
19 23598 36 1448
20 23603 5 1448
21 23605 2 1448
22 23627 22 1448
23 23638 11 1448
24 23665 27 1448
25 23668 3 1448
26 23734 66 1448
27 23764 30 1448
28 23768 4 1448
29 23770 2 1448
30 23799 29 1448
31 23802 3 1448
32 23810 8 1448
33 23840 30 1448
34 23843 3 1448
35 35312 11469 1448
36 35346 34 1448
37 35383 37 1448
38 35385 2 1448
39 35415 30 1448
40 35417 2 1448
41 35422 5 1448
42 35452 30 1448
43 35458 6 1448
44 35496 38 1448
45 35499 3 1448
46 35513 14 1448
47 35514 1 1448
48 35587 73 1448
49 35588 1 1448
50 35623 35 1448
51 35627 4 1448
52 35652 25 1448
53 35658 6 1448
54 35662 4 1448
55 35684 22 1448
56 35687 3 1448
57 35692 5 1448
58 35721 29 1448
59 47140 11419 1448
60 47144 4 1448
61 47173 29 1448
62 47176 3 1448
63 51373 4197 1448
64 51377 4 1448
65 51388 11 1448
66 51405 17 1448
67 51406 1 1448
68 51408 2 1448
69 51446 38 1448
70 51450 4 1448
71 51452 2 1448
72 51479 27 1448
73 51482 3 1448
74 51515 33 1448
75 51520 5 1448
76 51523 3 1448
77 51553 30 1448
78 51560 7 1448
79 51561 1 1448
80 51603 42 1448
81 51606 3 1448
82 51623 17 1448
83 51626 3 1448
84 51628 2 1448
85 51648 20 1448
86 61940 10292 1448
87 61941 1 1448
88 61944 3 1448
89 61967 23 1448
90 61970 3 1448
91 71772 9802 1448
92 71776 4 1448
93 71802 26 1448
94 71805 3 1448
95 71807 2 1448
96 71842 35 1448
97 71843 1 1448
98 71888 45 1448
99 71891 3 1448
100 71892 1 1448
101 71915 23 1448
102 71918 3 1448
103 71920 2 1448
104 71943 23 1448
105 71948 5 1448
106 71949 1 1448
107 71985 36 1448
108 71989 4 1448
109 72013 24 1448
110 72014 1 1448
111 72018 4 1448
112 72052 34 1448
113 72054 2 1448
114 72056 2 1448
115 81867 9811 1448
116 81898 31 1448
117 81904 6 1448
118 81929 25 1448
119 81931 2 1448
120 81943 12 1448
121 91875 9932 1448
122 91876 1 1448
123 91908 32 1448
124 91911 3 1448
125 91915 4 1448
126 91944 29 1448
127 91945 1 1448
128 91975 30 1448
129 91984 9 1448
130 91988 4 1448
131 92011 23 1448
132 92013 2 1448
133 92019 6 1448
134 92040 21 1448
135 92045 5 1448
136 92082 37 1448
137 92087 5 1448
138 92093 6 1448
139 92114 21 1448
140 92118 4 1448
141 92120 2 1448
142 92148 28 1448
143 92152 4 1448
144 92158 6 1448
145 92187 29 1448
146 101537 9350 1448
147 101541 4 1448
148 101543 2 1448
149 101565 22 1448
150 101595 30 1448
151 101605 10 1448
152 101608 3 1448
153 112095 10487 1448
154 112171 76 1448
155 112176 5 1448
156 112179 3 1448
157 112183 4 1448
158 112200 17 1448
159 112205 5 1448
160 112209 4 1448
161 112249 40 1448
162 112253 4 1448
163 112256 3 1448
164 112272 16 1448
165 112277 5 1448
166 112279 2 1448
167 112306 27 1448
168 112311 5 1448
169 112326 15 1448
170 112330 4 1448
171 112346 16 1448
172 112363 17 1448
173 112367 4 1448
174 112371 4 1448
175 112417 46 1448
176 112418 1 1448
177 112423 5 1448
178 112462 39 1448
179 121721 9259 1448
180 121757 36 1448
181 121758 1 1448
182 121760 2 1448
183 121796 36 1448
184 121804 8 1448
185 121830 26 1448
186 121832 2 1448
187 131690 9858 1448
188 131695 5 1448
189 131696 1 1448
190 131727 31 1448
191 131729 2 1448
192 131731 2 1448
193 131754 23 1448
194 131756 2 1448
195 131790 34 1448
196 131793 3 1448
197 131796 3 1448
198 131825 29 1448
199 131827 2 1448
200 131829 2 1448
201 131864 35 1448
202 131865 1 1448
203 131869 4 1448
204 131901 32 1448
205 131904 3 1448
206 131923 19 1448
207 131926 3 1448
208 131928 2 1448
209 131962 34 1448
210 131965 3 1448
211 131967 2 1448
212 131991 24 1448
213 131994 3 1448
214 141679 9685 1448
215 141683 4 1448
216 141686 3 1448
217 141727 41 1448
218 141729 2 1448
219 141732 3 1448
220 141758 26 1448
221 141760 2 1448
222 151933 10173 1448
223 151935 2 1448
224 151953 18 1448
225 151957 4 1448
226 151958 1 1448
227 151996 38 1448
228 151999 3 1448
229 152002 3 1448
230 152028 26 1448
231 152030 2 1448
232 152033 3 1448
233 152062 29 1448
234 152066 4 1448
235 152086 20 1448
236 152088 2 1448
237 152093 5 1448
238 152122 29 1448
239 152124 2 1448
240 152126 2 1448
241 152167 41 1448
242 152168 1 1448
243 152170 2 1448
244 152206 36 1448
245 152207 1 1448
246 152225 18 1448
247 152226 1 1448
248 152230 4 1448
249 161457 9227 1448
250 161491 34 1448
251 161498 7 1448
252 161499 1 1448
253 161523 24 1448
254 161529 6 1448
255 161560 31 1448
256 161563 3 1448
257 171941 10378 1448
258 171946 5 1448
259 171971 25 1448
260 171973 2 1448
261 172009 36 1448
262 172012 3 1448
263 172015 3 1448
264 172042 27 1448
265 172043 1 1448
266 172047 4 1448
267 172081 34 1448
268 172082 1 1448
269 172089 7 1448
270 172112 23 1448
271 172117 5 1448
272 172144 27 1448
273 172152 8 1448
274 172155 3 1448
275 172157 2 1448
276 172160 3 1448
277 172181 21 1448
278 172182 1 1448
279 172216 34 1448
280 172233 17 1448
281 172253 20 1448
282 172256 3 1448
283 172260 4 1448
284 181978 9718 1448
285 181981 3 1448
286 182001 20 1448
287 182004 3 1448
288 182037 33 1448
289 182041 4 1448
290 182054 13 1448
291 182070 16 1448
292 191219 9149 1448
293 191222 3 1448
294 191223 1 1448
295 191227 4 1448
296 191236 9 1448
297 191258 22 1448
298 191260 2 1448
299 191267 7 1448
300 191273 6 1448
301 191276 3 1448
302 191294 18 1448
303 191299 5 1448
304 191325 26 1448
305 191370 45 1448
306 191372 2 1448
307 191389 17 1448
308 191396 7 1448
309 191400 4 1448
310 191422 22 1448
311 191459 37 1448
312 191462 3 1448
313 191493 31 1448
314 191494 1 1448
315 191497 3 1448
316 191503 6 1448
317 191531 28 1448
318 191534 3 1448
319 201323 9789 1448
320 201362 39 1448
321 201368 6 1448
322 201389 21 1448
323 201398 9 1448
324 201400 2 1448
325 201432 32 1448
326 201436 4 1448
327 211695 10259 1448
328 211723 28 1448
329 211733 10 1448
330 211738 5 1448
331 211763 25 1448
332 211766 3 1448
333 211773 7 1448
334 211810 37 1448
335 211813 3 1448
336 211815 2 1448
337 211826 11 1448
338 211829 3 1448
339 211865 36 1448
340 211868 3 1448
341 211874 6 1448
342 211902 28 1448
343 211904 2 1448
344 211907 3 1448
345 211913 6 1448
346 211917 4 1448
347 211918 1 1448
348 211940 22 1448
349 211941 1 1448
350 212003 62 1448
351 212009 6 1448
352 212010 1 1448
353 212043 33 1448
354 222048 10005 1448
355 222049 1 1448
356 222054 5 1448
357 222091 37 1448
358 222094 3 1448
359 222143 49 1448
360 222145 2 1448
361 222147 2 1448
362 231823 9676 1448
363 231858 35 1448
364 231861 3 1448
365 231862 1 1448
366 231894 32 1448
367 231901 7 1448
368 231925 24 1448
369 231928 3 1448
370 231931 3 1448
371 231959 28 1448
372 231963 4 1448
373 231967 4 1448
374 231992 25 1448
375 231994 2 1448
376 232002 8 1448
377 232030 28 1448
378 232031 1 1448
379 232064 33 1448
380 232067 3 1448
381 232070 3 1448
382 232092 22 1448
383 232094 2 1448
384 232096 2 1448
385 232134 38 1448
386 232137 3 1448
387 232138 1 1448
388 232166 28 1448
389 241526 9360 1448
390 241527 1 1448
391 241539 12 1448
392 241554 15 1448
393 241556 2 1448
394 241558 2 1448
395 241585 27 1448
396 241587 2 1448
397 252309 10722 1448
398 252336 27 1448
399 252341 5 1448
400 252385 44 1448
401 252387 2 1448
402 252389 2 1448
403 252409 20 1448
404 252413 4 1448
405 252482 69 1448
406 252484 2 1448
407 252491 7 1448
408 252495 4 1448
409 252512 17 1448
410 252517 5 1448
411 252522 5 1448
412 252526 4 1448
413 252528 2 1448
414 252541 13 1448
415 252542 1 1448
416 252545 3 1448
417 252574 29 1448
418 252576 2 1448
419 252612 36 1448
420 252615 3 1448
421 252619 4 1448
422 252644 25 1448
423 252646 2 1448
424 252648 2 1448
425 263049 10401 1448
426 263082 33 1448
427 263088 6 1448
428 263091 3 1448
429 263149 58 1448
430 263152 3 1448
431 263164 12 1448
432 263199 35 1448
433 272821 9622 1448
434 272827 6 1448
435 272831 4 1448
436 272860 29 1448
437 272862 2 1448
438 272864 2 1448
439 272888 24 1448
440 272892 4 1448
441 272895 3 1448
442 272925 30 1448
443 272927 2 1448
444 272929 2 1448
445 272954 25 1448
446 272955 1 1448
447 272989 34 1448
448 272994 5 1448
449 272996 2 1448
450 273020 24 1448
451 273024 4 1448
452 273025 1 1448
453 273053 28 1448
454 273055 2 1448
455 273058 3 1448
456 273095 37 1448
457 273097 2 1448
458 273125 28 1448
459 273126 1 1448
460 273129 3 1448
461 282831 9702 1448
462 282847 16 1448
463 282851 4 1448
464 282893 42 1448
465 282897 4 1448
466 282898 1 1448
467 282922 24 1448
468 282925 3 1448
469 292460 9535 1448
470 292462 2 1448
471 292473 11 1448
472 292555 82 1448
473 292560 5 1448
474 292564 4 1448
475 292588 24 1448
476 292592 4 1448
477 292611 19 1448
478 292613 2 1448
479 292617 4 1448
480 292647 30 1448
481 292650 3 1448
482 292653 3 1448
483 292675 22 1448
484 292676 1 1448
485 292679 3 1448
486 292698 19 1448
487 292700 2 1448
488 292703 3 1448
489 292715 12 1448
490 292716 1 1448
491 292740 24 1448
492 292745 5 1448
493 292748 3 1448
494 292778 30 1448
495 292780 2 1448
496 292790 10 1448
497 303383 10593 1448
498 303418 35 1448
499 303420 2 1448
500 303422 2 1448
501 303436 14 1448
502 303440 4 1448
503 303461 21 1448
504 303468 7 1448
505 313609 10141 1448
506 313611 2 1448
507 313618 7 1448
508 313633 15 1448
509 313640 7 1448
510 313641 1 1448
511 313670 29 1448
512 313672 2 1448
513 313674 2 1448
514 313698 24 1448
515 313700 2 1448
516 313734 34 1448
517 313739 5 1448
518 313744 5 1448
519 313772 28 1448
520 313776 4 1448
521 313777 1 1448
522 313806 29 1448
523 313810 4 1448
524 313812 2 1448
525 313840 28 1448
526 313844 4 1448
527 313876 32 1448
528 313879 3 1448
529 313882 3 1448
530 313912 30 1448
531 313915 3 1448
532 313917 2 1448
533 324104 10187 1448
534 324146 42 1448
535 324173 27 1448
536 324176 3 1448
537 324177 1 1448
538 324206 29 1448
539 324209 3 1448
540 324210 1 1448
541 334482 10272 1448
542 334509 27 1448
543 334512 3 1448
544 334522 10 1448
545 334547 25 1448
546 334549 2 1448
547 334595 46 1448
548 334600 5 1448
549 334603 3 1448
550 334624 21 1448
551 334626 2 1448
552 334628 2 1448
553 334659 31 1448
554 334660 1 1448
555 334663 3 1448
556 334687 24 1448
557 334690 3 1448
558 334692 2 1448
559 334721 29 1448
560 334726 5 1448
561 334756 30 1448
562 334767 11 1448
563 334770 3 1448
564 334774 4 1448
565 334775 1 1448
566 334792 17 1448
567 334795 3 1448
568 334799 4 1448
569 344307 9508 1448
570 344318 11 1448
571 344320 2 1448
572 344341 21 1448
573 344347 6 1448
574 344350 3 1448
575 344378 28 1448
576 344381 3 1448
577 355015 10634 1448
578 355019 4 1448
579 355050 31 1448
580 355051 1 1448
581 355053 2 1448
582 355077 24 1448
583 355078 1 1448
584 355112 34 1448
585 355115 3 1448
586 355119 4 1448
587 355149 30 1448
588 355150 1 1448
589 355153 3 1448
590 355180 27 1448
591 355182 2 1448
592 355218 36 1448
593 355221 3 1448
594 355224 3 1448
595 355252 28 1448
596 355259 7 1448
597 355262 3 1448
598 355264 2 1448
599 355287 23 1448
600 355288 1 1448
601 355291 3 1448
602 355329 38 1448
603 355332 3 1448
604 355334 2 1448
605 364983 9649 1448
606 365015 32 1448
607 365026 11 1448
608 365027 1 1448
609 365038 11 1448
610 365052 14 1448
611 365053 1 1448
612 365065 12 1448
613 374226 9161 1448
614 374228 2 1448
615 374256 28 1448
616 374258 2 1448
617 374297 39 1448
618 374298 1 1448
619 374300 2 1448
620 374328 28 1448
621 374330 2 1448
622 374335 5 1448
623 374358 23 1448
624 374361 3 1448
625 374406 45 1448
626 374408 2 1448
627 374416 8 1448
628 374424 8 1448
629 374433 9 1448
630 374439 6 1448
631 374465 26 1448
632 374468 3 1448
633 374469 1 1448
634 374496 27 1448
635 374501 5 1448
636 374527 26 1448
637 374531 4 1448
638 374535 4 1448
639 374557 22 1448
640 374561 4 1448
641 385452 10891 1448
642 385484 32 1448
643 385488 4 1448
644 385493 5 1448
645 385510 17 1448
646 385525 15 1448
647 385552 27 1448
648 385557 5 1448
649 385561 4 1448
650 395632 10071 1448
651 395634 2 1448
652 395672 38 1448
653 395675 3 1448
654 395676 1 1448
655 395702 26 1448
656 395703 1 1448
657 395734 31 1448
658 395735 1 1448
659 395749 14 1448
660 395774 25 1448
661 395776 2 1448
662 395787 11 1448
663 395811 24 1448
664 395814 3 1448
665 395822 8 1448
666 395849 27 1448
667 395850 1 1448
668 395852 2 1448
669 395873 21 1448
670 395874 1 1448
671 395910 36 1448
672 395914 4 1448
673 395916 2 1448
674 395948 32 1448
675 395951 3 1448
676 395956 5 1448
677 395968 12 1448
678 405552 9584 1448
679 405561 9 1448
680 405563 2 1448
681 405577 14 1448
682 405579 2 1448
683 405581 2 1448
684 405603 22 1448
685 405604 1 1448
686 405606 2 1448
687 415221 9615 1448
688 415223 2 1448
689 415226 3 1448
690 415237 11 1448
691 415239 2 1448
692 415241 2 1448
693 415268 27 1448
694 415270 2 1448
695 415277 7 1448
696 415324 47 1448
697 415327 3 1448
698 415329 2 1448
699 415359 30 1448
700 415362 3 1448
701 415388 26 1448
702 415390 2 1448
703 415394 4 1448
704 415415 21 1448
705 415419 4 1448
706 415423 4 1448
707 415443 20 1448
708 415448 5 1448
709 415450 2 1448
710 415492 42 1448
711 415496 4 1448
712 415527 31 1448
713 415529 2 1448
714 415531 2 1448
715 425547 10016 1448
716 425606 59 1448
717 425610 4 1448
718 425611 1 1448
719 425631 20 1448
720 425633 2 1448
721 425643 10 1448
722 425680 37 1448
723 425681 1 1448
724 435601 9920 1448
725 435603 2 1448
726 435611 8 1448
727 435638 27 1448
728 435641 3 1448
729 435672 31 1448
730 435675 3 1448
731 435677 2 1448
732 435709 32 1448
733 435711 2 1448
734 435714 3 1448
735 435741 27 1448
736 435742 1 1448
737 435749 7 1448
738 435778 29 1448
739 435783 5 1448
740 435787 4 1448
741 435808 21 1448
742 435809 1 1448
743 435844 35 1448
744 435849 5 1448
745 435853 4 1448
746 435877 24 1448
747 435880 3 1448
748 435881 1 1448
749 435912 31 1448
750 435914 2 1448
751 435916 2 1448
752 446025 10109 1448
753 446077 52 1448
754 446079 2 1448
755 446084 5 1448
756 446121 37 1448
757 446125 4 1448
758 446135 10 1448
759 446167 32 1448
760 446169 2 1448
761 456282 10113 1448
762 456317 35 1448
763 456358 41 1448
764 456361 3 1448
765 456386 25 1448
766 456387 1 1448
767 456389 2 1448
768 456392 3 1448
769 456422 30 1448
770 456428 6 1448
771 456458 30 1448
772 456462 4 1448
773 456488 26 1448
774 456490 2 1448
775 456493 3 1448
776 456518 25 1448
777 456522 4 1448
778 456554 32 1448
779 456556 2 1448
780 456560 4 1448
781 456585 25 1448
782 456587 2 1448
783 456593 6 1448
784 456616 23 1448
785 456619 3 1448
786 456624 5 1448
787 456653 29 1448
788 456659 6 1448
789 467034 10375 1448
790 467069 35 1448
791 467073 4 1448
792 467075 2 1448
793 467079 4 1448
794 467082 3 1448
795 467092 10 1448
796 467144 52 1448
797 467149 5 1448
798 476443 9294 1448
799 476445 2 1448
800 476480 35 1448
801 476483 3 1448
802 476503 20 1448
803 476504 1 1448
804 476511 7 1448
805 476543 32 1448
806 476546 3 1448
807 476548 2 1448
808 476553 5 1448
809 476579 26 1448
810 476610 31 1448
811 476613 3 1448
812 476618 5 1448
813 476623 5 1448
814 476626 3 1448
815 476639 13 1448
816 476641 2 1448
817 476676 35 1448
818 476679 3 1448
819 476683 4 1448
820 476711 28 1448
821 476713 2 1448
822 476714 1 1448
823 476745 31 1448
824 476749 4 1448
825 476782 33 1448
826 487091 10309 1448
827 487098 7 1448
828 487131 33 1448
829 487135 4 1448
830 487166 31 1448
831 487170 4 1448
832 487172 2 1448
833 487195 23 1448
834 487200 5 1448
835 497764 10564 1448
836 497784 20 1448
837 497787 3 1448
838 497828 41 1448
839 497830 2 1448
840 497836 6 1448
841 497843 7 1448
842 497846 3 1448
843 497867 21 1448
844 497872 5 1448
845 497876 4 1448
846 497878 2 1448
847 497902 24 1448
848 497907 5 1448
849 497944 37 1448
850 497966 22 1448
851 497977 11 1448
852 497982 5 1448
853 498005 23 1448
854 498012 7 1448
855 498015 3 1448
856 498018 3 1448
857 498019 1 1448
858 498036 17 1448
859 498051 15 1448
860 498054 3 1448
861 498077 23 1448
862 498080 3 1448
863 507217 9137 1448
864 507242 25 1448
865 507244 2 1448
866 507247 3 1448
867 507270 23 1448
868 507276 6 1448
869 507278 2 1448
870 507309 31 1448
871 507310 1 1448
872 517739 10429 1448
873 517740 1 1448
874 517743 3 1448
875 517777 34 1448
876 517778 1 1448
877 517786 8 1448
878 517795 9 1448
879 517796 1 1448
880 517799 3 1448
881 517841 42 1448
882 517842 1 1448
883 517865 23 1448
884 517867 2 1448
885 517869 2 1448
886 517900 31 1448
887 517902 2 1448
888 517915 13 1448
889 517931 16 1448
890 517935 4 1448
891 517936 1 1448
892 517973 37 1448
893 517975 2 1448
894 517998 23 1448
895 518007 9 1448
896 518009 2 1448
897 518031 22 1448
898 518034 3 1448
899 518056 22 1448
900 527929 9873 1448
901 527932 3 1448
902 527939 7 1448
903 527972 33 1448
904 527975 3 1448
905 527980 5 1448
906 527996 16 1448
907 527999 3 1448
908 528053 54 1448
909 528057 4 1448
910 538864 10807 1448
911 538868 4 1448
912 538872 4 1448
913 538892 20 1448
914 538898 6 1448
915 538912 14 1448
916 538928 16 1448
917 538934 6 1448
918 538940 6 1448
919 538961 21 1448
920 538964 3 1448
921 538966 2 1448
922 539007 41 1448
923 539009 2 1448
924 539039 30 1448
925 539044 5 1448
926 539046 2 1448
927 539076 30 1448
928 539078 2 1448
929 539079 1 1448
930 539103 24 1448
931 539106 3 1448
932 539109 3 1448
933 539130 21 1448
934 539133 3 1448
935 539176 43 1448
936 539179 3 1448
937 539187 8 1448
938 548973 9786 1448
939 548987 14 1448
940 548991 4 1448
941 548995 4 1448
942 548997 2 1448
943 549002 5 1448
944 549016 14 1448
945 549028 12 1448
946 549032 4 1448
947 549062 30 1448
948 558953 9891 1448
949 558957 4 1448
950 558958 1 1448
951 558994 36 1448
952 558997 3 1448
953 558999 2 1448
954 559018 19 1448
955 559020 2 1448
956 559050 30 1448
957 559053 3 1448
958 559055 2 1448
959 559081 26 1448
960 559083 2 1448
961 559085 2 1448
962 559095 10 1448
963 559112 17 1448
964 559144 32 1448
965 559146 2 1448
966 559148 2 1448
967 559169 21 1448
968 559173 4 1448
969 559174 1 1448
970 559203 29 1448
971 559207 4 1448
972 559212 5 1448
973 559229 17 1448
974 559232 3 1448
975 559277 45 1448
976 568377 9100 1448
977 568379 2 1448
978 568381 2 1448
979 568403 22 1448
980 568406 3 1448
981 568408 2 1448
982 568445 37 1448
983 568447 2 1448
984 568457 10 1448
985 568473 16 1448
986 578339 9866 1448
987 578381 42 1448
988 578386 5 1448
989 578394 8 1448
990 578434 40 1448
991 578440 6 1448
992 578460 20 1448
993 578463 3 1448
994 578489 26 1448
995 578490 1 1448
996 578493 3 1448
997 578498 5 1448
998 578526 28 1448
999 578531 5 1448
1000 578544 13 1448
1001 578547 3 1448
1002 578551 4 1448
1003 578585 34 1448
1004 578586 1 1448
1005 578590 4 1448
1006 578619 29 1448
1007 578621 2 1448
1008 578627 6 1448
1009 578644 17 1448
1010 578655 11 1448
1011 578677 22 1448
1012 578681 4 1448
1013 578683 2 1448
1014 591522 12839 1448
1015 591525 3 1448
1016 591568 43 1448
1017 591573 5 1448
1018 591575 2 1448
1019 591597 22 1448
1020 591600 3 1448
1021 591602 2 1448
1022 591628 26 1448
1023 591629 1 1448
1024 591630 1 1448
1025 591656 26 1448
1026 591659 3 1448
1027 591696 37 1448
1028 591698 2 1448
1029 591701 3 1448
1030 591725 24 1448
1031 591728 3 1448
1032 591729 1 1448
1033 591759 30 1448
1034 591760 1 1448
1035 591763 3 1448
1036 591790 27 1448
1037 591793 3 1448
1038 591831 38 1448
1039 591834 3 1448
1040 591837 3 1448
1041 591859 22 1448
1042 591863 4 1448
1043 591872 9 1448
1044 591903 31 1448
1045 591905 2 1448
1046 591909 4 1448
1047 591934 25 1448
1048 591939 5 1448
1049 591974 35 1448
1050 591975 1 1448
1051 591978 3 1448
1052 603550 11572 1448
1053 603583 33 1448
1054 613272 9689 1448
1055 613301 29 1448
1056 613314 13 1448
1057 613318 4 1448
1058 613337 19 1448
1059 613367 30 1448
1060 613404 37 1448
1061 613407 3 1448
1062 613409 2 1448
1063 613413 4 1448
1064 613454 41 1448
1065 613455 1 1448
1066 613459 4 1448
1067 613460 1 1448
1068 613502 42 1448
1069 613508 6 1448
1070 613514 6 1448
1071 613516 2 1448
1072 613519 3 1448
1073 613524 5 1448
1074 613560 36 1448
1075 613566 6 1448
1076 613568 2 1448
1077 613587 19 1448
1078 613592 5 1448
1079 613595 3 1448
1080 613617 22 1448
1081 613652 35 1448
1082 613654 2 1448
1083 613655 1 1448
1084 613661 6 1448
1085 613685 24 1448
1086 613710 25 1448
1087 613711 1 1448
1088 613715 4 1448
1089 613718 3 1448
1090 624207 10489 1448
1091 624209 2 1448
1092 635130 10921 1448
1093 635133 3 1448
1094 635164 31 1448
1095 635166 2 1448
1096 635169 3 1448
1097 635192 23 1448
1098 635197 5 1448
1099 635198 1 1448
1100 635232 34 1448
1101 635234 2 1448
1102 635242 8 1448
1103 635258 16 1448
1104 635263 5 1448
1105 635291 28 1448
1106 635293 2 1448
1107 635294 1 1448
1108 635331 37 1448
1109 635333 2 1448
1110 635335 2 1448
1111 635370 35 1448
1112 635373 3 1448
1113 635378 5 1448
1114 635405 27 1448
1115 635433 28 1448
1116 635434 1 1448
1117 635437 3 1448
1118 635440 3 1448
1119 635467 27 1448
1120 635468 1 1448
1121 635470 2 1448
1122 635497 27 1448
1123 635501 4 1448
1124 635503 2 1448
1125 635537 34 1448
1126 635540 3 1448
1127 635567 27 1448
1128 645694 10127 1448
1129 645736 42 1448
1130 656245 10509 1448
1131 656249 4 1448
1132 656271 22 1448
1133 656274 3 1448
1134 656302 28 1448
1135 656307 5 1448
1136 656309 2 1448
1137 656352 43 1448
1138 656355 3 1448
1139 656358 3 1448
1140 656382 24 1448
1141 656383 1 1448
1142 656387 4 1448
1143 656416 29 1448
1144 656421 5 1448
1145 656446 25 1448
1146 656457 11 1448
1147 656460 3 1448
1148 656496 36 1448
1149 656498 2 1448
1150 656499 1 1448
1151 656501 2 1448
1152 656533 32 1448
1153 656535 2 1448
1154 656555 20 1448
1155 656560 5 1448
1156 656585 25 1448
1157 656588 3 1448
1158 656591 3 1448
1159 656627 36 1448
1160 656629 2 1448
1161 656632 3 1448
1162 656662 30 1448
1163 656667 5 1448
1164 656670 3 1448
1165 656699 29 1448
1166 666312 9613 1448
1167 666351 39 1448
1168 677178 10827 1448
1169 677185 7 1448
1170 677215 30 1448
1171 677219 4 1448
1172 677246 27 1448
1173 677247 1 1448
1174 677285 38 1448
1175 677286 1 1448
1176 677287 1 1448
1177 677290 3 1448
1178 677321 31 1448
1179 677323 2 1448
1180 677357 34 1448
1181 677361 4 1448
1182 677364 3 1448
1183 677384 20 1448
1184 677387 3 1448
1185 677391 4 1448
1186 677425 34 1448
1187 677427 2 1448
1188 677452 25 1448
1189 677458 6 1448
1190 677462 4 1448
1191 677480 18 1448
1192 677488 8 1448
1193 677495 7 1448
1194 677518 23 1448
1195 677521 3 1448
1196 677529 8 1448
1197 677563 34 1448
1198 677565 2 1448
1199 677595 30 1448
1200 677600 5 1448
1201 677601 1 1448
1202 677605 4 1448
1203 677620 15 1448
1204 677623 3 1448
1205 686847 9224 1448
1206 686874 27 1448
1207 696339 9465 1448
1208 696342 3 1448
1209 696368 26 1448
1210 696376 8 1448
1211 696409 33 1448
1212 696411 2 1448
1213 696448 37 1448
1214 696449 1 1448
1215 696451 2 1448
1216 696477 26 1448
1217 696481 4 1448
1218 696483 2 1448
1219 696514 31 1448
1220 696515 1 1448
1221 696552 37 1448
1222 696555 3 1448
1223 696558 3 1448
1224 696598 40 1448
1225 696599 1 1448
1226 696606 7 1448
1227 696623 17 1448
1228 696633 10 1448
1229 696634 1 1448
1230 696656 22 1448
1231 696659 3 1448
1232 696682 23 1448
1233 696684 2 1448
1234 696686 2 1448
1235 696721 35 1448
1236 696724 3 1448
1237 696726 2 1448
1238 696748 22 1448
1239 696756 8 1448
1240 696759 3 1448
1241 696794 35 1448
1242 696796 2 1448
1243 696821 25 1448
1244 706382 9561 1448
1245 706418 36 1448
1246 716564 10146 1448
1247 716594 30 1448
1248 716600 6 1448
1249 716639 39 1448
1250 716640 1 1448
1251 716642 2 1448
1252 716660 18 1448
1253 716664 4 1448
1254 716665 1 1448
1255 716698 33 1448
1256 716704 6 1448
1257 716708 4 1448
1258 716742 34 1448
1259 716743 1 1448
1260 716793 50 1448
1261 716794 1 1448
1262 716795 1 1448
1263 716864 69 1448
1264 716866 2 1448
1265 716867 1 1448
1266 716903 36 1448
1267 716909 6 1448
1268 716919 10 1448
1269 716946 27 1448
1270 716948 2 1448
1271 716983 35 1448
1272 716988 5 1448
1273 716991 3 1448
1274 717029 38 1448
1275 717031 2 1448
1276 717032 1 1448
1277 717062 30 1448
1278 717072 10 1448
1279 717076 4 1448
1280 717097 21 1448
1281 717099 2 1448
1282 717101 2 1448
1283 726166 9065 1448
1284 726168 2 1448
1285 737254 11086 1448
1286 737255 1 1448
1287 737289 34 1448
1288 737299 10 1448
1289 737302 3 1448
1290 737323 21 1448
1291 737327 4 1448
1292 737358 31 1448
1293 737361 3 1448
1294 737364 3 1448
1295 737414 50 1448
1296 737416 2 1448
1297 737418 2 1448
1298 737445 27 1448
1299 737447 2 1448
1300 737452 5 1448
1301 737477 25 1448
1302 737482 5 1448
1303 737501 19 1448
1304 737513 12 1448
1305 737520 7 1448
1306 737528 8 1448
1307 737531 3 1448
1308 737547 16 1448
1309 737580 33 1448
1310 737583 3 1448
1311 737586 3 1448
1312 737598 12 1448
1313 737602 4 1448
1314 737632 30 1448
1315 737635 3 1448
1316 737636 1 1448
1317 737684 48 1448
1318 737686 2 1448
1319 737688 2 1448
1320 737708 20 1448
1321 737711 3 1448
1322 748957 11246 1448
1323 748984 27 1448
1324 758328 9344 1448
1325 758336 8 1448
1326 758337 1 1448
1327 758351 14 1448
1328 758354 3 1448
1329 758382 28 1448
1330 758383 1 1448
1331 758426 43 1448
1332 758428 2 1448
1333 758435 7 1448
1334 758454 19 1448
1335 758456 2 1448
1336 758493 37 1448
1337 758495 2 1448
1338 758496 1 1448
1339 758515 19 1448
1340 758521 6 1448
1341 758523 2 1448
1342 758560 37 1448
1343 758589 29 1448
1344 758592 3 1448
1345 758597 5 1448
1346 758599 2 1448
1347 758615 16 1448
1348 758630 15 1448
1349 758659 29 1448
1350 758662 3 1448
1351 758693 31 1448
1352 758695 2 1448
1353 758702 7 1448
1354 758704 2 1448
1355 758707 3 1448
1356 758710 3 1448
1357 758723 13 1448
1358 758757 34 1448
1359 758759 2 1448
1360 758762 3 1448
1361 768561 9799 1448
1362 768588 27 1448
1363 779101 10513 1448
1364 779104 3 1448
1365 779141 37 1448
1366 779142 1 1448
1367 779147 5 1448
1368 779148 1 1448
1369 779161 13 1448
1370 779212 51 1448
1371 779214 2 1448
1372 779216 2 1448
1373 779248 32 1448
1374 779254 6 1448
1375 779260 6 1448
1376 779286 26 1448
1377 779289 3 1448
1378 779315 26 1448
1379 779316 1 1448
1380 779320 4 1448
1381 779322 2 1448
1382 779348 26 1448
1383 779349 1 1448
1384 779379 30 1448
1385 779382 3 1448
1386 779385 3 1448
1387 779407 22 1448
1388 779409 2 1448
1389 779411 2 1448
1390 779416 5 1448
1391 779438 22 1448
1392 779443 5 1448
1393 779470 27 1448
1394 779472 2 1448
1395 779474 2 1448
1396 779506 32 1448
1397 779507 1 1448
1398 779513 6 1448
1399 779537 24 1448
1400 788725 9188 1448
1401 788766 41 1448
1402 798921 10155 1448
1403 798934 13 1448
1404 798937 3 1448
1405 798975 38 1448
1406 798977 2 1448
1407 799019 42 1448
1408 799020 1 1448
1409 799022 2 1448
1410 799033 11 1448
1411 799035 2 1448
1412 799037 2 1448
1413 799039 2 1448
1414 799062 23 1448
1415 799064 2 1448
1416 799131 67 1448
1417 799136 5 1448
1418 799139 3 1448
1419 799163 24 1448
1420 799167 4 1448
1421 799171 4 1448
1422 799173 2 1448
1423 799181 8 1448
1424 799194 13 1448
1425 799198 4 1448
1426 799207 9 1448
1427 799209 2 1448
1428 799232 23 1448
1429 799236 4 1448
1430 799275 39 1448
1431 799278 3 1448
1432 799281 3 1448
1433 799302 21 1448
1434 799305 3 1448
1435 799306 1 1448
1436 799350 44 1448
1437 799384 34 1448
1438 799387 3 1448
1439 809222 9835 1448
1440 809247 25 1448
1441 818931 9684 1448
1442 818936 5 1448
1443 818939 3 1448
1444 818945 6 1448
1445 818949 4 1448
1446 818964 15 1448
1447 818967 3 1448
1448 818972 5 967

