
6581 1326977943 870533
9392 1326977943 884108
57250 1326977943 886167
62343 1326977943 853630
632 1326977943 851282
868 1326977943 844530
897 1326977943 855913
529 1326977943 862549
1407 1326977943 864768
676 1326977943 898681
623 1326977943 923584
633 1326977943 930316
637 1326977943 950288
613 1326977943 963900
678 1326977943 966457
520 1326977943 978598
562 1326977943 992365
497 1326977943 996957
2144 1326977943 961159
88909 1326977943 841021
26340 1326977943 950291
8306 1326977943 958090
35414 1326977943 991540
17880 1326977943 963195
105463 1326977943 846013
10498 1326977943 995743
168865 1326977943 852104
13227 1326977943 996315
167342 1326977943 888117
191549 1326977943 993188
71681 1326977943 864651
284907 1326977943 901422
488 1326977944 463236
22580 1326977944 15931
979 1326977944 738
538 1326977944 14725
604 1326977944 50367
34498 1326977944 854270
524 1326977944 109360
558 1326977944 120625
626 1326977944 122239
505 1326977944 132955
970 1326977944 154595
660 1326977944 167004
494 1326977944 194979
497 1326977944 58859
623 1326977944 222018
625 1326977944 242268
533 1326977944 238230
567 1326977944 248241
468 1326977944 262782
793 1326977944 300675
643 1326977944 312881
538 1326977944 316091
490 1326977944 319270
499 1326977944 364858
498 1326977944 459077
510 1326977944 511030
645 1326977944 518582
604 1326977944 519904
493 1326977944 508273
574 1326977944 564480
647 1326977944 572712
678 1326977944 589908
687 1326977944 594814
626 1326977944 600608
549 1326977944 607016
532 1326977944 608305
531 1326977944 613885
572 1326977944 628222
592 1326977944 630014
462 1326977944 712610
548 1326977944 720669
682 1326977944 692978
1056 1326977944 844053
522 1326977944 847156
1245 1326977944 869870
622 1326977944 882276
878 1326977944 765233
1245 1326977944 918366
878 1326977944 964767
647 1326977944 965947
677 1326977944 974754
4896 1326977944 518075
1610 1326977944 367728
44631 1326977944 785185
536 1326977945 3120
837 1326977945 6324
636 1326977945 3146
650 1326977945 22692
545 1326977945 29984
554 1326977945 97642
1056 1326977945 105883
621 1326977945 159768
702 1326977945 179366
544 1326977945 196203
637 1326977945 216796
621 1326977945 218517
578 1326977945 240501
559 1326977945 255658
476 1326977945 263496
589 1326977945 259742
884 1326977945 295168
773 1326977945 311686
1244 1326977945 335908
716 1326977945 353713
612 1326977945 396203
764 1326977945 405005
576 1326977945 354768
595 1326977945 439852
637 1326977945 446575
580 1326977945 451676
497 1326977945 497522
832 1326977945 500104
559 1326977945 506975
578 1326977945 524838
634 1326977945 590612
518 1326977945 595170
544 1326977945 605141
540 1326977945 606080
610 1326977945 623672
750 1326977945 667160
566 1326977945 675173
628 1326977945 709346
712 1326977945 711276
636 1326977945 735650
604 1326977945 744073
638 1326977945 794783
606 1326977945 799923
552 1326977945 821198
621 1326977945 819410
598 1326977945 824748
702 1326977945 828511
528 1326977945 859835
562 1326977945 858830
721 1326977945 864737
701 1326977945 869456
515 1326977945 881975
634 1326977945 939065
518 1326977945 961699
486 1326977945 968705
626 1326977945 998049
888 1326977945 988607
1257 1326977945 939704
755 1326977945 680177
50379 1326977945 911684
24075 1326977945 901812
124142 1326977945 911797
615 1326977946 814734
557 1326977946 922039
583 1326977946 43903
631 1326977946 76691
628 1326977946 105262
657 1326977946 116419
609 1326977946 118722
595 1326977946 119989
608 1326977946 159959
639 1326977946 177441
548 1326977946 217409
565 1326977946 270015
812 1326977946 329718
854 1326977946 439308
672 1326977946 441966
539 1326977946 448119
728 1326977946 472300
741 1326977946 252739
880 1326977946 549312
559 1326977946 611146
788 1326977946 487039
710 1326977946 637928
2110 1326977946 646151
681 1326977946 693677
652 1326977946 716723
573 1326977946 737324
620 1326977946 737771
674 1326977946 759888
683 1326977946 787390
519 1326977946 805116
669 1326977946 831305
531 1326977946 885767
523 1326977946 923495
507 1326977946 922608
1455 1326977946 892439
472 1326977946 933515
588 1326977946 980692
1498 1326977946 982095
16543 1326977946 989207
103798 1326977946 781269
2098 1326977946 32671
588 1326977947 25831
651 1326977947 90383
692 1326977947 135139
655 1326977947 152141
492 1326977947 233876
602 1326977947 302800
642 1326977947 420080
655 1326977947 399406
545 1326977947 472054
665 1326977947 474186
735 1326977947 491116
552 1326977947 502285
1166 1326977947 510470
734 1326977947 516502
554 1326977947 561528
701 1326977947 591703
522 1326977947 547558
630 1326977947 632905
649 1326977947 632651
604 1326977947 644021
1041 1326977947 670983
535 1326977947 696615
595 1326977947 700256
1286 1326977947 730839
635 1326977947 741446
1244 1326977947 746318
953 1326977947 802117
588 1326977947 650999
683 1326977947 858686
758 1326977947 860130
536 1326977947 866838
550 1326977947 898143
863 1326977947 908300
505 1326977947 917850
643 1326977947 922524
587 1326977947 926631
704 1326977947 953158
705 1326977947 999670
66007 1326977947 172406
54946 1326977947 136693
374126 1326977947 104931
758 1326977948 3560
620 1326977948 10210
599 1326977948 39275
745 1326977948 53769
728 1326977948 63535
1243 1326977948 68866
714 1326977948 138667
482 1326977948 180231
764 1326977948 200692
704 1326977948 203223
508 1326977948 146941
508 1326977948 147706
536 1326977948 276791
709 1326977948 328558
570 1326977948 347622
622 1326977948 367515
672 1326977948 393573
728 1326977948 404789
534 1326977948 468288
653 1326977948 477529
656 1326977948 485100
531 1326977948 502101
646 1326977948 438029
550 1326977948 561954
730 1326977948 567762
659 1326977948 567611
592 1326977948 584726
726 1326977948 600688
748 1326977948 607283
745 1326977948 616254
549 1326977948 665207
494 1326977948 687662
608 1326977948 696553
725 1326977948 711068
1040 1326977948 712022
595 1326977948 721455
542 1326977948 718640
522 1326977948 734355
619 1326977948 748452
612 1326977948 764127
637 1326977948 780006
710 1326977948 782545
673 1326977948 798384
497 1326977948 814337
738 1326977948 814339
701 1326977948 819617
620 1326977948 850852
640 1326977948 890295
820 1326977948 830542
28227 1326977948 81482
50732 1326977948 920792
42717 1326977948 484142
525 1326977949 416411
550 1326977949 30282
631 1326977949 51712
876 1326977949 58919
1318 1326977949 65265
602 1326977949 69718
476 1326977949 91126
744 1326977949 100876
560 1326977949 119781
542 1326977949 129960
577 1326977949 146985
716 1326977949 159665
660 1326977949 182435
649 1326977949 58386
569 1326977949 210356
919 1326977949 224342
704 1326977949 227746
466 1326977949 236701
545 1326977949 260776
569 1326977949 288412
539 1326977949 293469
648 1326977949 306035
569 1326977949 331334
491 1326977949 352501
525 1326977949 358620
519 1326977949 384150
528 1326977949 411719
596 1326977949 511515
762 1326977949 517638
534 1326977949 660238
804 1326977949 665189
731 1326977949 609163
535 1326977949 688538
488 1326977949 689173
665 1326977949 718729
695 1326977949 696188
569 1326977949 740450
687 1326977949 813268
612 1326977949 880791
527 1326977949 908849
624 1326977949 818949
532 1326977949 821301
597 1326977949 932082
561 1326977949 969139
512 1326977949 994024
700 1326977950 714401
654 1326977950 786596
768 1326977950 881902
802 1326977950 1609
559 1326977950 9865
954 1326977950 46029
631 1326977950 64844
665 1326977950 68621
892 1326977950 73697
704 1326977950 83611
528 1326977950 106024
535 1326977950 121186
602 1326977950 121706
705 1326977950 74999
494 1326977950 166315
608 1326977950 200458
546 1326977950 198336
656 1326977950 209799
599 1326977950 219557
1526 1326977950 221140
630 1326977950 227576
606 1326977950 253980
527 1326977950 255842
652 1326977950 283061
572 1326977950 286865
562 1326977950 291276
546 1326977950 299119
560 1326977950 307247
525 1326977950 358065
604 1326977950 356080
682 1326977950 372072
803 1326977950 379259
542 1326977950 385187
494 1326977950 412838
473 1326977950 423483
551 1326977950 436583
674 1326977950 377188
859 1326977950 453212
540 1326977950 446453
788 1326977950 478552
642 1326977950 506740
637 1326977950 557181
529 1326977950 607720
484 1326977950 616563
698 1326977950 617703
958 1326977950 627844
632 1326977950 634496
563 1326977950 634839
1021 1326977950 643369
490 1326977950 684406
873 1326977950 692242
708 1326977950 699870
602 1326977950 704175
903 1326977950 709173
902 1326977950 749711
565 1326977950 760038
541 1326977950 763460
641 1326977950 764591
589 1326977950 780032
772 1326977950 802153
651 1326977950 851111
691 1326977950 864763
689 1326977950 909641
491 1326977950 913630
684 1326977950 911595
611 1326977950 930585
587 1326977950 932963
526 1326977950 947088
591 1326977950 962608
664 1326977950 969544
658 1326977950 984082
207635 1326977950 423639
83212 1326977950 91372
621 1326977951 275129
556 1326977951 20936
545 1326977951 84432
840 1326977951 17814
657 1326977951 9398
998 1326977951 157410
560 1326977951 161628
818 1326977951 195899
636 1326977951 233075
898 1326977951 238016
616 1326977951 257403
554 1326977951 315979
615 1326977951 354818
798 1326977951 379606
851 1326977951 416189
628 1326977951 440926
614 1326977951 465146
568 1326977951 512450
747 1326977951 586889
599 1326977951 622083
2229 1326977951 666454
587 1326977951 716906
642 1326977951 721310
1358 1326977951 767049
536 1326977951 775277
498 1326977951 793348
615 1326977951 800530
533 1326977951 810382
667 1326977951 832635
619 1326977951 836682
558 1326977951 869931
620 1326977951 927878
607 1326977951 934790
723 1326977951 943801
708 1326977951 945516
567 1326977951 957081
550 1326977951 966084
1293 1326977951 155821
555 1326977952 12656
646 1326977952 16844
768 1326977952 40360
875 1326977952 87362
713 1326977952 106956
556 1326977952 19719
527 1326977952 181222
489 1326977952 200105
468 1326977952 206018
683 1326977952 215484
682 1326977952 239248
511 1326977952 267047
779 1326977952 293714
639 1326977952 304736
628 1326977952 318843
750 1326977952 324306
499 1326977952 358653
558 1326977952 363338
674 1326977952 269032
523 1326977952 465842
1443 1326977952 476085
688 1326977952 434933
535 1326977952 542353
524 1326977952 606589
769 1326977952 602129
645 1326977952 594493
597 1326977952 613663
716 1326977952 576053
562 1326977952 656712
668 1326977952 621684
893 1326977952 732561
720 1326977952 747201
593 1326977952 771493
495 1326977952 783039
568 1326977952 804356
528 1326977952 838112
829 1326977952 841508
744 1326977952 873144
583 1326977952 909464
615 1326977952 929638
1469 1326977952 931834
613 1326977952 939032
530 1326977952 965675
752 1326977952 980327
528 1326977952 986661
508 1326977952 991313
693 1326977952 997111
1985 1326977952 438889
93964 1326977952 176320
133985 1326977952 531797
573 1326977953 22978
694 1326977953 22932
629 1326977953 99294
520 1326977953 173295
846 1326977953 234951
657 1326977953 245843
573 1326977953 288942
519 1326977953 293206
698 1326977953 300580
530 1326977953 312116
1055 1326977953 317648
644 1326977953 324861
778 1326977953 326626
555 1326977953 389743
682 1326977953 429183
676 1326977953 426232
728 1326977953 494564
523 1326977953 497544
802 1326977953 517940
546 1326977953 528345
729 1326977953 537276
728 1326977953 544088
552 1326977953 551626
521 1326977953 572355
518 1326977953 576623
493 1326977953 593250
637 1326977953 614237
510 1326977953 621789
759 1326977953 634735
628 1326977953 635298
534 1326977953 643019
645 1326977953 662895
635 1326977953 695378
1039 1326977953 711435
546 1326977953 733235
609 1326977953 743684
642 1326977953 761671
537 1326977953 767662
813 1326977953 775497
669 1326977953 795192
466 1326977953 742947
632 1326977953 821240
1065 1326977953 863571
724 1326977953 891349
489 1326977953 900917
627 1326977953 917135
488 1326977953 931553
914 1326977953 842400
577 1326977953 950480
555 1326977953 959577
644 1326977953 963519
616 1326977953 994646
27366 1326977953 186829
555 1326977954 621677
492 1326977954 18815
710 1326977954 54054
545 1326977954 68772
624 1326977954 144277
719 1326977954 139997
556 1326977954 157489
650 1326977954 173370
524 1326977954 243719
629 1326977954 254286
563 1326977954 258132
547 1326977954 270729
584 1326977954 294750
854 1326977954 295122
1012 1326977954 301347
1664 1326977954 319067
1055 1326977954 322175
558 1326977954 363667
526 1326977954 381557
745 1326977954 386989
598 1326977954 389983
620 1326977954 561563
1128 1326977954 579526
780 1326977954 507858
667 1326977954 602835
519 1326977954 613375
688 1326977954 613425
607 1326977954 477328
670 1326977954 471216
553 1326977954 625397
559 1326977954 556547
625 1326977954 636583
823 1326977954 647284
718 1326977954 676889
558 1326977954 683064
491 1326977954 690930
644 1326977954 688552
536 1326977954 701223
752 1326977954 705777
910 1326977954 721621
602 1326977954 724675
547 1326977954 720714
719 1326977954 741029
646 1326977954 766006
655 1326977954 775522
635 1326977954 854897
596 1326977954 905350
647 1326977954 931858
831 1326977954 965388
844 1326977954 970095
671 1326977954 968164
541 1326977954 971702
1065 1326977954 972792
703 1326977954 984257
531 1326977954 994322
531 1326977954 993818
810 1326977955 21213
571 1326977955 35791
514 1326977955 49463
721 1326977955 50589
578 1326977955 86738
549 1326977955 90920
528 1326977955 98141
522 1326977955 160514
643 1326977955 175122
499 1326977955 198062
573 1326977955 218604
684 1326977955 183409
625 1326977955 231969
631 1326977955 282115
578 1326977955 291378
700 1326977955 313276
561 1326977955 325593
621 1326977955 336128
649 1326977955 335743
926 1326977955 343545
636 1326977955 345313
872 1326977955 342625
707 1326977955 364839
567 1326977955 423073
548 1326977955 432002
618 1326977955 547176
747 1326977955 552500
655 1326977955 558132
754 1326977955 560257
812 1326977955 570231
503 1326977955 586896
681 1326977955 590618
719 1326977955 607709
945 1326977955 682660
861 1326977955 682670
649 1326977955 695867
1129 1326977955 705537
845 1326977955 649200
518 1326977955 698995
502 1326977955 733819
544 1326977955 776399
511 1326977955 814142
682 1326977955 814298
552 1326977955 815759
789 1326977955 859491
631 1326977955 863176
618 1326977955 902712
646 1326977955 937663
861 1326977955 948599
766 1326977955 964519
534 1326977955 968099
555 1326977955 968490
639 1326977956 170082
443 1326977956 686414
695 1326977956 751899
535 1326977956 874156
556 1326977956 993998
650 1326977956 8701
548 1326977956 65508
894 1326977956 76330
904 1326977956 89901
552 1326977956 101910
535 1326977956 113566
773 1326977956 151371
440 1326977956 180742
770 1326977956 190870
534 1326977956 203104
764 1326977956 222469
801 1326977956 191039
590 1326977956 254253
622 1326977956 272272
751 1326977956 276892
527 1326977956 278233
653 1326977956 281087
616 1326977956 309842
798 1326977956 326297
576 1326977956 372367
1294 1326977956 386398
555 1326977956 389110
634 1326977956 408386
595 1326977956 422289
713 1326977956 465033
793 1326977956 556877
608 1326977956 595313
601 1326977956 597421
731 1326977956 599615
565 1326977956 604863
532 1326977956 627175
633 1326977956 628391
502 1326977956 638433
627 1326977956 632369
1327 1326977956 654159
608 1326977956 657086
498 1326977956 662010
444 1326977956 694772
1020 1326977956 703457
689 1326977956 739861
605 1326977956 811680
791 1326977956 821694
550 1326977956 837403
540 1326977956 853028
870 1326977956 881437
620 1326977956 884187
548 1326977956 904205
760 1326977956 919123
717 1326977956 963119
695 1326977956 970151
642 1326977956 978705
1535 1326977956 982491
868 1326977956 984353
487 1326977957 18731
856 1326977957 28730
500 1326977957 48124
536 1326977957 110488
630 1326977957 121634
837 1326977957 125775
784 1326977957 135419
948 1326977957 160192
1167 1326977957 153106
503 1326977957 203216
702 1326977957 230322
615 1326977957 235428
522 1326977957 228107
633 1326977957 363150
755 1326977957 399135
595 1326977957 409054
688 1326977957 428621
673 1326977957 482686
517 1326977957 505033
824 1326977957 508207
607 1326977957 423894
551 1326977957 446691
622 1326977957 399007
472 1326977957 542779
833 1326977957 541456
688 1326977957 566477
573 1326977957 584271
505 1326977957 628502
623 1326977957 638549
623 1326977957 661248
765 1326977957 696353
665 1326977957 698327
620 1326977957 729067
562 1326977957 764154
458 1326977957 810056
686 1326977957 822963
623 1326977957 859710
602 1326977957 977634
604 1326977957 982022
62831 1326977957 914504
867 1326977958 3471
985 1326977958 20788
634 1326977958 61105
566 1326977958 85422
671 1326977958 138099
525 1326977958 138173
707 1326977958 150416
687 1326977958 163633
648 1326977958 178768
714 1326977958 236944
565 1326977958 245510
641 1326977958 308411
529 1326977958 343773
666 1326977958 388359
945 1326977958 387059
539 1326977958 399615
770 1326977958 437229
463 1326977958 442426
904 1326977958 412316
849 1326977958 276971
663 1326977958 563556
651 1326977958 597497
723 1326977958 599544
714 1326977958 603386
647 1326977958 609270
687 1326977958 625864
650 1326977958 586944
689 1326977958 636829
687 1326977958 676187
740 1326977958 675994
576 1326977958 681727
709 1326977958 684131
848 1326977958 693781
721 1326977958 697324
985 1326977958 708189
660 1326977958 742963
579 1326977958 769026
529 1326977958 772730
642 1326977958 773824
572 1326977958 786376
587 1326977958 792883
543 1326977958 811291
649 1326977958 780518
569 1326977958 850071
634 1326977958 881812
623 1326977958 902468
641 1326977958 914878
904 1326977958 932159
1760 1326977958 640338
67354 1326977958 487361
37779 1326977958 420641
279817 1326977958 603930
544 1326977959 665005
985 1326977959 10674
575 1326977959 30086
492 1326977959 28766
924 1326977959 33647
600 1326977959 22014
572 1326977959 44195
471 1326977959 50314
642 1326977959 61619
854 1326977959 63593
630 1326977959 88420
741 1326977959 141715
492 1326977959 164325
775 1326977959 211614
825 1326977959 243877
472 1326977959 296726
699 1326977959 316086
537 1326977959 339357
630 1326977959 343183
588 1326977959 359975
689 1326977959 363100
571 1326977959 428927
607 1326977959 429331
859 1326977959 430377
721 1326977959 437486
635 1326977959 453255
568 1326977959 459785
577 1326977959 490755
574 1326977959 508805
679 1326977959 532796
739 1326977959 568096
994 1326977959 644296
825 1326977959 640960
637 1326977959 666061
678 1326977959 715939
498 1326977959 723405
681 1326977959 736445
785 1326977959 738256
524 1326977959 750382
850 1326977959 759047
717 1326977959 777625
678 1326977959 779299
508 1326977959 787230
510 1326977959 810702
706 1326977959 816561
674 1326977959 862775
547 1326977959 863293
577 1326977959 893482
524 1326977959 940981
540 1326977959 978962
594 1326977959 992721
3220 1326977959 503651
77335 1326977959 709225
53515 1326977959 732899
555 1326977960 9077
612 1326977960 40217
635 1326977960 46147
613 1326977960 85512
531 1326977960 87272
704 1326977960 138304
482 1326977960 143872
565 1326977960 229690
525 1326977960 216740
663 1326977960 244172
678 1326977960 305531
1339 1326977960 313600
661 1326977960 329523
548 1326977960 336195
674 1326977960 337711
631 1326977960 356554
656 1326977960 380588
661 1326977960 426952
563 1326977960 486375
662 1326977960 539521
765 1326977960 542058
634 1326977960 628020
1002 1326977960 629798
899 1326977960 649666
814 1326977960 652962
602 1326977960 658901
498 1326977960 673408
614 1326977960 672667
1009 1326977960 674621
862 1326977960 674600
854 1326977960 694365
731 1326977960 720814
517 1326977960 720552
548 1326977960 724665
596 1326977960 734552
653 1326977960 737181
738 1326977960 743788
769 1326977960 755454
705 1326977960 762607
495 1326977960 771468
650 1326977960 785654
557 1326977960 788260
764 1326977960 789216
558 1326977960 803247
557 1326977960 814174
612 1326977960 862130
524 1326977960 872899
809 1326977960 885663
642 1326977960 889128
665 1326977960 922839
615 1326977960 931204
778 1326977960 938746
557 1326977960 941878
1436 1326977960 985125
592 1326977960 998628
587 1326977960 883141
660 1326977960 956690
826 1326977961 17232
499 1326977961 42371
540 1326977961 45831
689 1326977961 47681
679 1326977961 44366
596 1326977961 48356
587 1326977961 62927
529 1326977961 83514
664 1326977961 140039
694 1326977961 141983
553 1326977961 171578
936 1326977961 227448
739 1326977961 231729
726 1326977961 231615
581 1326977961 263762
641 1326977961 320892
719 1326977961 338465
971 1326977961 326852
548 1326977961 396845
543 1326977961 399204
563 1326977961 400967
462 1326977961 402451
730 1326977961 420130
803 1326977961 465388
681 1326977961 481029
797 1326977961 521756
493 1326977961 531161
1486 1326977961 571622
1401 1326977961 575766
442 1326977961 601215
546 1326977961 635262
478 1326977961 640655
482 1326977961 693260
752 1326977961 701417
645 1326977961 762733
643 1326977961 772397
662 1326977961 778583
629 1326977961 784188
972 1326977961 853995
578 1326977961 869311
577 1326977961 907384
685 1326977961 910263
752 1326977961 930818
906 1326977961 953499
583 1326977961 957496
640 1326977961 982770
626 1326977961 990107
2024 1326977961 689669
599 1326977961 750436
562 1326977961 500015
46408 1326977961 907442
1622 1326977961 455423
547 1326977962 376494
546 1326977962 37657
651 1326977962 44218
564 1326977962 47256
581 1326977962 65155
561 1326977962 72533
508 1326977962 86694
598 1326977962 89001
523 1326977962 115160
972 1326977962 114424
1410 1326977962 147728
641 1326977962 188726
494 1326977962 197012
518 1326977962 242000
718 1326977962 248465
578 1326977962 310563
493 1326977962 147884
1112 1326977962 158969
727 1326977962 321835
547 1326977962 383847
713 1326977962 381605
551 1326977962 412883
819 1326977962 428166
472 1326977962 434279
562 1326977962 461823
640 1326977962 493470
625 1326977962 469479
530 1326977962 508860
545 1326977962 445835
662 1326977962 531672
987 1326977962 544452
749 1326977962 554459
643 1326977962 563469
713 1326977962 569807
615 1326977962 576645
668 1326977962 580128
441 1326977962 594629
461 1326977962 605575
543 1326977962 623091
439 1326977962 626686
587 1326977962 646311
852 1326977962 668084
675 1326977962 678622
526 1326977962 702895
1252 1326977962 765726
669 1326977962 783787
679 1326977962 796215
753 1326977962 797957
535 1326977962 867713
557 1326977962 879789
633 1326977962 886709
560 1326977962 906831
481 1326977962 941656
497 1326977962 949059
1660 1326977962 956075
1028 1326977962 968697
18940 1326977962 363278
33232 1326977962 718320
525 1326977963 291509
718 1326977963 420465
587 1326977963 5346
700 1326977963 37759
819 1326977963 127704
550 1326977963 127400
948 1326977963 175357
625 1326977963 183275
576 1326977963 210030
641 1326977963 215276
497 1326977963 267122
461 1326977963 294794
664 1326977963 318094
521 1326977963 358304
525 1326977963 361028
1369 1326977963 422039
518 1326977963 452292
957 1326977963 480032
467 1326977963 492916
524 1326977963 506568
725 1326977963 525153
590 1326977963 521852
583 1326977963 527581
1208 1326977963 443901
731 1326977963 503626
855 1326977963 555767
760 1326977963 580886
645 1326977963 521583
603 1326977963 603608
595 1326977963 638031
674 1326977963 640926
761 1326977963 592052
789 1326977963 643720
528 1326977963 669020
526 1326977963 667366
561 1326977963 705122
923 1326977963 723447
596 1326977963 725404
719 1326977963 745457
1369 1326977963 761086
506 1326977963 777645
875 1326977963 811358
560 1326977963 816016
835 1326977963 818270
535 1326977963 821111
498 1326977963 839927
1036 1326977963 843916
534 1326977963 863751
528 1326977963 866424
527 1326977963 860416
546 1326977963 883511
540 1326977963 889505
523 1326977963 887703
802 1326977963 889505
509 1326977963 895548
733 1326977963 902483
555 1326977963 926134
746 1326977963 923662
495 1326977963 955571
657 1326977963 957599
573 1326977963 974317
465 1326977963 989643
651 1326977963 998582
23354 1326977963 904504
84825 1326977963 208857
655 1326977964 233359
726 1326977964 1322
1036 1326977964 1448
466 1326977964 21561
677 1326977964 61908
698 1326977964 69977
663 1326977964 74553
713 1326977964 135343
610 1326977964 167025
585 1326977964 241781
681 1326977964 262855
633 1326977964 282552
579 1326977964 288109
558 1326977964 288539
715 1326977964 318323
599 1326977964 362693
553 1326977964 381122
796 1326977964 421817
698 1326977964 459084
543 1326977964 472916
485 1326977964 486648
639 1326977964 513406
657 1326977964 516957
564 1326977964 617662
613 1326977964 640534
538 1326977964 668942
727 1326977964 703453
526 1326977964 710136
556 1326977964 775106
768 1326977964 787013
752 1326977964 789824
645 1326977964 844669
638 1326977964 840944
884 1326977964 852648
773 1326977964 854827
842 1326977964 904809
639 1326977964 902568
715 1326977964 822468
688 1326977964 855677
590 1326977964 956240
698 1326977965 9941
783 1326977965 18417
744 1326977965 42928
656 1326977965 72942
618 1326977965 85184
642 1326977965 101632
796 1326977965 127210
737 1326977965 124677
534 1326977965 145950
558 1326977965 182961
740 1326977965 189916
648 1326977965 252834
551 1326977965 308950
639 1326977965 304789
498 1326977965 338360
602 1326977965 343763
662 1326977965 354451
712 1326977965 393826
617 1326977965 393369
493 1326977965 401645
686 1326977965 402172
630 1326977965 402900
559 1326977965 451260
692 1326977965 448016
606 1326977965 550529
629 1326977965 591831
555 1326977965 592927
500 1326977965 602055
698 1326977965 612756
821 1326977965 655447
676 1326977965 682620
936 1326977965 684479
638 1326977965 708501
676 1326977965 707830
616 1326977965 711619
533 1326977965 714836
808 1326977965 714930
827 1326977965 787662
665 1326977965 813245
477 1326977965 842195
609 1326977965 858408
556 1326977965 858460
893 1326977965 861485
476 1326977965 869368
635 1326977965 909034
598 1326977965 911945
1237 1326977965 861337
894 1326977965 929968
631 1326977965 936126
606 1326977965 964843
957 1326977965 997356
671 1326977966 297601
636 1326977966 601474
663 1326977966 721558
614 1326977966 875659
559 1326977966 39574
678 1326977966 42413
550 1326977966 50717
549 1326977966 73812
556 1326977966 88974
698 1326977966 112703
547 1326977966 121519
712 1326977966 125454
508 1326977966 135090
834 1326977966 136483
519 1326977966 154558
653 1326977966 162012
688 1326977966 225811
526 1326977966 280558
501 1326977966 283708
538 1326977966 295004
566 1326977966 311768
562 1326977966 311697
553 1326977966 339204
688 1326977966 351450
724 1326977966 357925
555 1326977966 443895
523 1326977966 517487
651 1326977966 553204
689 1326977966 604270
602 1326977966 618058
673 1326977966 662632
567 1326977966 624729
569 1326977966 667044
521 1326977966 781590
573 1326977966 833059
608 1326977966 828862
610 1326977966 833329
661 1326977966 907148
531 1326977966 940230
552 1326977966 942959
486 1326977966 973573
635 1326977966 976348
1560 1326977966 938858
20009 1326977966 276885
1786 1326977966 697579
607 1326977967 316896
492 1326977967 12331
683 1326977967 86732
709 1326977967 84960
916 1326977967 87675
838 1326977967 90363
714 1326977967 96565
857 1326977967 113892
1078 1326977967 241458
829 1326977967 377568
904 1326977967 394230
755 1326977967 395026
681 1326977967 394756
579 1326977967 428800
1660 1326977967 435823
911 1326977967 433204
578 1326977967 444206
903 1326977967 484477
555 1326977967 498951
1141 1326977967 500902
563 1326977967 532787
554 1326977967 565892
747 1326977967 566425
525 1326977967 575612
554 1326977967 575033
593 1326977967 579760
661 1326977967 604497
678 1326977967 615845
604 1326977967 629869
646 1326977967 663888
700 1326977967 704266
533 1326977967 734432
855 1326977967 758406
619 1326977967 763156
986 1326977967 775451
746 1326977967 800826
583 1326977967 832649
797 1326977967 867827
670 1326977967 883291
577 1326977967 892359
799 1326977967 790130
965 1326977967 900538
557 1326977967 917709
666 1326977967 937788
769 1326977967 963008
759 1326977967 984707
590 1326977967 999006
737 1326977967 974071
649 1326977967 946013
35345 1326977967 79365
672 1326977968 34352
520 1326977968 31790
500 1326977968 69503
618 1326977968 76086
558 1326977968 114280
1587 1326977968 91903
1439 1326977968 133512
698 1326977968 133423
550 1326977968 116918
636 1326977968 148519
953 1326977968 153412
541 1326977968 168524
484 1326977968 116620
677 1326977968 237094
953 1326977968 282094
553 1326977968 291739
531 1326977968 290700
687 1326977968 341927
664 1326977968 377681
529 1326977968 395211
1586 1326977968 416128
512 1326977968 418540
699 1326977968 442095
533 1326977968 451185
665 1326977968 448974
789 1326977968 463412
655 1326977968 474583
663 1326977968 478167
620 1326977968 521005
806 1326977968 547018
572 1326977968 551456
619 1326977968 563327
858 1326977968 566043
617 1326977968 599922
664 1326977968 605555
485 1326977968 611199
559 1326977968 647533
616 1326977968 652241
663 1326977968 655365
751 1326977968 658819
531 1326977968 661017
500 1326977968 664534
664 1326977968 675971
538 1326977968 679225
702 1326977968 679579
546 1326977968 691502
693 1326977968 695295
820 1326977968 725359
529 1326977968 738259
744 1326977968 748507
534 1326977968 757761
983 1326977968 767051
1339 1326977968 741015
1014 1326977968 817989
440 1326977968 824993
646 1326977968 835275
671 1326977968 839388
614 1326977968 850878
689 1326977968 861890
567 1326977968 865931
536 1326977968 866135
580 1326977968 895571
655 1326977968 895484
626 1326977968 898022
688 1326977968 904720
828 1326977968 923273
746 1326977968 928774
698 1326977968 933535
463 1326977968 943450
696 1326977968 945046
764 1326977968 968839
697 1326977968 990043
618 1326977968 989341
501 1326977969 2070
874 1326977969 47172
511 1326977969 63875
473 1326977969 64614
658 1326977969 90258
513 1326977969 121297
665 1326977969 132205
600 1326977969 144147
986 1326977969 151440
534 1326977969 188236
697 1326977969 201044
618 1326977969 204749
600 1326977969 304053
558 1326977969 315270
609 1326977969 325352
676 1326977969 333151
559 1326977969 353168
530 1326977969 355516
498 1326977969 404889
738 1326977969 442152
898 1326977969 458158
740 1326977969 498953
512 1326977969 506661
731 1326977969 506079
643 1326977969 528952
1367 1326977969 540804
709 1326977969 554727
1251 1326977969 594543
608 1326977969 603087
711 1326977969 496422
558 1326977969 507232
773 1326977969 619530
487 1326977969 633768
551 1326977969 234073
611 1326977969 668620
565 1326977969 707416
524 1326977969 742394
543 1326977969 759969
528 1326977969 825862
534 1326977969 835599
564 1326977969 869782
502 1326977969 904573
774 1326977969 937619
528 1326977969 948183
619 1326977969 963554
1005 1326977969 968307
658 1326977969 975918
629 1326977969 987424
485 1326977969 995986
693 1326977969 998974
597 1326977970 11149
707 1326977970 27902
469 1326977970 40127
536 1326977970 80973
808 1326977970 81759
591 1326977970 86431
633 1326977970 97154
575 1326977970 112123
648 1326977970 108555
556 1326977970 166419
656 1326977970 166908
496 1326977970 173462
694 1326977970 199309
698 1326977970 214537
552 1326977970 215000
618 1326977970 227373
610 1326977970 236187
533 1326977970 245169
909 1326977970 256554
552 1326977970 265740
618 1326977970 269726
643 1326977970 298784
565 1326977970 300495
709 1326977970 340243
778 1326977970 343196
534 1326977970 384296
624 1326977970 383610
710 1326977970 428147
721 1326977970 436828
567 1326977970 435470
592 1326977970 469616
585 1326977970 434865
642 1326977970 489841
612 1326977970 499666
1275 1326977970 502914
782 1326977970 504581
687 1326977970 536310
560 1326977970 545956
656 1326977970 569208
633 1326977970 583128
604 1326977970 582361
543 1326977970 602860
671 1326977970 608830
797 1326977970 609713
632 1326977970 620000
496 1326977970 629414
536 1326977970 684321
613 1326977970 685354
717 1326977970 684900
596 1326977970 697255
741 1326977970 705544
686 1326977970 738138
558 1326977970 747823
749 1326977970 750087
862 1326977970 760550
537 1326977970 771628
580 1326977970 786503
534 1326977970 812342
935 1326977970 811104
542 1326977970 817080
548 1326977970 817818
558 1326977970 830483
467 1326977970 838148
552 1326977970 871124
794 1326977970 922209
516 1326977970 932881
791 1326977970 962040
539 1326977970 967546
864 1326977970 974562
776 1326977970 976139
610 1326977970 995025
1231 1326977970 575417
46491 1326977970 163506
616 1326977971 50788
468 1326977971 52478
638 1326977971 73487
488 1326977971 94916
545 1326977971 100359
607 1326977971 105596
575 1326977971 138385
492 1326977971 215860
584 1326977971 230699
526 1326977971 291882
769 1326977971 314518
623 1326977971 330729
982 1326977971 385940
691 1326977971 431445
712 1326977971 233590
758 1326977971 175674
893 1326977971 137066
890 1326977971 116277
649 1326977971 529636
668 1326977971 543649
528 1326977971 656466
658 1326977971 669210
519 1326977971 784934
523 1326977971 790287
587 1326977971 817912
595 1326977971 832128
728 1326977971 863747
771 1326977971 867265
604 1326977971 875143
906 1326977971 911799
696 1326977971 938901
564 1326977971 973800
506 1326977972 1108
504 1326977972 48046
493 1326977972 54234
515 1326977972 54862
621 1326977972 63673
536 1326977972 72737
563 1326977972 80522
566 1326977972 133893
1276 1326977972 142398
626 1326977972 168773
794 1326977972 93659
660 1326977972 53558
832 1326977972 211237
604 1326977972 268146
910 1326977972 269174
580 1326977972 294021
773 1326977972 296848
621 1326977972 318040
605 1326977972 352788
617 1326977972 385959
601 1326977972 412206
708 1326977972 427816
696 1326977972 431891
545 1326977972 466105
610 1326977972 542397
529 1326977972 582281
700 1326977972 593119
619 1326977972 608957
538 1326977972 624692
732 1326977972 625224
638 1326977972 631374
486 1326977972 637342
641 1326977972 663972
697 1326977972 668482
627 1326977972 673530
647 1326977972 680028
639 1326977972 701407
506 1326977972 790540
664 1326977972 813286
509 1326977972 860681
573 1326977972 748808
583 1326977972 914485
726 1326977972 928616
561 1326977972 950515
673 1326977972 956509
651 1326977972 999660
731 1326977972 953612
841 1326977972 948726
739 1326977973 25869
515 1326977973 59448
742 1326977973 77226
947 1326977973 119440
696 1326977973 129490
592 1326977973 145465
613 1326977973 144978
518 1326977973 242178
1235 1326977973 240919
731 1326977973 256634
851 1326977973 271041
587 1326977973 278226
546 1326977973 291199
563 1326977973 362875
689 1326977973 372693
957 1326977973 402203
496 1326977973 412233
523 1326977973 427580
528 1326977973 453873
626 1326977973 461530
665 1326977973 468456
572 1326977973 472955
635 1326977973 487517
555 1326977973 501991
648 1326977973 543141
591 1326977973 584604
635 1326977973 630518
809 1326977973 634680
511 1326977973 640619
746 1326977973 672187
653 1326977973 683875
595 1326977973 688644
498 1326977973 698088
528 1326977973 728340
994 1326977973 751378
595 1326977973 762634
569 1326977973 763328
617 1326977973 768972
544 1326977973 773579
558 1326977973 796333
643 1326977973 801976
954 1326977973 813586
1277 1326977973 815704
605 1326977973 739678
734 1326977973 828911
734 1326977973 830013
553 1326977973 860219
512 1326977973 866619
928 1326977973 870258
571 1326977973 873387
536 1326977973 894243
863 1326977973 908018
523 1326977973 913086
526 1326977973 917633
577 1326977973 917100
610 1326977973 928503
594 1326977973 931670
615 1326977973 954399
610 1326977973 980290
576 1326977973 982970
655 1326977973 987581
570 1326977973 988743
724 1326977973 997209
5219 1326977973 599584
16653 1326977973 487895
13425 1326977973 6181
6498 1326977973 425015
649 1326977974 264821
731 1326977974 400701
549 1326977974 18610
719 1326977974 57272
620 1326977974 85713
532 1326977974 95650
528 1326977974 104460
705 1326977974 140116
724 1326977974 147499
529 1326977974 149748
852 1326977974 148954
627 1326977974 163452
527 1326977974 200248
993 1326977974 224300
630 1326977974 241512
693 1326977974 290090
615 1326977974 292994
1206 1326977974 346032
497 1326977974 364161
625 1326977974 372101
774 1326977974 376094
770 1326977974 388553
507 1326977974 402815
546 1326977974 410244
721 1326977974 421135
804 1326977974 468278
536 1326977974 476262
615 1326977974 480039
737 1326977974 494848
604 1326977974 535960
618 1326977974 553155
527 1326977974 568890
713 1326977974 596905
659 1326977974 616256
521 1326977974 717027
701 1326977974 746762
673 1326977974 764330
777 1326977974 773984
627 1326977974 788994
529 1326977974 816055
707 1326977974 818437
711 1326977974 822360
681 1326977974 829761
1644 1326977974 901268
791 1326977974 919653
523 1326977974 933249
1298 1326977974 977245
577 1326977974 990821
700 1326977974 999346
33591 1326977974 698530
22405 1326977974 794073
590 1326977975 104
685 1326977975 6712
648 1326977975 39463
654 1326977975 85354
558 1326977975 117427
643 1326977975 131325
804 1326977975 149197
499 1326977975 171818
739 1326977975 174474
594 1326977975 189462
696 1326977975 254837
616 1326977975 267810
746 1326977975 299989
593 1326977975 360438
529 1326977975 372843
498 1326977975 392473
641 1326977975 393715
625 1326977975 431302
611 1326977975 455453
507 1326977975 465586
515 1326977975 416400
654 1326977975 492711
684 1326977975 499177
517 1326977975 511853
623 1326977975 533582
559 1326977975 533707
522 1326977975 537751
544 1326977975 539667
686 1326977975 546154
611 1326977975 570861
504 1326977975 575460
505 1326977975 572508
700 1326977975 593054
717 1326977975 600916
519 1326977975 607480
770 1326977975 630108
522 1326977975 651712
751 1326977975 667618
617 1326977975 699822
534 1326977975 719847
638 1326977975 722584
828 1326977975 737686
564 1326977975 755268
803 1326977975 761053
601 1326977975 759642
505 1326977975 762300
860 1326977975 783850
544 1326977975 798158
574 1326977975 811250
599 1326977975 812170
596 1326977975 832730
608 1326977975 855441
696 1326977975 868900
699 1326977975 872269
568 1326977975 833030
535 1326977975 884080
688 1326977975 899305
663 1326977975 928478
881 1326977975 963867
515 1326977975 996421
13509 1326977975 991087
4137 1326977975 738729
1753 1326977975 606486
526 1326977976 176083
593 1326977976 315629
491 1326977976 8946
484 1326977976 62549
770 1326977976 109438
685 1326977976 128677
737 1326977976 142626
656 1326977976 151056
636 1326977976 158460
756 1326977976 196897
610 1326977976 232441
971 1326977976 244009
531 1326977976 248368
725 1326977976 256802
611 1326977976 257580
516 1326977976 261837
538 1326977976 301692
536 1326977976 333744
750 1326977976 352656
540 1326977976 378878
659 1326977976 387422
729 1326977976 426899
492 1326977976 424447
626 1326977976 448245
686 1326977976 466011
887 1326977976 480243
636 1326977976 486324
523 1326977976 474594
722 1326977976 499072
688 1326977976 510086
464 1326977976 512506
742 1326977976 547345
725 1326977976 555342
600 1326977976 566980
589 1326977976 567530
672 1326977976 607144
1766 1326977976 616173
551 1326977976 653834
701 1326977976 654762
532 1326977976 742121
572 1326977976 793976
647 1326977976 813243
565 1326977976 849825
642 1326977976 849610
492 1326977976 745843
1001 1326977976 919384
721 1326977976 927106
618 1326977976 959791
763 1326977976 931857
615 1326977976 970075
1274 1326977976 861891
622 1326977977 8435
654 1326977977 49425
532 1326977977 87519
562 1326977977 92099
522 1326977977 102319
523 1326977977 103476
686 1326977977 124435
492 1326977977 141324
591 1326977977 170757
608 1326977977 180343
807 1326977977 189367
524 1326977977 193978
525 1326977977 212667
1047 1326977977 210674
538 1326977977 334667
629 1326977977 435577
680 1326977977 433199
655 1326977977 443473
556 1326977977 452909
720 1326977977 466376
601 1326977977 469952
534 1326977977 474146
594 1326977977 487436
529 1326977977 504508
700 1326977977 520814
553 1326977977 525425
739 1326977977 552364
745 1326977977 551948
638 1326977977 565059
543 1326977977 572370
567 1326977977 608076
612 1326977977 648781
747 1326977977 674283
565 1326977977 691833
665 1326977977 697140
591 1326977977 761232
748 1326977977 677741
816 1326977977 706630
478 1326977977 823108
511 1326977977 846206
626 1326977977 859822
673 1326977977 892276
618 1326977977 913516
691 1326977977 932639
581 1326977977 933640
1088 1326977977 970416
631 1326977977 985115
831 1326977977 993550
709 1326977977 997467
1214 1326977977 942893
11211 1326977977 89458
2969 1326977977 443548
669 1326977978 33709
539 1326977978 48342
556 1326977978 64205
591 1326977978 62725
533 1326977978 97872
645 1326977978 130309
491 1326977978 148880
587 1326977978 158774
673 1326977978 171605
927 1326977978 170223
605 1326977978 179783
505 1326977978 184014
586 1326977978 186255
735 1326977978 211731
596 1326977978 250553
461 1326977978 284973
630 1326977978 293066
705 1326977978 307326
612 1326977978 325111
725 1326977978 393575
740 1326977978 402250
1132 1326977978 427039
1450 1326977978 433250
729 1326977978 445821
1550 1326977978 450672
2172 1326977978 509273
1828 1326977978 535858
1066 1326977978 569726
644 1326977978 571366
1060 1326977978 708548
1301 1326977978 611967
1554 1326977978 930281
1526 1326977978 883864
1307 1326977978 656385
1344 1326977978 762746
1331 1326977978 636192
1838 1326977978 704669
1372 1326977978 823770
1333 1326977978 710995
1416 1326977978 847388
1211 1326977978 759186
599 1326977978 703876
1345 1326977978 914500
540 1326977978 766518
608 1326977978 834775
604 1326977978 842394
632 1326977978 853871
1612 1326977978 812714
612 1326977978 929289
961 1326977978 958730
512 1326977978 965549
538 1326977978 980996
560 1326977978 983771
619 1326977978 985590
505 1326977978 988194
635 1326977978 982698
525 1326977978 964374
5620 1326977978 782407
34729 1326977978 936458
97556 1326977978 947356
1235 1326977979 45766
1375 1326977979 301581
1490 1326977979 508585
1297 1326977979 127623
1095 1326977979 928762
1272 1326977979 195984
544 1326977979 56955
542 1326977979 89370
740 1326977979 99021
504 1326977979 98190
566 1326977979 115252
567 1326977979 164681
640 1326977979 188256
642 1326977979 199175
546 1326977979 221897
549 1326977979 323206
552 1326977979 198132
959 1326977979 357565
639 1326977979 359323
525 1326977979 373034
621 1326977979 376993
726 1326977979 417765
529 1326977979 434144
736 1326977979 445472
628 1326977979 513930
564 1326977979 521980
677 1326977979 581490
594 1326977979 633585
676 1326977979 634439
917 1326977979 648850
559 1326977979 703429
732 1326977979 710330
582 1326977979 724276
581 1326977979 744842
698 1326977979 771499
682 1326977979 773157
507 1326977979 827874
858 1326977979 839515
497 1326977979 859824
651 1326977979 858515
535 1326977979 859763
537 1326977979 859320
543 1326977979 880101
518 1326977979 909008
761 1326977979 918994
874 1326977979 935411
727 1326977979 933235
756 1326977979 941935
654 1326977979 959201
488 1326977979 971673
17408 1326977979 968601
531 1326977979 984493
636 1326977979 993179
1944 1326977979 51579
530 1326977979 891433
4404 1326977979 196765
46326 1326977979 165473
86025 1326977979 222805
35365 1326977979 678608
22879 1326977979 856797
75584 1326977979 323740
53296 1326977979 956587
105431 1326977979 772888
62024 1326977979 712605
119402 1326977979 364833
139909 1326977979 443981
127709 1326977979 444634
58339 1326977979 640569
134401 1326977979 770800
272154 1326977979 155613
1566 1326977980 304661
1356 1326977980 407679
1214 1326977980 945374
1537 1326977980 961692
1139 1326977980 433685
1260 1326977980 538470
503 1326977980 7854
858 1326977980 30660
610 1326977980 69886
549 1326977980 98648
889 1326977980 103987
602 1326977980 113483
494 1326977980 154814
546 1326977980 175964
857 1326977980 217223
658 1326977980 243698
905 1326977980 241960
673 1326977980 261248
541 1326977980 264736
834 1326977980 334038
540 1326977980 352485
761 1326977980 328557
1034 1326977980 439805
622 1326977980 446132
552 1326977980 465006
524 1326977980 484430
701 1326977980 482615
752 1326977980 518584
533 1326977980 522484
728 1326977980 576006
552 1326977980 624805
717 1326977980 664903
664 1326977980 674699
598 1326977980 695676
567 1326977980 709151
622 1326977980 754399
791 1326977980 756914
586 1326977980 776003
594 1326977980 795918
552 1326977980 803767
573 1326977980 811192
596 1326977980 839725
721 1326977980 838934
521 1326977980 844636
637 1326977980 850115
651 1326977980 855996
673 1326977980 912005
633 1326977980 924993
565 1326977980 939204
649 1326977980 953373
581 1326977980 965928
49280 1326977980 444521
21623 1326977980 179646
18603 1326977980 102577
21016 1326977980 928862
2929 1326977980 493874
124190 1326977980 532587
604 1326977981 778
529 1326977981 17937
604 1326977981 37605
495 1326977981 38341
610 1326977981 45817
626 1326977981 48113
609 1326977981 56707
584 1326977981 93420
528 1326977981 120037
792 1326977981 124927
556 1326977981 129199
629 1326977981 104654
606 1326977981 59212
536 1326977981 223966
583 1326977981 230909
1068 1326977981 178792
521 1326977981 216301
638 1326977981 274419
984 1326977981 287621
645 1326977981 301689
623 1326977981 379796
600 1326977981 380952
747 1326977981 420000
552 1326977981 433576
642 1326977981 445673
668 1326977981 467468
766 1326977981 511767
642 1326977981 534292
563 1326977981 535411
485 1326977981 541215
1131 1326977981 567274
644 1326977981 573738
668 1326977981 592160
541 1326977981 598776
548 1326977981 611203
766 1326977981 621930
532 1326977981 637296
575 1326977981 702661
720 1326977981 804500
746 1326977981 808364
614 1326977981 812249
693 1326977981 844876
665 1326977981 880560
689 1326977981 887435
818 1326977981 815639
532 1326977981 902435
627 1326977981 925505
523 1326977981 924057
683 1326977981 931386
721 1326977981 933531
765 1326977981 965330
596 1326977981 981629
7201 1326977981 645199
24716 1326977981 543930
8945 1326977981 743871
67551 1326977981 860055
939 1326977982 9125
644 1326977982 19135
905 1326977982 38397
529 1326977982 70272
634 1326977982 77571
689 1326977982 109802
550 1326977982 127001
689 1326977982 159285
505 1326977982 176626
577 1326977982 225656
538 1326977982 226439
621 1326977982 245264
590 1326977982 252878
740 1326977982 253458
506 1326977982 255403
535 1326977982 269036
616 1326977982 271064
547 1326977982 253844
821 1326977982 190553
638 1326977982 162968
694 1326977982 154455
835 1326977982 169678
504 1326977982 313068
771 1326977982 322258
584 1326977982 332554
792 1326977982 379699
794 1326977982 383214
682 1326977982 412547
762 1326977982 430314
557 1326977982 476276
522 1326977982 567026
617 1326977982 626437
778 1326977982 652835
525 1326977982 668332
657 1326977982 686736
554 1326977982 689248
494 1326977982 710902
682 1326977982 712095
789 1326977982 733902
562 1326977982 765856
797 1326977982 779114
531 1326977982 813855
719 1326977982 817041
497 1326977982 821440
524 1326977982 852044
566 1326977982 877284
614 1326977982 878816
596 1326977982 883511
736 1326977982 910947
933 1326977982 916884
587 1326977982 925973
704 1326977982 947445
563 1326977982 946518
567 1326977982 958106
623 1326977982 964405
622 1326977982 967328
601 1326977982 967492
532 1326977982 981203
786 1326977982 983485
64117 1326977982 217680
37996 1326977982 570490
176 1326977983 594810
176 1326977983 711502
176 1326977983 714065
360 1326977983 723171
485 1326977983 725389
176 1326977983 722026
176 1326977983 727594
557 1326977983 734457
417 1326977983 738914
176 1326977983 770743
597 1326977983 783110
176 1326977983 782164
580 1326977983 794294
542 1326977983 673167
176 1326977983 800010
691 1326977983 699097
518 1326977983 697955
546 1326977983 811614
176 1326977983 813674
573 1326977983 707099
655 1326977983 705563
547 1326977983 709556
401 1326977983 825695
680 1326977983 725383
176 1326977983 844630
631 1326977983 669592
548 1326977983 670158
576 1326977983 670487
599 1326977983 671583
651 1326977983 670692
756 1326977983 670902
926 1326977983 670797
499 1326977983 672999
537 1326977983 743836
347 1326977983 857997
646 1326977983 765645
683 1326977983 697656
504 1326977983 812982
612 1326977983 540528
748 1326977983 558587
1190 1326977983 559853
641 1326977983 569935
612 1326977983 566927
615 1326977983 593126
770 1326977983 611176
636 1326977983 600073
672 1326977983 598638
1190 1326977983 620961
736 1326977983 599487
508 1326977983 632789
486 1326977983 611000
771 1326977983 641006
547 1326977983 620557
637 1326977983 646973
654 1326977983 648865
911 1326977983 628340
559 1326977983 630713
1189 1326977983 651331
609 1326977983 658843
787 1326977983 658284
929 1326977983 660887
837 1326977983 661847
707 1326977983 644124
640 1326977983 676496
670 1326977983 679049
992 1326977983 686533
535 1326977983 39338
746 1326977983 115407
610 1326977983 127425
624 1326977983 138525
542 1326977983 136792
550 1326977983 151293
578 1326977983 175293
531 1326977983 172439
533 1326977983 190087
528 1326977983 205131
823 1326977983 265412
525 1326977983 278481
746 1326977983 276149
554 1326977983 316186
574 1326977983 285796
716 1326977983 286129
1137 1326977983 673157
1408 1326977983 674039
1189 1326977983 704112
992 1326977983 710957
709 1326977983 705728
551 1326977983 720153
488 1326977983 725708
582 1326977983 726394
584 1326977983 742266
507 1326977983 749788
689 1326977983 755582
463 1326977983 758597
697 1326977983 759775
944 1326977983 760827
552 1326977983 770024
655 1326977983 785720
702 1326977983 803008
443 1326977983 799269
722 1326977983 818668
722 1326977983 836345
725 1326977983 850238
617 1326977983 848585
543 1326977983 852181
768 1326977983 855377
1058 1326977983 738785
567 1326977983 847051
707 1326977983 866043
799 1326977983 867569
536 1326977983 867335
722 1326977983 790335
652 1326977983 772977
659 1326977983 748555
680 1326977983 882539
709 1326977983 890876
611 1326977983 894534
1154 1326977983 894865
705 1326977983 895925
629 1326977983 922777
1052 1326977983 927133
1506 1326977983 926944
540 1326977983 926147
622 1326977983 934832
654 1326977983 941506
502 1326977983 949383
590 1326977983 953477
663 1326977983 953890
596 1326977983 932719
834 1326977983 976426
677 1326977983 979138
529 1326977983 997807
583 1326977983 954411
127885 1326977983 807493
678 1326977984 353194
977 1326977984 363287
643 1326977984 423234
1154 1326977984 463190
756 1326977984 463190
850 1326977984 493206
960 1326977984 493293
890 1326977984 503208
622 1326977984 523194
699 1326977984 533194
684 1326977984 543228
669 1326977984 573201
599 1326977984 573204
720 1326977984 573195
553 1326977984 583168
662 1326977984 583168
846 1326977984 583189
536 1326977984 583195
890 1326977984 593206
712 1326977984 593201
642 1326977984 603210
580 1326977984 603207
583 1326977984 603218
603 1326977984 613182
501 1326977984 623200
663 1326977984 623177
666 1326977984 623200
666 1326977984 623199
685 1326977984 623177
682 1326977984 623177
529 1326977984 633231
574 1326977984 643184
601 1326977984 643200
532 1326977984 653198
782 1326977984 653206
627 1326977984 653206
523 1326977984 653293
1644 1326977984 653197
768 1326977984 653204
669 1326977984 663167
616 1326977984 673167
1403 1326977984 673315
581 1326977984 673316
786 1326977984 683208
636 1326977984 683209
612 1326977984 683296
576 1326977984 683328
599 1326977984 683243
926 1326977984 683263
631 1326977984 683296
548 1326977984 683254
756 1326977984 683323
651 1326977984 683206
811 1326977984 815316
476 1326977984 12079
590 1326977984 26492
615 1326977984 34091
1117 1326977984 74596
795 1326977984 91706
530 1326977984 122556
772 1326977984 129889
661 1326977984 129294
738 1326977984 155600
681 1326977984 164524
729 1326977984 179315
687 1326977984 221039
721 1326977984 241612
529 1326977984 245041
606 1326977984 250255
535 1326977984 256311
622 1326977984 258320
527 1326977984 195083
531 1326977984 265798
739 1326977984 292935
705 1326977984 336479
676 1326977984 201965
790 1326977984 347872
769 1326977984 368706
648 1326977984 385779
1144 1326977984 390626
671 1326977984 413273
636 1326977984 457969
528 1326977984 464461
653 1326977984 469742
551 1326977984 541589
497 1326977984 580205
634 1326977984 651381
526 1326977984 677880
509 1326977984 667917
672 1326977984 710495
647 1326977984 753689
754 1326977984 797678
558 1326977984 806716
662 1326977984 814213
646 1326977984 857242
526 1326977984 870541
646 1326977984 925596
570 1326977984 944519
650 1326977984 967319
21112 1326977984 883959
23800 1326977984 965024
776 1326977985 20314
515 1326977985 32063
643 1326977985 33248
612 1326977985 46474
601 1326977985 62457
507 1326977985 44587
716 1326977985 55719
631 1326977985 112307
711 1326977985 118443
568 1326977985 166890
756 1326977985 116083
644 1326977985 235169
619 1326977985 244878
700 1326977985 255525
549 1326977985 278473
574 1326977985 302828
500 1326977985 328478
631 1326977985 377925
757 1326977985 382983
504 1326977985 376994
626 1326977985 453064
670 1326977985 456832
855 1326977985 466693
539 1326977985 476250
495 1326977985 512836
492 1326977985 522525
627 1326977985 572994
570 1326977985 625649
681 1326977985 636160
490 1326977985 642992
592 1326977985 645594
677 1326977985 657639
715 1326977985 661987
688 1326977985 692198
680 1326977985 698330
607 1326977985 697979
634 1326977985 721378
676 1326977985 728246
610 1326977985 806860
552 1326977985 617269
615 1326977985 852970
550 1326977985 879295
698 1326977985 888415
889 1326977985 883782
838 1326977985 988552
521 1326977985 841671
596 1326977985 651188
21783 1326977985 354385
1283 1326977985 564122
1431 1326977985 191635
100593 1326977985 567032
34387 1326977985 22529
10552 1326977985 766803
559 1326977986 26687
637 1326977986 51751
528 1326977986 69183
526 1326977986 109787
532 1326977986 133063
744 1326977986 179497
542 1326977986 188300
526 1326977986 244333
500 1326977986 249935
536 1326977986 278934
760 1326977986 331633
535 1326977986 358702
672 1326977986 364859
823 1326977986 383827
681 1326977986 432026
551 1326977986 443542
545 1326977986 513636
567 1326977986 536149
672 1326977986 545505
663 1326977986 562210
628 1326977986 581686
433 1326977986 608044
649 1326977986 637553
561 1326977986 645564
526 1326977986 569520
737 1326977986 668867
678 1326977986 696261
564 1326977986 765898
570 1326977986 782574
535 1326977986 771859
656 1326977986 796000
550 1326977986 918250
528 1326977986 949254
1074 1326977986 954742
630 1326977986 958225
609 1326977986 978839
631 1326977986 978924
789 1326977986 964276
482 1326977986 916253
2526 1326977986 837322
6079 1326977986 646657
705 1326977987 373859
713 1326977987 1345
974 1326977987 79252
556 1326977987 78932
630 1326977987 82537
548 1326977987 115901
775 1326977987 146904
1116 1326977987 160189
458 1326977987 163706
487 1326977987 164042
627 1326977987 216074
646 1326977987 245254
652 1326977987 254587
623 1326977987 271790
540 1326977987 294768
735 1326977987 299430
607 1326977987 300405
910 1326977987 304129
619 1326977987 310902
917 1326977987 331891
557 1326977987 342715
744 1326977987 339530
522 1326977987 345099
532 1326977987 356266
759 1326977987 376774
613 1326977987 391057
753 1326977987 435396
885 1326977987 504990
531 1326977987 511787
608 1326977987 546655
556 1326977987 572915
692 1326977987 637237
509 1326977987 656570
747 1326977987 734895
521 1326977987 745030
565 1326977987 751123
716 1326977987 762851
757 1326977987 846374
778 1326977987 872708
694 1326977987 879223
641 1326977987 917686
721 1326977987 924989
588 1326977987 939118
506 1326977987 986969
634 1326977987 996880
693 1326977988 745719
592 1326977988 20268
558 1326977988 22153
507 1326977988 25867
499 1326977988 34252
684 1326977988 42371
638 1326977988 81665
632 1326977988 122743
604 1326977988 141376
766 1326977988 142661
675 1326977988 143290
694 1326977988 145410
651 1326977988 171331
1436 1326977988 177450
735 1326977988 196731
698 1326977988 118454
667 1326977988 234543
886 1326977988 259633
676 1326977988 277586
655 1326977988 313414
615 1326977988 322871
716 1326977988 368753
941 1326977988 722784
664 1326977988 725035
987 1326977988 731923
622 1326977988 754992
702 1326977988 755460
788 1326977988 755796
657 1326977988 758204
513 1326977988 760026
498 1326977988 765343
676 1326977988 768479
650 1326977988 783182
646 1326977988 786816
716 1326977988 792329
896 1326977988 743296
749 1326977988 791917
571 1326977988 792760
514 1326977988 798081
647 1326977988 760783
523 1326977988 806561
786 1326977988 806835
499 1326977988 837823
534 1326977988 837480
634 1326977988 847949
764 1326977988 852662
710 1326977988 879522
1038 1326977988 894435
538 1326977988 897242
712 1326977988 897097
763 1326977988 901051
532 1326977988 901761
688 1326977988 903280
498 1326977988 908342
513 1326977988 913303
536 1326977988 914976
532 1326977988 925168
600 1326977988 925685
532 1326977988 932457
482 1326977988 935439
906 1326977988 946119
540 1326977988 940981
555 1326977988 953319
692 1326977988 956635
675 1326977988 962832
515 1326977988 923876
596 1326977988 967261
626 1326977988 967223
3651 1326977988 921913
5775 1326977988 552260
52792 1326977988 726319
680 1326977989 418
617 1326977989 6287
595 1326977989 5866
633 1326977989 7957
607 1326977989 15199
600 1326977989 19113
545 1326977989 21329
940 1326977989 23229
655 1326977989 36415
731 1326977989 40759
741 1326977989 55931
644 1326977989 64707
1241 1326977989 63688
639 1326977989 86454
503 1326977989 88384
502 1326977989 107414
466 1326977989 132891
559 1326977989 151195
848 1326977989 167010
530 1326977989 197275
604 1326977989 206670
545 1326977989 213466
551 1326977989 212085
1583 1326977989 226967
738 1326977989 248663
700 1326977989 213220
701 1326977989 275507
540 1326977989 277254
877 1326977989 295929
599 1326977989 304691
714 1326977989 323044
606 1326977989 324701
956 1326977989 358960
527 1326977989 368933
602 1326977989 381274
749 1326977989 440813
800 1326977989 498072
607 1326977989 498575
729 1326977989 560243
549 1326977989 616617
647 1326977989 673286
495 1326977989 688074
684 1326977989 728496
547 1326977989 735607
616 1326977989 736415
827 1326977989 761823
649 1326977989 786745
705 1326977989 786863
670 1326977989 795980
555 1326977989 830199
443 1326977989 830010
692 1326977989 857113
625 1326977989 876843
710 1326977989 905248
708 1326977989 933587
805 1326977989 948543
669 1326977989 970930
1421 1326977989 571626
528 1326977990 633499
530 1326977990 723117
1382 1326977990 767079
677 1326977990 829141
808 1326977990 861910
733 1326977990 7526
638 1326977990 54632
735 1326977990 54617
665 1326977990 61173
596 1326977990 68264
490 1326977990 113664
555 1326977990 145787
498 1326977990 173979
945 1326977990 199604
838 1326977990 243229
701 1326977990 270013
625 1326977990 301005
650 1326977990 316213
780 1326977990 433663
491 1326977990 302283
567 1326977990 444094
667 1326977990 467004
743 1326977990 472128
906 1326977990 509548
559 1326977990 507435
682 1326977990 512778
996 1326977990 545185
704 1326977990 511071
793 1326977990 553455
642 1326977990 553876
542 1326977990 535338
699 1326977990 569807
625 1326977990 585518
622 1326977990 582955
616 1326977990 615440
593 1326977990 681243
579 1326977990 688891
612 1326977990 703242
624 1326977990 710802
1667 1326977990 709345
918 1326977990 727925
722 1326977990 758620
661 1326977990 756429
733 1326977990 771552
701 1326977990 837891
510 1326977990 838560
571 1326977990 877663
913 1326977990 867771
677 1326977990 844902
836 1326977990 918636
988 1326977990 888863
583 1326977990 939364
679 1326977990 970093
906 1326977990 973865
499 1326977990 984999
595 1326977990 986433
3996 1326977990 990382
538 1326977991 6741
563 1326977991 22607
535 1326977991 38745
556 1326977991 67333
680 1326977991 15544
482 1326977991 71912
701 1326977991 80465
673 1326977991 163452
614 1326977991 175557
1382 1326977991 206700
784 1326977991 212701
843 1326977991 231734
722 1326977991 250866
890 1326977991 255490
737 1326977991 267320
831 1326977991 269659
673 1326977991 303225
492 1326977991 306174
840 1326977991 331927
672 1326977991 371899
1342 1326977991 373359
497 1326977991 380692
535 1326977991 406651
684 1326977991 426774
709 1326977991 437264
491 1326977991 441307
631 1326977991 499814
533 1326977991 519981
614 1326977991 526324
524 1326977991 590350
536 1326977991 609517
670 1326977991 622367
781 1326977991 625025
739 1326977991 636981
647 1326977991 644827
622 1326977991 670132
956 1326977991 696439
597 1326977991 710083
570 1326977991 713078
696 1326977991 725191
769 1326977991 724242
663 1326977991 730884
538 1326977991 732311
1130 1326977991 748923
548 1326977991 798971
875 1326977991 816956
738 1326977991 882549
783 1326977991 914655
935 1326977991 965680
722 1326977991 994862
556 1326977991 962316
5207 1326977991 264484
641 1326977992 15301
683 1326977992 31270
568 1326977992 78349
633 1326977992 97541
660 1326977992 126484
537 1326977992 141557
618 1326977992 175364
769 1326977992 190508
686 1326977992 205989
560 1326977992 221194
616 1326977992 258294
682 1326977992 298162
687 1326977992 305584
802 1326977992 334588
680 1326977992 340464
650 1326977992 359782
596 1326977992 367674
535 1326977992 367463
651 1326977992 386284
714 1326977992 427161
577 1326977992 452452
641 1326977992 492845
559 1326977992 509082
911 1326977992 531952
659 1326977992 582846
543 1326977992 590313
634 1326977992 597392
595 1326977992 626247
731 1326977992 645978
727 1326977992 671447
711 1326977992 707378
721 1326977992 645053
598 1326977992 776350
751 1326977992 775962
764 1326977992 783920
660 1326977992 794870
753 1326977992 817923
964 1326977992 852850
616 1326977992 860209
853 1326977992 870215
587 1326977992 933398
590 1326977992 946157
538 1326977992 972092
2060 1326977992 698449
1224 1326977992 71090
785 1326977993 23616
560 1326977993 29169
673 1326977993 31622
726 1326977993 53295
656 1326977993 68045
661 1326977993 72607
903 1326977993 72290
680 1326977993 80928
560 1326977993 98659
547 1326977993 111883
676 1326977993 131255
681 1326977993 156125
699 1326977993 154831
522 1326977993 218529
811 1326977993 220419
531 1326977993 106532
618 1326977993 237075
588 1326977993 258041
561 1326977993 283291
668 1326977993 329512
463 1326977993 335841
763 1326977993 351626
683 1326977993 383930
700 1326977993 397112
586 1326977993 395002
899 1326977993 420882
695 1326977993 763297
632 1326977993 819961
551 1326977993 862283
898 1326977993 829002
1108 1326977993 863122
692 1326977993 863407
530 1326977993 905623
560 1326977993 919584
592 1326977993 923959
532 1326977993 925485
829 1326977993 930163
1070 1326977993 962617
691 1326977993 962630
781 1326977993 966608
638 1326977993 970775
642 1326977993 972789
560 1326977993 977829
906 1326977993 981282
1107 1326977993 980132
557 1326977993 983881
1394 1326977993 954073
816 1326977993 981876
605 1326977993 991647
2404 1326977993 975022
1016 1326977993 853489
1979 1326977993 353921
8453 1326977993 802622
698 1326977994 1654
795 1326977994 3850
857 1326977994 5559
512 1326977994 20286
608 1326977994 25574
612 1326977994 28391
646 1326977994 55922
529 1326977994 71152
532 1326977994 68905
455 1326977994 73294
690 1326977994 74640
870 1326977994 77343
597 1326977994 76102
560 1326977994 82015
700 1326977994 78873
538 1326977994 81772
528 1326977994 85746
546 1326977994 92179
506 1326977994 104651
623 1326977994 110200
741 1326977994 135026
606 1326977994 86164
587 1326977994 47110
642 1326977994 148482
615 1326977994 180267
528 1326977994 184544
528 1326977994 203586
1500 1326977994 209294
736 1326977994 208711
652 1326977994 235645
622 1326977994 275077
828 1326977994 227642
633 1326977994 267400
705 1326977994 195877
702 1326977994 202648
850 1326977994 289820
532 1326977994 297184
506 1326977994 302667
795 1326977994 313589
739 1326977994 335353
607 1326977994 337709
632 1326977994 392376
601 1326977994 388435
568 1326977994 444932
543 1326977994 445629
641 1326977994 391685
523 1326977994 460022
657 1326977994 486279
569 1326977994 519653
846 1326977994 555011
1078 1326977994 564373
820 1326977994 527577
658 1326977994 500417
687 1326977994 616900
562 1326977994 655429
613 1326977994 664554
614 1326977994 669393
700 1326977994 763363
943 1326977994 849630
628 1326977994 856391
653 1326977994 864586
598 1326977994 886683
761 1326977994 902182
592 1326977994 915571
700 1326977994 946754
492 1326977994 977244
763 1326977995 540545
957 1326977995 824065
669 1326977995 313252
603 1326977995 393461
538 1326977995 75115
715 1326977995 42846
888 1326977995 458523
756 1326977995 64606
594 1326977995 994933
522 1326977995 75568
713 1326977995 637730
607 1326977995 631887
904 1326977995 362259
594 1326977995 244543
654 1326977995 959275
674 1326977995 688794
1014 1326977995 533470
614 1326977995 88592
2130 1326977995 794587
558 1326977995 896467
505 1326977995 23894
712 1326977995 136927
665 1326977995 962630
608 1326977995 999597
911 1326977995 617193
509 1326977995 848147
695 1326977995 637217
535 1326977995 510537
700 1326977995 74223
496 1326977995 751189
549 1326977995 216521
546 1326977995 811598
656 1326977995 605034
616 1326977995 115238
627 1326977995 39727
840 1326977995 970879
532 1326977995 701733
891 1326977995 591472
589 1326977995 93116
612 1326977995 210486
596 1326977995 131928
554 1326977995 957474
582 1326977995 610088
570 1326977995 184456
693 1326977995 728944
963 1326977995 205666
778 1326977996 894086
493 1326977996 549638
733 1326977996 292635
1023 1326977996 68367
565 1326977996 17028
529 1326977996 226911
787 1326977996 982434
540 1326977996 612088
685 1326977996 363980
733 1326977996 126125
595 1326977996 17336
810 1326977996 676532
629 1326977996 53544
529 1326977996 920222
810 1326977996 563137
465 1326977996 795228
773 1326977996 616389
443 1326977996 408219
725 1326977996 805119
898 1326977996 472472
541 1326977996 793573
570 1326977996 140603
573 1326977996 194786
699 1326977996 208461
538 1326977996 206382
684 1326977996 628557
443 1326977996 417366
733 1326977996 18004
693 1326977996 753643
555 1326977996 843208
676 1326977996 545249
795 1326977996 249251
628 1326977996 207508
654 1326977996 535106
530 1326977996 225641
555 1326977996 30250
753 1326977996 711999
709 1326977996 471013
592 1326977996 179294
805 1326977996 19861
1104 1326977996 214605
624 1326977997 824896
625 1326977997 692436
505 1326977997 339020
648 1326977997 467332
478 1326977997 847732
595 1326977997 710199
693 1326977997 346694
554 1326977997 424080
576 1326977997 872216
546 1326977997 154871
554 1326977997 519751
776 1326977997 421254
627 1326977997 754075
649 1326977997 527865
515 1326977997 159257
634 1326977997 964706
585 1326977997 457437
880 1326977997 99039
600 1326977997 876943
597 1326977997 710840
562 1326977997 363213
652 1326977997 41782
1437 1326977997 749889
562 1326977997 333465
546 1326977997 101468
721 1326977997 892379
461 1326977997 933259
617 1326977997 633835
519 1326977997 998737
484 1326977997 820649
616 1326977997 634722
519 1326977997 187840
701 1326977997 89532
719 1326977997 85353
629 1326977997 980643
579 1326977997 768545
647 1326977997 611610
528 1326977997 170054
622 1326977997 816364
565 1326977997 448155
699 1326977997 194039
621 1326977997 904832
961 1326977997 977201
655 1326977997 720642
658 1326977997 370077
686 1326977997 158378
578 1326977997 832481
721 1326977997 941258
855 1326977998 994140
644 1326977998 906384
645 1326977998 451089
874 1326977998 272427
681 1326977998 69446
933 1326977998 966885
524 1326977998 246899
502 1326977998 926008
726 1326977998 457720
943 1326977998 273448
609 1326977998 162779
602 1326977998 193946
623 1326977998 287725
534 1326977998 985770
908 1326977998 879795
804 1326977998 60486
678 1326977998 962088
498 1326977998 860442
732 1326977998 315248
850 1326977998 911016
660 1326977998 3061
800 1326977998 937608
686 1326977998 178162
729 1326977998 205047
609 1326977998 14335
550 1326977998 972438
853 1326977998 980067
700 1326977998 448049
645 1326977998 209118
854 1326977998 452997
822 1326977998 265094
672 1326977998 904862
669 1326977998 969842
523 1326977998 866007
524 1326977998 442256
496 1326977998 207952
677 1326977998 104857
511 1326977998 32646
647 1326977998 810775
631 1326977998 836887
582 1326977998 292482
504 1326977998 896713
901 1326977998 840345
486 1326977998 264534
575 1326977998 956886
953 1326977998 714233
557 1326977998 279343
1705 1326977998 201746
669 1326977998 746017
580 1326977998 878991
546 1326977998 258021
546 1326977999 962561
491 1326977999 706460
645 1326977999 585310
634 1326977999 366530
709 1326977999 283265
585 1326977999 235270
505 1326977999 461261
581 1326977999 34146
683 1326977999 55970
565 1326977999 223261
772 1326977999 974712
1312 1326977999 911134
706 1326977999 905478
558 1326977999 823536
601 1326977999 790800
552 1326977999 491705
503 1326977999 296161
515 1326977999 239606
681 1326977999 136816
555 1326977999 46462
551 1326977999 926717
710 1326977999 14739
575 1326977999 317226
581 1326977999 782870
646 1326977999 360181
550 1326977999 260355
554 1326977999 526196
800 1326977999 81999
607 1326977999 16103
592 1326977999 178069
551 1326977999 553587
551 1326977999 142595
1015 1326977999 124840
542 1326977999 954545
529 1326977999 84514
593 1326977999 153061
444 1326977999 522248
568 1326977999 224839
714 1326977999 778004
611 1326977999 526466
682 1326977999 345064
563 1326977999 247962
681 1326977999 176054
610 1326977999 258915
604 1326977999 1087
615 1326977999 900270
554 1326977999 840069
706 1326977999 498719
525 1326977999 53068
654 1326977999 192462
568 1326977999 499465
568 1326977999 332532
520 1326977999 196081
844 1326977999 112636
496 1326977999 31132
644 1326977999 433113
671 1326977999 470854
554 1326977999 85388
861 1326977999 492211
633 1326977999 63168
620 1326977999 807592
609 1326977999 362074
627 1326977999 261734
851 1326977999 187544
714 1326977999 107912
644 1326977999 16110
525 1326977999 263367
554 1326977999 292867
987 1326977999 262815
720 1326977999 687088
611 1326977999 614977
636 1326977999 355322
651 1326977999 254171
807 1326977999 182930
663 1326977999 68556
444 1326977999 5180
592 1326977999 425813
665 1326977999 299646
533 1326977999 661588
684 1326977999 103314
629 1326977999 226071
709 1326977999 601015
708 1326977999 793409
